35107
35109
35110
35112
35114
35119
35121
35125
35129
35130
104655
104660
60052
60056
60061
60063
60066
39444
39449
39452
39454
39460
39463
112412
112414
112418
112422
112424
112427
112428
112429
112431
112439
112442
112444
112446
112449
112600
112605
112609
112612
112617
90806
90809
90816
90817
90821
90824
105561
105564
105566
105568
105570
105575
105582
114129
114132
114134
114136
114138
114139
114140
114141
114144
114148
114152
114153
114157
110946
110948
110950
110951
110953
110955
110960
110963
110976
110977
110979
110983
110985
20981
20982
20985
20986
20990
20991
20992
20995
20997
20999
21005
21006
21010
21011
113583
113588
113592
82926
82929
82933
82934
82937
82938
82940
82945
82952
82955
82958
82959
82968
38579
38583
38585
38589
38590
38591
38595
38597
73338
73339
96283
96284
96291
96293
96295
96296
96298
96299
96303
96305
68159
68161
68163
68165
68169
68171
68172
68176
68179
68182
68184
68186
68188
68190
68192
35247
35251
35253
35255
35260
35263
35265
35268
35269
35270
112040
112045
112049
112051
66328
66332
66350
66352
66360
66362
66367
66368
66371
66383
66385
66388
66391
63210
63212
63214
63215
98228
98229
98230
98232
98233
98234
114746
114749
114750
114756
114761
114763
579
582
583
585
587
86809
86810
86811
86814
86815
16743
16746
16749
16752
16753
16754
16758
16762
16769
16770
42541
42544
42547
42550
42551
42553
42555
42558
42559
42561
42563
42565
46335
46337
46341
46343
46344
46349
46352
46354
46355
46356
42107
42114
42118
42120
42123
42125
42127
58854
58857
58861
58864
58866
58868
58871
58873
58877
58879
58884
61663
61665
61667
61671
61672
61677
61680
94973
94978
94980
94983
94993
94997
94999
95003
39649
39652
39655
39658
39660
39663
39665
39667
39669
39671
39674
39675
39676
53644
53646
10759
10763
10766
10768
10771
10775
10777
109396
109399
109401
109406
109409
109415
57695
57696
57699
57701
57706
57710
57714
57717
57721
107549
107553
107555
107558
107560
107563
107564
107567
107569
107570
71462
71471
71474
71477
71483
71488
71497
71500
71514
71519
71522
71525
71528
71531
71534
71537
71540
71545
71548
71553
71557
71563
71565
90080
90088
90091
90095
90096
90097
90100
90102
90105
90109
90111
90113
90114
90117
90118
90120
29445
29447
29543
29547
58754
58763
58765
58768
58775
58776
58778
58781
58784
58791
107757
107759
107761
107767
107770
107778
107779
107788
107790
107792
106099
106101
106104
106106
106111
106114
106117
106123
106126
106129
106133
106134
20473
20474
20478
20481
20482
20484
20486
20489
20493
20494
20499
20503
20504
84401
84402
84403
84406
84407
114278
114282
112288
112289
112290
112293
112295
11460
11462
11464
53838
53839
53842
53844
53846
53847
53852
53859
53861
53867
53868
53870
53871
53877
53878
109921
109922
109923
109927
109929
109934
109936
109939
109942
109943
109947
109949
17222
17224
17226
17229
17231
17236
17238
17240
51258
51260
51263
51265
51269
51276
28256
28267
28269
28272
28275
3039
3041
70508
70511
70512
70516
70517
70519
70523
70527
70528
70534
70536
70537
96149
96150
96151
96152
60005
60007
60009
60018
60021
60024
60025
60026
9830
9831
9835
9837
9840
9843
97558
97559
1651
1654
1660
1665
1666
1671
1674
1687
1690
89338
89339
4361
4362
4364
4368
4373
4375
4380
93463
93464
93465
93473
93476
93480
93481
93484
93487
93491
93494
93497
107313
107316
107319
107325
107327
113426
113427
113428
113429
113433
27898
27899
27900
27903
27904
27905
27908
27911
27913
27915
65917
65918
65920
65923
65927
65929
67063
67066
67069
67071
67074
67077
67080
67082
67087
67090
67092
67095
107123
107127
107135
107138
107140
108272
108275
108280
108281
108283
108288
108289
108290
73814
73818
73820
73823
73826
73829
73831
73833
73837
19823
19825
19827
106304
106306
106308
106311
106318
106322
106323
106325
106326
106327
106328
106333
106337
106339
106344
106348
106351
106353
106355
106358
106359
31915
31920
31922
31923
31924
31926
31928
31929
84301
84302
84303
84305
84306
84307
84308
84311
84312
48451
48452
48453
48458
48461
48464
48468
48471
48475
48479
48482
48483
48485
48492
109040
109044
109046
109048
109050
109052
109054
109058
109061
109067
109075
109081
109084
109086
106882
106885
106886
106892
106894
106896
106901
106902
106903
106905
106907
106908
106909
106916
106917
92815
92816
92817
92819
92820
92821
92824
92825
92826
26727
26730
26734
26737
26738
26742
26747
26750
26752
26755
26756
26759
26762
95710
95712
95713
95714
95716
95720
95723
95725
95727
95728
113597
113598
113602
100773
100775
100777
100779
100785
100787
100790
100792
100795
100796
100799
100801
100803
100804
100805
100810
100812
100813
100815
100817
100819
100821
6465
6468
6475
6476
6477
6479
6481
6482
6486
6488
6491
6494
6497
29072
29074
56272
56278
56283
56286
56288
56296
56300
56301
56306
56308
56309
56313
56315
56318
56324
112341
112344
112345
112353
112357
112363
112367
112370
112373
112375
113395
113396
113400
108294
108296
108299
108303
108304
108305
108308
108310
14487
14492
14495
14500
14505
76010
76014
76021
76023
6119
6122
6124
6128
6133
6138
6139
36462
36466
36468
36473
36474
36475
36478
2840
2846
2851
18231
18237
18240
18246
18248
18249
18250
18253
18255
18257
18259
18261
4220
4221
4222
4229
4230
4237
4238
4240
4241
59086
59087
59089
59091
59094
59095
59098
59099
72420
72421
72422
72423
72425
72428
72429
72434
72442
114022
114026
114027
114028
114032
22472
22480
22485
22486
22491
22492
22497
22498
22500
116774
116777
116779
116781
116784
116786
33479
33485
33486
33487
33490
33491
6274
6276
6277
6279
6286
6287
6291
6294
6300
6301
6302
6304
6308
6310
6312
6315
27468
27478
27481
27485
27486
27490
27494
27495
27497
27500
27504
27506
27509
27510
27511
27512
107460
107464
107465
107467
107468
107469
107470
107475
107479
107481
24860
24862
24865
24866
24868
24878
24879
107082
107087
107088
107089
107091
107093
107094
107098
61867
61869
61871
61874
61876
61880
61881
61882
61886
61891
61892
112964
112966
112968
112971
112976
112979
112982
112988
112989
112994
29505
29508
29511
29513
29515
29518
29523
29524
29528
29530
29532
29536
29538
29541
49013
49015
49022
49027
49028
49033
49036
49041
109604
109607
109612
109613
109615
109622
109623
109624
109625
110405
110407
110409
110414
110416
52912
52915
52919
52922
36189
36192
36195
36200
36202
36204
36210
36212
36215
36220
36221
19491
19494
19495
19499
19504
19510
11583
11588
11599
113995
113996
114000
107359
107362
107364
107367
104523
104525
104527
104531
104533
104536
104538
104543
104545
104548
104550
10531
10533
10536
10539
10548
104555
104557
104560
104563
104565
104570
104573
104575
113604
113606
113608
113611
113617
113619
113620
113621
113625
814
819
822
823
825
829
830
833
835
838
841
844
845
106766
106769
106774
106775
106779
106781
106782
106783
106790
106791
44397
44399
44402
44405
44409
44417
44423
44424
44426
22032
22035
22037
22038
22040
22041
22044
22049
22050
6499
6500
6504
6508
6509
6513
6514
29579
29582
29583
29585
29597
29603
29605
39485
39488
39491
39494
39501
39502
39504
39507
39510
92755
92756
92757
92759
92760
92761
4176
4178
4180
4182
4184
4186
111851
111853
111860
111868
111870
111879
111881
111887
111888
52000
52001
52005
52007
52009
52012
52015
28965
28970
28973
28976
28978
28980
28981
28987
28988
55736
55740
55745
55752
55754
55757
55759
42762
42765
42768
42772
42776
42778
42780
42782
42783
42786
57456
57459
57463
57467
57469
57472
57475
73956
73959
73963
73965
73967
73970
105356
105361
105371
105374
105378
105381
105386
105388
105390
105394
105396
104442
104446
104451
104455
104457
104459
104463
104469
47503
47506
47509
47513
47514
47517
47518
47519
47520
47523
47530
47540
47542
47546
47551
47553
29263
29264
29266
29267
29269
29273
29275
29277
29279
29282
29286
29289
29290
29293
29295
8039
8042
8045
8048
8052
8054
8057
8059
8061
89153
89154
36699
36701
36709
36713
36715
36716
36718
22783
22792
22798
22804
22808
22810
22813
22814
22816
62493
62501
62506
62509
62511
62514
62516
62520
62521
62522
107060
107063
107065
107067
107072
107075
107076
107077
26961
26962
26969
26971
26972
26973
26980
26983
26987
108473
108474
108476
108481
108483
108488
70182
70185
70191
70193
70197
70199
70202
70204
70207
70210
70212
70214
70215
70216
70219
70222
70230
70231
70235
70239
70241
70243
70246
70248
70253
45475
45476
45477
45482
45486
45489
45490
45492
45498
45501
45503
45506
103518
103521
103523
103526
103527
103528
103531
103532
103542
103544
103547
100273
100277
100281
100286
100289
100292
100294
100296
100298
100301
100304
70367
70369
70370
70371
70372
70373
70374
70375
70378
70379
70380
70381
70385
70386
70387
33324
33327
33330
33332
33334
33336
33339
33345
33350
33352
33355
33357
87089
87090
87091
87093
87094
87095
87581
87582
87583
87585
87586
87587
56804
56807
56810
57279
57281
57282
57283
57287
57289
57291
57293
57295
57299
57305
57308
57311
57312
28589
28591
28593
27108
27109
27110
27113
27116
27119
27124
27128
27130
27132
27134
27139
84646
84647
84648
84650
84651
84652
28792
28797
28799
28800
28803
28806
28809
28812
23131
23133
23134
23137
23139
23142
23144
23145
23146
23147
119100
119105
119108
119110
119117
119119
119122
119123
119126
119130
119132
11428
11432
11435
11440
11444
11449
11451
11453
11457
57531
57532
57533
57534
57537
57540
57545
57548
57549
57552
57553
92936
92939
92941
92946
92947
92949
92950
92952
92954
92957
92963
92965
92969
92970
92972
92976
92978
92983
92984
92986
75670
75672
75673
75676
75677
75679
75688
75689
75692
19276
19278
19280
111796
111797
111798
111799
111801
111806
111810
111811
111813
111815
111820
111824
28310
28311
28312
28317
28319
28324
28326
28327
107103
107107
107111
107115
107116
107117
35600
35601
35612
35614
35618
35620
35621
35622
35624
35626
114854
114857
114863
114865
114867
114870
114872
114873
114877
114881
114883
114888
114890
114891
114893
88530
88531
88118
88119
19236
19238
19242
520
522
524
525
528
532
533
535
538
541
544
547
87525
87526
28098
28102
28106
28109
28112
28115
28116
60119
60121
60122
60125
60128
60133
60136
60139
60142
60143
2208
2211
2215
2220
2226
2228
2231
90293
90296
90308
90313
90315
90317
90322
90323
90324
90325
90327
90328
90334
90338
90341
90342
90344
90346
90349
90351
19156
19159
19160
19165
19166
19167
19172
19180
19182
111061
111064
111065
111068
111070
111074
111077
111080
111084
111087
111091
111094
24654
24657
24660
24664
24667
24670
24673
30646
30648
30654
30655
30658
30661
30667
30669
37414
37417
37418
37422
37426
37429
37431
37434
37437
37439
37443
65872
65875
65877
65883
65889
65890
65899
107226
107229
107231
107235
107236
107242
107253
107257
38367
38368
38369
38371
38373
38374
38376
38379
38381
38383
38385
38390
38393
38394
38397
113462
113465
113467
113472
106451
106456
106460
106462
57385
57387
94884
94885
94886
94888
94889
94890
109705
109707
109709
109716
109717
109719
67933
67935
67937
67939
67947
67954
67956
67959
67960
67963
67965
67970
3071
3073
89010
89011
106137
106142
106146
106148
106154
106155
106157
106160
106162
49186
49189
49199
49200
49208
49209
16659
16660
16661
16664
16665
16669
16674
16676
16679
16684
16686
103466
103469
103471
103475
103478
103480
103481
103486
103488
103489
103491
103493
103494
103232
103235
103237
103240
103242
103245
103248
103250
103255
103256
103260
103262
103263
66752
66754
66760
66763
66765
66768
66773
66779
40315
40318
40319
40323
40324
40325
40327
40328
40331
40332
40333
50583
50594
50599
50601
50603
101205
101206
101207
101209
101210
101211
42803
42805
42806
42809
42813
42822
82865
82869
82871
82872
82875
82878
82879
82882
82885
82887
82890
82894
82896
64779
64780
64784
64787
64790
64793
64794
64795
64799
64803
64804
64805
64807
64809
108963
108965
108967
108968
108975
108976
108978
108983
108986
108989
108990
108992
108994
108996
110121
110123
110128
110129
110133
110136
110138
110141
110143
110145
110149
110151
110154
96385
96387
96390
96391
96394
96396
96401
96403
21167
21170
21172
21176
21178
21180
21183
21185
21189
21191
21193
61579
61582
61583
61584
61587
61588
88566
88567
88569
88572
88574
88576
88578
88583
88584
88586
88588
88592
88595
88601
88602
88605
14402
14405
14411
14415
14421
14423
94283
94284
78341
78342
78344
78345
78346
78347
78350
78354
78357
78358
78359
78362
78368
78369
78371
78375
78378
78379
78382
78383
78385
78386
78387
78389
8754
8760
8762
8765
8768
8773
8775
8778
8781
8784
8787
8790
8793
14659
14661
14662
14664
14670
14671
14675
7065
7068
7072
7078
7080
7084
7085
7086
73939
73940
73941
73943
73945
73946
73947
73948
73950
73951
73952
111786
111787
111791
84462
84464
84468
84470
84472
84478
84479
84482
84485
84488
84491
84492
84498
128543
128546
128547
128549
128551
128553
106949
106951
106953
106958
106960
106964
106966
106969
106970
106971
106976
106980
35081
35083
35085
35089
35090
35092
35094
35095
111376
111378
111380
111381
111388
111392
111394
105694
105698
105700
105703
105708
105713
105719
54451
54453
54455
38682
38685
38687
38690
38692
38694
48336
48340
48342
48344
48346
48349
48351
48352
48355
48359
48363
48365
48367
48373
48376
48378
29014
29015
29019
29020
29026
29030
29032
29035
29039
29041
87677
87678
87679
87682
87683
87684
18782
18786
18787
18790
18794
18801
18804
18807
18809
37659
37661
89325
89326
89327
89329
89333
89334
113639
113641
113643
113644
113649
113652
113656
113660
77092
77095
77097
77099
77104
29654
29658
29659
29661
29663
29666
29667
29669
29677
29682
29684
29687
29688
17614
17618
17621
17623
17628
17634
17636
17639
17643
17646
17648
17649
110446
110450
110454
110458
107172
107173
107174
107179
107181
27260
27264
27266
27269
27270
27272
27273
27278
27281
27283
27284
27285
27286
90029
90033
90035
90037
90038
90041
90042
90044
90047
90049
90050
90053
90059
90071
90074
90078
39725
39729
39732
39737
39741
39742
39745
39746
39747
114504
114507
114513
114517
114519
114521
114531
114533
63789
63794
63798
63801
63803
63805
63807
114074
114076
114081
114083
114086
114088
114091
33070
33072
33073
33074
33078
33083
33086
33091
33095
33102
33105
33108
33113
40071
40077
40079
73840
73843
73846
73851
73852
73853
73857
41452
41453
41454
41457
41460
41461
41464
41466
41468
6190
6193
6195
6199
14238
14239
14240
14241
14245
14247
14249
14254
14259
14261
14444
14446
72355
72357
72358
72359
72361
72362
72363
72364
72366
72367
72368
44688
44692
44694
44696
44698
44701
44707
44709
44715
44718
44721
44723
43442
43444
43448
43450
43453
43455
43457
3138
3140
113291
113294
113295
113298
113303
22101
22102
22106
22112
22113
22115
22125
22128
22130
22132
50796
50805
50811
50814
72867
72868
13193
13194
13197
13200
13201
13203
13206
13208
41870
41877
41881
41885
114766
114771
114776
114779
114781
114783
103885
103886
103887
103890
103891
103892
103893
17242
17243
17247
17248
17254
17256
17259
17261
17263
61784
61786
61788
61792
61796
61802
61803
61806
61809
92589
92592
92600
92604
92606
92607
92609
92612
92613
92614
92617
92620
92622
113946
113949
113950
113953
113958
6018
6019
6020
6021
6024
6028
6030
6033
6035
110156
110158
110161
110164
110167
110171
110172
110173
110178
110181
110184
110186
110187
110190
110196
110200
110208
44427
44431
44436
44437
44440
44443
44445
44450
44454
44459
114190
114195
114199
106811
106814
106816
106822
106824
24884
24888
24891
24892
24894
24901
24903
24907
24912
51254
51256
21044
21050
21052
21055
21057
21059
21061
21064
21072
21074
21076
21079
21080
92199
92202
92205
92208
92209
92211
92217
92220
92223
92229
92232
92234
