5040
3185
5000
1356
1253
4563
3912
902
5189
3184
5018
2781
414
355
2478
911
674
5326
1954
4480
3887
2802
2464
2312
1405
981
4125
150
5155
1730
2593
857
5080
5330
3687
3234
5576
3559
5177
1030
2245
5398
1591
161
1105
1563
5170
493
1526
490
5241
2586
1703
4212
4632
4068
5027
2870
2340
610
4016
3966
4483
141
1750
2421
823
2774
3850
5130
3255
1423
2480
5135
4428
1714
2116
5329
5168
3094
3981
5046
2456
4102
420
5134
571
3426
5176
5246
3506
2017
3108
5062
5244
4565
1530
144
5248
494
2102
5031
2325
5396
2417
521
5264
3747
1692
3886
5257
1359
597
2785
5221
5364
2383
3631
5353
4275
5314
1854
894
4179
5100
2970
2979
3448
5143
4400
2027
1704
5298
957
2983
3361
1668
5071
3246
4470
3509
587
786
4108
4391
5032
5160
3132
5406
1040
5390
1607
1363
3778
1624
5165
5132
5150
4036
3853
1421
4615
1707
2850
2437
2446
627
1473
922
1615
3852
2942
2997
5094
4387
5351
4423
2270
1018
5011
4295
2481
5161
2327
5157
1899
5301
5202
412
3788
5073
2540
1189
5063
1202
1486
5109
1790
2582
1851
5095
356
2857
5367
5180
1842
95
3916
5287
1583
4203
3304
3392
5281
5012
10
2748
335
1751
5233
2566
5400
2945
819
1369
5312
5045
1827
183
523
4347
1268
5290
1006
3452
210
3128
5318
5205
5182
2447
464
5238
975
5397
327
5022
1451
5418
947
2877
4561
3820
5127
5050
5203
3933
2559
5008
4598
2487
2003
3563
1185
3083
72
5231
3280
3906
1431
1153
3781
195
5260
5271
2613
137
1807
4173
5218
3335
821
5042
2933
5308
667
2898
5139
