138
5216
1916
1630
5023
4593
3719
4490
5033
1895
3295
171
5235
4284
2265
5171
5286
5181
1067
5152
1779
806
3986
3704
2339
148
1923
1612
5422
2675
2387
105
5401
2879
3360
4266
5348
3929
5247
5227
1456
533
2420
4174
5389
23
4213
5154
5092
5373
4111
1254
1077
5297
3082
5075
188
5055
140
4020
35
4204
2953
3498
5341
5921
844
3711
5282
5178
954
5265
1003
3595
1914
2070
2518
2460
5209
1200
3275
1713
4308
3048
2547
5275
5007
563
5118
5294
2640
2792
4107
2581
5252
5188
1652
5352
2633
5405
5029
5380
2436
198
5119
2807
3421
5256
4241
2165
3151
3233
2155
650
2634
865
3919
5200
1017
36
936
5128
34
5131
5120
2994
5030
5125
5192
2936
5225
5236
3093
4596
5368
4269
5090
799
5204
5251
3023
2893
5081
1483
4437
600
3025
2833
2885
1367
437
5419
5190
1759
5087
2704
5325
4385
5174
1078
212
1793
1667
2952
2283
3974
5051
4427
3310
2575
1929
143
895
5019
3973
5141
2251
5158
5333
5402
2754
5115
3861
2572
5228
5403
5226
2637
5254
5413
3377
3328
3895
1862
2246
373
5067
1462
4394
5210
2308
5316
5196
1484
5153
2493
4288
475
298
4484
4341
4116
1771
5017
1618
3416
5124
3330
4242
5415
5335
906
4378
4147
5056
5309
3327
2874
4557
1260
1171
3110
4051
5293
3756
4150
5229
675
2315
5303
511
2458
5334
3703
5054
1574
4350
1315
78
326
3577
5302
5215
3908
4590
4413
3952
2139
2743
3732
1669
5306
350
1279
3902
5372
4135
5191
5230
4106
5240
5242
1065
287
2161
5289
1797
2976
4148
1266
1045
2078
4176
5414
4230
5354
4244
2197
3783
5001
5079
5328
508
1640
5163
5021
2574
2119
1752
2988
46
1430
3712
3798
4189
807
5266
1094
1523
5169
1628
2348
50
5138
831
3733
1489
5350
5014
1091
5009
5126
2274
1322
1581
410
4560
5058
2476
1471
3322
5107
3998
5347
4265
1562
3941
5133
2829
565
5137
4444
5408
2600
5122
4381
5387
5395
1558
207
1784
389
5028
83
2630
985
2560
5779
4517
1271
5280
1104
3942
5362
56
5332
3514
2695
541
5208
3393
3466
5083
4136
285
3992
4333
2156
1472
2522
1989
4589
2050
5259
2628
3029
3983
1273
5112
1579
1166
2571
5016
2453
5142
5261
3544
1250
1794
2790
5151
3626
5278
556
1160
5219
5185
3150
4287
1769
3585
2591
2941
899
3708
835
2862
5217
443
5166
1739
1614
2332
5057
5104
4278
2669
2504
3046
589
4152
5038
86
5059
2542
5331
2121
820
5212
1474
5065
1012
5093
4326
1580
5245
5047
3387
3423
480
2300
2415
5365
4491
88
2643
5345
133
5262
3893
5270
5268
5105
4311
4466
5064
4398
4112
1272
974
5136
2365
3129
5253
5337
1114
2995
5416
552
80
1468
1452
5024
4627
2940
3076
2801
1571
17
5343
5371
570
5102
3765
5159
3386
145
955
5267
5288
4310
2883
4117
2412
5321
1100
5049
1138
5383
52
2219
621
3988
5370
5423
3355
1773
3897
655
5685
1650
2280
2951
5186
139
1537
3074
1507
1858
5002
3336
867
60
853
3884
5323
1167
5234
3199
1884
469
5232
2010
1553
1348
5363
5184
5285
2113
5313
5025
3679
5088
3311
2700
2561
5114
5140
5320
3825
3294
1996
3503
5276
1089
5394
1546
3087
643
1635
4140
5381
2904
77
2895
5391
4196
477
1311
2921
5339
2005
119
3244
5194
3764
5037
5085
92
3900
2671
5393
4256
3320
2974
1959
5129
3943
958
2969
5250
5206
5417
2254
5283
2111
5311
5249
5074
131
5336
5077
5020
3485
5201
5420
5315
5327
5411
5164
1274
5375
630
2986
4220
4293
1076
5263
5015
5307
940
3472
5117
5340
5082
5111
5193
5198
1326
3196
953
4161
1233
1214
281
5317
516
1204
1642
5144
1004
517
5162
582
276
3085
665
4519
1674
173
2596
79
3787
5004
1905
5070
5300
110
2328
966
4463
3283
2960
924
5295
2944
2323
3804
3056
2958
510
5069
1567
5223
1965
3225
1191
913
543
5269
1755
1877
4618
2939
623
70
2448
1336
5034
470
5279
147
4614
5310
417
5366
4250
5149
1952
1073
2314
1098
3501
135
5197
3766
4019
5183
1946
134
5378
2798
4372
1505
2604
2363
4122
4450
142
4232
2160
361
3801
3348
2998
2120
2521
1491
5041
4099
4188
3153
1671
1885
5172
5445
1210
3800
5384
2741
372
1875
4207
2467
1465
3061
4153
1079
2386
1918
132
5167
1443
2508
5272
5052
2459
3011
554
5066
3790
5421
2977
5342
5404
3109
3245
1694
1029
1389
5304
1037
5369
3362
4316
5039
1257
5291
2580
3881
1943
3950
341
2946
5035
4255
2293
5053
5076
5258
5407
489
4485
268
1950
1013
3321
1402
983
5145
5355
1060
178
5324
3226
3791
1188
3482
5110
1360
5211
1440
5121
5146
4566
3284
1445
5026
5514
5237
2602
607
1159
5078
5220
5319
27
5044
5376
5361
2154
129
2159
1220
5013
989
3200
2608
5386
561
5359
2306
3643
1117
3749
2782
868
1069
3782
1269
2393
1864
5179
59
2660
