{
  "models": [
    {
      "layers":[
        {
          "ltype":"Dense",
          "act_func": "relu",
          "n_hidden": 128
        },
        {
          "ltype":"Dense",
          "act_func":"softmax"
        }

      ],
      "learning_rate": 0.06,
      "patience": 15,
      "gradient_method": "adagrad",
      "batch_size": 1,
      "momentum": 0.9,
      "epsilon": 0.000001,
      "rho": 0.000001,
      "measurement": "acc",
      "average": "macro",
      "weighted_examples": true
    },
    {
      "layers":[
        {
          "ltype":"Dense",
          "act_func": "relu",
          "n_hidden": 128
        },
        {
          "ltype":"Dense",
          "act_func":"softmax"
        }

      ],
      "learning_rate": 0.06,
      "patience": 15,
      "gradient_method": "adagrad",
      "batch_size": 100,
      "momentum": 0.9,
      "epsilon": 0.000001,
      "rho": 0.000001,
      "measurement": "acc",
      "average": "macro",
      "weighted_examples": true
    },
    {
      "layers":[
        {
          "ltype":"Dense",
          "act_func": "relu",
          "n_hidden": 32
        },
        {
          "ltype":"Dense",
          "act_func":"softmax"
        }
      ],
      "learning_rate": 0.06,
      "patience": 15,
      "gradient_method": "adagrad",
      "batch_size": 100,
      "momentum": 0.9,
      "epsilon": 0.000001,
      "rho": 0.000001,
      "measurement": "acc",
      "average": "macro",
      "weighted_examples": true
    },

    {
      "layers":[
        {
          "ltype":"Dense",
          "act_func": "relu",
          "n_hidden": 32
        },
        {
          "ltype":"Dense",
          "act_func":"softmax"
        }
      ],
      "learning_rate": 0.06,
      "patience": 15,
      "gradient_method": "adagrad",
      "batch_size": 100,
      "momentum": 0.9,
      "epsilon": 0.000001,
      "rho": 0.000001,
      "measurement": "acc",
      "average": "macro",
      "weighted_examples": true
    }
  ]
}
