1649	1244	1192
732	980	548
523	106	117
823	146	378
2931	2981	751
674	803	991
656	1008	460
1770	1175	1107
573	842	663
1102	1610	571
523	1461	117
575	573	587
1501	1164	1119
1198	1588	1049
1919	2160	1298
2362	131	836
390	974	104
2023	1403	538
1081	1196	1141
124	669	622
573	842	778
590	135	73
2362	3256	836
1638	1978	1139
2867	3182	195
2572	2571	722
1877	688	922
1495	2126	583
2362	3256	399
843	181	1103
699	573	215
3044	2981	730
434	916	169
784	291	71
573	698	783
823	474	1293
3066	3067	254
2069	1346	693
1274	1715	890
272	691	90
1797	1327	37
906	803	151
698	225	663
662	675	628
978	356	939
277	582	94
98	950	970
2211	1708	55
669	803	622
277	656	818
800	708	383
1839	1835	343
2143	2144	695
1039	1175	1147
87	798	399
2214	3259	10
388	651	542
52	471	995
1421	433	1071
273	517	91
1647	1884	763
664	658	626
390	468	1198
205	651	507
699	573	238
2196	2210	790
2204	2912	803
2213	2475	539
461	2362	18
3261	3264	1094
800	641	160
275	204	92
3226	2969	960
461	2362	331
2984	2985	634
1919	1189	516
1407	1733	122
2023	1928	538
800	168	947
1461	1465	117
1455	1274	428
1771	2124	971
573	550	238
1051	1169	281
1186	1946	180
457	148	810
675	77	992
180	647	498
656	509	500
267	89	391
1858	1967	569
2815	2816	772
662	329	358
1563	1322	1255
124	669	945
754	196	513
267	153	999
275	204	585
85	744	244
1929	2023	538
1072	1745	741
310	162	1148
906	733	1144
2197	3280	335
567	153	1212
1807	1187	1192
980	751	1157
399	821	376
1039	1770	972
573	181	778
106	181	503
363	972	1029
826	322	375
1072	1745	122
525	972	113
145	1003	278
760	721	1201
875	2430	1162
2160	2176	1064
3021	2534	318
698	225	650
180	647	552
769	1877	482
1707	1225	469
89	1282	391
2136	1195	122
106	181	93
906	1970	640
1675	1483	845
1014	1428	1153
3037	2502	230
100	724	729
279	2465	96
433	434	172
277	582	424
647	1283	498
1014	1546	1153
518	526	114
573	842	587
792	189	550
498	146	735
2539	2310	310
291	164	71
1169	2097	14
2313	3150	434
3115	2240	665
1730	1718	1140
2208	2633	807
2225	2780	1098
616	3206	369
1373	1905	191
645	272	90
275	204	358
1656	1423	419
3261	3262	1092
3132	3131	1284
700	106	387
699	572	247
2170	1171	280
2502	3181	1257
1455	1274	405
1647	1321	1032
2961	2405	815
1741	1283	742
273	104	91
2015	1034	353
1085	2159	74
373	1008	374
1647	1886	290
1	784	71
1771	1772	617
1649	1244	769
823	146	735
483	52	81
2988	2731	877
1025	1528	1072
700	669	387
1546	1428	557
1919	2152	516
483	52	995
448	257	886
2084	2083	307
2211	1708	1185
910	447	414
1728	1515	139
906	1232	999
3021	937	855
1198	1588	253
2053	2073	431
388	435	542
2864	2865	190
1772	1771	971
1607	1605	935
23	669	622
3277	2451	477
1461	1782	117
41	412	629
523	1461	572
2813	2540	1161
548	573	649
273	311	399
3298	2880	491
2502	2862	1257
2362	131	399
906	769	151
2001	1846	1007
1367	2044	515
647	733	498
1176	2174	32
448	257	717
1039	1770	1147
401	403	351
434	916	172
1658	1738	1280
1565	1566	1258
917	662	970
1968	1014	564
700	756	387
2833	3162	440
699	701	650
1658	1738	1141
2023	1403	720
1920	1722	880
1274	1455	890
573	181	587
1407	1081	812
585	241	1112
737	321	817
2136	2142	122
917	275	358
52	598	1275
1298	1014	1282
980	886	1283
1658	1081	264
699	698	649
1852	3010	452
662	836	358
354	422	576
585	241	1198
906	89	391
823	419	378
2211	1708	508
442	2666	133
2186	2540	591
1367	1728	639
769	666	922
269	669	708
3211	2971	843
106	181	792
1447	1378	1245
430	733	1144
573	842	650
700	747	235
356	357	1275
461	2362	836
662	675	592
573	550	783
1868	1867	914
1051	1169	632
700	843	387
754	560	1162
1943	1051	281
30	819	156
700	106	146
548	573	681
2652	2575	1143
877	1490	39
1546	1428	1153
669	803	650
1407	1659	413
1407	1734	122
843	181	503
3023	2225	260
1817	1728	639
2265	2224	702
1407	1733	977
1	515	776
732	980	244
2259	2738	1022
350	575	649
2739	2409	870
1919	2152	445
744	980	232
26	656	460
277	108	94
548	698	663
276	154	93
1710	2073	1068
1638	1319	679
1460	1105	224
1867	2168	844
457	148	650
2439	2466	782
699	575	215
674	803	151
1709	819	20
3213	3214	1138
1421	2700	799
1733	1658	412
1030	1101	867
906	674	945
858	346	21
26	656	818
3263	1824	687
1643	1285	766
1877	688	312
310	162	712
373	1008	460
674	803	236
610	3163	282
2143	2144	696
1169	874	281
1546	81	1282
1422	1766	615
2614	2606	1078
572	698	650
1081	1584	412
433	916	1071
518	526	457
699	575	238
647	733	1144
1968	1014	118
700	756	1160
1407	1738	1280
461	3157	836
2652	2995	1301
647	2151	552
1	784	762
1879	1685	612
2737	2179	876
277	108	140
701	698	387
2136	1195	1232
1986	1072	1141
1728	2098	894
1919	2176	516
3081	2666	509
2161	1969	565
906	769	625
350	575	430
267	89	300
3052	2271	598
573	181	650
1176	279	711
1695	1811	266
1728	2098	515
662	314	358
1996	1998	220
3115	2240	303
1372	1079	974
755	803	945
291	253	71
1169	2107	143
2056	2057	1246
754	196	1162
1	784	1046
1730	1718	408
1986	1072	1203
1925	1276	285
575	311	650
2233	2541	1207
823	145	378
531	880	103
1693	1594	268
2088	2087	306
2107	1752	871
3109	2518	925
433	434	1071
1544	1327	643
2313	3150	60
1546	81	398
273	517	465
1407	1733	1141
1967	1549	1051
638	328	832
291	253	265
1858	578	1051
906	2671	999
1607	1605	936
2441	2426	127
575	550	587
3258	2415	774
662	98	358
573	698	681
111	585	1043
1034	2015	353
1953	1113	364
2020	1399	536
388	651	170
582	581	426
1705	1286	304
273	104	399
291	164	762
980	751	1036
575	698	649
6	98	199
356	357	939
2502	3181	1234
1	784	265
518	674	457
675	73	358
689	842	215
699	572	649
52	357	1275
2064	1049	451
1462	1244	668
1728	1515	894
1524	1168	47
847	171	1100
461	3157	797
674	803	999
1551	1236	126
1917	1423	801
699	550	238
554	674	945
658	657	626
98	6	199
2069	1346	363
3289	3288	519
567	803	1166
917	662	579
442	1532	133
656	509	337
389	677	994
1539	1249	1224
1595	1594	1168
2129	1245	910
376	631	486
1383	1890	4
698	225	93
1169	874	143
1876	1617	944
699	698	430
1551	1236	154
296	237	66
573	698	649
1	691	644
1278	2044	150
267	733	1144
6	950	199
461	2362	399
675	73	992
1484	2117	541
1049	1029	451
699	575	711
2122	1965	567
1868	1867	8
1175	1426	1147
3096	3098	924
267	906	999
1658	1738	412
1675	1483	389
732	167	1283
2023	1403	1003
1367	1728	139
30	794	156
656	509	818
877	733	1144
1293	1855	1058
1051	1169	871
654	226	502
1048	1128	813
575	311	587
1658	1081	122
754	875	1095
354	165	576
917	275	92
3088	3110	559
1733	1658	78
3157	3160	797
87	273	91
1692	1816	267
1461	1062	117
616	3218	1143
2143	2145	410
1447	1378	354
1437	1435	446
823	880	546
906	89	300
2049	1778	159
2132	2130	229
1638	1978	931
645	272	644
738	321	98
3258	2415	9
1080	1932	1090
523	1465	661
1135	1423	432
2492	2224	1012
36	93	157
2102	2103	868
1919	2176	1064
928	148	810
202	1495	583
430	306	1088
1407	1733	741
2070	2069	363
267	906	724
52	471	1209
1733	1986	1141
41	412	425
3142	2674	1113
1986	1072	122
52	356	995
290	733	1144
2362	3256	18
269	669	945
699	572	430
30	794	1270
557	2267	123
917	814	358
1790	2364	36
1372	2141	202
1868	1867	844
1298	1014	398
36	93	212
350	575	503
2345	2457	475
2659	1532	321
2988	531	546
2023	1928	719
2652	915	323
609	239	616
910	447	1073
699	573	503
3126	2484	651
267	906	1105
2107	1752	143
1047	1903	193
1563	1322	1254
1558	1559	1023
658	657	510
700	701	388
1569	1227	593
661	41	629
823	145	278
373	656	818
106	181	146
2325	3075	973
1407	2136	122
52	598	1048
2777	2776	1152
2712	2439	782
1176	2174	276
433	916	172
1085	2159	356
2023	1928	720
794	819	1270
823	145	464
1593	1594	621
1638	1978	307
2811	2526	558
2690	2688	198
3261	3264	1089
980	886	232
483	52	1209
2574	2966	227
1943	1051	898
2204	2912	31
902	903	149
575	573	649
2084	1638	679
1080	1824	687
1595	1593	1168
656	1008	94
111	585	1112
2938	2939	745
1207	1607	1243
2161	1969	171
273	104	147
1817	1728	854
2362	131	331
1039	1175	277
1968	1014	1153
1169	2097	13
2313	3150	435
917	662	87
3096	3183	908
2233	2541	102
100	724	265
2487	2584	829
483	52	939
461	1007	461
1877	688	482
106	181	117
2984	2985	112
1231	2098	639
1525	1169	871
2988	531	103
3132	3131	190
1495	2126	43
390	585	1112
2652	2995	323
585	241	423
2084	1638	1139
3037	2502	1234
917	6	358
699	572	779
1638	1182	1139
838	836	728
1693	1594	1168
609	598	616
575	573	783
1709	819	56
2487	2584	415
877	1490	897
1081	1196	122
461	3157	436
3086	2211	55
647	1896	1228
548	573	663
1187	1649	769
906	2671	1109
1	112	1219
1231	1515	129
1030	1249	920
605	60	381
664	21	761
267	153	1212
800	366	736
267	906	312
68	106	503
2985	2455	634
906	769	999
863	91	210
864	858	196
518	674	991
1175	1426	972
1770	1175	972
419	1003	464
548	160	681
1017	2139	1083
698	225	387
87	461	797
1867	2168	8
754	161	850
2811	2526	141
573	698	430
461	3160	836
662	675	358
2944	2483	652
1013	2032	124
1522	3256	18
2712	2466	670
30	819	20
1616	1038	814
277	656	94
23	669	387
1461	1062	572
1344	1882	293
2001	1846	885
306	237	173
698	225	778
1800	1808	1287
363	972	740
1620	1189	1190
744	980	1157
699	669	945
2265	2224	259
796	2383	646
573	181	663
1943	1051	14
98	950	199
906	1970	151
1186	1946	1191
1733	1658	122
523	154	1215
2833	3162	795
1729	1730	408
548	573	778
2405	2961	954
26	656	337
605	60	1100
390	585	1198
2197	3280	1037
2081	1705	52
2102	2103	142
3298	2880	187
906	674	151
572	235	650
674	840	236
802	755	946
1458	1233	131
1525	1169	898
2213	2475	1031
548	698	430
52	356	938
575	573	238
545	546	660
1525	1169	143
1407	1716	342
2737	2179	1188
6	950	970
483	698	649
796	2383	402
656	1008	374
1817	1728	139
597	161	850
180	647	165
1484	2117	395
2377	2966	633
1407	2136	1232
906	769	312
124	548	215
1460	1105	1142
2225	2780	110
638	326	832
700	106	503
2323	2606	1078
738	737	98
648	198	168
3017	2239	602
1752	2107	871
1595	1593	26
2212	2327	1299
87	1007	461
89	1282	151
2020	1401	536
1649	1244	668
1407	1081	78
575	573	215
863	1969	531
2707	2446	128
1447	1448	1245
3021	937	111
506	733	1144
1858	1967	654
461	3160	797
124	548	238
461	1007	836
906	688	151
573	842	681
700	23	945
1080	1228	79
1278	2044	380
276	106	93
1461	1141	117
917	401	358
705	752	1149
1544	1327	1033
442	1532	760
978	517	465
2107	1752	14
3213	3214	1133
575	311	783
1919	2152	831
448	94	214
1462	1649	769
572	698	649
3142	2674	533
2539	2310	61
3276	2411	710
3052	2271	447
1733	1986	1203
276	698	93
2712	3245	319
1771	1772	799
1852	3010	1056
1014	1546	118
917	6	199
669	803	708
2740	2708	673
3245	2439	368
1728	1515	515
699	181	503
518	674	1105
699	573	650
1996	1998	221
664	859	626
1781	1289	305
388	650	542
1884	1886	763
1	100	144
590	141	1125
1546	81	557
2107	1752	281
1367	2044	150
267	906	922
1407	1734	889
699	575	503
863	733	531
267	906	151
1770	1175	1147
89	153	391
1407	1081	264
1081	1584	1141
1014	1546	1282
270	81	398
647	550	238
700	311	387
356	357	995
3068	3066	254
657	167	626
430	306	173
3096	3183	366
2712	2466	319
662	192	358
484	356	939
732	980	1036
616	3206	283
484	52	1275
1169	2107	272
350	575	587
2439	2466	319
518	674	945
554	674	236
2502	3181	976
356	357	938
823	474	378
1658	1584	1141
3292	2319	194
484	598	1275
1421	1771	617
1718	1888	289
1647	1321	763
700	99	206
2222	2666	261
98	6	628
1733	1658	1141
3227	3228	543
267	906	991
373	108	374
2984	2455	112
1407	1733	412
1135	1423	801
1013	2032	906
267	906	430
3289	3288	518
1647	1886	763
2734	2350	1204
877	733	897
609	168	842
2740	2708	1151
906	2279	999
1919	2095	516
124	311	711
1800	1808	44
669	803	387
87	461	824
269	669	622
87	273	147
1462	1244	164
917	401	349
399	821	1230
3068	3066	245
1031	1245	822
277	902	148
2572	2571	454
1014	1546	564
1407	1733	834
2706	2865	677
350	575	238
1447	1448	1259
864	858	714
2985	2455	112
273	311	91
597	161	494
674	840	457
698	225	587
689	842	311
407	790	336
1081	1196	264
918	326	577
2608	2609	1079
1169	2107	281
590	135	334
267	89	1212
662	98	207
1929	1928	719
180	1076	975
754	875	1162
1658	1081	812
918	151	1210
1705	1286	517
906	2671	151
277	581	426
3044	2981	108
699	457	650
1080	1932	79
180	647	1144
2712	2439	670
267	906	945
698	225	999
25	407	336
1733	1986	122
1867	2168	914
2931	2981	108
705	564	1149
484	52	939
647	1283	299
145	1003	464
2712	2439	319
647	733	165
1474	1571	313
661	876	896
124	548	778
2379	2683	203
3126	2486	647
928	148	921
674	803	945
2186	2540	24
662	329	628
1175	1426	277
290	733	70
2222	2666	731
674	840	1105
980	886	1036
573	550	778
662	204	628
1967	1549	654
98	950	358
1968	1014	398
1547	1548	653
356	357	499
6	950	207
906	1232	724
1407	1734	1203
1949	1826	12
918	326	30
2143	2145	696
3044	3112	730
1581	2044	809
2191	3146	1009
272	691	644
3157	3160	63
1081	1584	78
3189	3190	1294
1695	1811	669
794	819	156
3245	2439	782
2081	1334	304
906	674	991
1407	1716	122
1047	1522	605
700	701	387
906	769	922
430	306	248
3277	2451	716
980	238	400
1943	1051	871
1534	711	288
554	674	991
545	15	528
389	250	794
2782	2393	1054
1729	1730	767
847	605	381
272	691	163
2213	2475	1183
354	422	51
980	751	1283
769	666	999
3088	3110	505
699	573	778
700	99	387
2734	2350	874
1176	1386	276
1718	1888	767
87	461	331
902	903	148
1784	1472	309
85	744	1157
1656	1423	801
1710	2073	403
3072	2270	448
2070	2069	693
3262	3264	1092
1638	1319	1139
350	575	711
2938	2939	744
1072	1745	977
2607	2608	1087
1080	1228	480
1595	1594	26
1	691	265
111	585	423
906	688	312
1839	1835	768
1169	2097	632
3292	2319	964
2070	2069	1104
582	581	94
917	662	592
1048	1614	813
1175	1426	1107
662	329	579
823	419	704
2815	2816	545
1883	2102	292
575	573	430
505	160	46
483	52	938
610	3163	209
267	906	625
1587	1588	1049
701	698	649
723	722	2
1649	1244	164
699	181	650
863	733	1144
3150	3151	60
661	876	629
755	803	946
1919	2095	631
52	357	938
1421	1771	525
3021	2534	111
582	581	424
1025	1528	1126
2492	2224	259
276	698	430
1643	1285	294
353	2584	942
699	457	810
970	1708	501
3023	2225	110
656	509	94
2652	2575	453
1750	1236	274
647	2151	165
573	550	587
1080	1824	79
484	52	938
1051	1169	14
52	517	995
864	858	21
1616	1615	953
2932	2498	749
510	341	462
980	238	232
918	151	30
276	106	146
732	980	1283
2813	2540	591
1807	1187	769
1733	1658	812
1668	1327	65
2696	2213	1183
701	698	430
1638	1182	307
1374	1153	350
430	1722	880
1943	1051	632
1	416	265
2864	3132	1223
2617	2615	176
573	181	681
918	328	30
700	154	1215
647	550	165
1169	874	14
401	403	349
2575	3218	323
124	548	503
2170	1171	1063
557	2267	237
802	803	946
2824	2611	179
484	517	1275
3062	3063	241
1718	1888	1140
1589	1236	802
1705	1286	52
1784	1472	1231
2777	2776	1131
267	733	999
2782	2393	1075
2932	2498	990
575	573	503
2152	1434	516
700	154	387
3226	2969	934
732	980	1157
662	675	992
1177	1898	1225
1383	1890	1229
523	1461	620
1518	1269	5
23	669	341
567	771	1047
802	755	945
2184	2678	1115
980	238	1036
1772	2124	971
573	698	650
52	356	939
1546	1428	564
2696	2213	1031
410	192	422
675	77	588
1231	1515	139
669	803	341
718	181	503
1733	1986	741
1051	1169	272
2184	3157	436
1817	1728	894
87	461	399
1761	1855	614
2605	2767	1077
267	906	482
700	23	622
1458	1551	1004
279	2465	276
2020	1401	683
1179	1872	984
2088	2087	295
1017	2139	121
68	106	146
647	1896	165
484	526	1275
1692	1816	893
484	52	81
89	153	1212
906	769	482
390	937	1198
2807	2808	1106
2170	1134	721
353	354	942
1501	1071	523
3109	2518	864
1048	1128	72
858	346	714
1781	1289	1146
2778	3089	504
573	550	650
277	902	94
858	346	196
2212	2327	1184
609	239	228
1462	2006	668
1658	1081	412
700	669	945
87	273	711
2972	2418	594
2131	2130	1237
2405	2961	815
1658	1081	78
2056	2057	495
2605	2767	746
3262	3264	1089
656	509	374
2107	1752	13
484	52	1048
3254	3253	17
98	950	207
3044	3112	553
350	575	783
1525	1169	272
3126	2486	651
180	647	1228
510	341	23
430	1722	173
3066	3067	245
1718	1888	408
1534	711	162
52	517	1275
1839	1837	339
800	168	842
389	677	757
3245	2439	319
906	674	1105
906	89	999
657	167	560
1986	1351	1141
1455	1274	890
1177	1898	275
1730	1718	767
661	41	607
1771	2124	799
906	1970	999
87	273	399
554	674	1105
354	165	942
1733	1986	977
388	650	170
1525	1169	632
2049	1778	978
2706	2865	233
3076	2450	478
928	457	921
2243	2666	226
435	388	507
917	662	628
2944	2483	1024
754	228	1162
769	666	151
3031	2305	1276
353	354	51
1044	2166	1194
1421	433	169
2988	2731	103
2696	2213	539
2614	2606	177
435	388	170
1558	1559	1010
2136	1195	7
419	1003	704
699	701	388
572	698	779
609	168	616
390	585	423
917	662	723
1772	2124	525
376	516	466
3306	2655	396
3072	2270	1169
484	356	1275
689	181	503
1546	1428	118
89	1282	300
1407	2136	7
1919	2160	516
1707	1244	164
276	698	649
388	651	507
1462	1649	668
1072	1745	1203
1879	2073	418
638	151	1210
575	573	650
2081	1705	517
1734	1745	122
1489	1873	484
3157	3160	436
1620	1189	219
2362	3256	824
87	627	471
794	819	20
1658	1584	122
647	2151	498
483	52	1048
754	875	899
755	803	204
371	1338	928
1274	1455	428
638	151	832
573	181	503
267	89	999
87	461	436
744	980	400
1986	1351	741
518	311	711
124	548	430
1051	1169	143
657	167	510
698	225	779
1647	422	51
917	6	207
3157	3160	399
1298	1014	557
303	747	1085
1876	1989	481
1565	1566	85
353	354	847
350	575	215
699	575	783
698	225	117
87	798	411
1031	1245	910
291	253	1046
523	1461	1266
1461	1782	572
515	384	265
373	656	374
1179	1872	483
1638	1319	307
769	1877	922
906	698	151
638	328	578
3263	1824	1091
718	181	33
52	356	1275
675	73	592
6	950	628
573	698	663
291	164	265
1221	1200	1221
202	2126	532
525	972	1029
373	195	80
89	1282	999
1524	1168	1220
2325	3075	1172
291	253	762
906	733	151
1587	1588	811
2081	1334	1002
744	980	548
1967	1549	569
572	698	430
376	516	379
738	737	817
575	550	783
1943	1051	143
1044	2166	929
2778	3089	1118
1372	1079	348
1051	1169	898
917	662	199
2084	2083	302
573	842	783
1293	1855	574
483	698	995
410	192	87
700	517	465
46	752	1156
1772	1771	617
732	167	848
906	2279	151
906	674	999
1695	1811	895
1771	2124	617
1525	1169	13
1274	1715	405
52	598	81
461	3157	399
273	311	711
279	2465	826
1729	1730	289
674	840	991
917	814	28
3150	3151	435
1221	1076	975
3086	2211	1185
434	916	799
3062	3061	242
1461	1141	620
2158	1232	355
2313	3149	60
2502	2862	1234
2830	2934	747
2084	1370	307
1707	1244	54
350	575	778
2379	2683	459
523	698	117
448	94	717
1274	1715	428
575	698	587
1883	2102	142
645	272	163
1518	1269	256
401	403	358
738	737	982
434	916	1071
306	237	1088
1421	1771	799
389	250	757
291	164	846
442	2666	731
701	698	388
89	153	151
548	573	430
273	517	399
2988	531	1081
98	6	358
928	457	365
1221	1076	472
2107	1752	272
85	744	232
1920	1722	526
52	517	1048
769	1877	312
1589	1236	126
917	662	992
1081	1196	412
2243	2666	731
1187	1649	1192
1884	1886	290
1437	1435	205
1461	1465	572
1990	1515	139
1014	1428	118
1187	1649	164
523	698	430
3132	3131	1223
700	698	430
1421	433	172
1049	1029	608
124	669	681
662	192	628
3281	2331	659
2608	2609	1087
2864	3132	1284
614	956	437
2519	2847	957
662	98	970
1877	688	151
1176	279	276
662	98	199
674	840	151
647	1896	498
390	937	855
802	755	204
1407	1733	1203
2695	2506	1253
1770	1175	277
87	461	836
2323	2606	967
2765	3225	932
700	669	622
2136	2142	697
1929	2023	1003
2617	2619	184
6	98	358
384	515	583
906	688	999
202	384	583
1081	1196	78
277	656	500
658	657	560
2064	1049	1195
296	733	66
1986	1072	741
2607	2608	1086
384	515	776
1595	1593	621
906	89	1212
1839	1837	343
1638	1182	417
737	321	982
353	2584	829
573	698	587
548	160	663
545	15	660
87	273	465
25	128	682
1728	2098	639
863	1969	565
46	752	980
906	733	999
202	1495	43
2313	3149	556
85	744	400
3157	3160	836
3261	3262	1089
699	669	622
2184	2678	63
548	573	503
2020	1399	1066
279	311	711
1547	1548	642
616	3218	283
1030	1249	821
698	225	783
1949	1826	688
2765	3225	137
647	1283	165
98	950	628
461	2362	824
515	384	753
847	171	488
980	238	1283
87	1007	399
2519	2847	865
674	840	999
1044	1829	1194
698	225	151
371	1338	372
1169	2097	143
1039	1175	1107
3151	3150	435
442	775	580
700	907	387
1647	422	763
674	803	457
2158	1232	724
2711	2762	636
700	156	387
917	662	358
980	886	548
792	189	404
180	1283	498
1014	1428	564
906	1232	151
1658	1081	1141
744	980	244
699	572	650
2824	2611	95
1772	2124	799
1811	1316	266
483	52	465
1	100	729
384	515	753
2607	2608	1079
1169	874	13
1658	1738	122
1014	1428	557
124	548	681
738	321	982
3062	3063	240
41	412	607
1546	81	118
662	675	588
2712	3245	368
1072	1745	1141
705	752	1156
1102	1442	1250
658	657	848
354	422	942
3037	2502	976
699	698	650
1771	2124	525
3037	2502	1257
1772	2124	617
573	550	681
2812	2227	208
431	733	174
1407	1081	122
531	880	546
700	517	387
1044	1829	685
906	803	945
769	1877	151
3086	2211	508
2069	1346	1104
1407	2136	697
1501	1164	523
548	698	681
2575	3218	1143
2377	2966	1121
1489	1873	397
2690	2688	773
545	546	658
1734	1745	1203
769	666	625
106	181	387
1729	1730	1140
461	1007	399
698	225	995
1081	1584	812
1730	1718	289
823	418	703
457	148	921
1367	1728	854
2152	1434	831
23	669	945
1797	1327	1033
664	658	848
484	52	1209
699	457	365
498	146	332
124	548	649
638	326	577
1649	1244	49
662	204	585
3230	3231	562
1750	1236	126
2184	3157	797
180	1283	299
354	165	847
698	225	388
1461	1465	661
1495	2126	532
523	106	146
2136	2142	1232
1917	1423	524
656	1008	337
675	77	628
277	581	94
1207	1605	1243
431	733	1144
1581	2044	150
754	228	1174
1807	1187	164
1616	1038	566
3306	2655	328
1990	1515	217
1546	1428	1282
656	1008	500
3211	2971	597
2152	1434	445
784	291	265
567	803	945
1593	1594	26
87	627	399
3023	2225	1098
1004	248	441
863	1970	531
980	886	400
978	356	938
87	461	18
654	226	1176
784	291	762
407	790	406
2608	2607	1086
1461	1782	1266
1761	1855	1058
3254	3253	16
1176	279	826
700	747	387
457	148	365
1733	1658	1280
531	880	1081
669	803	681
2122	1965	296
523	1461	661
276	106	503
2711	2762	322
484	526	114
700	698	387
698	225	681
1458	1233	154
700	156	1216
1458	1551	154
2015	1034	825
548	698	649
2191	3146	851
1658	1584	412
1877	688	999
1771	1772	971
918	328	578
3068	3066	225
3017	2239	239
124	311	681
356	357	1048
1422	1766	1123
662	836	628
124	548	849
435	388	506
98	6	970
605	60	785
847	605	1100
838	836	723
1772	1771	525
662	314	628
523	1461	382
3126	2484	1101
575	698	783
2208	2633	884
2961	2405	954
2985	2455	474
523	1465	117
664	658	510
1462	2006	1292
267	906	512
699	550	650
978	517	499
1221	1200	472
784	291	846
1546	81	564
1986	1072	977
25	128	336
1344	1882	359
276	154	1215
573	698	778
277	464	94
68	106	792
1207	1607	936
1049	1029	1195
2190	2635	1005
3081	2666	731
2132	2130	923
1169	2107	13
698	225	649
906	698	999
2608	2607	1079
700	907	152
279	311	276
1929	1928	720
754	560	1163
1752	2107	272
669	803	945
754	161	1162
980	751	400
906	89	151
145	1003	378
1030	1101	821
575	550	238
800	708	947
700	698	649
1372	2141	348
2345	2457	252
1048	1614	784
700	23	387
3227	3228	930
2972	2418	700
26	656	500
2190	2635	879
928	457	810
2617	2619	175
700	843	1103
523	698	649
2695	2506	540
518	311	457
2160	2176	516
25	407	406
1807	1187	49
19	60	530
19	60	785
2652	915	911
2864	2865	233
1593	1594	1168
3245	2439	670
2053	2073	1068
2102	2103	292
737	321	98
1407	1738	122
614	956	1132
85	744	1036
863	1970	640
917	662	588
1231	2098	129
1081	1584	122
52	471	1275
1811	1316	895
1169	874	898
662	314	223
664	658	560
572	235	247
548	160	849
2807	2808	1060
978	356	499
1298	1014	118
1382	1269	1285
296	237	248
917	401	351
585	241	1043
2225	2780	260
205	651	584
353	354	576
3068	3067	254
3101	3102	1242
1298	1014	1153
180	647	238
1876	1989	1145
699	575	650
906	698	430
1929	2023	720
906	803	999
800	641	947
1102	1442	119
760	721	958
2812	2227	258
1407	1659	122
1169	2097	281
1169	2107	871
2502	2862	230
723	722	1199
572	235	779
1539	1249	920
2362	131	824
1647	1884	291
2864	3132	190
2984	2455	474
662	192	87
2652	2575	323
802	803	945
1858	1967	1051
1883	2102	868
433	916	799
1876	1617	481
2084	1370	346
202	2126	583
664	21	626
3150	3151	434
2129	1245	301
1551	1236	1004
1421	2700	678
3062	3061	241
523	106	503
1616	1615	566
373	108	140
373	195	374
2259	2738	882
661	41	425
1919	1189	1190
2617	2615	175
1474	1571	315
1102	1610	119
1943	1051	272
2084	1638	307
1176	279	96
1647	1322	763
784	291	1046
609	598	81
484	52	465
1	784	846
1	112	265
1953	1113	1247
267	906	649
430	733	173
3281	2331	603
1733	1986	834
906	698	649
2574	2966	633
1879	2073	1068
1004	248	463
52	357	995
1884	1886	291
3101	3102	961
1014	1546	557
1	515	265
648	198	1053
980	238	244
3230	3231	563
303	747	235
6	950	358
267	906	1109
2659	1532	760
662	98	628
202	384	776
980	751	232
2608	2609	1086
2867	3182	907
277	903	149
917	662	223
970	1708	55
548	573	215
1607	1605	1243
442	775	133
435	388	542
1461	1062	382
388	650	506
506	733	819
505	160	849
875	2430	899
515	384	776
3096	3098	366
2441	2426	838
88	598	390
863	91	531
202	384	753
2084	1638	417
1176	1386	788
523	154	117
2084	1638	931
1728	2098	854
3262	3264	1094
1986	1351	834
376	631	379
1367	1728	515
675	77	358
1569	1227	467
2064	1049	608
1734	1745	889
6	98	207
2196	2210	1186
277	903	94
2214	3259	1239
2439	2466	368
689	181	311
657	167	848
1733	1658	264
277	464	833
1207	1605	935
267	906	640
698	225	430
705	564	1165
1047	1522	185
85	744	548
277	656	460
88	598	81
917	6	970
567	153	1166
52	471	1048
1461	1141	572
826	322	573
823	880	378
1925	1276	718
3189	3190	912
1658	1584	812
52	598	995
847	605	785
98	6	207
1986	1351	122
575	311	711
1047	1522	18
1034	2015	825
2707	2446	676
575	573	778
1373	1905	347
675	73	628
2003	1956	361
296	733	1144
1421	433	799
2575	3218	453
279	311	96
917	275	585
306	237	248
2170	1134	1063
461	3160	399
483	698	430
3151	3150	434
548	573	238
270	81	88
1707	1225	54
1858	578	775
2439	2466	670
1	515	753
1382	1269	5
1501	1071	979
744	980	1036
902	903	94
573	181	783
575	698	430
124	548	663
52	356	1048
407	790	345
2739	2409	883
1741	1283	299
1	100	265
1728	1515	854
1668	1327	1033
1169	2107	14
390	468	777
373	656	500
573	842	215
1790	2364	1205
1522	3256	185
484	517	465
1458	1551	126
100	724	144
484	598	81
700	23	341
433	434	169
573	550	663
1047	1903	605
800	366	947
1374	1153	997
700	311	711
3066	3067	225
769	1877	999
433	434	799
1879	1685	418
3276	2411	715
25	407	345
2003	1956	1289
823	418	378
89	153	999
3076	2450	1173
664	859	197
1187	1649	49
1647	1322	1254
2184	3157	63
2750	3265	743
875	2430	1095
2830	2934	442
906	2279	512
699	575	778
52	517	465
52	357	1048
1	416	694
1421	1771	971
390	974	1198
3068	3067	225
2081	1705	304
1014	1546	398
2160	2176	1298
662	836	723
1968	1014	1282
2750	3265	1093
699	669	650
1522	3256	605
567	771	1166
647	550	498
3031	2305	409
590	141	73
388	435	170
180	1076	498
1811	1316	669
2131	2130	229
344	1805	0
340	2800	0
342	869	0
298	123	0
298	542	0
298	3016	0
299	765	0
294	214	0
294	397	0
294	398	0
294	652	0
294	779	0
292	155	0
292	446	0
292	463	0
292	502	0
292	591	0
292	927	0
2260	2745	0
103	268	0
105	130	0
105	132	0
2043	1284	0
2041	2030	0
3158	2314	0
2685	2684	0
97	914	0
97	998	0
1995	1820	0
1629	207	0
3209	2792	0
3208	2258	0
2866	2182	0
553	953	0
552	680	0
552	681	0
1194	2113	0
1756	1836	0
1756	1838	0
1755	1642	0
1754	1629	0
1754	1636	0
1754	1950	0
1579	1531	0
686	323	0
686	593	0
686	687	0
686	846	0
680	681	0
1575	1281	0
1574	1288	0
458	459	0
620	921	0
1375	1178	0
1375	1980	0
1375	2036	0
1375	2150	0
402	406	0
1377	763	0
2031	2091	0
379	2340	0
379	948	0
375	445	0
375	446	0
374	2464	0
374	252	0
374	375	0
374	445	0
374	446	0
374	3016	0
393	593	0
392	383	0
391	8	0
391	11	0
391	16	0
391	29	0
391	55	0
391	83	0
391	155	0
391	157	0
391	177	0
391	183	0
391	201	0
391	222	0
391	232	0
391	234	0
391	245	0
391	249	0
391	254	0
391	260	0
391	304	0
391	319	0
391	383	0
391	392	0
391	415	0
391	445	0
391	446	0
391	456	0
391	463	0
391	482	0
391	508	0
391	551	0
391	558	0
391	574	0
391	577	0
391	620	0
391	670	0
391	681	0
391	702	0
391	703	0
391	712	0
391	728	0
391	745	0
391	813	0
391	881	0
391	897	0
391	911	0
391	930	0
391	1001	0
397	214	0
397	294	0
397	398	0
397	779	0
396	398	0
398	214	0
398	779	0
2307	2357	0
3203	2469	0
3203	3034	0
3203	3204	0
246	1010	0
179	229	0
174	109	0
174	385	0
173	57	0
173	1935	0
2051	1424	0
2051	1543	0
2051	854	0
2051	1981	0
2051	2007	0
2051	2034	0
2051	2113	0
2050	1253	0
2050	1309	0
2050	1704	0
2050	1847	0
2050	2002	0
2050	2034	0
2050	2051	0
1977	2000	0
1600	1077	0
1600	1601	0
1600	1951	0
2697	2579	0
2697	3145	0
2694	2374	0
1602	1570	0
1971	1400	0
1971	1972	0
1115	1188	0
1115	2060	0
1115	2105	0
1960	1959	0
2879	2320	0
2879	3047	0
2879	3202	0
2879	3279	0
2878	2320	0
1769	1100	0
1760	1947	0
1789	1240	0
1148	1875	0
1149	1404	0
1149	1688	0
692	500	0
692	652	0
692	899	0
692	936	0
692	1010	0
690	574	0
696	1302	0
1543	1216	0
1543	1981	0
1541	1267	0
542	508	0
543	102	0
547	549	0
764	51	0
764	375	0
764	801	0
764	806	0
1787	1785	0
414	2467	0
417	138	0
417	199	0
417	454	0
417	500	0
1388	1074	0
1388	1170	0
1384	1116	0
1384	1273	0
1384	1650	0
1384	1651	0
1384	1957	0
1380	1075	0
382	120	0
382	607	0
382	714	0
386	203	0
2200	3026	0
2203	780	0
2203	829	0
2206	2900	0
2206	2901	0
2207	2676	0
2427	2757	0
2516	3134	0
2732	2338	0
678	1748	0
678	679	0
678	868	0
678	869	0
1810	1975	0
1813	1174	0
1813	2153	0
1818	1624	0
1819	1211	0
1819	1257	0
670	252	0
3229	2625	0
3229	2038	0
1976	1157	0
1976	1974	0
807	2768	0
2848	2850	0
2845	2228	0
2842	2843	0
2840	2841	0
2841	2840	0
1777	1108	0
1777	1405	0
1773	1218	0
1773	2010	0
1159	1572	0
1155	1118	0
1155	1136	0
1156	1214	0
1151	1237	0
1151	1263	0
1151	1507	0
1555	1554	0
58	1254	0
58	158	0
58	1537	0
58	1637	0
3038	1830	0
1557	1556	0
1557	1648	0
57	1825	0
2997	2332	0
2997	2998	0
2997	3234	0
532	533	0
532	811	0
3036	2247	0
538	381	0
420	282	0
420	361	0
1390	1147	0
2215	977	0
150	327	0
2435	2768	0
2725	2745	0
2722	2630	0
2721	3016	0
2728	2914	0
1805	1700	0
1804	1223	0
1947	1760	0
810	809	0
811	247	0
815	122	0
815	787	0
815	809	0
815	817	0
817	122	0
1992	1922	0
1494	1739	0
1497	1747	0
1627	1773	0
1627	2010	0
1702	150	0
1702	325	0
1702	327	0
1702	2058	0
1703	1704	0
1997	1180	0
1706	1618	0
425	427	0
1120	2037	0
1121	1211	0
1121	1257	0
1121	1819	0
3029	780	0
3029	829	0
2982	2453	0
2982	2550	0
2986	2987	0
522	702	0
1015	1060	0
1015	1366	0
1237	2025	0
438	439	0
438	712	0
439	252	0
432	869	0
995	753	0
231	149	0
231	178	0
231	481	0
231	622	0
231	626	0
2468	2471	0
2710	2682	0
2714	2654	0
1832	1337	0
1832	1555	0
1834	1657	0
939	507	0
939	940	0
938	878	0
2150	1922	0
933	203	0
933	655	0
931	940	0
935	681	0
934	203	0
934	971	0
1957	252	0
1950	1629	0
1958	1027	0
1958	1410	0
3241	3223	0
825	971	0
1482	2140	0
1480	1087	0
1480	1481	0
1480	1662	0
3309	3310	0
1711	1173	0
1711	1410	0
1711	1513	0
1711	1514	0
1717	1146	0
799	714	0
1139	2169	0
1130	1938	0
1136	1748	0
920	765	0
3013	2419	0
3011	3012	0
2797	3000	0
519	953	0
1009	456	0
1005	8	0
1005	2317	0
1005	123	0
1005	1337	0
1005	482	0
1005	502	0
1005	620	0
1005	921	0
1002	8	0
1002	378	0
1002	763	0
1001	999	0
1000	29	0
1000	55	0
1000	715	0
1000	988	0
1000	999	0
1000	1001	0
621	622	0
1224	1712	0
1224	1713	0
1224	1714	0
1223	1541	0
1223	2045	0
626	230	0
625	622	0
625	626	0
2888	2887	0
2	1938	0
10	203	0
10	261	0
10	971	0
12	946	0
3274	2238	0
1923	1902	0
203	256	0
2230	2598	0
683	92	0
683	211	0
683	570	0
682	2462	0
682	232	0
682	249	0
2185	2307	0
2185	2357	0
2092	2065	0
2524	2432	0
2523	3224	0
1823	1131	0
929	652	0
2140	1499	0
923	897	0
925	223	0
2149	1204	0
927	245	0
927	254	0
927	260	0
927	919	0
1921	1664	0
3275	3014	0
3278	2772	0
3279	2702	0
832	835	0
833	18	0
831	177	0
839	109	0
839	174	0
839	385	0
781	1204	0
781	1240	0
781	268	0
781	1651	0
781	1789	0
781	1922	0
781	1992	0
781	2065	0
781	2150	0
782	2586	0
783	163	0
783	2640	0
783	2641	0
1726	2025	0
1725	1268	0
789	547	0
789	580	0
789	936	0
508	207	0
1032	1646	0
507	844	0
507	940	0
632	71	0
632	242	0
632	493	0
632	496	0
632	621	0
632	981	0
632	989	0
632	1010	0
2899	2363	0
2898	2896	0
2895	3049	0
2897	2898	0
1107	1340	0
1103	1959	0
1459	1851	0
1108	1201	0
1108	1405	0
210	348	0
218	725	0
219	66	0
219	1248	0
219	2639	0
219	1725	0
219	2105	0
219	3304	0
2551	3005	0
2551	3006	0
2554	2403	0
2554	2406	0
61	587	0
2775	2294	0
1851	1213	0
1851	1938	0
1851	1952	0
1851	2000	0
1853	1296	0
1857	1869	0
913	827	0
2604	2810	0
1936	1568	0
1936	1577	0
3266	3001	0
3269	3267	0
3268	3267	0
1939	1020	0
1938	1213	0
849	349	0
849	815	0
849	817	0
849	981	0
849	985	0
849	986	0
848	44	0
848	47	0
848	82	0
848	139	0
848	182	0
848	188	0
848	203	0
848	243	0
848	437	0
848	507	0
848	521	0
848	527	0
848	530	0
848	543	0
848	584	0
848	596	0
848	713	0
848	730	0
848	731	0
848	742	0
848	761	0
848	776	0
848	786	0
848	789	0
848	815	0
848	817	0
848	827	0
848	844	0
848	967	0
848	981	0
848	985	0
848	997	0
1732	1315	0
1732	1360	0
1732	1365	0
1732	1736	0
1732	1737	0
1737	1315	0
1737	1360	0
1737	1736	0
1736	1315	0
1736	1360	0
1736	1737	0
757	335	0
759	194	0
1590	1150	0
1590	1591	0
3079	2745	0
2956	2252	0
2956	1174	0
2956	2333	0
2956	2504	0
2956	2949	0
2956	2953	0
2956	2955	0
2956	2959	0
2956	3174	0
1020	2065	0
630	351	0
602	18	0
602	835	0
3108	2442	0
3108	2841	0
3104	3105	0
3104	3275	0
3107	2429	0
1117	1894	0
1117	2140	0
1440	1441	0
460	574	0
1355	1020	0
489	18	0
489	40	0
489	43	0
489	368	0
489	490	0
489	570	0
489	835	0
489	951	0
487	139	0
462	70	0
462	889	0
1451	2120	0
1843	1739	0
1842	1184	0
909	853	0
1844	1739	0
2165	2164	0
2162	1922	0
2616	2286	0
1909	1690	0
1909	2177	0
1907	2827	0
1904	2034	0
1902	1301	0
3291	2335	0
3291	3168	0
1901	1222	0
1901	1812	0
854	1253	0
854	3297	0
857	878	0
852	2757	0
852	544	0
1554	1555	0
740	236	0
740	465	0
740	593	0
740	739	0
742	1010	0
743	476	0
746	252	0
746	439	0
746	806	0
746	911	0
746	912	0
748	482	0
748	806	0
748	911	0
748	912	0
749	29	0
749	55	0
749	1762	0
749	715	0
749	988	0
749	999	0
749	1000	0
749	1001	0
2949	1174	0
2947	2790	0
2946	2356	0
2943	2916	0
1056	1963	0
1056	1964	0
1057	1162	0
1058	1255	0
1696	1691	0
717	2382	0
1694	1261	0
1690	1831	0
1690	2177	0
1691	1479	0
1691	1529	0
1691	1815	0
1691	1892	0
612	951	0
613	570	0
613	584	0
613	966	0
3111	2556	0
1470	687	0
1471	1706	0
1471	1945	0
1471	1955	0
1471	1981	0
1476	2037	0
1478	1910	0
1479	1440	0
1479	1441	0
1308	2037	0
1308	2038	0
496	140	0
496	209	0
496	668	0
496	936	0
491	806	0
29	55	0
29	634	0
29	988	0
2570	2730	0
2376	3217	0
2596	2326	0
2591	2477	0
2592	2698	0
2593	3297	0
1874	1664	0
1871	1945	0
1878	1503	0
184	453	0
184	3118	0
185	55	0
185	1250	0
185	540	0
185	587	0
185	1762	0
185	715	0
185	1000	0
185	1001	0
2110	2111	0
2111	2113	0
2623	2860	0
2626	2627	0
2624	2793	0
2628	3019	0
869	633	0
868	1748	0
868	869	0
866	1217	0
866	1241	0
866	1934	0
2754	2388	0
2754	2419	0
2022	2080	0
883	780	0
881	646	0
889	358	0
777	884	0
72	940	0
2976	3119	0
3053	2235	0
3053	2511	0
79	535	0
1042	2037	0
65	92	0
65	211	0
65	570	0
1684	1326	0
1687	1560	0
1688	1237	0
660	71	0
660	209	0
660	212	0
660	242	0
660	496	0
660	878	0
660	981	0
660	987	0
660	1010	0
3120	2757	0
1467	2046	0
1466	1299	0
1313	1020	0
1313	1494	0
1311	1611	0
319	482	0
312	2531	0
315	316	0
2569	2758	0
2563	2564	0
2565	2360	0
2567	2568	0
2365	2419	0
2363	615	0
2361	2840	0
2587	2586	0
2581	2580	0
2581	2771	0
1861	1237	0
1861	1243	0
1861	1669	0
1860	3275	0
1865	1553	0
1864	1337	0
1866	1272	0
961	712	0
969	728	0
878	719	0
873	214	0
873	779	0
2035	1290	0
2035	1777	0
9	869	0
892	2729	0
892	925	0
898	558	0
768	495	0
761	194	0
3040	3074	0
3047	3202	0
1678	1725	0
1679	1470	0
1679	687	0
1679	2000	0
1671	1672	0
1094	2027	0
1097	1491	0
679	380	0
679	1748	0
679	868	0
1093	2010	0
1099	134	0
673	2438	0
3135	3134	0
3134	2414	0
3139	2550	0
1410	1746	0
1414	1217	0
1414	1241	0
1417	1250	0
1417	1432	0
1257	1819	0
1520	1217	0
1520	1304	0
1529	1479	0
1529	1724	0
1529	1815	0
309	869	0
302	2246	0
2977	3304	0
2353	2480	0
1891	1254	0
1892	1237	0
1892	1440	0
955	380	0
2138	1212	0
2641	2640	0
2642	3118	0
2644	2646	0
2007	1259	0
2007	1572	0
2007	2110	0
2007	2111	0
2007	2113	0
1799	2109	0
2913	2454	0
719	878	0
2917	2577	0
1793	1795	0
1792	1477	0
715	29	0
715	55	0
715	988	0
715	1000	0
715	1001	0
713	936	0
1795	1794	0
1069	236	0
1069	1516	0
1069	593	0
1069	1719	0
1069	2116	0
1068	1237	0
1060	1015	0
1060	1366	0
1067	1963	0
1067	1964	0
1066	1094	0
1662	1099	0
1662	1363	0
1661	1662	0
1087	1481	0
593	236	0
1084	1440	0
1084	1441	0
1082	1142	0
1082	1951	0
599	600	0
3143	2770	0
3145	2284	0
3147	3296	0
3148	3147	0
2822	2269	0
1402	1110	0
449	811	0
440	245	0
440	254	0
440	260	0
440	383	0
440	415	0
440	439	0
440	445	0
440	446	0
440	482	0
440	670	0
440	681	0
440	703	0
440	748	0
440	872	0
440	919	0
446	445	0
697	615	0
38	1268	0
38	183	0
38	445	0
38	1725	0
38	829	0
694	402	0
694	406	0
32	2203	0
32	1358	0
32	298	0
32	2775	0
32	3029	0
32	780	0
32	883	0
31	1204	0
31	1240	0
31	1651	0
31	1789	0
31	1992	0
31	2065	0
31	2150	0
35	367	0
35	574	0
35	829	0
35	830	0
1243	1237	0
644	39	0
644	65	0
644	84	0
644	122	0
644	315	0
644	349	0
644	683	0
644	809	0
644	815	0
644	924	0
644	995	0
649	2182	0
649	2866	0
1248	1331	0
338	288	0
330	37	0
330	115	0
1464	1591	0
2346	2231	0
2341	2401	0
2340	975	0
1887	1098	0
1887	1945	0
2120	1537	0
948	975	0
944	945	0
945	259	0
942	939	0
943	731	0
941	394	0
941	939	0
941	940	0
2658	2448	0
2658	1303	0
2651	2661	0
2907	2485	0
80	1020	0
80	38	0
80	1725	0
80	829	0
1650	1273	0
1650	1651	0
588	809	0
3152	2220	0
3152	3147	0
3152	963	0
2837	2359	0
2836	2371	0
2834	2745	0
2831	2292	0
1980	1979	0
1980	2150	0
1637	1254	0
1637	1290	0
1438	1389	0
1348	1090	0
1349	1354	0
1502	1503	0
655	203	0
655	215	0
655	256	0
3085	3082	0
3085	3083	0
3084	3085	0
1508	1151	0
3082	3083	0
327	325	0
327	351	0
327	1702	0
324	134	0
324	513	0
324	514	0
2333	1174	0
2336	3201	0
2336	3248	0
2246	2311	0
2246	2391	0
2242	2692	0
997	753	0
997	995	0
993	66	0
999	55	0
999	177	0
999	1001	0
120	811	0
125	882	0
127	618	0
2799	3244	0
2061	1202	0
2791	2462	0
2065	1922	0
2065	2066	0
2795	2290	0
2936	2181	0
2937	2870	0
2935	3271	0
2935	3272	0
1646	1032	0
1526	1662	0
574	258	0
574	830	0
2809	2355	0
3168	2335	0
3166	2438	0
2803	3093	0
2800	3129	0
3165	2341	0
2806	3113	0
2806	3114	0
1424	1543	0
1424	1981	0
730	731	0
730	1010	0
2157	1073	0
1358	2775	0
1358	1977	0
1353	1540	0
1352	1894	0
463	829	0
1519	1520	0
1517	2471	0
1510	150	0
1510	1263	0
1510	325	0
1510	327	0
1513	1410	0
1513	1825	0
3184	402	0
355	2260	0
355	2580	0
355	2581	0
355	2586	0
355	2587	0
355	2771	0
355	1959	0
1446	2025	0
2329	3154	0
288	693	0
280	211	0
280	2970	0
280	3006	0
283	632	0
285	1514	0
284	264	0
284	312	0
286	446	0
286	897	0
264	27	0
264	123	0
264	312	0
264	345	0
264	425	0
264	427	0
264	686	0
2257	2872	0
988	177	0
986	351	0
986	630	0
987	496	0
987	549	0
987	652	0
987	936	0
987	944	0
987	960	0
987	981	0
2785	2403	0
2785	2433	0
2785	2554	0
2786	2403	0
2786	2406	0
2786	2554	0
2670	2464	0
2670	687	0
2670	3192	0
2679	2397	0
2924	96	0
2924	2925	0
1632	1130	0
1633	2169	0
1635	27	0
1635	2245	0
1635	2258	0
1635	1139	0
1635	1894	0
1635	2140	0
1981	2034	0
1981	2113	0
1639	2014	0
562	670	0
2818	2473	0
3171	2870	0
3170	3016	0
3173	2404	0
3173	3305	0
3174	2252	0
3177	2344	0
1184	1838	0
720	348	0
1744	1020	0
1744	1875	0
1746	1270	0
728	729	0
1166	1789	0
1160	1288	0
1485	1347	0
477	476	0
793	860	0
472	31	0
472	32	0
472	1170	0
472	123	0
472	1358	0
472	286	0
472	1384	0
472	511	0
472	542	0
472	3016	0
472	781	0
3196	2747	0
470	587	0
470	634	0
479	869	0
1369	1356	0
1369	1477	0
423	49	1
423	107	1
1533	1287	1
856	2283	1
856	3125	1
1625	1550	1
555	59	1
555	107	1
555	423	1
3065	2638	1
611	136	1
2011	2013	1
2303	2285	1
411	175	1
411	317	1
411	571	1
617	695	1
1634	1802	1
451	450	1
451	561	1
2456	2851	1
2456	2852	1
2456	862	1
947	707	1
888	263	1
888	1999	1
774	707	1
770	1235	1
770	2687	1
773	707	1
773	805	1
1041	1680	1
2234	3159	1
1681	1379	1
2705	2603	1
1012	1035	1
1012	2029	1
1381	1379	1
365	524	1
365	707	1
365	805	1
736	78	1
4	635	1
266	503	1
1550	1625	1
1412	1680	1
1415	1416	1
2954	2957	1
49	107	1
3100	3099	1
2005	1215	1
