346
347
342
343
349
2319
2316
2313
297
295
292
290
291
2147
271
272
274
275
276
278
2268
2262
2260
2266
2264
2265
2443
2440
2445
2449
108
109
102
103
100
2046
2047
2045
2043
2048
2049
3238
2688
2684
2685
2687
2681
2682
99
98
3019
91
90
92
94
97
96
1991
1622
1621
3204
1627
3202
3201
1624
1629
3209
3208
2862
2863
559
2865
555
550
1199
1195
1194
1197
1196
1759
1758
1757
1755
1754
1753
1752
1177
1176
1174
1171
1170
1287
1286
1281
1289
514
1001
1572
687
686
1577
682
459
1225
1371
1340
405
1374
1377
1341
1378
409
408
379
372
376
391
390
396
2309
2302
2307
243
249
248
2274
2277
2273
2279
2459
2458
2455
2457
2451
2452
179
178
176
175
174
173
171
2051
2050
2052
2055
2056
2059
3089
2968
653
1508
3225
3083
2699
1600
2693
2692
2691
1604
3232
3230
3236
1969
1619
1965
1614
3239
1612
1962
1963
2872
2877
2875
2874
2879
1769
1763
1760
1766
1767
1764
1765
1142
1143
1141
1146
1144
1145
1547
690
691
694
1548
543
541
546
547
545
549
766
767
764
415
1388
412
413
1386
1380
419
368
366
364
365
362
363
361
380
381
382
384
385
1077
2792
2190
258
2193
2194
2195
2197
252
253
250
254
255
2200
2201
2202
2204
2206
2208
2428
2429
2421
2422
2423
2424
2425
2427
3211
2519
2514
2517
908
2735
2737
2730
2732
2733
2738
1814
1815
1816
1812
1818
1979
1978
1601
1976
1975
1602
1972
3223
1970
808
802
801
800
807
805
804
2848
2846
2847
2845
2842
2841
1775
1774
1776
1771
1770
1773
1778
608
2998
1158
1154
1157
1156
1151
3038
1551
1553
1552
59
58
1557
1556
3034
2991
56
3031
2996
535
538
2995
3032
3296
1905
3291
1399
1397
420
423
1394
1393
1392
1390
1443
2181
229
226
225
2188
223
222
2213
2212
2211
2210
2217
2216
2214
2218
151
153
152
155
157
2432
2437
2436
2435
2434
2509
2504
2503
2500
2727
2726
2725
2720
1807
1805
1802
1800
3259
1948
1949
3251
1941
3254
1947
3256
3257
818
810
811
2859
2851
2852
1494
1498
1995
1994
1701
1703
1708
1709
3200
1121
1122
1124
1125
1126
2988
3029
3028
2983
3026
2981
2980
2987
2985
524
520
522
523
1014
1015
1017
1010
529
1013
1234
1235
1237
1230
1232
1238
439
437
434
435
432
433
430
2864
558
2868
997
996
237
990
3068
2229
2224
2225
2220
144
145
143
140
998
2088
2080
2081
2087
2084
2538
2533
2531
2537
2534
2712
2710
2711
2717
2715
3093
1832
1833
1830
1831
1837
1834
3090
1838
1839
2154
2156
2150
2151
2400
2401
933
932
937
936
2409
471
1955
1954
1957
1951
1950
1958
3248
3243
3242
3241
3240
3247
3245
829
825
824
827
821
820
823
822
1483
1482
1481
1487
1485
1484
3304
3305
3300
3301
1712
795
1710
2410
799
798
610
1139
1138
1133
1131
1130
1134
920
2791
2796
3015
519
518
2066
1008
511
2148
515
1002
517
1226
621
1224
627
1222
625
1220
1229
2882
2883
2886
2885
2889
11
13
15
14
17
16
19
1924
1534
205
204
207
206
209
2239
2238
1570
2231
681
2232
2236
2095
2094
2096
2091
2090
2093
2098
2525
2524
2526
2520
2523
2708
2704
2701
2700
2703
1829
1828
1824
1826
1821
1820
1823
1822
928
929
2412
2415
2414
2416
2419
921
925
927
1921
1922
3272
1926
1927
1928
1929
3278
832
830
831
836
837
834
835
839
2511
3310
3312
784
785
780
781
782
1727
1722
789
1721
3005
3004
3007
65
3003
67
1370
1581
509
1032
1030
1036
1037
500
630
1210
1211
635
637
1218
1219
2898
2894
2897
2896
1107
1450
1452
1101
1458
1459
1108
1109
216
217
214
212
213
219
2550
2552
2553
2554
2555
2558
2559
62
2397
2394
2395
2391
2398
2399
2778
2770
2771
2774
2776
3167
3164
1850
3162
1852
1853
1854
2807
2170
2176
2177
2174
915
917
911
910
2602
2608
3260
3263
3262
1936
3267
3266
3269
3268
1939
1938
845
848
2406
1739
1738
1731
1730
1732
1735
1736
753
752
751
750
757
756
755
758
3070
1594
1597
1591
1590
1593
3077
2954
2951
2953
1026
1020
1029
605
600
1205
1206
609
1200
1203
1202
1215
3100
3101
3102
1111
1110
1444
1115
1114
1117
464
3000
1118
1448
463
489
488
487
486
485
484
481
480
199
198
196
190
2543
2542
2541
2547
2545
2544
2549
2548
2381
2380
2385
2384
2387
2768
2761
2767
2766
2765
2764
902
903
1849
906
904
1842
1841
1847
2169
1943
2161
2163
2162
2617
2616
2615
2614
2611
2610
2619
2618
1908
1909
1906
1904
3297
1903
1901
855
856
857
851
852
858
859
425
742
743
744
748
3067
3065
2948
2947
2946
3069
2944
2943
2942
2941
1051
1052
1056
1058
1059
1696
1694
1692
1693
1690
2919
1698
1699
1278
619
612
613
1272
1273
616
1275
615
1794
3118
3117
3116
3113
3110
1473
1477
1478
1305
1307
1303
1308
1309
498
494
495
491
492
493
25
26
22
23
28
2288
2289
2283
2284
2575
2573
2378
2374
2375
2377
2372
2594
2595
2597
2590
2593
1085
1876
1877
1874
1875
1872
1871
1878
1082
977
976
973
972
1080
979
182
183
181
184
2111
2113
2114
2115
2117
2622
2623
2626
2624
1918
3289
1911
1910
1913
3284
3281
3280
868
189
867
866
2024
2026
2027
2020
2753
2022
2028
2029
2758
883
880
3146
888
775
774
771
779
778
77
75
74
73
72
70
2972
3057
2970
3053
78
1043
1042
1047
1046
1045
1681
1685
1689
1688
1268
669
667
1260
663
660
3286
3129
3122
3123
3120
3121
3126
3125
1468
1465
8
1466
1463
1462
1317
1319
1318
3277
528
1011
319
318
310
317
316
315
2754
2755
1336
1332
2299
2969
2291
2290
2297
2296
2295
2569
2568
2561
2563
2562
2565
2566
2369
2368
2365
2364
2363
2361
2360
2586
2585
2584
2582
2589
2588
1861
1860
1862
1865
1867
1869
1868
964
965
966
967
960
961
963
401
969
2108
2103
2102
2100
2107
2105
2104
2638
2637
2636
2630
2633
878
879
876
877
875
872
873
2034
2033
2032
2747
2030
2748
890
893
895
896
898
1246
648
3235
1966
1788
2964
2966
2960
1780
1781
1782
761
1784
1785
1786
3049
3048
3043
3042
3045
3047
1076
1535
1074
1072
1073
1070
1071
1679
1674
1675
1677
1671
1095
1096
679
1092
1093
676
670
1099
673
3134
3130
3132
1418
1419
2490
1410
1413
1414
1416
1417
1323
1320
1321
1327
1324
1325
1329
1531
1524
1257
1526
1522
1251
1259
309
303
305
2979
3059
2977
3051
2479
2351
2355
1894
1897
1890
1893
2137
2134
2132
2133
2131
951
952
1267
957
2139
2648
2646
2647
2002
2003
2000
2001
2006
2007
2004
2008
2009
1857
504
918
2911
2912
2913
2915
718
716
715
714
713
712
710
1061
1060
1064
1067
1668
1665
1661
1660
593
592
594
596
599
1089
1088
3141
2828
149
2825
2827
2820
2823
1408
1403
1402
1407
1405
1404
449
448
1339
693
443
1334
440
1331
1330
445
444
1545
39
30
1931
35
641
640
1243
1242
645
1532
647
1530
649
1248
3264
338
334
330
333
332
2347
2346
2343
2349
1889
1887
1886
1885
1883
1882
2121
2123
2125
2124
2127
2126
946
2128
945
942
940
941
2657
2655
2654
133
132
131
130
139
2019
2014
2010
2012
2903
708
709
2905
704
705
706
707
82
80
86
84
1653
1650
1651
1656
1657
1655
586
584
585
580
581
3216
588
1633
3157
3155
2838
2837
2836
3158
2833
1635
1436
1437
1435
1438
1381
1349
450
451
1342
453
454
1346
457
1500
655
1506
1507
650
1505
3087
3086
3080
658
659
2129
947
322
320
326
327
324
325
328
2330
2331
2333
2335
2336
2337
2339
3072
2959
2488
2489
2486
2484
2485
2480
2249
2244
2245
2246
2247
2241
2242
2464
2465
2466
2467
2460
2461
2462
992
2468
2469
120
121
123
125
126
128
129
2068
2069
2060
2061
2062
2063
2064
2797
2794
2067
2666
2664
2662
2663
2660
2668
2938
2936
2937
2931
1645
1646
1649
1743
579
578
572
574
2808
2809
3168
3166
2803
2800
2801
2806
3163
3161
1421
1420
1423
1422
939
731
730
732
735
737
468
1352
467
461
1356
1355
462
1518
1511
1513
3184
3185
3187
3180
3181
3183
3188
3189
356
355
354
353
352
350
1447
2321
2320
2326
2325
2329
2328
280
284
286
262
261
260
266
265
264
268
1296
2493
2492
2495
2494
2497
2496
2258
2257
2256
2251
988
2474
2471
2470
982
983
980
986
987
984
2478
115
2198
116
119
118
2785
3227
2786
2782
2789
2072
2070
2077
2075
2074
2670
2673
2674
2677
2678
954
2923
2925
2926
1987
1984
3217
1982
1983
1980
1981
3218
3219
1988
2814
2908
2810
2812
560
562
2819
2818
567
3171
3170
3173
1189
1186
1185
1180
1181
725
721
1745
1746
1747
1740
1742
729
1164
1165
1166
1167
1160
1161
1163
1366
48
49
46
47
44
42
41
1569
1298
1299
1292
1562
1291
1564
1567
475
794
1714
472
470
1365
1362
477
1360
1361
478
479
3198
