340
341
343
348
349
2318
2319
2314
2312
2311
298
299
293
271
275
277
279
2268
2260
2261
2266
2264
2265
2442
2443
2440
2441
2447
2445
2448
2449
109
102
103
101
107
104
105
2044
2040
2048
3150
2688
2684
2685
2683
99
98
91
90
97
1991
1990
1992
1995
3202
3201
1996
1999
3209
3208
2860
2863
2867
556
550
552
1199
1365
1190
1193
1194
1758
1757
1754
1750
1177
1174
1171
1170
1179
1178
1284
1287
512
1281
1280
1283
514
1579
685
1577
680
1575
621
873
1222
2741
2743
406
1373
1372
1375
402
401
1376
1379
1378
1242
1345
1018
379
370
372
375
377
391
397
395
394
398
2301
3204
2305
1246
3203
244
241
243
242
249
248
2275
2276
2272
2459
2458
2454
2457
2451
2453
2452
179
178
176
175
173
172
170
2051
2050
2053
2055
2054
2057
2056
654
653
1509
1977
2699
3224
2694
2692
2691
2690
2405
1974
1973
1607
3233
3231
3236
1969
1619
1964
1965
1966
1967
1960
1613
1963
2871
2877
2875
1769
1763
1761
1765
1143
1140
1141
1146
1144
1145
1149
692
1547
1544
1545
1543
1540
542
1780
540
546
547
545
548
549
761
1787
416
417
1388
1389
413
1384
1385
1386
1387
1382
1383
3042
369
364
363
2098
381
382
383
385
386
389
3215
2792
2191
259
2194
2195
2197
250
251
256
257
254
2203
2204
2206
2207
2209
2428
2429
2421
2423
901
169
165
160
161
162
3212
2519
2514
2513
2734
2736
2730
2738
2797
679
1814
1816
1817
1810
1813
1819
671
1979
1601
1976
1975
1602
1605
1604
1971
803
801
2848
2842
2843
1777
1770
1158
2999
1154
1152
1550
59
3039
1559
3035
57
56
51
50
3032
537
3034
532
530
2994
536
429
428
1399
421
1396
423
422
1393
1392
427
426
1420
2182
2181
2180
2185
226
2189
2188
223
221
2213
2212
2211
2217
2216
2215
2214
2219
2218
151
150
153
2438
155
154
157
156
158
2431
2436
2435
2434
2509
2508
2505
2503
2501
2500
2724
2722
2721
2720
2728
1807
1806
1803
1801
1800
1809
1808
3258
1524
3251
1940
3253
3254
1947
3256
3257
810
811
814
815
816
2859
1622
2851
2855
2856
1490
1493
1494
1495
1496
1497
1498
1627
1994
1701
1702
1394
1625
1709
1624
1128
1120
1121
1123
1124
1126
2988
3027
2982
3025
2980
3023
2986
3021
2984
524
525
520
1019
522
1014
1016
1010
529
1234
1235
1236
1237
1238
438
433
430
2464
994
3064
238
239
236
237
232
233
2228
2226
2227
2224
2225
1
144
142
143
141
148
149
2080
2086
2085
2538
2532
2530
2531
2534
2535
2713
2711
2714
2719
1830
1836
1835
2154
939
938
2402
2151
2152
2401
2158
2408
2409
1955
1952
3249
3242
3244
829
828
825
827
826
820
822
1483
1481
1480
1486
1484
3306
3307
3305
3300
1713
1711
1717
1716
791
790
1719
1718
2145
798
2412
2143
2414
1139
1133
616
1137
1136
1135
2419
3013
3010
3011
3016
3015
518
1009
1007
510
1005
1004
515
1002
517
516
1227
1226
1225
627
626
1220
1229
2882
2886
3197
2885
2
3196
11
10
14
16
18
3273
3192
201
200
203
202
204
206
209
208
2231
2233
2237
2236
2095
2094
2097
2096
2090
2093
225
2526
2520
2523
2529
2528
2708
2705
2706
2701
2700
2702
1828
1823
928
2410
2413
2144
2415
2142
2140
920
921
923
2149
2148
3276
1921
3275
3272
1925
1928
1929
830
831
836
837
834
835
838
3311
3310
784
787
780
781
782
1729
1726
1727
1724
1725
788
789
1720
1721
60
61
62
3006
64
3003
3002
68
3009
1582
1583
1580
1581
1587
1585
508
509
506
403
1030
1031
503
1034
1035
630
1210
633
1217
639
1218
400
465
2898
2894
2891
1454
1456
1105
1450
1103
1101
1108
1576
217
215
212
213
211
219
4
2550
2551
2552
2553
2556
3007
2396
2397
2394
2395
2392
2390
3001
2398
2399
2778
3282
2771
2772
2774
2775
2802
3164
1859
1850
1851
1852
1854
1855
1856
1857
2173
2170
2174
915
914
3161
911
910
912
2605
2606
2602
2603
2609
3261
3260
1931
1930
1937
1935
1934
3269
1938
847
846
844
843
842
841
840
848
1739
1738
1733
1735
1734
1737
753
750
757
756
755
759
3070
1594
3072
1591
3075
1033
2955
2956
2957
1598
2953
1025
1024
1027
1026
1029
224
606
600
1205
1204
1207
1206
1202
3104
3105
3101
1111
1110
1113
1444
5
1117
1352
1119
1118
1449
1448
1219
489
488
487
486
485
1354
482
481
480
619
199
198
195
193
192
2542
2540
2547
2546
2549
2380
2383
2382
2384
1451
2769
3259
2763
2762
2767
2765
1849
1848
907
904
905
1843
1842
909
1847
1846
1845
1943
2165
2164
2161
2160
2163
2162
2616
2614
2613
2612
2611
2618
3299
1906
3296
3297
3291
1901
851
3293
6
2463
741
743
746
747
748
3062
3060
3067
2948
2946
2944
2943
1051
1054
1057
2917
1695
1692
1690
1278
1279
714
613
1273
1274
614
3117
3116
3113
3112
3110
1472
1473
1477
1474
1475
1478
1300
1301
1308
1309
498
499
494
496
490
491
493
24
25
26
23
1705
2288
2289
2280
2283
2286
2287
2578
2577
2574
2575
2570
2378
2374
2375
2372
2594
2595
2592
2593
2599
1876
1877
1874
1875
1872
1873
1870
1871
1878
977
182
974
1081
971
596
2118
2119
180
186
187
184
2111
188
2115
2116
2622
2620
2621
2624
2625
2629
1918
3288
1911
1910
3285
3284
1915
2112
3281
1916
869
3141
860
863
862
865
864
867
866
2756
2025
2754
2027
2752
2021
2828
2029
3145
882
884
888
3148
2825
776
771
773
772
2978
74
3058
70
3056
2973
2970
2971
3052
2977
2974
3051
1042
1040
1047
1046
1044
1049
1048
1684
1687
1686
3024
668
1263
1262
1261
1266
1265
660
3286
3095
3128
3283
3120
3121
3126
3125
1465
8
3280
1461
1463
1462
1317
1315
1312
1318
3277
528
1011
319
313
312
310
317
316
315
314
2757
2755
420
1331
1332
2461
2299
2292
2295
2569
2568
2563
2562
2566
2369
2366
2365
2364
2362
2586
2585
2583
2582
2580
2588
1860
1863
1865
1869
965
962
2109
2103
2102
2101
2100
2106
2105
2638
2634
2631
2633
3093
876
875
872
1535
870
871
2037
2740
2035
2034
2033
2747
2030
2749
1532
895
896
898
899
646
2965
2964
768
2961
2963
762
1612
1782
1783
2969
767
765
3049
3048
3040
1611
3044
1078
1079
1077
1075
1072
1073
1070
1679
1676
1677
1673
1094
1090
1091
1534
674
676
1099
3136
3131
3130
3133
3132
1997
1418
1419
1413
1415
1417
1320
1321
1327
1329
1620
1256
1254
1520
1253
1522
1251
1529
309
301
302
304
306
307
2979
71
3059
79
2479
2990
2352
2351
2356
2354
1899
1894
1895
1897
1890
1892
1893
2136
2137
2132
2130
950
952
2139
2648
2641
2645
2647
2004
2008
2009
665
2910
1798
2916
718
1793
2919
715
1790
713
712
505
1264
1069
1061
1060
1063
1062
1065
1067
1669
1667
1666
1662
1661
1660
1087
1085
1084
1083
1082
597
1080
1089
1088
3022
3144
2829
3147
2824
3149
2823
1402
1401
1407
1405
449
448
443
1334
441
1336
447
446
444
697
39
38
1932
32
36
35
34
3092
1536
1243
642
3096
644
1530
1249
1248
3098
3099
1539
338
335
334
336
331
330
333
332
3195
1464
2344
2346
2341
2340
2343
2342
2348
1885
1883
1882
1880
2123
2124
948
949
2129
2128
944
942
940
2653
2652
2651
2650
2657
2656
2654
133
131
130
139
2018
2015
2014
2017
2016
2012
2903
2901
2900
704
706
2908
700
84
1658
1653
1650
585
583
581
3216
588
3151
1985
3157
2839
3154
3210
2834
2833
1437
1432
1433
1430
1637
1438
1439
1348
1349
450
1341
454
455
457
3263
656
1500
1501
3089
3088
650
651
3087
3086
3081
3080
3082
2126
2815
323
320
324
325
328
2335
2958
3079
2489
2486
2487
2484
2482
2483
2951
2249
2246
2247
2241
2242
995
2465
2466
2467
991
990
2462
992
998
122
123
124
125
126
127
129
2068
2798
2060
2061
2062
2796
2065
2795
3255
2666
2667
2665
2669
2939
2937
2934
2932
2933
2930
2931
1644
1641
1640
1643
1642
1649
1648
1526
1252
605
579
578
573
571
570
577
576
575
574
2808
3168
3169
3166
3167
2800
2801
3162
3163
3160
2805
1421
2406
1423
1422
1425
1424
1427
1426
1429
733
732
734
737
736
738
1358
2400
1353
464
1351
2153
1357
1356
1355
462
1518
1517
1516
1512
3185
3186
3187
3180
3181
3182
3188
3189
357
356
355
354
350
358
2326
2325
1446
2329
2328
288
280
285
284
286
260
267
266
265
1293
2499
2498
3225
2491
2490
2492
2495
2494
2496
2193
1294
2259
2258
2257
2255
2252
2250
2474
2473
982
983
981
984
115
117
111
110
118
3227
2781
2780
2783
2782
2079
2073
2071
2070
2077
2076
2075
2074
2671
2673
2672
2676
2679
2678
2929
2928
2921
2923
2922
2924
2927
2926
1987
1632
1633
1982
3211
1980
1981
1639
3219
1988
568
569
2813
2812
561
562
563
564
565
567
3171
3173
3177
1189
1186
1184
1185
1181
727
1748
723
721
1746
1747
1740
728
1743
1165
1161
1163
3309
1168
1366
2913
49
46
47
45
43
1568
1298
1299
1788
1292
1561
1290
1296
1566
1295
3191
3190
1789
472
1367
1364
471
3193
477
1360
1361
1368
