346
341
343
348
2318
2319
2316
2317
2314
2312
2313
2310
299
296
297
295
292
290
291
270
271
274
277
1132
2262
2260
2266
2264
2443
2447
2444
2449
108
109
102
100
107
104
2044
2045
2042
2040
3198
2048
2049
2838
3159
2834
3239
1375
2684
2685
2686
2687
2681
2682
99
91
90
92
96
3207
1622
1993
3204
1627
1994
1997
3200
1998
1629
1628
2860
2861
2864
2865
2866
554
557
556
551
553
3015
1198
1191
1190
1196
1759
1756
1754
1753
1750
1177
1174
1173
1171
1179
1007
1005
1284
1287
1286
1283
1003
514
1578
689
1001
1572
1571
686
683
682
1227
1349
1220
1371
1370
404
403
401
1379
408
2747
454
1345
373
375
374
377
376
392
390
396
395
398
1247
2300
2304
1246
3203
244
240
242
249
248
2275
2274
2277
2273
2272
2279
2278
2459
2455
2456
2451
2450
2453
2452
179
178
177
176
175
173
171
2053
1111
2057
1503
2058
654
1504
2698
2697
2696
2695
2694
2693
2691
2690
1973
1604
3223
3222
3232
3233
1968
1969
1618
1964
1965
3238
1967
1960
1613
1610
1611
2873
2872
2877
2875
2878
1762
1763
1767
1764
1765
1142
1143
1140
1141
1144
2964
1148
1547
1544
1545
1543
1540
695
1548
542
762
541
546
544
1781
548
1782
764
416
417
410
411
412
413
1384
1385
1386
1380
1381
1382
2438
366
367
364
3214
383
385
388
389
2191
258
2194
2195
2198
2199
250
251
257
2200
2204
2206
2208
2429
2424
2426
2427
169
164
166
167
161
3212
2519
2516
2510
2511
2512
2735
2730
1091
1816
1817
1810
1812
1813
2795
1609
1608
3229
1979
1976
1975
1974
3221
1972
1971
1606
809
803
800
806
805
2848
2844
2845
2842
2840
1774
1776
1770
1778
2999
1155
1154
1157
1150
1152
1555
2998
1550
1553
1552
3038
1557
1556
3034
2991
57
56
3030
2996
3033
55
535
534
533
532
2992
539
3037
2994
3294
53
429
428
1399
1397
1396
423
1901
1392
1391
1841
1970
2181
2180
2187
229
228
226
225
223
220
2215
2218
152
155
159
2436
2435
2507
2506
2505
2503
2500
2727
2725
2724
2723
2720
1807
1805
1803
1802
1808
1524
1948
1257
1943
3252
1946
3255
3256
818
819
811
812
816
2859
2858
1990
2850
2852
2856
1490
1491
1493
1496
1499
1702
1703
1625
1707
1709
1121
1125
1127
2988
2983
3026
3024
3021
3020
524
1019
523
1015
1017
1010
529
1013
1235
1231
1232
1233
436
437
434
435
432
2464
239
237
2945
232
233
2226
2227
2224
2222
2223
2220
2221
1
146
147
145
148
149
2089
2082
2083
2080
2539
2532
2533
2530
2537
2535
2712
2710
2711
2719
1832
1830
3090
1839
2155
939
2405
2150
2151
2400
2153
933
932
931
936
2408
934
1955
1957
1956
1953
1952
1958
3248
3243
3241
3240
3247
3246
825
824
826
823
1481
1480
1486
3308
1484
3307
1489
1488
3302
1713
796
1711
794
793
1716
790
799
1270
1138
1133
1995
1131
1136
1135
1134
614
921
3018
3011
3014
2797
519
1009
1008
511
513
1004
515
1002
517
516
623
622
626
1221
624
628
1229
1228
2881
3093
2885
2889
3196
11
13
12
15
17
18
3194
201
200
204
207
206
2239
1570
2230
2233
2232
2235
1575
3190
1574
2184
2095
2097
2096
2091
2090
2093
2524
2527
2526
2521
2520
2522
2529
2528
2709
2708
2705
2707
2706
1827
1826
1823
2147
929
2145
2412
920
2418
922
924
925
2149
2411
1920
1921
1922
3275
3272
3270
3271
1928
832
833
837
834
835
838
839
3
3311
3312
784
785
781
782
783
1727
1724
1725
1722
1723
1721
60
61
63
64
3000
66
67
68
3008
1588
1582
1580
1581
1585
508
509
506
1033
1030
505
502
1034
501
630
631
1210
633
634
635
1215
638
1218
1219
2899
2895
2897
2890
2892
1106
1107
1105
1450
1103
1100
1453
1108
1109
789
217
215
212
213
210
211
218
2138
3074
2550
2551
2552
2553
2554
2557
2397
2394
3006
2390
2391
2398
2399
3003
2771
2772
2774
2775
2776
1858
1859
1852
1853
1854
1857
2171
919
2177
2174
2175
915
914
916
913
2602
2608
1933
3260
1931
1930
3264
3267
3266
3269
458
847
844
841
840
848
1733
1732
1737
751
757
756
754
759
1595
1032
1597
3073
1591
1590
1593
3077
3078
2955
2956
504
1027
1031
1021
1029
1028
500
1035
605
1209
603
602
1205
1207
609
632
1202
1216
3109
3104
3105
3101
3102
3103
1447
2056
1112
5
1114
1441
467
1449
466
2308
1355
489
488
487
486
485
484
3005
199
195
197
191
190
2540
2547
2546
1455
1274
2549
2548
2381
2380
2383
2385
2387
2389
2388
2768
2763
421
2766
2764
902
903
1849
906
904
905
1842
908
1840
1847
2168
3251
2164
2167
2161
2160
2162
2617
2615
2612
2611
2610
2619
2618
3298
1944
1908
1909
1906
1907
1904
1902
3291
3292
3293
855
850
422
859
6
740
744
745
749
3063
3062
3061
1798
3067
3066
2948
3069
2944
2943
2941
1050
1051
1055
1057
1059
1696
2918
1695
1691
1791
1699
1279
618
1790
612
1797
1273
616
617
1276
1277
3119
3118
3117
3116
3115
3112
3110
1472
1473
1470
1477
1474
1475
1478
1479
1304
1305
1302
1303
3263
495
496
497
493
24
26
20
21
22
23
29
2599
7
2281
2282
2284
2285
2052
2578
2577
2574
2575
2573
2378
2379
2377
2371
2372
2373
2594
2596
2591
2593
2598
1085
1876
1872
1870
977
975
974
973
2119
183
186
187
184
185
2110
188
2113
2114
2115
2116
2117
2626
2629
1919
3289
3288
3287
1910
1913
1912
1915
869
868
861
864
2026
2753
2751
2828
2028
2029
2759
881
887
889
888
2824
774
776
779
778
75
2979
72
71
70
2973
2970
3055
2974
2975
1041
1040
1046
1049
3027
1683
1682
1685
1684
1686
1688
668
1263
1262
1261
663
662
1265
3286
2984
3285
3122
3126
3125
1465
1464
1466
1461
1463
1317
1315
1314
1310
528
1011
319
313
314
2754
1336
2023
1333
2293
2290
2296
2295
2569
2568
2561
2562
1615
2368
2366
2587
2586
2585
2580
2588
1861
1860
1866
1868
965
966
967
962
963
969
2108
2101
2100
2106
2635
2634
2637
2636
2630
2633
878
1240
877
874
875
872
873
2037
2036
3091
2745
2031
2746
9
2748
1532
890
893
3094
896
898
899
1530
3236
3237
1616
1617
1966
2965
1789
768
769
2960
2962
1780
763
760
761
766
767
1786
765
3043
3042
3044
1078
1079
1074
1072
1073
1070
1071
1678
1677
1670
1671
1672
1097
679
1092
1534
676
3135
3131
3130
3138
1418
1419
1410
1411
1415
1417
1322
1320
1326
1325
1329
2494
2496
1531
1256
1525
1526
1527
1523
1528
1529
1259
308
300
301
302
304
305
307
2475
3057
3051
2358
2359
2350
2351
2356
2354
2355
1896
1893
2136
958
2133
2130
2131
951
953
957
956
2648
2649
2993
2642
2643
2645
2646
2647
2002
2003
2001
2006
2007
2005
2008
2009
667
2912
2913
2915
719
2917
1793
2919
715
714
713
711
710
661
2179
1061
1060
1062
1067
1066
1667
1666
1663
1661
1660
591
1086
593
1080
1089
3140
3141
3142
3144
3145
3146
3147
3148
2825
2827
2821
1408
1407
1406
1405
1404
1339
693
1335
1337
440
447
1330
445
691
697
3261
38
33
30
37
36
34
3092
640
1243
642
1533
644
647
3095
648
3098
3099
1538
339
1935
336
331
330
8
2344
2347
2346
2341
2343
2342
2348
1889
1887
1883
1882
1880
2121
2120
2123
2122
2125
2127
946
947
944
945
942
940
941
2410
2659
2652
2657
2656
130
137
134
138
1354
2018
2015
2017
1936
2903
2902
2901
2900
709
2905
2908
701
88
83
80
87
84
85
1653
1656
1654
586
587
585
583
580
581
1984
588
589
3153
3152
3150
3156
3154
2836
2835
3158
2832
2831
2830
1437
1434
1433
1430
418
3213
1348
459
450
451
452
453
1344
455
1346
3032
656
657
1500
652
3088
650
1505
3084
3087
3080
658
659
1598
2129
2815
323
320
325
328
564
3070
2335
2336
3071
2339
3072
2958
2959
2954
2486
2487
2485
2482
2483
2480
2481
2249
2244
2247
2241
2242
995
2465
996
991
990
992
999
2469
120
121
1026
125
126
127
128
2068
2790
2791
2064
2065
2067
2667
2660
2668
2669
2937
2934
2935
2931
1645
1646
1641
1643
1648
578
573
572
570
577
576
574
2808
2809
3168
3169
3166
2800
2806
3163
2804
1421
1420
1424
1427
2407
1429
2404
731
730
733
732
734
738
2403
1358
1353
464
1351
1350
1357
460
463
608
3224
1519
935
1515
1511
1513
3180
3181
3188
3189
356
355
353
352
351
2322
2326
2325
2324
2328
289
1444
283
285
284
287
286
1117
267
266
269
2499
2498
2490
2493
2192
2497
1297
2259
2254
2252
2251
2250
2477
2476
988
989
2473
2471
980
986
2479
985
115
117
111
118
2785
2789
2078
2073
2071
2070
2077
2076
2074
2671
2672
2675
2676
2929
2920
2925
2927
2564
2906
1630
3215
1632
1985
1634
1636
1981
1638
1639
568
569
707
2811
2813
2812
561
562
2819
2818
566
567
3178
3171
3170
3175
3177
3176
1188
1189
1187
1184
1182
1180
726
727
724
1749
720
721
1744
1746
1741
1742
1743
1164
1167
1160
1162
1169
49
46
47
44
45
42
1364
41
1569
1298
1299
476
1562
1565
1566
1567
797
475
795
1710
1366
473
3195
471
1362
1361
478
479
2916
1368
1369
