346
347
349
2318
2311
296
297
295
292
293
290
291
270
271
272
273
275
279
2268
2263
2260
2261
2266
2264
2443
2441
2447
108
102
103
101
104
2047
2045
2042
2043
2041
2048
3238
3159
2689
2684
2687
2680
2683
91
93
92
95
97
96
1623
1990
1621
1992
1995
3202
3201
3200
1998
1629
1628
3209
3208
2861
2862
559
2865
2867
555
554
557
552
1193
1195
1196
1757
1756
1755
1754
1753
1750
1172
1287
1280
1283
1289
689
688
1573
684
687
1570
1577
1575
1574
1224
626
1220
1371
1370
1373
404
403
401
1376
2745
409
2744
377
376
3093
3205
393
392
391
390
396
398
895
2309
2308
2301
2305
2304
2306
3203
245
247
246
241
243
249
2274
2277
2271
2278
2456
2451
179
178
177
176
175
174
173
170
2051
2052
2054
2057
2056
2058
654
653
1110
1504
1601
658
2699
1976
2697
2696
2692
2690
3222
3230
3231
1968
1969
1618
1619
1617
1614
3239
1960
1962
1963
2872
2871
2875
1769
1762
1760
1761
1764
1142
1143
1140
1789
2967
1546
693
1544
1545
1542
1540
1541
542
543
541
546
547
1783
414
415
411
412
1385
1387
418
1382
1383
369
364
362
360
361
380
381
382
386
388
389
2190
259
2196
252
253
250
256
257
254
255
2200
2202
2204
2207
2208
2428
2429
2420
2422
2424
2425
2426
2427
2432
3211
165
166
167
160
162
163
2514
2515
2516
2510
2511
2730
2733
2738
1815
1817
1810
1811
1819
1087
671
3229
3228
1979
1978
1977
1600
3227
3226
3221
3220
1971
1970
808
801
800
805
2846
2847
2844
2843
1775
1777
1776
1771
1772
1779
1778
1159
1158
2999
1155
1151
1150
1555
1554
1550
1553
3038
58
1557
3034
1558
2993
3030
2995
53
52
1559
533
531
2991
50
2996
3033
536
429
428
3292
1399
421
420
425
1391
426
530
2182
2181
2187
229
2184
226
2189
2188
222
2212
2211
2216
2219
2218
151
150
2439
155
159
158
2430
2437
2435
2509
2505
2503
2502
2727
2726
2724
1806
1805
1802
1809
3259
1948
1949
3252
1946
1944
818
819
810
811
813
815
816
817
1991
1622
1251
2854
2857
1490
1491
1492
1493
1495
1497
1627
1626
1703
1704
1705
1707
1128
1129
1120
1123
1125
1126
2989
2988
3029
3027
2982
2981
3024
2987
2985
524
525
526
521
1014
528
1012
1013
1234
1237
1231
1232
1233
2526
436
437
435
433
430
3123
2864
3065
994
3064
235
231
232
2461
2462
2226
2224
2225
2220
2221
1
146
144
142
143
140
141
148
2088
2082
2083
2080
2081
3092
2084
2085
2538
2531
2536
2534
2710
2714
2718
2719
1833
1831
1834
1835
1838
1839
2154
2156
938
2402
2151
2400
2153
932
930
935
934
1691
1951
1950
1953
3243
3242
3241
3246
3244
824
827
821
1483
1482
1481
1480
1486
3308
1484
3306
3304
1488
3303
3300
3301
2147
1711
794
792
791
1714
1719
798
2412
3095
1139
1138
1274
1131
1130
1137
2418
615
3018
1994
3015
519
1007
510
512
515
623
1226
621
620
1223
1222
625
624
1228
2882
2880
2881
3197
2884
2888
2889
11
10
13
15
14
17
18
1924
3193
3192
201
200
205
206
1572
1571
2239
2238
2231
2233
2235
2234
2236
682
228
2097
2096
2091
2093
2099
2098
2525
2524
2527
224
2523
2522
2528
2709
2708
2950
2704
2706
2701
2700
2703
1828
1827
1826
1821
1820
2411
929
2144
2142
2141
921
922
923
925
926
2148
1920
3277
3274
3272
3273
1926
1927
1928
1929
3279
833
830
835
838
839
3
1986
3199
3311
3312
780
781
1728
1729
1726
1727
1724
1722
1720
153
3004
63
65
3003
67
68
69
3009
1589
406
1582
1580
1586
405
1584
2433
1038
1039
509
506
1375
1030
1031
502
503
500
501
631
1216
635
636
1215
638
639
1218
1219
2899
2890
2893
1106
1104
1980
1103
1100
1101
1459
1108
214
215
212
213
210
211
218
219
2138
2550
2552
2554
2557
2558
2397
2394
2395
2392
2390
2398
2399
2779
2770
2772
2773
2774
1850
1851
1853
1854
1855
1856
1857
2170
2804
2174
914
911
910
913
912
2605
2607
2603
2608
1933
1932
3262
3264
1935
1939
1938
847
846
845
844
843
842
841
849
1739
1730
1737
753
751
750
756
755
759
3070
1594
3072
3073
2958
2955
1599
504
1024
1020
1022
1036
1029
1034
1035
605
600
1205
1207
1206
1201
1203
3109
3104
1447
465
1113
1444
1115
464
1119
1448
460
1355
489
486
485
462
483
482
481
199
198
197
196
191
190
2547
2548
1456
2380
2385
2387
2388
1452
2763
2761
2760
2765
903
900
901
905
908
1846
1844
2164
2167
2161
2617
2615
2613
2611
2610
2619
2618
3299
1908
1909
3295
1904
3297
1902
1903
1900
854
855
850
851
858
859
6
742
743
745
747
749
2912
3062
3061
3060
3067
3066
2949
2948
2947
2946
2945
3068
1051
1052
1054
1055
1056
1058
1059
1696
1697
1692
1693
1690
2919
1698
1699
1279
619
1270
613
610
611
616
1275
614
1277
1794
3118
3114
3112
1473
1476
1479
1304
1305
1306
1300
1308
1309
499
494
495
490
491
25
26
20
21
22
23
29
2288
2280
2281
2284
2285
2286
2287
2578
2576
2572
2570
2571
2378
2375
2376
2377
2371
2372
2594
2595
2590
2598
2599
1877
1874
592
1872
1873
1870
1871
1878
977
976
975
973
972
971
970
978
181
186
187
2110
2112
2115
2116
2623
2620
2627
2624
2625
2628
2629
1918
3289
3287
3285
1912
1915
188
1917
868
861
860
862
866
2024
2025
2754
2755
2752
2753
2751
2028
2029
2758
883
882
880
885
888
775
771
770
772
778
77
75
70
2972
2973
2970
2971
3052
3053
3050
1043
1042
1046
1044
1049
1684
1687
1686
2980
669
666
1267
1266
1911
1507
3284
3122
640
3121
3126
3127
3282
1469
1467
1463
1316
1313
1312
1319
3035
318
313
312
311
316
315
1335
1337
447
2698
2299
2298
2293
2291
2295
2562
2565
2564
2567
2566
2368
2365
2362
2360
2587
2586
2582
2581
2588
1861
1860
1862
1867
966
961
968
969
2108
2103
2102
2100
2639
400
2636
1537
1536
876
875
872
871
2037
2036
2035
1534
2033
2032
9
1533
2039
2038
647
896
898
1246
3236
3237
1966
2965
2964
768
1615
2961
2960
2963
2962
1780
763
1782
761
2969
1785
1786
1787
1610
3041
3040
3042
3044
3047
3046
1079
1074
1072
1073
1678
1676
1677
1670
1097
1091
1093
674
675
677
670
1099
672
3135
3134
3137
3131
3133
3132
1418
1410
1414
1415
1417
1322
1532
1324
1329
1531
1256
1255
1520
1521
1523
1528
1258
1259
300
302
304
306
2858
3059
2474
3057
2976
1446
2990
2358
2359
2353
2350
2356
2355
1894
1895
2136
2132
2131
951
950
953
952
955
957
956
2648
2642
2643
2645
2646
2002
2000
2006
2007
2008
3026
2910
2911
1799
1798
2914
2915
718
717
1792
1790
713
1795
710
1068
1060
1065
3023
1665
1664
1662
1661
591
1086
1084
595
594
1080
598
3140
3141
3143
3144
2829
3146
2824
3149
2827
2821
2823
1402
1401
1404
692
449
448
1339
443
442
441
1331
691
3261
38
32
31
36
35
34
1241
1240
1242
645
644
3094
646
3098
1538
334
336
331
333
1636
2345
2344
2346
2343
2342
2349
1888
1885
1884
1883
1882
1881
2123
2122
2124
948
2126
946
947
944
945
942
943
941
2659
2658
2653
2651
2656
2654
132
131
130
135
139
2018
2015
2016
2011
2012
708
2905
2904
705
706
707
700
701
82
83
80
87
84
85
1652
1653
1650
1651
1655
587
582
581
1984
3153
3152
3151
3150
3157
2839
3210
2835
2834
2833
1635
1436
1434
1435
1433
458
450
451
1342
455
456
657
1500
1506
3088
650
1505
3085
3086
3083
659
2129
2128
322
323
321
324
325
329
1340
2330
2331
2332
2333
2337
1597
1596
2487
2484
2485
1598
2248
2249
2246
2247
2241
2242
2243
995
2465
997
990
993
2463
121
122
123
129
2068
2798
2799
2792
2791
2796
2797
2794
2067
2666
2664
2662
2661
2669
2938
2934
2935
2932
1645
1646
1641
1648
579
572
571
577
576
575
574
2802
3167
2800
3165
3162
3163
3160
1420
1423
1425
1427
1426
1428
2404
730
733
2405
734
2403
1358
469
468
1353
1352
467
466
1357
1356
463
1354
1519
2408
1514
2409
1512
281
3185
3214
3180
3181
3182
3183
3188
3189
357
356
350
359
2323
2321
2320
2324
2328
1112
1793
282
285
284
286
1116
263
261
260
265
1293
269
2490
2493
2495
2494
1566
2258
2257
2253
2251
2250
2475
989
2472
2471
2470
982
983
980
987
2479
2478
115
114
111
113
112
119
2787
2780
2783
2782
2079
2078
2073
2070
2077
2075
2074
1389
2670
2673
2672
2675
2674
2677
2676
2928
2921
2923
2907
1630
1987
1632
1985
1982
1983
3212
1638
3219
1988
1989
2909
2815
569
2817
2816
2810
562
563
564
565
3171
3170
3173
3175
3174
3177
3176
1186
1184
1185
1182
1183
1180
724
725
3217
1744
1745
1747
1741
728
1164
1162
1163
1169
1366
2913
3305
48
3196
47
45
42
43
40
1568
1569
1298
1299
1788
1560
1561
1290
1291
1564
1297
1294
477
796
3190
795
1710
790
472
1367
470
3194
476
1363
1361
479
1368
3198
