345
346
347
340
341
342
348
349
2318
2317
2314
2313
2310
2311
294
292
293
290
291
270
272
3211
2260
2265
2440
1781
2444
2445
109
103
101
107
105
2047
2044
2045
2042
2040
2041
3198
2049
3158
1210
2688
2684
2686
2687
2682
99
98
92
95
94
1991
1622
1621
3204
1627
3202
3201
3200
1998
1628
3013
2861
2863
559
558
2866
2867
555
554
557
551
553
552
1191
1190
1192
1195
1758
1757
1756
1755
1754
1753
1751
1175
1173
1171
1170
1179
1285
1289
1288
514
1579
1573
687
686
1577
680
683
873
626
1220
407
405
404
1374
1377
1376
1379
1378
453
454
456
379
378
371
375
390
394
2309
1247
2301
2300
2302
2304
2306
1246
245
241
243
242
249
248
2274
2277
2276
2279
2459
2455
2456
2451
2452
179
177
175
170
2051
2050
2055
657
2059
3089
653
1364
225
1600
2697
2696
659
2692
3226
3220
3223
3232
3230
3231
3236
1619
1964
1617
1614
1615
1612
1613
1610
2873
2870
2877
2876
2875
1769
1762
1763
1760
1764
1140
1145
1148
692
1547
1545
1542
1540
695
698
699
1548
543
540
541
546
544
545
548
549
1782
2969
2388
414
415
1388
411
412
1385
418
1381
1383
2446
2438
368
369
366
365
363
360
361
381
385
386
387
388
389
2190
2191
2195
251
2200
2202
2203
2204
2205
2206
2209
2428
2420
2421
2422
2424
1849
2426
2427
168
169
166
167
161
162
2519
2510
1841
2512
2513
2736
909
2732
2733
2738
2739
679
1814
1815
1816
1817
1813
3229
3228
1978
1086
1976
1603
1974
1605
1604
1971
1555
803
801
800
806
804
2849
2847
2845
2840
2841
1775
1777
1776
1771
1770
1773
1779
1778
2998
1157
1156
3038
1551
2999
1553
1552
59
3039
1557
1556
2990
54
2992
56
2994
2996
52
537
533
532
530
3036
539
3037
51
2997
3296
1903
3292
1396
423
422
424
426
2382
2183
2182
2180
2187
2186
227
2189
2188
222
221
220
2213
2210
2217
2219
2439
152
154
157
2433
2432
2431
2430
2437
2435
2434
2506
2504
2502
2501
2500
2725
2723
2720
1802
1801
1800
1949
1942
1940
1941
3254
1947
818
819
1527
810
816
1253
2859
1250
1990
2850
2853
1993
2857
2856
1491
1492
1620
1497
3203
1701
1702
1703
1705
1707
1709
1624
1392
1128
1129
1123
1124
1125
1127
3029
3026
3025
3023
2986
3021
3020
524
525
1018
521
522
523
1015
528
1011
1013
1234
1235
1236
1230
1233
1440
436
434
432
430
2865
2869
1961
3160
3064
2467
238
2460
236
2945
233
2228
2226
2227
2225
1
146
147
144
140
148
149
2089
2083
2080
2086
2532
2531
2536
2534
2712
2713
2710
2716
2717
2718
2719
1832
1830
1836
1834
1835
3090
1838
1839
2154
2155
939
2402
2151
2152
2401
2158
2159
2408
934
3091
1957
1951
1953
1959
3249
3248
3243
3240
3247
828
827
821
1483
1482
1481
1480
1485
3309
3306
3307
1489
3305
3302
796
794
1717
791
1714
2413
798
1138
2417
1132
1137
1136
1135
1134
2419
476
1277
2790
2791
3012
2796
3017
3014
3015
518
1008
511
1005
512
1003
1002
517
1000
621
620
1223
1222
624
2883
2886
3093
2885
2
3196
10
15
16
2959
1926
3271
3192
201
202
204
207
1571
2239
1570
2231
2230
2233
2237
1575
2096
2090
2093
2092
2098
2525
2524
2527
2526
2520
2522
2708
2707
2701
2700
2703
2702
1829
1828
1824
1821
1820
1822
2147
929
2145
2141
2416
920
2418
924
926
2148
2411
1920
3277
3275
3272
3273
3270
1927
1928
1929
3278
832
830
837
834
835
838
3
3310
787
780
781
1728
783
1727
1724
1725
788
1720
1721
153
3005
61
3007
3006
64
65
67
69
3009
1588
1589
1583
1580
1581
1586
1587
1584
1038
1039
508
158
507
1030
1031
1036
1037
500
1035
1212
632
1211
634
1217
637
639
1219
782
2894
2896
2890
2892
1107
1457
1451
1452
1453
1459
1109
217
214
212
218
2138
2551
2552
2554
2555
2556
3004
2559
62
2395
2390
2391
2398
3000
2770
2771
2772
2773
2774
2775
2776
3166
1858
1859
1852
1854
1855
1857
2172
2170
919
2177
914
917
916
911
913
2605
2606
2607
2601
2602
2603
2608
2609
1933
1932
3263
1930
1937
1936
3269
3268
844
843
842
840
1738
1731
1733
662
1737
753
758
1595
1594
1597
3074
1590
3076
1592
2954
2957
1599
504
1025
1024
1021
1020
1023
1029
606
1209
603
1205
1204
1206
1201
608
1216
635
3109
3105
2400
3101
1111
1110
1445
1444
1115
1442
1441
464
1119
1351
1449
1355
485
483
481
198
190
193
2543
2541
2540
2547
2546
2381
2380
1105
2384
2389
2409
1103
2769
2768
2761
2760
2767
2765
902
903
900
1848
904
905
1843
420
908
1840
1845
2169
2168
2165
2164
2166
2161
2162
2617
2616
2615
2610
2618
1908
1909
3294
1904
1902
3291
1900
3293
854
857
850
744
745
749
3062
3060
2948
2947
2946
3069
2943
2940
1051
1052
1053
1054
1056
1057
1058
1059
1696
1690
1691
1791
1698
1699
1279
618
1790
1271
1272
1273
1274
1275
614
1796
615
710
3118
3117
3115
3114
3110
1472
1473
1470
1475
1305
1309
3308
498
499
494
495
496
490
493
26
22
2288
2282
2284
2285
2286
2578
2572
2571
2378
2376
2373
1087
2597
2590
2593
2599
1876
1877
1874
1871
1878
976
975
973
971
2118
2119
181
186
187
185
2111
188
189
2114
2115
2116
2117
2622
2623
2620
2621
2625
2628
1919
3288
3287
1912
1914
1917
3280
869
868
2113
863
862
865
864
2024
2025
2754
2755
2752
2021
2751
2028
2758
1502
882
884
888
3148
774
776
770
779
778
75
74
73
72
71
70
2972
3057
3055
3052
2977
79
3051
1043
1042
1040
1047
1046
1045
609
1048
1680
1689
1688
1269
669
1263
1262
1261
1267
1266
1265
1264
2984
3122
3123
3121
3126
1465
8
1467
1461
1460
1462
1317
1316
1315
1310
3276
1010
529
3035
311
310
317
316
2756
2757
1337
445
1332
2759
2299
2298
2293
2290
2297
2561
2567
2566
2369
2368
2367
2365
2361
2360
1862
1865
1866
1869
966
967
963
401
968
969
2109
2108
2103
2101
2100
2106
2635
400
2636
2631
2630
879
877
875
872
1243
870
871
2037
2743
642
2032
9
2038
890
892
894
1531
897
898
3095
3235
1616
1966
2965
2964
768
769
2960
2962
1960
760
761
1784
2968
1787
3049
1962
3042
3047
1079
1076
1535
1072
1073
1070
1071
1678
1670
1671
1672
1094
1096
1097
678
1091
1092
1093
674
675
676
677
1098
673
3134
3137
3133
3132
3139
3138
1412
1414
1416
1417
1323
1326
1328
1329
1257
1526
1255
1521
1522
1251
1529
1258
1259
308
302
304
305
306
307
2399
3058
2973
2976
2974
2359
2352
2353
2356
2357
2991
1894
1895
1896
1897
1890
1891
1893
959
2137
2130
953
952
954
957
2640
2643
2644
2646
2003
2001
2007
2004
2005
2008
2009
2034
667
918
2910
2912
715
714
1797
712
1795
1794
661
660
1069
2179
1063
1064
1067
1668
1667
1665
1664
1661
591
590
1085
1084
1083
594
1081
599
3140
3022
3142
2828
3147
2824
3149
2826
2827
2820
2821
2822
2823
1408
1405
1404
449
693
1335
442
441
1331
446
1333
444
696
38
30
37
36
34
1537
1536
643
1534
645
1244
647
1530
1249
3098
3099
3264
339
338
336
1901
1636
2344
2347
2341
2342
2349
2987
1889
1886
1885
1884
1883
1882
1881
1880
2121
2120
2123
2122
2127
949
2129
2128
945
942
943
2651
2650
2656
130
136
135
134
1931
138
2018
2016
2011
2013
182
2112
2902
2900
709
2904
704
705
707
701
703
88
81
86
85
1658
410
1650
1651
1656
1654
1389
587
585
763
580
581
3153
3152
3151
3217
2838
2836
2834
1635
1432
1980
3213
1438
458
1340
1341
1343
1344
1345
1346
656
1503
1500
1501
1506
1507
650
651
3085
658
516
946
2814
322
320
326
325
2819
2332
2333
2334
3071
2339
3072
1995
3075
3077
2488
2950
2484
2485
2482
2483
2481
2248
2249
2244
2012
2242
2243
2464
2466
996
991
2461
2462
2468
127
128
129
2798
2792
2062
2063
2064
2066
2795
3255
2667
2665
2663
2660
722
2668
2938
2939
2930
1645
1646
1640
1643
1648
729
572
571
570
577
2809
3169
2802
3164
3165
3163
2804
2805
1421
2406
1422
1425
1394
1426
1429
2156
731
733
732
735
737
736
738
1359
469
468
1353
1352
467
466
463
1200
937
1519
1518
1517
1516
1510
1512
1735
3185
3186
3181
3183
356
353
2323
2322
2320
2327
2325
2324
2329
2328
289
288
1112
281
280
283
282
284
286
1116
262
260
266
265
264
269
268
2498
2494
2496
2259
2258
2257
2254
2253
2251
2475
989
2472
2470
982
2830
2479
2478
115
114
112
119
2787
2786
2781
2780
2783
2782
2072
2071
2077
2076
2074
2673
2672
2675
2674
2677
2679
2678
2928
2923
2925
2906
3214
1987
1984
1985
1982
1983
3212
1637
1639
3219
1988
568
569
2816
2810
2813
563
564
3179
3178
3172
3176
1188
1186
1187
1182
1180
726
727
724
725
1748
723
720
721
1747
1740
1742
1743
1164
1165
1167
1160
1161
1488
473
46
44
42
43
40
41
1569
1561
1290
1296
1294
1567
474
2425
3197
1367
3195
1365
1362
1363
3191
1361
479
1368
1369
