4133
1212
1076
2224
289
5755
4549
3073
4117
2601
1374
2079
3233
4182
2321
4176
1900
646
777
4319
5687
3909
3582
2859
3134
3172
1178
2544
1430
3743
2847
2316
42
1784
3373
614
2363
2400
2500
1528
2205
4200
5520
3284
4591
4007
964
159
213
3690
381
4650
3524
1397
2748
4299
3557
193
3795
2277
5637
1903
5373
1252
5696
3905
3286
2041
3005
5578
3695
4624
4457
5860
4403
3230
4474
1243
2731
3445
1392
5823
3504
1493
3345
4278
5458
4028
4493
825
3403
3302
940
1340
518
2746
608
2362
4434
4451
5111
4586
2424
1365
2126
3450
1129
5758
242
3495
1378
5119
755
5032
3277
3065
248
3870
2960
15
3027
1638
5090
3029
5437
5703
2006
1722
288
1421
1027
115
4544
5905
1879
3307
118
992
84
5806
3181
2484
3609
1678
1589
5626
2538
1630
1575
4330
5332
1882
599
5066
45
5856
4504
3006
2530
1601
969
1311
4537
1063
2177
3209
5204
786
844
1353
1612
1898
3864
2206
5205
4071
2696
2039
5014
4393
4541
644
1142
4062
799
2300
4571
848
1325
3579
3015
3715
3098
524
5185
2611
5396
1419
2204
4364
1502
2356
5539
951
2071
5331
1652
449
3570
3894
595
499
3900
4468
2605
1041
812
1371
3910
5158
4130
2886
129
4351
3028
5761
2756
406
2788
1648
3528
4458
1715
4149
2470
5546
1939
3754
1646
3917
3704
3270
670
3756
1177
4015
3742
5881
3415
930
203
102
4120
685
5798
166
5772
2037
942
59
627
5028
3434
2964
5072
5523
2189
2545
3139
1047
1428
1783
297
2811
1126
3700
5170
4315
2439
5690
1724
1095
2002
5766
5165
3707
5533
1986
5323
2765
2425
4407
601
4643
5598
882
3363
3595
3167
4397
2032
5547
793
2375
5144
5903
1361
4370
1070
5705
1086
2633
395
5475
1485
5882
1172
5676
5407
4377
2907
1373
1469
1540
5134
4230
594
2985
3419
1468
4459
4070
3734
4521
5312
3103
1622
1119
1838
94
582
3882
4350
796
1135
178
114
3016
1799
590
5504
3355
4601
4215
392
5670
4382
559
2562
1015
2040
5645
3638
929
3887
669
989
3472
2821
541
1187
934
3405
2410
3612
4017
4597
4560
3939
2646
2171
2574
1114
1832
1507
4221
2745
2919
2468
1950
5194
167
4414
5526
4317
3100
1309
5252
597
1740
5549
2427
2102
850
2304
2496
5788
366
5265
5065
5744
3303
3656
1240
2789
1227
2737
251
2815
1147
1498
967
4256
5187
1937
4617
5300
3059
5682
2864
1764
275
4048
171
3824
1299
1051
947
4276
4455
5280
824
1894
3642
2556
2533
19
3669
3310
5130
1569
2169
5093
3792
4441
5841
5076
3855
417
5228
3248
1139
1504
1971
1433
2399
225
4565
4454
4531
3709
618
5640
3453
3203
1962
2594
3938
2807
1687
2123
383
310
5780
783
5347
4103
4049
665
2840
1069
5542
5479
885
101
1372
3507
1554
1394
1167
5550
1755
4197
5324
2875
3517
843
3991
3269
1276
1573
5712
2493
1061
4251
3888
206
3838
5714
3720
881
1332
968
3340
215
3967
5164
842
2925
308
3985
2333
3794
1260
1281
693
3716
2973
2816
1256
3974
5264
1245
2846
2313
5538
5603
5227
961
2415
3825
1471
5399
1511
4461
5022
3735
5462
2480
980
362
5432
1191
4634
353
2724
5149
1845
1733
4484
5566
834
2942
1322
3807
4162
1993
3996
3942
4087
2618
373
4637
2423
484
3649
1902
5586
2726
5662
5648
5695
1825
1558
4097
3782
2326
2230
3060
5480
4412
2237
2862
641
1221
2342
5151
3201
1553
3210
5366
3256
5620
5059
4143
4465
5583
1518
3101
1745
3226
2486
3625
4178
5246
219
494
4014
5073
2047
5636
3376
5677
4445
4420
857
1735
2136
5351
3660
2979
1460
1677
317
3205
5283
1960
2722
1409
3970
5435
675
2320
3389
1555
5649
350
1016
1866
1028
1094
2481
660
4332
1593
2432
3722
1026
1906
5276
1757
3454
3159
1714
5536
3849
1012
3018
1399
3008
1111
1389
5719
5895
2962
4124
3780
4331
4476
2196
4418
147
1534
2717
1486
909
4026
5126
883
5678
2115
515
1818
5699
410
5011
3331
4006
3034
183
3706
3212
2996
5152
5602
819
1398
2207
678
2381
3689
3370
772
1258
1662
5607
1627
4068
1834
1019
514
5814
1529
35
2247
357
3736
5720
4157
990
3916
4248
285
370
1946
5750
4532
5308
2520
3845
2932
1132
792
2306
1965
3581
181
76
3280
5494
3856
64
3190
898
4274
1841
3846
5459
852
3693
891
3124
3733
3336
1200
1926
2105
1064
4649
4507
5224
3474
2391
4089
979
4584
3547
3162
1711
1056
5478
3044
3406
4034
5080
5377
54
2059
2969
312
3352
2558
832
2184
1680
1137
4224
1453
2995
2676
1417
2241
1077
3681
3246
1257
4510
5443
5534
1702
2575
2572
5492
4326
5825
4314
4013
5683
1431
2291
1074
2866
2982
1843
815
3836
3590
4129
3108
3964
1006
4518
5008
1565
4463
3951
2577
143
5803
3503
3740
1597
2896
1344
3257
3565
3063
4037
4324
4255
5545
5362
3182
4464
3666
587
1298
624
4606
1251
1517
1402
1592
2691
519
2203
2959
521
1684
1219
1293
55
1703
5103
5495
853
135
3661
223
3051
5514
5015
5829
5157
676
3260
2250
4152
5190
274
205
3551
1072
5831
2708
3320
359
2100
984
531
3199
3013
3663
3114
3161
2422
3138
3323
201
5471
3147
1607
1968
2222
4096
3421
2442
5922
5094
5763
516
1574
2504
699
5353
1324
1206
983
1985
5821
3662
3426
3152
5051
3247
5605
837
2786
5785
619
291
3339
1839
2109
2841
4625
1405
567
1544
5748
3903
1476
2034
2700
2249
3328
2436
3411
1220
4265
4427
492
70
5686
3513
5292
3178
1892
625
4134
5339
3227
3755
920
3769
5295
232
3265
2023
2084
2769
4396
913
3489
4375
813
2454
3410
5880
2218
581
1496
4372
4516
3418
2552
2312
1849
5467
987
3877
1608
5656
1581
126
5585
4383
2284
32
3957
1339
4453
845
3202
4069
5665
231
2974
687
5113
2682
1292
3901
3357
4228
1812
5277
4112
5365
2270
5898
2067
2327
2631
5146
1435
464
5135
293
5089
2600
5419
4307
5000
3285
3145
1189
5850
1948
4513
5722
3427
1821
2741
2677
1393
4417
281
2564
5917
982
2714
17
1287
1578
2051
4548
1458
4570
323
2165
4059
3449
1726
5902
4091
2994
3123
3749
2068
5036
3319
4517
3287
4569
1499
4033
3764
2485
39
3387
993
5653
3644
