104376 104389
104395 104401
104422 104425
104452 104458
104505 104516
104549 104539
104551 104539
104566 104564
104578 104599
104611 104608
104642 104651
104656 104661
104663 104684
104702 104729
104744 104746
104774 104779
104808 104796
104817 104829
104837 104841
104868 104875
104881 104891
104906 104902
104954 104936
104966 104982
104997 105007
105013 105016
105047 105053
105058 105067
105085 105081
105123 105130
105141 105173
105151 105173
105219 105209
105236 105241
105247 105252
105311 105301
105327 105322
105350 105341
105391 105362
105421 105402
105479 105461
105489 105484
105502 105498
105528 105534
105549 105552
105576 105567
105599 105585
105605 105614
105632 105640
105658 105679
105720 105709
105729 105725
105737 105742
105748 105766
105787 105792
105849 105854
105904 105909
105914 105922
105936 105941
105998 106003
106033 106056
106058 106070
106118 106127
106147 106163
106165 106173
106197 106212
106227 106236
106267 106255
106277 106286
106292 106301
106334 106340
106386 106391
106419 106433
106442 106450
106452 106463
106465 106494
106511 106499
106527 106547
106533 106547
106548 106553
106564 106573
106620 106630
106652 106659
106681 106684
106697 106712
106739 106729
106741 106729
106758 106749
106784 106767
106798 106807
106812 106817
106839 106849
106851 106859
106883 106895
106920 106930
106954 106950
106983 107001
107020 107016
107036 107046
107052 107048
107068 107078
107083 107090
107108 107104
107136 107141
107143 107156
107182 107175
107195 107191
107227 107232
107284 107274
107303 107298
107320 107326
107352 107354
107360 107363
107389 107395
107404 107400
107409 107423
107431 107452
107471 107476
107476 107482
107514 107520
107538 107541
107554 107556
107588 107595
107616 107618
107631 107647
107631 107649
107659 107676
107659 107678
107705 107697
107731 107743
107758 107793
107760 107793
107799 107812
107825 107831
107840 107844
107876 107866
107878 107866
107899 107890
107924 107915
107952 107945
107974 107979
107982 107984
108004 108006
108027 108023
108035 108027
108048 108053
108055 108059
108069 108081
108097 108095
108107 108112
108128 108141
108147 108153
108178 108183
108185 108189
108218 108223
108237 108227
108258 108266
108284 108291
108300 108306
108306 108304
108313 108316
108328 108338
108347 108357
108367 108370
108382 108392
108413 108418
108447 108463
108477 108484
108508 108496
108510 108526
108536 108548
108565 108570
108570 108576
108600 108595
108647 108636
108658 108668
108670 108679
108693 108697
108713 108722
108754 108742
108804 108773
108853 108847
108880 108869
108899 108908
108943 108962
108956 108962
108969 108979
108999 109039
109068 109076
109108 109123
109134 109144
109150 109154
109161 109165
109205 109197
109214 109219
109244 109240
109305 109307
109342 109334
109361 109357
109367 109361
109388 109384
109402 109410
109421 109429
109442 109451
109460 109465
109480 109494
109514 109518
109532 109536
109565 109574
109616 109626
109635 109641
109641 109639
109654 109659
109661 109698
109710 109706
109724 109727
109760 109756
109764 109772
109790 109794
109808 109823
109854 109863
109863 109870
109901 109910
109944 109948
109954 109963
110005 110012
110039 110045
110067 110069
110107 110076
110139 110146
110191 110179
110215 110218
110254 110261
110292 110283
110292 110288
110304 110307
110333 110329
110353 110367
110353 110376
110359 110367
110359 110376
110386 110391
110415 110410
110443 110438
110451 110447
110464 110475
110497 110503
110505 110512
110568 110572
110575 110580
110601 110607
110639 110635
110669 110678
110735 110717
110769 110760
110833 110840
110833 110842
110856 110858
110911 110914
110923 110926
110952 110949
110992 110989
111013 111010
111042 111055
111081 111088
111081 111095
111112 111119
111112 111121
