3312
1656 802
1300 650
356 183
0
3264 128
Features being used
extract_document
SIZE OF VECTOR (3703,)
Paper(B) & Graph(G) & InGraph(B,G) => HasLabel(B,X^PaperLabel-Multiclass-6)
Building nnet for predicate HasLabel
{u'models': [{u'layers': [{u'ltype': u'Dense', u'n_hidden': 128, u'act_func': u'relu'}, {u'ltype': u'Dense', u'act_func': u'softmax'}], u'weighted_examples': True, u'epsilon': 1e-06, u'learning_rate': 0.06, u'measurement': u'acc', u'batch_size': 100, u'patience': 15, u'rho': 1e-06, u'gradient_method': u'SGD', u'average': u'macro', u'momentum': 0.9}, {u'layers': [{u'ltype': u'Dense', u'n_hidden': 128, u'act_func': u'relu'}, {u'ltype': u'Dense', u'act_func': u'softmax'}], u'weighted_examples': True, u'epsilon': 1e-06, u'learning_rate': 0.06, u'measurement': u'acc', u'batch_size': 100, u'patience': 15, u'rho': 1e-06, u'gradient_method': u'SGD', u'average': u'macro', u'momentum': 0.9}, {u'layers': [{u'ltype': u'Dense', u'act_func': u'softmax'}], u'weighted_examples': True, u'epsilon': 1e-06, u'learning_rate': 0.06, u'measurement': u'acc', u'batch_size': 100, u'patience': 15, u'rho': 1e-06, u'gradient_method': u'SGD', u'average': u'macro', u'momentum': 0.9}, {u'layers': [{u'ltype': u'Dense', u'act_func': u'softmax'}], u'weighted_examples': True, u'epsilon': 1e-06, u'learning_rate': 0.06, u'measurement': u'acc', u'batch_size': 100, u'patience': 15, u'rho': 1e-06, u'gradient_method': u'SGD', u'average': u'macro', u'momentum': 0.9}]}
Extracting train rules...
Extracting test rules...
Extracting dev rules...
matches:  141 / 854
matches:  50 / 356
epoch -1 loss None train_acc 0.155384615385 test_acc 0.165105386417 dev_acc 0.140449438202
matches:  101 / 650
101 / 650
matches:  201 / 854
matches:  71 / 356
epoch 0 loss 44.1663780212 train_acc 0.232307692308 test_acc 0.235362997658 dev_acc 0.199438202247
matches:  151 / 650
151 / 650
matches:  179 / 854
matches:  74 / 356
epoch 1 loss 177.535079956 train_acc 0.204615384615 test_acc 0.209601873536 dev_acc 0.207865168539
matches:  133 / 650
133 / 650
matches:  179 / 854
matches:  74 / 356
epoch 2 loss 602.83001709 train_acc 0.207692307692 test_acc 0.209601873536 dev_acc 0.207865168539
matches:  135 / 650
135 / 650
matches:  179 / 854
matches:  74 / 356
epoch 3 loss 599.122009277 train_acc 0.204615384615 test_acc 0.209601873536 dev_acc 0.207865168539
matches:  133 / 650
133 / 650
matches:  179 / 854
matches:  74 / 356
epoch 4 loss 599.447998047 train_acc 0.207692307692 test_acc 0.209601873536 dev_acc 0.207865168539
matches:  135 / 650
135 / 650
matches:  179 / 854
matches:  74 / 356
epoch 5 loss 595.807250977 train_acc 0.204615384615 test_acc 0.209601873536 dev_acc 0.207865168539
matches:  133 / 650
133 / 650
matches:  179 / 854
matches:  74 / 356
epoch 6 loss 596.19921875 train_acc 0.207692307692 test_acc 0.209601873536 dev_acc 0.207865168539
matches:  135 / 650
135 / 650
matches:  179 / 854
matches:  74 / 356
epoch 7 loss 592.62310791 train_acc 0.204615384615 test_acc 0.209601873536 dev_acc 0.207865168539
matches:  133 / 650
133 / 650
matches:  179 / 854
matches:  74 / 356
epoch 8 loss 593.078369141 train_acc 0.207692307692 test_acc 0.209601873536 dev_acc 0.207865168539
matches:  135 / 650
135 / 650
matches:  179 / 854
matches:  74 / 356
epoch 9 loss 589.56439209 train_acc 0.204615384615 test_acc 0.209601873536 dev_acc 0.207865168539
matches:  133 / 650
133 / 650
matches:  179 / 854
matches:  74 / 356
epoch 10 loss 590.080566406 train_acc 0.207692307692 test_acc 0.209601873536 dev_acc 0.207865168539
matches:  135 / 650
135 / 650
matches:  179 / 854
matches:  74 / 356
epoch 11 loss 586.626220703 train_acc 0.204615384615 test_acc 0.209601873536 dev_acc 0.207865168539
matches:  133 / 650
133 / 650
matches:  179 / 854
matches:  74 / 356
epoch 12 loss 587.200805664 train_acc 0.207692307692 test_acc 0.209601873536 dev_acc 0.207865168539
matches:  135 / 650
135 / 650
matches:  179 / 854
matches:  74 / 356
epoch 13 loss 583.803771973 train_acc 0.204615384615 test_acc 0.209601873536 dev_acc 0.207865168539
matches:  133 / 650
133 / 650
matches:  179 / 854
matches:  74 / 356
epoch 14 loss 584.434509277 train_acc 0.207692307692 test_acc 0.209601873536 dev_acc 0.207865168539
matches:  135 / 650
135 / 650
matches:  179 / 854
matches:  74 / 356
epoch 15 loss 581.092468262 train_acc 0.204615384615 test_acc 0.209601873536 dev_acc 0.207865168539
matches:  133 / 650
133 / 650
matches:  179 / 854
matches:  74 / 356
epoch 16 loss 581.777160645 train_acc 0.207692307692 test_acc 0.209601873536 dev_acc 0.207865168539
matches:  135 / 650
135 / 650
matches:  179 / 854
matches:  74 / 356
epoch 17 loss 578.487854004 train_acc 0.204615384615 test_acc 0.209601873536 dev_acc 0.207865168539
matches:  133 / 650
133 / 650
matches:  179 / 854
matches:  74 / 356
epoch 18 loss 579.224304199 train_acc 0.207692307692 test_acc 0.209601873536 dev_acc 0.207865168539
matches:  135 / 650
135 / 650
matches:  179 / 854
matches:  74 / 356
epoch 19 loss 575.985778809 train_acc 0.204615384615 test_acc 0.209601873536 dev_acc 0.207865168539
matches:  133 / 650
133 / 650
matches:  179 / 854
matches:  74 / 356
epoch 20 loss 576.771972656 train_acc 0.207692307692 test_acc 0.209601873536 dev_acc 0.207865168539
matches:  135 / 650
135 / 650
matches:  179 / 854
matches:  74 / 356
epoch 21 loss 573.582092285 train_acc 0.204615384615 test_acc 0.209601873536 dev_acc 0.207865168539
matches:  133 / 650
133 / 650
matches:  179 / 854
matches:  74 / 356
epoch 22 loss 574.415893555 train_acc 0.207692307692 test_acc 0.209601873536 dev_acc 0.207865168539
matches:  135 / 650
135 / 650
matches:  179 / 854
matches:  74 / 356
epoch 23 loss 571.272766113 train_acc 0.204615384615 test_acc 0.209601873536 dev_acc 0.207865168539
matches:  133 / 650
133 / 650
matches:  179 / 854
matches:  74 / 356
epoch 24 loss 572.15234375 train_acc 0.207692307692 test_acc 0.209601873536 dev_acc 0.207865168539
matches:  135 / 650
135 / 650
matches:  179 / 854
matches:  74 / 356
epoch 25 loss 569.053894043 train_acc 0.204615384615 test_acc 0.209601873536 dev_acc 0.207865168539
matches:  133 / 650
133 / 650
matches:  179 / 854
matches:  74 / 356
epoch 26 loss 569.977355957 train_acc 0.207692307692 test_acc 0.209601873536 dev_acc 0.207865168539
matches:  135 / 650
135 / 650
matches:  179 / 854
matches:  74 / 356
epoch 27 loss 566.92175293 train_acc 0.204615384615 test_acc 0.209601873536 dev_acc 0.207865168539
matches:  133 / 650
133 / 650
matches:  179 / 854
matches:  74 / 356
epoch 28 loss 567.887207031 train_acc 0.207692307692 test_acc 0.209601873536 dev_acc 0.207865168539
matches:  135 / 650
135 / 650
matches:  179 / 854
matches:  74 / 356
epoch 29 loss 564.872558594 train_acc 0.204615384615 test_acc 0.209601873536 dev_acc 0.207865168539
matches:  133 / 650
133 / 650
matches:  179 / 854
matches:  74 / 356
epoch 30 loss 565.878112793 train_acc 0.207692307692 test_acc 0.209601873536 dev_acc 0.207865168539
matches:  135 / 650
135 / 650
matches:  179 / 854
matches:  74 / 356
epoch 31 loss 562.902404785 train_acc 0.204615384615 test_acc 0.209601873536 dev_acc 0.207865168539
matches:  133 / 650
133 / 650
matches:  179 / 854
matches:  74 / 356
epoch 32 loss 563.946105957 train_acc 0.207692307692 test_acc 0.209601873536 dev_acc 0.207865168539
matches:  135 / 650
135 / 650
matches:  179 / 854
matches:  74 / 356
epoch 33 loss 561.007385254 train_acc 0.204615384615 test_acc 0.209601873536 dev_acc 0.207865168539
matches:  133 / 650
133 / 650
matches:  179 / 854
matches:  74 / 356
epoch 34 loss 562.087097168 train_acc 0.207692307692 test_acc 0.209601873536 dev_acc 0.207865168539
matches:  135 / 650
135 / 650
matches:  179 / 854
matches:  74 / 356
epoch 35 loss 559.183044434 train_acc 0.204615384615 test_acc 0.209601873536 dev_acc 0.207865168539
matches:  133 / 650
133 / 650
matches:  179 / 854
matches:  74 / 356
epoch 36 loss 560.296203613 train_acc 0.207692307692 test_acc 0.209601873536 dev_acc 0.207865168539
matches:  135 / 650
135 / 650
matches:  179 / 854
matches:  74 / 356
epoch 37 loss 557.42388916 train_acc 0.204615384615 test_acc 0.209601873536 dev_acc 0.207865168539
matches:  133 / 650
133 / 650
matches:  179 / 854
matches:  74 / 356
epoch 38 loss 558.566833496 train_acc 0.207692307692 test_acc 0.209601873536 dev_acc 0.207865168539
matches:  135 / 650
135 / 650
matches:  179 / 854
matches:  74 / 356
epoch 39 loss 555.721252441 train_acc 0.204615384615 test_acc 0.209601873536 dev_acc 0.207865168539
matches:  133 / 650
133 / 650
matches:  179 / 854
matches:  74 / 356
epoch 40 loss 556.886779785 train_acc 0.207692307692 test_acc 0.209601873536 dev_acc 0.207865168539
matches:  135 / 650
135 / 650
matches:  179 / 854
matches:  74 / 356
epoch 41 loss 554.05645752 train_acc 0.204615384615 test_acc 0.209601873536 dev_acc 0.207865168539
matches:  133 / 650
133 / 650
matches:  179 / 854
matches:  74 / 356
epoch 42 loss 555.222351074 train_acc 0.207692307692 test_acc 0.209601873536 dev_acc 0.207865168539
matches:  135 / 650
135 / 650
matches:  179 / 854
matches:  74 / 356
epoch 43 loss 552.355895996 train_acc 0.204615384615 test_acc 0.209601873536 dev_acc 0.207865168539
matches:  133 / 650
133 / 650
matches:  179 / 854
matches:  74 / 356
epoch 44 loss 553.355285645 train_acc 0.207692307692 test_acc 0.209601873536 dev_acc 0.207865168539
matches:  135 / 650
135 / 650
matches:  179 / 854
matches:  74 / 356
epoch 45 loss 549.409240723 train_acc 0.204615384615 test_acc 0.209601873536 dev_acc 0.207865168539
matches:  133 / 650
133 / 650
matches:  168 / 854
matches:  73 / 356
epoch 46 loss 429.183319092 train_acc 0.203076923077 test_acc 0.196721311475 dev_acc 0.205056179775
matches:  132 / 650
132 / 650
matches:  168 / 854
matches:  73 / 356
epoch 47 loss 705.211608887 train_acc 0.207692307692 test_acc 0.196721311475 dev_acc 0.205056179775
matches:  135 / 650
135 / 650
matches:  168 / 854
matches:  73 / 356
epoch 48 loss 698.48614502 train_acc 0.203076923077 test_acc 0.196721311475 dev_acc 0.205056179775
matches:  132 / 650
132 / 650
matches:  168 / 854
matches:  73 / 356
epoch 49 loss 697.834716797 train_acc 0.207692307692 test_acc 0.196721311475 dev_acc 0.205056179775
matches:  135 / 650
135 / 650
matches:  168 / 854
matches:  73 / 356
epoch 50 loss 691.25604248 train_acc 0.203076923077 test_acc 0.196721311475 dev_acc 0.205056179775
matches:  132 / 650
132 / 650
matches:  168 / 854
matches:  73 / 356
epoch 51 loss 690.748535156 train_acc 0.207692307692 test_acc 0.196721311475 dev_acc 0.205056179775
matches:  135 / 650
135 / 650
matches:  168 / 854
matches:  73 / 356
epoch 52 loss 684.310852051 train_acc 0.203076923077 test_acc 0.196721311475 dev_acc 0.205056179775
matches:  132 / 650
132 / 650
matches:  168 / 854
matches:  73 / 356
epoch 53 loss 683.941589355 train_acc 0.207692307692 test_acc 0.196721311475 dev_acc 0.205056179775
matches:  135 / 650
135 / 650
matches:  168 / 854
matches:  73 / 356
epoch 54 loss 677.639343262 train_acc 0.203076923077 test_acc 0.196721311475 dev_acc 0.205056179775
matches:  132 / 650
132 / 650
matches:  168 / 854
matches:  73 / 356
epoch 55 loss 677.402832031 train_acc 0.207692307692 test_acc 0.196721311475 dev_acc 0.205056179775
matches:  135 / 650
135 / 650
matches:  168 / 854
matches:  73 / 356
epoch 56 loss 671.230712891 train_acc 0.203076923077 test_acc 0.196721311475 dev_acc 0.205056179775
matches:  132 / 650
132 / 650
matches:  168 / 854
matches:  73 / 356
epoch 57 loss 671.121704102 train_acc 0.207692307692 test_acc 0.196721311475 dev_acc 0.205056179775
matches:  135 / 650
135 / 650
matches:  168 / 854
matches:  73 / 356
epoch 58 loss 665.074584961 train_acc 0.203076923077 test_acc 0.196721311475 dev_acc 0.205056179775
matches:  132 / 650
132 / 650
matches:  168 / 854
matches:  73 / 356
epoch 59 loss 665.088134766 train_acc 0.207692307692 test_acc 0.196721311475 dev_acc 0.205056179775
matches:  135 / 650
135 / 650
matches:  168 / 854
matches:  73 / 356
epoch 60 loss 659.161071777 train_acc 0.203076923077 test_acc 0.196721311475 dev_acc 0.205056179775
matches:  132 / 650
132 / 650
matches:  168 / 854
matches:  73 / 356
epoch 61 loss 659.292297363 train_acc 0.207692307692 test_acc 0.196721311475 dev_acc 0.205056179775
matches:  135 / 650
135 / 650
matches:  168 / 854
matches:  73 / 356
epoch 62 loss 653.480529785 train_acc 0.203076923077 test_acc 0.196721311475 dev_acc 0.205056179775
matches:  132 / 650
132 / 650
matches:  168 / 854
matches:  73 / 356
epoch 63 loss 653.72479248 train_acc 0.207692307692 test_acc 0.196721311475 dev_acc 0.205056179775
matches:  135 / 650
135 / 650
matches:  168 / 854
matches:  73 / 356
epoch 64 loss 648.023864746 train_acc 0.203076923077 test_acc 0.196721311475 dev_acc 0.205056179775
matches:  132 / 650
132 / 650
matches:  168 / 854
matches:  73 / 356
epoch 65 loss 648.376708984 train_acc 0.207692307692 test_acc 0.196721311475 dev_acc 0.205056179775
matches:  135 / 650
135 / 650
matches:  168 / 854
matches:  73 / 356
epoch 66 loss 642.782226562 train_acc 0.203076923077 test_acc 0.196721311475 dev_acc 0.205056179775
matches:  132 / 650
132 / 650
matches:  168 / 854
matches:  73 / 356
epoch 67 loss 643.239379883 train_acc 0.207692307692 test_acc 0.196721311475 dev_acc 0.205056179775
matches:  135 / 650
135 / 650
matches:  168 / 854
matches:  73 / 356
epoch 68 loss 637.747070312 train_acc 0.203076923077 test_acc 0.196721311475 dev_acc 0.205056179775
matches:  132 / 650
132 / 650
matches:  168 / 854
matches:  73 / 356
epoch 69 loss 638.304443359 train_acc 0.207692307692 test_acc 0.196721311475 dev_acc 0.205056179775
matches:  135 / 650
135 / 650
matches:  168 / 854
matches:  73 / 356
epoch 70 loss 632.910339355 train_acc 0.203076923077 test_acc 0.196721311475 dev_acc 0.205056179775
matches:  132 / 650
132 / 650
matches:  168 / 854
matches:  73 / 356
epoch 71 loss 633.563964844 train_acc 0.207692307692 test_acc 0.196721311475 dev_acc 0.205056179775
matches:  135 / 650
135 / 650
matches:  168 / 854
matches:  73 / 356
epoch 72 loss 628.264221191 train_acc 0.203076923077 test_acc 0.196721311475 dev_acc 0.205056179775
matches:  132 / 650
132 / 650
matches:  168 / 854
matches:  73 / 356
epoch 73 loss 629.010253906 train_acc 0.207692307692 test_acc 0.196721311475 dev_acc 0.205056179775
matches:  135 / 650
135 / 650
matches:  168 / 854
matches:  73 / 356
epoch 74 loss 623.801147461 train_acc 0.203076923077 test_acc 0.196721311475 dev_acc 0.205056179775
matches:  132 / 650
132 / 650
matches:  168 / 854
matches:  73 / 356
epoch 75 loss 624.636047363 train_acc 0.207692307692 test_acc 0.196721311475 dev_acc 0.205056179775
matches:  135 / 650
135 / 650
matches:  168 / 854
matches:  73 / 356
epoch 76 loss 619.513977051 train_acc 0.203076923077 test_acc 0.196721311475 dev_acc 0.205056179775
matches:  132 / 650
132 / 650
matches:  168 / 854
matches:  73 / 356
epoch 77 loss 620.434143066 train_acc 0.207692307692 test_acc 0.196721311475 dev_acc 0.205056179775
matches:  135 / 650
135 / 650
matches:  168 / 854
matches:  73 / 356
epoch 78 loss 615.395690918 train_acc 0.203076923077 test_acc 0.196721311475 dev_acc 0.205056179775
matches:  132 / 650
132 / 650
matches:  168 / 854
matches:  73 / 356
epoch 79 loss 616.397827148 train_acc 0.207692307692 test_acc 0.196721311475 dev_acc 0.205056179775
matches:  135 / 650
135 / 650
matches:  168 / 854
matches:  73 / 356
epoch 80 loss 611.439697266 train_acc 0.203076923077 test_acc 0.196721311475 dev_acc 0.205056179775
matches:  132 / 650
132 / 650
matches:  168 / 854
matches:  73 / 356
epoch 81 loss 612.520568848 train_acc 0.207692307692 test_acc 0.196721311475 dev_acc 0.205056179775
matches:  135 / 650
135 / 650
matches:  168 / 854
matches:  73 / 356
epoch 82 loss 607.639587402 train_acc 0.203076923077 test_acc 0.196721311475 dev_acc 0.205056179775
matches:  132 / 650
132 / 650
matches:  168 / 854
matches:  73 / 356
epoch 83 loss 608.796081543 train_acc 0.207692307692 test_acc 0.196721311475 dev_acc 0.205056179775
matches:  135 / 650
135 / 650
matches:  168 / 854
matches:  73 / 356
epoch 84 loss 603.989257812 train_acc 0.203076923077 test_acc 0.196721311475 dev_acc 0.205056179775
matches:  132 / 650
132 / 650
matches:  168 / 854
matches:  73 / 356
epoch 85 loss 605.218383789 train_acc 0.207692307692 test_acc 0.196721311475 dev_acc 0.205056179775
matches:  135 / 650
135 / 650
matches:  168 / 854
matches:  73 / 356
epoch 86 loss 600.482727051 train_acc 0.203076923077 test_acc 0.196721311475 dev_acc 0.205056179775
matches:  132 / 650
132 / 650
matches:  168 / 854
matches:  73 / 356
epoch 87 loss 601.781616211 train_acc 0.207692307692 test_acc 0.196721311475 dev_acc 0.205056179775
matches:  135 / 650
135 / 650
matches:  168 / 854
matches:  73 / 356
epoch 88 loss 597.114379883 train_acc 0.203076923077 test_acc 0.196721311475 dev_acc 0.205056179775
matches:  132 / 650
132 / 650
matches:  168 / 854
matches:  73 / 356
epoch 89 loss 598.480285645 train_acc 0.207692307692 test_acc 0.196721311475 dev_acc 0.205056179775
matches:  135 / 650
135 / 650
matches:  168 / 854
matches:  73 / 356
epoch 90 loss 593.878723145 train_acc 0.203076923077 test_acc 0.196721311475 dev_acc 0.205056179775
matches:  132 / 650
132 / 650
matches:  168 / 854
matches:  73 / 356
epoch 91 loss 595.309020996 train_acc 0.207692307692 test_acc 0.196721311475 dev_acc 0.205056179775
matches:  135 / 650
135 / 650
matches:  168 / 854
matches:  73 / 356
epoch 92 loss 590.770629883 train_acc 0.203076923077 test_acc 0.196721311475 dev_acc 0.205056179775
matches:  132 / 650
132 / 650
matches:  168 / 854
matches:  73 / 356
epoch 93 loss 592.262756348 train_acc 0.207692307692 test_acc 0.196721311475 dev_acc 0.205056179775
matches:  135 / 650
135 / 650
matches:  168 / 854
matches:  73 / 356
epoch 94 loss 587.784912109 train_acc 0.203076923077 test_acc 0.196721311475 dev_acc 0.205056179775
matches:  132 / 650
132 / 650
matches:  168 / 854
matches:  73 / 356
epoch 95 loss 589.336486816 train_acc 0.207692307692 test_acc 0.196721311475 dev_acc 0.205056179775
matches:  135 / 650
135 / 650
matches:  168 / 854
matches:  73 / 356
epoch 96 loss 584.916931152 train_acc 0.203076923077 test_acc 0.196721311475 dev_acc 0.205056179775
matches:  132 / 650
132 / 650
matches:  168 / 854
matches:  73 / 356
epoch 97 loss 586.52557373 train_acc 0.207692307692 test_acc 0.196721311475 dev_acc 0.205056179775
matches:  135 / 650
135 / 650
matches:  168 / 854
matches:  73 / 356
epoch 98 loss 582.16192627 train_acc 0.203076923077 test_acc 0.196721311475 dev_acc 0.205056179775
matches:  132 / 650
132 / 650
matches:  168 / 854
matches:  73 / 356
epoch 99 loss 583.825378418 train_acc 0.207692307692 test_acc 0.196721311475 dev_acc 0.205056179775
matches:  135 / 650
135 / 650
matches:  168 / 854
matches:  73 / 356
epoch 100 loss 579.515441895 train_acc 0.203076923077 test_acc 0.196721311475 dev_acc 0.205056179775
matches:  132 / 650
132 / 650
matches:  168 / 854
matches:  73 / 356
epoch 101 loss 581.231628418 train_acc 0.207692307692 test_acc 0.196721311475 dev_acc 0.205056179775
matches:  135 / 650
135 / 650
matches:  168 / 854
matches:  73 / 356
epoch 102 loss 576.973327637 train_acc 0.203076923077 test_acc 0.196721311475 dev_acc 0.205056179775
matches:  132 / 650
132 / 650
matches:  168 / 854
matches:  73 / 356
epoch 103 loss 578.74005127 train_acc 0.207692307692 test_acc 0.196721311475 dev_acc 0.205056179775
matches:  135 / 650
135 / 650
matches:  168 / 854
matches:  73 / 356
epoch 104 loss 574.531311035 train_acc 0.203076923077 test_acc 0.196721311475 dev_acc 0.205056179775
matches:  132 / 650
132 / 650
matches:  168 / 854
matches:  73 / 356
epoch 105 loss 576.346618652 train_acc 0.207692307692 test_acc 0.196721311475 dev_acc 0.205056179775
matches:  135 / 650
135 / 650
matches:  168 / 854
matches:  73 / 356
epoch 106 loss 572.185546875 train_acc 0.203076923077 test_acc 0.196721311475 dev_acc 0.205056179775
matches:  132 / 650
132 / 650
matches:  168 / 854
matches:  73 / 356
epoch 107 loss 574.047546387 train_acc 0.207692307692 test_acc 0.196721311475 dev_acc 0.205056179775
matches:  135 / 650
135 / 650
matches:  168 / 854
matches:  73 / 356
epoch 108 loss 569.932189941 train_acc 0.203076923077 test_acc 0.196721311475 dev_acc 0.205056179775
matches:  132 / 650
132 / 650
matches:  168 / 854
matches:  73 / 356
epoch 109 loss 571.839050293 train_acc 0.207692307692 test_acc 0.196721311475 dev_acc 0.205056179775
matches:  135 / 650
135 / 650
matches:  168 / 854
matches:  73 / 356
epoch 110 loss 567.76763916 train_acc 0.203076923077 test_acc 0.196721311475 dev_acc 0.205056179775
matches:  132 / 650
132 / 650
matches:  168 / 854
matches:  73 / 356
epoch 111 loss 569.717590332 train_acc 0.207692307692 test_acc 0.196721311475 dev_acc 0.205056179775
matches:  135 / 650
135 / 650
matches:  168 / 854
matches:  73 / 356
epoch 112 loss 565.688415527 train_acc 0.203076923077 test_acc 0.196721311475 dev_acc 0.205056179775
matches:  132 / 650
132 / 650
matches:  168 / 854
matches:  73 / 356
epoch 113 loss 567.6796875 train_acc 0.207692307692 test_acc 0.196721311475 dev_acc 0.205056179775
matches:  135 / 650
135 / 650
matches:  168 / 854
matches:  73 / 356
epoch 114 loss 563.691101074 train_acc 0.203076923077 test_acc 0.196721311475 dev_acc 0.205056179775
matches:  132 / 650
132 / 650
matches:  168 / 854
matches:  73 / 356
epoch 115 loss 565.722106934 train_acc 0.207692307692 test_acc 0.196721311475 dev_acc 0.205056179775
matches:  135 / 650
135 / 650
matches:  168 / 854
matches:  73 / 356
epoch 116 loss 561.772460938 train_acc 0.203076923077 test_acc 0.196721311475 dev_acc 0.205056179775
matches:  132 / 650
132 / 650
matches:  168 / 854
matches:  73 / 356
epoch 117 loss 563.841674805 train_acc 0.207692307692 test_acc 0.196721311475 dev_acc 0.205056179775
matches:  135 / 650
135 / 650
matches:  168 / 854
matches:  73 / 356
epoch 118 loss 559.929443359 train_acc 0.203076923077 test_acc 0.196721311475 dev_acc 0.205056179775
matches:  132 / 650
132 / 650
matches:  168 / 854
matches:  73 / 356
epoch 119 loss 562.035339355 train_acc 0.207692307692 test_acc 0.196721311475 dev_acc 0.205056179775
matches:  135 / 650
135 / 650
matches:  168 / 854
matches:  73 / 356
epoch 120 loss 558.159057617 train_acc 0.203076923077 test_acc 0.196721311475 dev_acc 0.205056179775
matches:  132 / 650
132 / 650
matches:  168 / 854
matches:  73 / 356
epoch 121 loss 560.300170898 train_acc 0.207692307692 test_acc 0.196721311475 dev_acc 0.205056179775
matches:  135 / 650
135 / 650
matches:  168 / 854
matches:  73 / 356
epoch 122 loss 556.458435059 train_acc 0.203076923077 test_acc 0.196721311475 dev_acc 0.205056179775
matches:  132 / 650
132 / 650
matches:  168 / 854
matches:  73 / 356
epoch 123 loss 558.633361816 train_acc 0.207692307692 test_acc 0.196721311475 dev_acc 0.205056179775
matches:  135 / 650
135 / 650
matches:  168 / 854
matches:  73 / 356
epoch 124 loss 554.824768066 train_acc 0.203076923077 test_acc 0.196721311475 dev_acc 0.205056179775
matches:  132 / 650
132 / 650
matches:  168 / 854
matches:  73 / 356
epoch 125 loss 557.032287598 train_acc 0.207692307692 test_acc 0.196721311475 dev_acc 0.205056179775
matches:  135 / 650
135 / 650
matches:  168 / 854
matches:  73 / 356
epoch 126 loss 553.255554199 train_acc 0.203076923077 test_acc 0.196721311475 dev_acc 0.205056179775
matches:  132 / 650
132 / 650
matches:  168 / 854
matches:  73 / 356
epoch 127 loss 555.494262695 train_acc 0.207692307692 test_acc 0.196721311475 dev_acc 0.205056179775
matches:  135 / 650
135 / 650
matches:  168 / 854
matches:  73 / 356
epoch 128 loss 551.74810791 train_acc 0.203076923077 test_acc 0.196721311475 dev_acc 0.205056179775
matches:  132 / 650
132 / 650
matches:  168 / 854
matches:  73 / 356
epoch 129 loss 554.016845703 train_acc 0.207692307692 test_acc 0.196721311475 dev_acc 0.205056179775
matches:  135 / 650
135 / 650
matches:  168 / 854
matches:  73 / 356
epoch 130 loss 550.300109863 train_acc 0.203076923077 test_acc 0.196721311475 dev_acc 0.205056179775
matches:  132 / 650
132 / 650
matches:  168 / 854
matches:  73 / 356
epoch 131 loss 552.597595215 train_acc 0.207692307692 test_acc 0.196721311475 dev_acc 0.205056179775
matches:  135 / 650
135 / 650
matches:  168 / 854
matches:  73 / 356
epoch 132 loss 548.909118652 train_acc 0.203076923077 test_acc 0.196721311475 dev_acc 0.205056179775
matches:  132 / 650
132 / 650
matches:  168 / 854
matches:  73 / 356
epoch 133 loss 551.234313965 train_acc 0.207692307692 test_acc 0.196721311475 dev_acc 0.205056179775
matches:  135 / 650
135 / 650
matches:  168 / 854
matches:  73 / 356
epoch 134 loss 547.572998047 train_acc 0.203076923077 test_acc 0.196721311475 dev_acc 0.205056179775
matches:  132 / 650
132 / 650
matches:  168 / 854
matches:  73 / 356
epoch 135 loss 549.924743652 train_acc 0.207692307692 test_acc 0.196721311475 dev_acc 0.205056179775
matches:  135 / 650
135 / 650
matches:  168 / 854
matches:  73 / 356
epoch 136 loss 546.289489746 train_acc 0.203076923077 test_acc 0.196721311475 dev_acc 0.205056179775
matches:  132 / 650
132 / 650
matches:  168 / 854
matches:  73 / 356
epoch 137 loss 548.666809082 train_acc 0.207692307692 test_acc 0.196721311475 dev_acc 0.205056179775
matches:  135 / 650
135 / 650
matches:  168 / 854
matches:  73 / 356
epoch 138 loss 545.056518555 train_acc 0.203076923077 test_acc 0.196721311475 dev_acc 0.205056179775
matches:  132 / 650
132 / 650
matches:  168 / 854
matches:  73 / 356
epoch 139 loss 547.458435059 train_acc 0.207692307692 test_acc 0.196721311475 dev_acc 0.205056179775
matches:  135 / 650
135 / 650
matches:  168 / 854
matches:  73 / 356
epoch 140 loss 543.872192383 train_acc 0.203076923077 test_acc 0.196721311475 dev_acc 0.205056179775
matches:  132 / 650
132 / 650
matches:  168 / 854
matches:  73 / 356
epoch 141 loss 546.297607422 train_acc 0.207692307692 test_acc 0.196721311475 dev_acc 0.205056179775
matches:  135 / 650
135 / 650
matches:  168 / 854
matches:  73 / 356
epoch 142 loss 542.73449707 train_acc 0.203076923077 test_acc 0.196721311475 dev_acc 0.205056179775
matches:  132 / 650
132 / 650
matches:  168 / 854
matches:  73 / 356
epoch 143 loss 545.182617188 train_acc 0.207692307692 test_acc 0.196721311475 dev_acc 0.205056179775
matches:  135 / 650
135 / 650
matches:  168 / 854
matches:  73 / 356
epoch 144 loss 541.641662598 train_acc 0.203076923077 test_acc 0.196721311475 dev_acc 0.205056179775
matches:  132 / 650
132 / 650
matches:  168 / 854
matches:  73 / 356
epoch 145 loss 544.11151123 train_acc 0.207692307692 test_acc 0.196721311475 dev_acc 0.205056179775
matches:  135 / 650
135 / 650
matches:  168 / 854
matches:  73 / 356
epoch 146 loss 540.59185791 train_acc 0.203076923077 test_acc 0.196721311475 dev_acc 0.205056179775
matches:  132 / 650
132 / 650
matches:  168 / 854
matches:  73 / 356
epoch 147 loss 543.082580566 train_acc 0.207692307692 test_acc 0.196721311475 dev_acc 0.205056179775
matches:  135 / 650
135 / 650
matches:  168 / 854
matches:  73 / 356
epoch 148 loss 539.583435059 train_acc 0.203076923077 test_acc 0.196721311475 dev_acc 0.205056179775
matches:  132 / 650
132 / 650
matches:  168 / 854
matches:  73 / 356
epoch 149 loss 542.094238281 train_acc 0.207692307692 test_acc 0.196721311475 dev_acc 0.205056179775
matches:  135 / 650
135 / 650
matches:  168 / 854
matches:  73 / 356
epoch 150 loss 538.614746094 train_acc 0.203076923077 test_acc 0.196721311475 dev_acc 0.205056179775
matches:  132 / 650
132 / 650
matches:  168 / 854
matches:  73 / 356
epoch 151 loss 541.144836426 train_acc 0.207692307692 test_acc 0.196721311475 dev_acc 0.205056179775
matches:  135 / 650
135 / 650
matches:  168 / 854
matches:  73 / 356
epoch 152 loss 537.684265137 train_acc 0.203076923077 test_acc 0.196721311475 dev_acc 0.205056179775
matches:  132 / 650
132 / 650
matches:  168 / 854
matches:  73 / 356
epoch 153 loss 540.232849121 train_acc 0.207692307692 test_acc 0.196721311475 dev_acc 0.205056179775
matches:  135 / 650
135 / 650
matches:  168 / 854
matches:  73 / 356
epoch 154 loss 536.790405273 train_acc 0.203076923077 test_acc 0.196721311475 dev_acc 0.205056179775
matches:  132 / 650
132 / 650
matches:  168 / 854
matches:  73 / 356
epoch 155 loss 539.356750488 train_acc 0.207692307692 test_acc 0.196721311475 dev_acc 0.205056179775
matches:  135 / 650
135 / 650
matches:  168 / 854
matches:  73 / 356
epoch 156 loss 535.931762695 train_acc 0.203076923077 test_acc 0.196721311475 dev_acc 0.205056179775
matches:  132 / 650
132 / 650
matches:  168 / 854
matches:  73 / 356
epoch 157 loss 538.515258789 train_acc 0.207692307692 test_acc 0.196721311475 dev_acc 0.205056179775
matches:  135 / 650
135 / 650
matches:  168 / 854
matches:  73 / 356
epoch 158 loss 535.106994629 train_acc 0.203076923077 test_acc 0.196721311475 dev_acc 0.205056179775
matches:  132 / 650
132 / 650
matches:  168 / 854
matches:  73 / 356
epoch 159 loss 537.706848145 train_acc 0.207692307692 test_acc 0.196721311475 dev_acc 0.205056179775
matches:  135 / 650
135 / 650
matches:  168 / 854
matches:  73 / 356
epoch 160 loss 534.314697266 train_acc 0.203076923077 test_acc 0.196721311475 dev_acc 0.205056179775
matches:  132 / 650
132 / 650
matches:  168 / 854
matches:  73 / 356
epoch 161 loss 536.930297852 train_acc 0.207692307692 test_acc 0.196721311475 dev_acc 0.205056179775
matches:  135 / 650
135 / 650
matches:  168 / 854
matches:  73 / 356
epoch 162 loss 533.553588867 train_acc 0.203076923077 test_acc 0.196721311475 dev_acc 0.205056179775
matches:  132 / 650
132 / 650
matches:  168 / 854
matches:  73 / 356
epoch 163 loss 536.184387207 train_acc 0.207692307692 test_acc 0.196721311475 dev_acc 0.205056179775
matches:  135 / 650
135 / 650
matches:  168 / 854
matches:  73 / 356
epoch 164 loss 532.822509766 train_acc 0.203076923077 test_acc 0.196721311475 dev_acc 0.205056179775
matches:  132 / 650
132 / 650
matches:  168 / 854
matches:  73 / 356
epoch 165 loss 535.467773438 train_acc 0.207692307692 test_acc 0.196721311475 dev_acc 0.205056179775
matches:  135 / 650
135 / 650
matches:  168 / 854
matches:  73 / 356
epoch 166 loss 532.120178223 train_acc 0.203076923077 test_acc 0.196721311475 dev_acc 0.205056179775
matches:  132 / 650
132 / 650
matches:  168 / 854
matches:  73 / 356
epoch 167 loss 534.779418945 train_acc 0.207692307692 test_acc 0.196721311475 dev_acc 0.205056179775
matches:  135 / 650
135 / 650
matches:  168 / 854
matches:  73 / 356
epoch 168 loss 531.445495605 train_acc 0.203076923077 test_acc 0.196721311475 dev_acc 0.205056179775
matches:  132 / 650
132 / 650
matches:  168 / 854
matches:  73 / 356
epoch 169 loss 534.118164062 train_acc 0.207692307692 test_acc 0.196721311475 dev_acc 0.205056179775
matches:  135 / 650
135 / 650
matches:  168 / 854
matches:  73 / 356
epoch 170 loss 530.797363281 train_acc 0.203076923077 test_acc 0.196721311475 dev_acc 0.205056179775
matches:  132 / 650
132 / 650
matches:  168 / 854
matches:  73 / 356
epoch 171 loss 533.482910156 train_acc 0.207692307692 test_acc 0.196721311475 dev_acc 0.205056179775
matches:  135 / 650
135 / 650
matches:  168 / 854
matches:  73 / 356
epoch 172 loss 530.174682617 train_acc 0.203076923077 test_acc 0.196721311475 dev_acc 0.205056179775
matches:  132 / 650
132 / 650
matches:  168 / 854
matches:  73 / 356
epoch 173 loss 532.872497559 train_acc 0.207692307692 test_acc 0.196721311475 dev_acc 0.205056179775
matches:  135 / 650
135 / 650
matches:  168 / 854
matches:  73 / 356
epoch 174 loss 529.576477051 train_acc 0.203076923077 test_acc 0.196721311475 dev_acc 0.205056179775
matches:  132 / 650
132 / 650
matches:  168 / 854
matches:  73 / 356
epoch 175 loss 532.286010742 train_acc 0.207692307692 test_acc 0.196721311475 dev_acc 0.205056179775
matches:  135 / 650
135 / 650
matches:  168 / 854
matches:  73 / 356
epoch 176 loss 529.001525879 train_acc 0.203076923077 test_acc 0.196721311475 dev_acc 0.205056179775
matches:  132 / 650
132 / 650
matches:  168 / 854
matches:  73 / 356
epoch 177 loss 531.722412109 train_acc 0.207692307692 test_acc 0.196721311475 dev_acc 0.205056179775
matches:  135 / 650
135 / 650
matches:  168 / 854
matches:  73 / 356
epoch 178 loss 528.448974609 train_acc 0.203076923077 test_acc 0.196721311475 dev_acc 0.205056179775
matches:  132 / 650
132 / 650
matches:  168 / 854
matches:  73 / 356
epoch 179 loss 531.180603027 train_acc 0.207692307692 test_acc 0.196721311475 dev_acc 0.205056179775
matches:  135 / 650
135 / 650
matches:  168 / 854
matches:  73 / 356
epoch 180 loss 527.917785645 train_acc 0.203076923077 test_acc 0.196721311475 dev_acc 0.205056179775
matches:  132 / 650
132 / 650
matches:  168 / 854
matches:  73 / 356
epoch 181 loss 530.659423828 train_acc 0.207692307692 test_acc 0.196721311475 dev_acc 0.205056179775
matches:  135 / 650
135 / 650
matches:  168 / 854
matches:  73 / 356
epoch 182 loss 527.406799316 train_acc 0.203076923077 test_acc 0.196721311475 dev_acc 0.205056179775
matches:  132 / 650
132 / 650
matches:  168 / 854
matches:  73 / 356
epoch 183 loss 530.157897949 train_acc 0.207692307692 test_acc 0.196721311475 dev_acc 0.205056179775
matches:  135 / 650
135 / 650
matches:  168 / 854
matches:  73 / 356
epoch 184 loss 526.914794922 train_acc 0.203076923077 test_acc 0.196721311475 dev_acc 0.205056179775
matches:  132 / 650
132 / 650
matches:  168 / 854
matches:  73 / 356
epoch 185 loss 529.674621582 train_acc 0.207692307692 test_acc 0.196721311475 dev_acc 0.205056179775
matches:  135 / 650
135 / 650
matches:  168 / 854
matches:  73 / 356
epoch 186 loss 526.440490723 train_acc 0.203076923077 test_acc 0.196721311475 dev_acc 0.205056179775
matches:  132 / 650
132 / 650
matches:  168 / 854
matches:  73 / 356
epoch 187 loss 529.208007812 train_acc 0.207692307692 test_acc 0.196721311475 dev_acc 0.205056179775
matches:  135 / 650
135 / 650
matches:  168 / 854
matches:  73 / 356
epoch 188 loss 525.98223877 train_acc 0.203076923077 test_acc 0.196721311475 dev_acc 0.205056179775
matches:  132 / 650
132 / 650
matches:  168 / 854
matches:  73 / 356
epoch 189 loss 528.756225586 train_acc 0.207692307692 test_acc 0.196721311475 dev_acc 0.205056179775
matches:  135 / 650
135 / 650
matches:  168 / 854
matches:  73 / 356
epoch 190 loss 525.537536621 train_acc 0.203076923077 test_acc 0.196721311475 dev_acc 0.205056179775
matches:  132 / 650
132 / 650
matches:  168 / 854
matches:  73 / 356
epoch 191 loss 528.315795898 train_acc 0.207692307692 test_acc 0.196721311475 dev_acc 0.205056179775
matches:  135 / 650
135 / 650
matches:  168 / 854
matches:  73 / 356
epoch 192 loss 525.102539062 train_acc 0.203076923077 test_acc 0.196721311475 dev_acc 0.205056179775
matches:  132 / 650
132 / 650
matches:  168 / 854
matches:  73 / 356
epoch 193 loss 527.881103516 train_acc 0.207692307692 test_acc 0.196721311475 dev_acc 0.205056179775
matches:  135 / 650
135 / 650
matches:  168 / 854
matches:  73 / 356
epoch 194 loss 524.669433594 train_acc 0.203076923077 test_acc 0.196721311475 dev_acc 0.205056179775
matches:  132 / 650
132 / 650
matches:  168 / 854
matches:  73 / 356
epoch 195 loss 527.438537598 train_acc 0.207692307692 test_acc 0.196721311475 dev_acc 0.205056179775
matches:  135 / 650
135 / 650
matches:  168 / 854
matches:  73 / 356
epoch 196 loss 524.216186523 train_acc 0.203076923077 test_acc 0.196721311475 dev_acc 0.205056179775
matches:  132 / 650
132 / 650
matches:  168 / 854
matches:  73 / 356
epoch 197 loss 526.943725586 train_acc 0.207692307692 test_acc 0.196721311475 dev_acc 0.205056179775
matches:  135 / 650
135 / 650
matches:  168 / 854
matches:  73 / 356
epoch 198 loss 523.654418945 train_acc 0.203076923077 test_acc 0.196721311475 dev_acc 0.205056179775
matches:  132 / 650
132 / 650
matches:  168 / 854
matches:  73 / 356
epoch 199 loss 526.130554199 train_acc 0.207692307692 test_acc 0.196721311475 dev_acc 0.205056179775
matches:  135 / 650
135 / 650
matches:  168 / 854
matches:  73 / 356
epoch 200 loss 521.790771484 train_acc 0.203076923077 test_acc 0.196721311475 dev_acc 0.205056179775
matches:  132 / 650
132 / 650
matches:  64 / 854
matches:  27 / 356
epoch 201 loss 498.752990723 train_acc 0.0861538461538 test_acc 0.0749414519906 dev_acc 0.0758426966292
matches:  56 / 650
56 / 650
matches:  158 / 854
matches:  71 / 356
epoch 202 loss 96.9418411255 train_acc 0.169230769231 test_acc 0.185011709602 dev_acc 0.199438202247
matches:  110 / 650
110 / 650
matches:  168 / 854
matches:  73 / 356
epoch 203 loss 384.908355713 train_acc 0.207692307692 test_acc 0.196721311475 dev_acc 0.205056179775
matches:  135 / 650
135 / 650
matches:  131 / 854
matches:  52 / 356
epoch 204 loss 434.50894165 train_acc 0.150769230769 test_acc 0.153395784543 dev_acc 0.14606741573
matches:  98 / 650
98 / 650
matches:  131 / 854
matches:  52 / 356
epoch 205 loss 572.225646973 train_acc 0.144615384615 test_acc 0.153395784543 dev_acc 0.14606741573
matches:  94 / 650
94 / 650
matches:  131 / 854
matches:  52 / 356
epoch 206 loss 568.698364258 train_acc 0.150769230769 test_acc 0.153395784543 dev_acc 0.14606741573
matches:  98 / 650
98 / 650
matches:  179 / 854
matches:  74 / 356
epoch 207 loss 534.180541992 train_acc 0.204615384615 test_acc 0.209601873536 dev_acc 0.207865168539
matches:  133 / 650
133 / 650
matches:  131 / 854
matches:  52 / 356
epoch 208 loss 346.933929443 train_acc 0.150769230769 test_acc 0.153395784543 dev_acc 0.14606741573
matches:  98 / 650
98 / 650
matches:  131 / 854
matches:  52 / 356
epoch 209 loss 582.155029297 train_acc 0.144615384615 test_acc 0.153395784543 dev_acc 0.14606741573
matches:  94 / 650
94 / 650
matches:  131 / 854
matches:  52 / 356
epoch 210 loss 585.478027344 train_acc 0.150769230769 test_acc 0.153395784543 dev_acc 0.14606741573
matches:  98 / 650
98 / 650
matches:  131 / 854
matches:  52 / 356
epoch 211 loss 580.80682373 train_acc 0.144615384615 test_acc 0.153395784543 dev_acc 0.14606741573
matches:  94 / 650
94 / 650
matches:  131 / 854
matches:  52 / 356
epoch 212 loss 584.136047363 train_acc 0.150769230769 test_acc 0.153395784543 dev_acc 0.14606741573
matches:  98 / 650
98 / 650
matches:  131 / 854
matches:  52 / 356
epoch 213 loss 579.467651367 train_acc 0.144615384615 test_acc 0.153395784543 dev_acc 0.14606741573
matches:  94 / 650
94 / 650
matches:  131 / 854
matches:  52 / 356
epoch 214 loss 582.794616699 train_acc 0.150769230769 test_acc 0.153395784543 dev_acc 0.14606741573
matches:  98 / 650
98 / 650
matches:  131 / 854
matches:  52 / 356
epoch 215 loss 578.118774414 train_acc 0.144615384615 test_acc 0.153395784543 dev_acc 0.14606741573
matches:  94 / 650
94 / 650
matches:  131 / 854
matches:  52 / 356
epoch 216 loss 581.430358887 train_acc 0.150769230769 test_acc 0.153395784543 dev_acc 0.14606741573
matches:  98 / 650
98 / 650
matches:  131 / 854
matches:  52 / 356
epoch 217 loss 576.729919434 train_acc 0.144615384615 test_acc 0.153395784543 dev_acc 0.14606741573
matches:  94 / 650
94 / 650
matches:  131 / 854
matches:  52 / 356
epoch 218 loss 580.002441406 train_acc 0.150769230769 test_acc 0.153395784543 dev_acc 0.14606741573
matches:  98 / 650
98 / 650
matches:  131 / 854
matches:  52 / 356
epoch 219 loss 575.244628906 train_acc 0.144615384615 test_acc 0.153395784543 dev_acc 0.14606741573
matches:  94 / 650
94 / 650
matches:  131 / 854
matches:  52 / 356
epoch 220 loss 578.42980957 train_acc 0.150769230769 test_acc 0.153395784543 dev_acc 0.14606741573
matches:  98 / 650
98 / 650
matches:  131 / 854
matches:  52 / 356
epoch 221 loss 573.541870117 train_acc 0.144615384615 test_acc 0.153395784543 dev_acc 0.14606741573
matches:  94 / 650
94 / 650
matches:  131 / 854
matches:  52 / 356
epoch 222 loss 576.520690918 train_acc 0.150769230769 test_acc 0.153395784543 dev_acc 0.14606741573
matches:  98 / 650
98 / 650
matches:  131 / 854
matches:  52 / 356
epoch 223 loss 571.294921875 train_acc 0.144615384615 test_acc 0.153395784543 dev_acc 0.14606741573
matches:  94 / 650
94 / 650
matches:  131 / 854
matches:  52 / 356
epoch 224 loss 573.66394043 train_acc 0.150769230769 test_acc 0.153395784543 dev_acc 0.14606741573
matches:  98 / 650
98 / 650
matches:  131 / 854
matches:  52 / 356
epoch 225 loss 567.200195312 train_acc 0.144615384615 test_acc 0.153395784543 dev_acc 0.14606741573
matches:  94 / 650
94 / 650
matches:  131 / 854
matches:  52 / 356
epoch 226 loss 566.422302246 train_acc 0.150769230769 test_acc 0.153395784543 dev_acc 0.14606741573
matches:  98 / 650
98 / 650
matches:  131 / 854
matches:  52 / 356
epoch 227 loss 547.88659668 train_acc 0.144615384615 test_acc 0.153395784543 dev_acc 0.14606741573
matches:  94 / 650
94 / 650
matches:  154 / 854
matches:  59 / 356
epoch 228 loss 418.764556885 train_acc 0.183076923077 test_acc 0.180327868852 dev_acc 0.165730337079
matches:  119 / 650
119 / 650
matches:  154 / 854
matches:  59 / 356
epoch 229 loss 554.054992676 train_acc 0.176923076923 test_acc 0.180327868852 dev_acc 0.165730337079
matches:  115 / 650
115 / 650
matches:  154 / 854
matches:  59 / 356
epoch 230 loss 557.559936523 train_acc 0.183076923077 test_acc 0.180327868852 dev_acc 0.165730337079
matches:  119 / 650
119 / 650
matches:  154 / 854
matches:  59 / 356
epoch 231 loss 553.073974609 train_acc 0.176923076923 test_acc 0.180327868852 dev_acc 0.165730337079
matches:  115 / 650
115 / 650
matches:  154 / 854
matches:  59 / 356
epoch 232 loss 556.590209961 train_acc 0.183076923077 test_acc 0.180327868852 dev_acc 0.165730337079
matches:  119 / 650
119 / 650
matches:  154 / 854
matches:  59 / 356
epoch 233 loss 552.11517334 train_acc 0.176923076923 test_acc 0.180327868852 dev_acc 0.165730337079
matches:  115 / 650
115 / 650
matches:  154 / 854
matches:  59 / 356
epoch 234 loss 555.640136719 train_acc 0.183076923077 test_acc 0.180327868852 dev_acc 0.165730337079
matches:  119 / 650
119 / 650
matches:  154 / 854
matches:  59 / 356
epoch 235 loss 551.173095703 train_acc 0.176923076923 test_acc 0.180327868852 dev_acc 0.165730337079
matches:  115 / 650
115 / 650
matches:  154 / 854
matches:  59 / 356
epoch 236 loss 554.703552246 train_acc 0.183076923077 test_acc 0.180327868852 dev_acc 0.165730337079
matches:  119 / 650
119 / 650
matches:  154 / 854
matches:  59 / 356
epoch 237 loss 550.241088867 train_acc 0.176923076923 test_acc 0.180327868852 dev_acc 0.165730337079
matches:  115 / 650
115 / 650
matches:  154 / 854
matches:  59 / 356
epoch 238 loss 553.772583008 train_acc 0.183076923077 test_acc 0.180327868852 dev_acc 0.165730337079
matches:  119 / 650
119 / 650
matches:  154 / 854
matches:  59 / 356
epoch 239 loss 549.309875488 train_acc 0.176923076923 test_acc 0.180327868852 dev_acc 0.165730337079
matches:  115 / 650
115 / 650
matches:  154 / 854
matches:  59 / 356
epoch 240 loss 552.836242676 train_acc 0.183076923077 test_acc 0.180327868852 dev_acc 0.165730337079
matches:  119 / 650
119 / 650
matches:  154 / 854
matches:  59 / 356
epoch 241 loss 548.366149902 train_acc 0.176923076923 test_acc 0.180327868852 dev_acc 0.165730337079
matches:  115 / 650
115 / 650
matches:  154 / 854
matches:  59 / 356
epoch 242 loss 551.877929688 train_acc 0.183076923077 test_acc 0.180327868852 dev_acc 0.165730337079
matches:  119 / 650
119 / 650
matches:  154 / 854
matches:  59 / 356
epoch 243 loss 547.389465332 train_acc 0.176923076923 test_acc 0.180327868852 dev_acc 0.165730337079
matches:  115 / 650
115 / 650
matches:  154 / 854
matches:  59 / 356
epoch 244 loss 550.87109375 train_acc 0.183076923077 test_acc 0.180327868852 dev_acc 0.165730337079
matches:  119 / 650
119 / 650
matches:  154 / 854
matches:  59 / 356
epoch 245 loss 546.343994141 train_acc 0.176923076923 test_acc 0.180327868852 dev_acc 0.165730337079
matches:  115 / 650
115 / 650
matches:  154 / 854
matches:  59 / 356
epoch 246 loss 549.766723633 train_acc 0.183076923077 test_acc 0.180327868852 dev_acc 0.165730337079
matches:  119 / 650
119 / 650
matches:  154 / 854
matches:  59 / 356
epoch 247 loss 545.16192627 train_acc 0.176923076923 test_acc 0.180327868852 dev_acc 0.165730337079
matches:  115 / 650
115 / 650
matches:  154 / 854
matches:  59 / 356
epoch 248 loss 548.463989258 train_acc 0.183076923077 test_acc 0.180327868852 dev_acc 0.165730337079
matches:  119 / 650
119 / 650
matches:  154 / 854
matches:  59 / 356
epoch 249 loss 543.687927246 train_acc 0.176923076923 test_acc 0.180327868852 dev_acc 0.165730337079
matches:  115 / 650
115 / 650
matches:  154 / 854
matches:  59 / 356
epoch 250 loss 546.705993652 train_acc 0.183076923077 test_acc 0.180327868852 dev_acc 0.165730337079
matches:  119 / 650
119 / 650
matches:  154 / 854
matches:  59 / 356
epoch 251 loss 541.466552734 train_acc 0.176923076923 test_acc 0.180327868852 dev_acc 0.165730337079
matches:  115 / 650
115 / 650
matches:  154 / 854
matches:  59 / 356
epoch 252 loss 543.57623291 train_acc 0.183076923077 test_acc 0.180327868852 dev_acc 0.165730337079
matches:  119 / 650
119 / 650
matches:  154 / 854
matches:  59 / 356
epoch 253 loss 536.342163086 train_acc 0.176923076923 test_acc 0.180327868852 dev_acc 0.165730337079
matches:  115 / 650
115 / 650
matches:  154 / 854
matches:  59 / 356
epoch 254 loss 532.236206055 train_acc 0.183076923077 test_acc 0.180327868852 dev_acc 0.165730337079
matches:  119 / 650
119 / 650
matches:  168 / 854
matches:  73 / 356
epoch 255 loss 488.300628662 train_acc 0.207692307692 test_acc 0.196721311475 dev_acc 0.205056179775
matches:  135 / 650
135 / 650
matches:  154 / 854
matches:  59 / 356
epoch 256 loss 463.963592529 train_acc 0.183076923077 test_acc 0.180327868852 dev_acc 0.165730337079
matches:  119 / 650
119 / 650
matches:  168 / 854
matches:  73 / 356
epoch 257 loss 507.104492188 train_acc 0.207692307692 test_acc 0.196721311475 dev_acc 0.205056179775
matches:  135 / 650
135 / 650
matches:  154 / 854
matches:  59 / 356
epoch 258 loss 202.408248901 train_acc 0.183076923077 test_acc 0.180327868852 dev_acc 0.165730337079
matches:  119 / 650
119 / 650
matches:  154 / 854
matches:  59 / 356
epoch 259 loss 552.183166504 train_acc 0.176923076923 test_acc 0.180327868852 dev_acc 0.165730337079
matches:  115 / 650
115 / 650
matches:  154 / 854
matches:  59 / 356
epoch 260 loss 555.755554199 train_acc 0.183076923077 test_acc 0.180327868852 dev_acc 0.165730337079
matches:  119 / 650
119 / 650
matches:  154 / 854
matches:  59 / 356
epoch 261 loss 551.3359375 train_acc 0.176923076923 test_acc 0.180327868852 dev_acc 0.165730337079
matches:  115 / 650
115 / 650
matches:  154 / 854
matches:  59 / 356
epoch 262 loss 554.923706055 train_acc 0.183076923077 test_acc 0.180327868852 dev_acc 0.165730337079
matches:  119 / 650
119 / 650
matches:  154 / 854
matches:  59 / 356
epoch 263 loss 550.519104004 train_acc 0.176923076923 test_acc 0.180327868852 dev_acc 0.165730337079
matches:  115 / 650
115 / 650
matches:  154 / 854
matches:  59 / 356
epoch 264 loss 554.121398926 train_acc 0.183076923077 test_acc 0.180327868852 dev_acc 0.165730337079
matches:  119 / 650
119 / 650
matches:  154 / 854
matches:  59 / 356
epoch 265 loss 549.730834961 train_acc 0.176923076923 test_acc 0.180327868852 dev_acc 0.165730337079
matches:  115 / 650
115 / 650
matches:  154 / 854
matches:  59 / 356
epoch 266 loss 553.346740723 train_acc 0.183076923077 test_acc 0.180327868852 dev_acc 0.165730337079
matches:  119 / 650
119 / 650
matches:  154 / 854
matches:  59 / 356
epoch 267 loss 548.969360352 train_acc 0.176923076923 test_acc 0.180327868852 dev_acc 0.165730337079
matches:  115 / 650
115 / 650
matches:  154 / 854
matches:  59 / 356
epoch 268 loss 552.59777832 train_acc 0.183076923077 test_acc 0.180327868852 dev_acc 0.165730337079
matches:  119 / 650
119 / 650
matches:  154 / 854
matches:  59 / 356
epoch 269 loss 548.23260498 train_acc 0.176923076923 test_acc 0.180327868852 dev_acc 0.165730337079
matches:  115 / 650
115 / 650
matches:  154 / 854
matches:  59 / 356
epoch 270 loss 551.872619629 train_acc 0.183076923077 test_acc 0.180327868852 dev_acc 0.165730337079
matches:  119 / 650
119 / 650
matches:  154 / 854
matches:  59 / 356
epoch 271 loss 547.518554688 train_acc 0.176923076923 test_acc 0.180327868852 dev_acc 0.165730337079
matches:  115 / 650
115 / 650
matches:  154 / 854
matches:  59 / 356
epoch 272 loss 551.168884277 train_acc 0.183076923077 test_acc 0.180327868852 dev_acc 0.165730337079
matches:  119 / 650
119 / 650
matches:  154 / 854
matches:  59 / 356
epoch 273 loss 546.824768066 train_acc 0.176923076923 test_acc 0.180327868852 dev_acc 0.165730337079
matches:  115 / 650
115 / 650
matches:  154 / 854
matches:  59 / 356
epoch 274 loss 550.484313965 train_acc 0.183076923077 test_acc 0.180327868852 dev_acc 0.165730337079
matches:  119 / 650
119 / 650
matches:  154 / 854
matches:  59 / 356
epoch 275 loss 546.148864746 train_acc 0.176923076923 test_acc 0.180327868852 dev_acc 0.165730337079
matches:  115 / 650
115 / 650
matches:  154 / 854
matches:  59 / 356
epoch 276 loss 549.816162109 train_acc 0.183076923077 test_acc 0.180327868852 dev_acc 0.165730337079
matches:  119 / 650
119 / 650
matches:  154 / 854
matches:  59 / 356
epoch 277 loss 545.487915039 train_acc 0.176923076923 test_acc 0.180327868852 dev_acc 0.165730337079
matches:  115 / 650
115 / 650
matches:  154 / 854
matches:  59 / 356
epoch 278 loss 549.161376953 train_acc 0.183076923077 test_acc 0.180327868852 dev_acc 0.165730337079
matches:  119 / 650
119 / 650
matches:  154 / 854
matches:  59 / 356
epoch 279 loss 544.838684082 train_acc 0.176923076923 test_acc 0.180327868852 dev_acc 0.165730337079
matches:  115 / 650
115 / 650
matches:  154 / 854
matches:  59 / 356
epoch 280 loss 548.516357422 train_acc 0.183076923077 test_acc 0.180327868852 dev_acc 0.165730337079
matches:  119 / 650
119 / 650
matches:  154 / 854
matches:  59 / 356
epoch 281 loss 544.19708252 train_acc 0.176923076923 test_acc 0.180327868852 dev_acc 0.165730337079
matches:  115 / 650
115 / 650
matches:  154 / 854
matches:  59 / 356
epoch 282 loss 547.876525879 train_acc 0.183076923077 test_acc 0.180327868852 dev_acc 0.165730337079
matches:  119 / 650
119 / 650
matches:  154 / 854
matches:  59 / 356
epoch 283 loss 543.558105469 train_acc 0.176923076923 test_acc 0.180327868852 dev_acc 0.165730337079
matches:  115 / 650
115 / 650
matches:  154 / 854
matches:  59 / 356
epoch 284 loss 547.236206055 train_acc 0.183076923077 test_acc 0.180327868852 dev_acc 0.165730337079
matches:  119 / 650
119 / 650
matches:  154 / 854
matches:  59 / 356
epoch 285 loss 542.915100098 train_acc 0.176923076923 test_acc 0.180327868852 dev_acc 0.165730337079
matches:  115 / 650
115 / 650
matches:  154 / 854
matches:  59 / 356
epoch 286 loss 546.58782959 train_acc 0.183076923077 test_acc 0.180327868852 dev_acc 0.165730337079
matches:  119 / 650
119 / 650
matches:  154 / 854
matches:  59 / 356
epoch 287 loss 542.259216309 train_acc 0.176923076923 test_acc 0.180327868852 dev_acc 0.165730337079
matches:  115 / 650
115 / 650
matches:  154 / 854
matches:  59 / 356
epoch 288 loss 545.920471191 train_acc 0.183076923077 test_acc 0.180327868852 dev_acc 0.165730337079
matches:  119 / 650
119 / 650
matches:  154 / 854
matches:  59 / 356
epoch 289 loss 541.577331543 train_acc 0.176923076923 test_acc 0.180327868852 dev_acc 0.165730337079
matches:  115 / 650
115 / 650
matches:  154 / 854
matches:  59 / 356
epoch 290 loss 545.218139648 train_acc 0.183076923077 test_acc 0.180327868852 dev_acc 0.165730337079
matches:  119 / 650
119 / 650
matches:  154 / 854
matches:  59 / 356
epoch 291 loss 540.84942627 train_acc 0.176923076923 test_acc 0.180327868852 dev_acc 0.165730337079
matches:  115 / 650
115 / 650
matches:  154 / 854
matches:  59 / 356
epoch 292 loss 544.45501709 train_acc 0.183076923077 test_acc 0.180327868852 dev_acc 0.165730337079
matches:  119 / 650
119 / 650
matches:  154 / 854
matches:  59 / 356
epoch 293 loss 540.041748047 train_acc 0.176923076923 test_acc 0.180327868852 dev_acc 0.165730337079
matches:  115 / 650
115 / 650
matches:  154 / 854
matches:  59 / 356
epoch 294 loss 543.58581543 train_acc 0.183076923077 test_acc 0.180327868852 dev_acc 0.165730337079
matches:  119 / 650
119 / 650
matches:  154 / 854
matches:  59 / 356
epoch 295 loss 539.091796875 train_acc 0.176923076923 test_acc 0.180327868852 dev_acc 0.165730337079
matches:  115 / 650
115 / 650
matches:  154 / 854
matches:  59 / 356
epoch 296 loss 542.520874023 train_acc 0.183076923077 test_acc 0.180327868852 dev_acc 0.165730337079
matches:  119 / 650
119 / 650
matches:  154 / 854
matches:  59 / 356
epoch 297 loss 537.866638184 train_acc 0.176923076923 test_acc 0.180327868852 dev_acc 0.165730337079
matches:  115 / 650
115 / 650
matches:  154 / 854
matches:  59 / 356
epoch 298 loss 541.051391602 train_acc 0.183076923077 test_acc 0.180327868852 dev_acc 0.165730337079
matches:  119 / 650
119 / 650
matches:  154 / 854
matches:  59 / 356
epoch 299 loss 536.017700195 train_acc 0.176923076923 test_acc 0.180327868852 dev_acc 0.165730337079
matches:  115 / 650
115 / 650
matches:  154 / 854
matches:  59 / 356
epoch 300 loss 538.541137695 train_acc 0.183076923077 test_acc 0.180327868852 dev_acc 0.165730337079
matches:  119 / 650
119 / 650
matches:  154 / 854
matches:  59 / 356
epoch 301 loss 532.241882324 train_acc 0.176923076923 test_acc 0.180327868852 dev_acc 0.165730337079
matches:  115 / 650
115 / 650
matches:  154 / 854
matches:  59 / 356
epoch 302 loss 531.772460938 train_acc 0.183076923077 test_acc 0.180327868852 dev_acc 0.165730337079
matches:  119 / 650
119 / 650
matches:  154 / 854
matches:  59 / 356
epoch 303 loss 515.612731934 train_acc 0.176923076923 test_acc 0.180327868852 dev_acc 0.165730337079
matches:  115 / 650
115 / 650
matches:  131 / 854
matches:  52 / 356
epoch 304 loss 443.908355713 train_acc 0.150769230769 test_acc 0.153395784543 dev_acc 0.14606741573
matches:  98 / 650
98 / 650
matches:  131 / 854
matches:  52 / 356
epoch 305 loss 536.983520508 train_acc 0.144615384615 test_acc 0.153395784543 dev_acc 0.14606741573
matches:  94 / 650
94 / 650
matches:  179 / 854
matches:  74 / 356
epoch 306 loss 476.453338623 train_acc 0.207692307692 test_acc 0.209601873536 dev_acc 0.207865168539
matches:  135 / 650
135 / 650
matches:  158 / 854
matches:  71 / 356
epoch 307 loss 463.950805664 train_acc 0.18 test_acc 0.185011709602 dev_acc 0.199438202247
matches:  117 / 650
117 / 650
matches:  179 / 854
matches:  74 / 356
epoch 308 loss 215.820281982 train_acc 0.207692307692 test_acc 0.209601873536 dev_acc 0.207865168539
matches:  135 / 650
135 / 650
matches:  154 / 854
matches:  59 / 356
epoch 309 loss 267.46496582 train_acc 0.176923076923 test_acc 0.180327868852 dev_acc 0.165730337079
matches:  115 / 650
115 / 650
matches:  154 / 854
matches:  59 / 356
epoch 310 loss 555.214477539 train_acc 0.183076923077 test_acc 0.180327868852 dev_acc 0.165730337079
matches:  119 / 650
119 / 650
matches:  154 / 854
matches:  59 / 356
epoch 311 loss 550.767456055 train_acc 0.176923076923 test_acc 0.180327868852 dev_acc 0.165730337079
matches:  115 / 650
115 / 650
matches:  154 / 854
matches:  59 / 356
epoch 312 loss 554.32434082 train_acc 0.183076923077 test_acc 0.180327868852 dev_acc 0.165730337079
matches:  119 / 650
119 / 650
matches:  154 / 854
matches:  59 / 356
epoch 313 loss 549.884338379 train_acc 0.176923076923 test_acc 0.180327868852 dev_acc 0.165730337079
matches:  115 / 650
115 / 650
matches:  154 / 854
matches:  59 / 356
epoch 314 loss 553.446777344 train_acc 0.183076923077 test_acc 0.180327868852 dev_acc 0.165730337079
matches:  119 / 650
119 / 650
matches:  154 / 854
matches:  59 / 356
epoch 315 loss 549.010437012 train_acc 0.176923076923 test_acc 0.180327868852 dev_acc 0.165730337079
matches:  115 / 650
115 / 650
matches:  154 / 854
matches:  59 / 356
epoch 316 loss 552.573974609 train_acc 0.183076923077 test_acc 0.180327868852 dev_acc 0.165730337079
matches:  119 / 650
119 / 650
matches:  154 / 854
matches:  59 / 356
epoch 317 loss 548.136169434 train_acc 0.176923076923 test_acc 0.180327868852 dev_acc 0.165730337079
matches:  115 / 650
115 / 650
matches:  154 / 854
matches:  59 / 356
epoch 318 loss 551.694824219 train_acc 0.183076923077 test_acc 0.180327868852 dev_acc 0.165730337079
matches:  119 / 650
119 / 650
matches:  154 / 854
matches:  59 / 356
epoch 319 loss 547.247680664 train_acc 0.176923076923 test_acc 0.180327868852 dev_acc 0.165730337079
matches:  115 / 650
115 / 650
matches:  154 / 854
matches:  59 / 356
epoch 320 loss 550.791381836 train_acc 0.183076923077 test_acc 0.180327868852 dev_acc 0.165730337079
matches:  119 / 650
119 / 650
matches:  154 / 854
matches:  59 / 356
epoch 321 loss 546.322021484 train_acc 0.176923076923 test_acc 0.180327868852 dev_acc 0.165730337079
matches:  115 / 650
115 / 650
matches:  154 / 854
matches:  59 / 356
epoch 322 loss 549.833374023 train_acc 0.183076923077 test_acc 0.180327868852 dev_acc 0.165730337079
matches:  119 / 650
119 / 650
matches:  154 / 854
matches:  59 / 356
epoch 323 loss 545.317626953 train_acc 0.176923076923 test_acc 0.180327868852 dev_acc 0.165730337079
matches:  115 / 650
115 / 650
matches:  154 / 854
matches:  59 / 356
epoch 324 loss 548.76171875 train_acc 0.183076923077 test_acc 0.180327868852 dev_acc 0.165730337079
matches:  119 / 650
119 / 650
matches:  154 / 854
matches:  59 / 356
epoch 325 loss 544.147033691 train_acc 0.176923076923 test_acc 0.180327868852 dev_acc 0.165730337079
matches:  115 / 650
115 / 650
matches:  154 / 854
matches:  59 / 356
epoch 326 loss 547.440856934 train_acc 0.183076923077 test_acc 0.180327868852 dev_acc 0.165730337079
matches:  119 / 650
119 / 650
matches:  154 / 854
matches:  59 / 356
epoch 327 loss 542.586242676 train_acc 0.176923076923 test_acc 0.180327868852 dev_acc 0.165730337079
matches:  115 / 650
115 / 650
matches:  154 / 854
matches:  59 / 356
epoch 328 loss 545.46685791 train_acc 0.183076923077 test_acc 0.180327868852 dev_acc 0.165730337079
matches:  119 / 650
119 / 650
matches:  154 / 854
matches:  59 / 356
epoch 329 loss 539.818603516 train_acc 0.176923076923 test_acc 0.180327868852 dev_acc 0.165730337079
matches:  115 / 650
115 / 650
matches:  154 / 854
matches:  59 / 356
epoch 330 loss 540.864807129 train_acc 0.183076923077 test_acc 0.180327868852 dev_acc 0.165730337079
matches:  119 / 650
119 / 650
matches:  154 / 854
matches:  59 / 356
epoch 331 loss 529.216491699 train_acc 0.176923076923 test_acc 0.180327868852 dev_acc 0.165730337079
matches:  115 / 650
115 / 650
matches:  131 / 854
matches:  52 / 356
epoch 332 loss 478.693023682 train_acc 0.150769230769 test_acc 0.153395784543 dev_acc 0.14606741573
matches:  98 / 650
98 / 650
matches:  131 / 854
matches:  52 / 356
epoch 333 loss 565.397521973 train_acc 0.144615384615 test_acc 0.153395784543 dev_acc 0.14606741573
matches:  94 / 650
94 / 650
matches:  131 / 854
matches:  52 / 356
epoch 334 loss 569.13092041 train_acc 0.150769230769 test_acc 0.153395784543 dev_acc 0.14606741573
matches:  98 / 650
98 / 650
matches:  131 / 854
matches:  52 / 356
epoch 335 loss 564.869506836 train_acc 0.144615384615 test_acc 0.153395784543 dev_acc 0.14606741573
matches:  94 / 650
94 / 650
matches:  131 / 854
matches:  52 / 356
epoch 336 loss 568.61340332 train_acc 0.150769230769 test_acc 0.153395784543 dev_acc 0.14606741573
matches:  98 / 650
98 / 650
matches:  131 / 854
matches:  52 / 356
epoch 337 loss 564.362365723 train_acc 0.144615384615 test_acc 0.153395784543 dev_acc 0.14606741573
matches:  94 / 650
94 / 650
matches:  131 / 854
matches:  52 / 356
epoch 338 loss 568.116394043 train_acc 0.150769230769 test_acc 0.153395784543 dev_acc 0.14606741573
matches:  98 / 650
98 / 650
matches:  131 / 854
matches:  52 / 356
epoch 339 loss 563.875244141 train_acc 0.144615384615 test_acc 0.153395784543 dev_acc 0.14606741573
matches:  94 / 650
94 / 650
matches:  131 / 854
matches:  52 / 356
epoch 340 loss 567.63885498 train_acc 0.150769230769 test_acc 0.153395784543 dev_acc 0.14606741573
matches:  98 / 650
98 / 650
matches:  131 / 854
matches:  52 / 356
epoch 341 loss 563.407226562 train_acc 0.144615384615 test_acc 0.153395784543 dev_acc 0.14606741573
matches:  94 / 650
94 / 650
matches:  131 / 854
matches:  52 / 356
epoch 342 loss 567.180175781 train_acc 0.150769230769 test_acc 0.153395784543 dev_acc 0.14606741573
matches:  98 / 650
98 / 650
matches:  131 / 854
matches:  52 / 356
epoch 343 loss 562.957519531 train_acc 0.144615384615 test_acc 0.153395784543 dev_acc 0.14606741573
matches:  94 / 650
94 / 650
matches:  131 / 854
matches:  52 / 356
epoch 344 loss 566.739379883 train_acc 0.150769230769 test_acc 0.153395784543 dev_acc 0.14606741573
matches:  98 / 650
98 / 650
matches:  131 / 854
matches:  52 / 356
epoch 345 loss 562.525512695 train_acc 0.144615384615 test_acc 0.153395784543 dev_acc 0.14606741573
matches:  94 / 650
94 / 650
matches:  131 / 854
matches:  52 / 356
epoch 346 loss 566.315979004 train_acc 0.150769230769 test_acc 0.153395784543 dev_acc 0.14606741573
matches:  98 / 650
98 / 650
matches:  131 / 854
matches:  52 / 356
epoch 347 loss 562.110412598 train_acc 0.144615384615 test_acc 0.153395784543 dev_acc 0.14606741573
matches:  94 / 650
94 / 650
matches:  131 / 854
matches:  52 / 356
epoch 348 loss 565.909057617 train_acc 0.150769230769 test_acc 0.153395784543 dev_acc 0.14606741573
matches:  98 / 650
98 / 650
matches:  131 / 854
matches:  52 / 356
epoch 349 loss 561.711425781 train_acc 0.144615384615 test_acc 0.153395784543 dev_acc 0.14606741573
matches:  94 / 650
94 / 650
matches:  131 / 854
matches:  52 / 356
epoch 350 loss 565.517883301 train_acc 0.150769230769 test_acc 0.153395784543 dev_acc 0.14606741573
matches:  98 / 650
98 / 650
matches:  131 / 854
matches:  52 / 356
epoch 351 loss 561.327880859 train_acc 0.144615384615 test_acc 0.153395784543 dev_acc 0.14606741573
matches:  94 / 650
94 / 650
matches:  131 / 854
matches:  52 / 356
epoch 352 loss 565.141906738 train_acc 0.150769230769 test_acc 0.153395784543 dev_acc 0.14606741573
matches:  98 / 650
98 / 650
matches:  131 / 854
matches:  52 / 356
epoch 353 loss 560.95904541 train_acc 0.144615384615 test_acc 0.153395784543 dev_acc 0.14606741573
matches:  94 / 650
94 / 650
matches:  131 / 854
matches:  52 / 356
epoch 354 loss 564.780273438 train_acc 0.150769230769 test_acc 0.153395784543 dev_acc 0.14606741573
matches:  98 / 650
98 / 650
matches:  131 / 854
matches:  52 / 356
epoch 355 loss 560.604187012 train_acc 0.144615384615 test_acc 0.153395784543 dev_acc 0.14606741573
matches:  94 / 650
94 / 650
matches:  131 / 854
matches:  52 / 356
epoch 356 loss 564.432189941 train_acc 0.150769230769 test_acc 0.153395784543 dev_acc 0.14606741573
matches:  98 / 650
98 / 650
matches:  131 / 854
matches:  52 / 356
epoch 357 loss 560.262451172 train_acc 0.144615384615 test_acc 0.153395784543 dev_acc 0.14606741573
matches:  94 / 650
94 / 650
matches:  131 / 854
matches:  52 / 356
epoch 358 loss 564.096984863 train_acc 0.150769230769 test_acc 0.153395784543 dev_acc 0.14606741573
matches:  98 / 650
98 / 650
matches:  131 / 854
matches:  52 / 356
epoch 359 loss 559.932983398 train_acc 0.144615384615 test_acc 0.153395784543 dev_acc 0.14606741573
matches:  94 / 650
94 / 650
matches:  131 / 854
matches:  52 / 356
epoch 360 loss 563.77355957 train_acc 0.150769230769 test_acc 0.153395784543 dev_acc 0.14606741573
matches:  98 / 650
98 / 650
matches:  131 / 854
matches:  52 / 356
epoch 361 loss 559.614868164 train_acc 0.144615384615 test_acc 0.153395784543 dev_acc 0.14606741573
matches:  94 / 650
94 / 650
matches:  131 / 854
matches:  52 / 356
epoch 362 loss 563.46105957 train_acc 0.150769230769 test_acc 0.153395784543 dev_acc 0.14606741573
matches:  98 / 650
98 / 650
matches:  131 / 854
matches:  52 / 356
epoch 363 loss 559.306884766 train_acc 0.144615384615 test_acc 0.153395784543 dev_acc 0.14606741573
matches:  94 / 650
94 / 650
matches:  131 / 854
matches:  52 / 356
epoch 364 loss 563.158203125 train_acc 0.150769230769 test_acc 0.153395784543 dev_acc 0.14606741573
matches:  98 / 650
98 / 650
matches:  131 / 854
matches:  52 / 356
epoch 365 loss 559.00769043 train_acc 0.144615384615 test_acc 0.153395784543 dev_acc 0.14606741573
matches:  94 / 650
94 / 650
matches:  131 / 854
matches:  52 / 356
epoch 366 loss 562.863464355 train_acc 0.150769230769 test_acc 0.153395784543 dev_acc 0.14606741573
matches:  98 / 650
98 / 650
matches:  131 / 854
matches:  52 / 356
epoch 367 loss 558.715332031 train_acc 0.144615384615 test_acc 0.153395784543 dev_acc 0.14606741573
matches:  94 / 650
94 / 650
matches:  131 / 854
matches:  52 / 356
epoch 368 loss 562.574768066 train_acc 0.150769230769 test_acc 0.153395784543 dev_acc 0.14606741573
matches:  98 / 650
98 / 650
matches:  131 / 854
matches:  52 / 356
epoch 369 loss 558.427368164 train_acc 0.144615384615 test_acc 0.153395784543 dev_acc 0.14606741573
matches:  94 / 650
94 / 650
matches:  131 / 854
matches:  52 / 356
epoch 370 loss 562.289123535 train_acc 0.150769230769 test_acc 0.153395784543 dev_acc 0.14606741573
matches:  98 / 650
98 / 650
matches:  131 / 854
matches:  52 / 356
epoch 371 loss 558.139770508 train_acc 0.144615384615 test_acc 0.153395784543 dev_acc 0.14606741573
matches:  94 / 650
94 / 650
matches:  131 / 854
matches:  52 / 356
epoch 372 loss 562.001708984 train_acc 0.150769230769 test_acc 0.153395784543 dev_acc 0.14606741573
matches:  98 / 650
98 / 650
matches:  131 / 854
matches:  52 / 356
epoch 373 loss 557.845947266 train_acc 0.144615384615 test_acc 0.153395784543 dev_acc 0.14606741573
matches:  94 / 650
94 / 650
matches:  131 / 854
matches:  52 / 356
epoch 374 loss 561.704040527 train_acc 0.150769230769 test_acc 0.153395784543 dev_acc 0.14606741573
matches:  98 / 650
98 / 650
matches:  131 / 854
matches:  52 / 356
epoch 375 loss 557.53338623 train_acc 0.144615384615 test_acc 0.153395784543 dev_acc 0.14606741573
matches:  94 / 650
94 / 650
matches:  131 / 854
matches:  52 / 356
epoch 376 loss 561.378417969 train_acc 0.150769230769 test_acc 0.153395784543 dev_acc 0.14606741573
matches:  98 / 650
98 / 650
matches:  131 / 854
matches:  52 / 356
epoch 377 loss 557.173156738 train_acc 0.144615384615 test_acc 0.153395784543 dev_acc 0.14606741573
matches:  94 / 650
94 / 650
matches:  131 / 854
matches:  52 / 356
epoch 378 loss 560.979553223 train_acc 0.150769230769 test_acc 0.153395784543 dev_acc 0.14606741573
matches:  98 / 650
98 / 650
matches:  131 / 854
matches:  52 / 356
epoch 379 loss 556.680175781 train_acc 0.144615384615 test_acc 0.153395784543 dev_acc 0.14606741573
matches:  94 / 650
94 / 650
matches:  131 / 854
matches:  52 / 356
epoch 380 loss 560.34387207 train_acc 0.150769230769 test_acc 0.153395784543 dev_acc 0.14606741573
matches:  98 / 650
98 / 650
matches:  131 / 854
matches:  52 / 356
epoch 381 loss 555.653564453 train_acc 0.144615384615 test_acc 0.153395784543 dev_acc 0.14606741573
matches:  94 / 650
94 / 650
matches:  131 / 854
matches:  52 / 356
epoch 382 loss 558.276428223 train_acc 0.150769230769 test_acc 0.153395784543 dev_acc 0.14606741573
matches:  98 / 650
98 / 650
matches:  131 / 854
matches:  52 / 356
epoch 383 loss 547.746459961 train_acc 0.144615384615 test_acc 0.153395784543 dev_acc 0.14606741573
matches:  94 / 650
94 / 650
matches:  154 / 854
matches:  59 / 356
epoch 384 loss 437.095428467 train_acc 0.183076923077 test_acc 0.180327868852 dev_acc 0.165730337079
matches:  119 / 650
119 / 650
matches:  154 / 854
matches:  59 / 356
epoch 385 loss 538.399291992 train_acc 0.176923076923 test_acc 0.180327868852 dev_acc 0.165730337079
matches:  115 / 650
115 / 650
matches:  154 / 854
matches:  59 / 356
epoch 386 loss 541.506103516 train_acc 0.183076923077 test_acc 0.180327868852 dev_acc 0.165730337079
matches:  119 / 650
119 / 650
matches:  154 / 854
matches:  59 / 356
epoch 387 loss 536.387634277 train_acc 0.176923076923 test_acc 0.180327868852 dev_acc 0.165730337079
matches:  115 / 650
115 / 650
matches:  154 / 854
matches:  59 / 356
epoch 388 loss 538.765563965 train_acc 0.183076923077 test_acc 0.180327868852 dev_acc 0.165730337079
matches:  119 / 650
119 / 650
matches:  154 / 854
matches:  59 / 356
epoch 389 loss 532.269104004 train_acc 0.176923076923 test_acc 0.180327868852 dev_acc 0.165730337079
matches:  115 / 650
115 / 650
matches:  154 / 854
matches:  59 / 356
epoch 390 loss 531.377746582 train_acc 0.183076923077 test_acc 0.180327868852 dev_acc 0.165730337079
matches:  119 / 650
119 / 650
matches:  154 / 854
matches:  59 / 356
epoch 391 loss 514.364868164 train_acc 0.176923076923 test_acc 0.180327868852 dev_acc 0.165730337079
matches:  115 / 650
115 / 650
matches:  64 / 854
matches:  27 / 356
epoch 392 loss 442.659088135 train_acc 0.0861538461538 test_acc 0.0749414519906 dev_acc 0.0758426966292
matches:  56 / 650
56 / 650
matches:  168 / 854
matches:  73 / 356
epoch 393 loss 492.832275391 train_acc 0.207692307692 test_acc 0.196721311475 dev_acc 0.205056179775
matches:  135 / 650
135 / 650
matches:  168 / 854
matches:  73 / 356
epoch 394 loss 482.091888428 train_acc 0.203076923077 test_acc 0.196721311475 dev_acc 0.205056179775
matches:  132 / 650
132 / 650
matches:  179 / 854
matches:  74 / 356
epoch 395 loss 226.512832642 train_acc 0.204615384615 test_acc 0.209601873536 dev_acc 0.207865168539
matches:  133 / 650
133 / 650
matches:  179 / 854
matches:  74 / 356
epoch 396 loss 526.993347168 train_acc 0.207692307692 test_acc 0.209601873536 dev_acc 0.207865168539
matches:  135 / 650
135 / 650
matches:  179 / 854
matches:  74 / 356
epoch 397 loss 523.714477539 train_acc 0.204615384615 test_acc 0.209601873536 dev_acc 0.207865168539
matches:  133 / 650
133 / 650
matches:  179 / 854
matches:  74 / 356
epoch 398 loss 523.887573242 train_acc 0.207692307692 test_acc 0.209601873536 dev_acc 0.207865168539
matches:  135 / 650
135 / 650
matches:  179 / 854
matches:  74 / 356
epoch 399 loss 518.792297363 train_acc 0.204615384615 test_acc 0.209601873536 dev_acc 0.207865168539
matches:  133 / 650
133 / 650
matches:  179 / 854
matches:  74 / 356
epoch 400 loss 514.127807617 train_acc 0.207692307692 test_acc 0.209601873536 dev_acc 0.207865168539
matches:  135 / 650
135 / 650
matches:  179 / 854
matches:  74 / 356
epoch 401 loss 488.075836182 train_acc 0.204615384615 test_acc 0.209601873536 dev_acc 0.207865168539
matches:  133 / 650
133 / 650
matches:  131 / 854
matches:  52 / 356
epoch 402 loss 224.634185791 train_acc 0.150769230769 test_acc 0.153395784543 dev_acc 0.14606741573
matches:  98 / 650
98 / 650
matches:  131 / 854
matches:  52 / 356
epoch 403 loss 570.043579102 train_acc 0.144615384615 test_acc 0.153395784543 dev_acc 0.14606741573
matches:  94 / 650
94 / 650
matches:  131 / 854
matches:  52 / 356
epoch 404 loss 573.587890625 train_acc 0.150769230769 test_acc 0.153395784543 dev_acc 0.14606741573
matches:  98 / 650
98 / 650
matches:  131 / 854
matches:  52 / 356
epoch 405 loss 569.018249512 train_acc 0.144615384615 test_acc 0.153395784543 dev_acc 0.14606741573
matches:  94 / 650
94 / 650
matches:  131 / 854
matches:  52 / 356
epoch 406 loss 572.277282715 train_acc 0.150769230769 test_acc 0.153395784543 dev_acc 0.14606741573
matches:  98 / 650
98 / 650
matches:  131 / 854
matches:  52 / 356
epoch 407 loss 566.422668457 train_acc 0.144615384615 test_acc 0.153395784543 dev_acc 0.14606741573
matches:  94 / 650
94 / 650
matches:  154 / 854
matches:  59 / 356
epoch 408 loss 546.33996582 train_acc 0.183076923077 test_acc 0.180327868852 dev_acc 0.165730337079
matches:  119 / 650
119 / 650
matches:  154 / 854
matches:  59 / 356
epoch 409 loss 550.124389648 train_acc 0.176923076923 test_acc 0.180327868852 dev_acc 0.165730337079
matches:  115 / 650
115 / 650
matches:  154 / 854
matches:  59 / 356
epoch 410 loss 553.743774414 train_acc 0.183076923077 test_acc 0.180327868852 dev_acc 0.165730337079
matches:  119 / 650
119 / 650
matches:  154 / 854
matches:  59 / 356
epoch 411 loss 549.370788574 train_acc 0.176923076923 test_acc 0.180327868852 dev_acc 0.165730337079
matches:  115 / 650
115 / 650
matches:  154 / 854
matches:  59 / 356
epoch 412 loss 553.005187988 train_acc 0.183076923077 test_acc 0.180327868852 dev_acc 0.165730337079
matches:  119 / 650
119 / 650
matches:  154 / 854
matches:  59 / 356
epoch 413 loss 548.646911621 train_acc 0.176923076923 test_acc 0.180327868852 dev_acc 0.165730337079
matches:  115 / 650
115 / 650
matches:  154 / 854
matches:  59 / 356
epoch 414 loss 552.295715332 train_acc 0.183076923077 test_acc 0.180327868852 dev_acc 0.165730337079
matches:  119 / 650
119 / 650
matches:  154 / 854
matches:  59 / 356
epoch 415 loss 547.951538086 train_acc 0.176923076923 test_acc 0.180327868852 dev_acc 0.165730337079
matches:  115 / 650
115 / 650
matches:  154 / 854
matches:  59 / 356
epoch 416 loss 551.614196777 train_acc 0.183076923077 test_acc 0.180327868852 dev_acc 0.165730337079
matches:  119 / 650
119 / 650
matches:  154 / 854
matches:  59 / 356
epoch 417 loss 547.283569336 train_acc 0.176923076923 test_acc 0.180327868852 dev_acc 0.165730337079
matches:  115 / 650
115 / 650
matches:  154 / 854
matches:  59 / 356
epoch 418 loss 550.959533691 train_acc 0.183076923077 test_acc 0.180327868852 dev_acc 0.165730337079
matches:  119 / 650
119 / 650
matches:  154 / 854
matches:  59 / 356
epoch 419 loss 546.641967773 train_acc 0.176923076923 test_acc 0.180327868852 dev_acc 0.165730337079
matches:  115 / 650
115 / 650
matches:  154 / 854
matches:  59 / 356
epoch 420 loss 550.330688477 train_acc 0.183076923077 test_acc 0.180327868852 dev_acc 0.165730337079
matches:  119 / 650
119 / 650
matches:  154 / 854
matches:  59 / 356
epoch 421 loss 546.02557373 train_acc 0.176923076923 test_acc 0.180327868852 dev_acc 0.165730337079
matches:  115 / 650
115 / 650
matches:  154 / 854
matches:  59 / 356
epoch 422 loss 549.7265625 train_acc 0.183076923077 test_acc 0.180327868852 dev_acc 0.165730337079
matches:  119 / 650
119 / 650
matches:  154 / 854
matches:  59 / 356
epoch 423 loss 545.433532715 train_acc 0.176923076923 test_acc 0.180327868852 dev_acc 0.165730337079
matches:  115 / 650
115 / 650
matches:  154 / 854
matches:  59 / 356
epoch 424 loss 549.14630127 train_acc 0.183076923077 test_acc 0.180327868852 dev_acc 0.165730337079
matches:  119 / 650
119 / 650
matches:  154 / 854
matches:  59 / 356
epoch 425 loss 544.864685059 train_acc 0.176923076923 test_acc 0.180327868852 dev_acc 0.165730337079
matches:  115 / 650
115 / 650
matches:  154 / 854
matches:  59 / 356
epoch 426 loss 548.588806152 train_acc 0.183076923077 test_acc 0.180327868852 dev_acc 0.165730337079
matches:  119 / 650
119 / 650
matches:  154 / 854
matches:  59 / 356
epoch 427 loss 544.318359375 train_acc 0.176923076923 test_acc 0.180327868852 dev_acc 0.165730337079
matches:  115 / 650
115 / 650
matches:  154 / 854
matches:  59 / 356
epoch 428 loss 548.053283691 train_acc 0.183076923077 test_acc 0.180327868852 dev_acc 0.165730337079
matches:  119 / 650
119 / 650
matches:  154 / 854
matches:  59 / 356
epoch 429 loss 543.793457031 train_acc 0.176923076923 test_acc 0.180327868852 dev_acc 0.165730337079
matches:  115 / 650
115 / 650
matches:  154 / 854
matches:  59 / 356
epoch 430 loss 547.538879395 train_acc 0.183076923077 test_acc 0.180327868852 dev_acc 0.165730337079
matches:  119 / 650
119 / 650
matches:  154 / 854
matches:  59 / 356
epoch 431 loss 543.289245605 train_acc 0.176923076923 test_acc 0.180327868852 dev_acc 0.165730337079
matches:  115 / 650
115 / 650
matches:  154 / 854
matches:  59 / 356
epoch 432 loss 547.044616699 train_acc 0.183076923077 test_acc 0.180327868852 dev_acc 0.165730337079
matches:  119 / 650
119 / 650
matches:  154 / 854
matches:  59 / 356
epoch 433 loss 542.80480957 train_acc 0.176923076923 test_acc 0.180327868852 dev_acc 0.165730337079
matches:  115 / 650
115 / 650
matches:  154 / 854
matches:  59 / 356
epoch 434 loss 546.569824219 train_acc 0.183076923077 test_acc 0.180327868852 dev_acc 0.165730337079
matches:  119 / 650
119 / 650
matches:  154 / 854
matches:  59 / 356
epoch 435 loss 542.339294434 train_acc 0.176923076923 test_acc 0.180327868852 dev_acc 0.165730337079
matches:  115 / 650
115 / 650
matches:  154 / 854
matches:  59 / 356
epoch 436 loss 546.113586426 train_acc 0.183076923077 test_acc 0.180327868852 dev_acc 0.165730337079
matches:  119 / 650
119 / 650
matches:  154 / 854
matches:  59 / 356
epoch 437 loss 541.891906738 train_acc 0.176923076923 test_acc 0.180327868852 dev_acc 0.165730337079
matches:  115 / 650
115 / 650
matches:  154 / 854
matches:  59 / 356
epoch 438 loss 545.675048828 train_acc 0.183076923077 test_acc 0.180327868852 dev_acc 0.165730337079
matches:  119 / 650
119 / 650
matches:  154 / 854
matches:  59 / 356
epoch 439 loss 541.461853027 train_acc 0.176923076923 test_acc 0.180327868852 dev_acc 0.165730337079
matches:  115 / 650
115 / 650
matches:  154 / 854
matches:  59 / 356
epoch 440 loss 545.253479004 train_acc 0.183076923077 test_acc 0.180327868852 dev_acc 0.165730337079
matches:  119 / 650
119 / 650
matches:  154 / 854
matches:  59 / 356
epoch 441 loss 541.048400879 train_acc 0.176923076923 test_acc 0.180327868852 dev_acc 0.165730337079
matches:  115 / 650
115 / 650
matches:  154 / 854
matches:  59 / 356
epoch 442 loss 544.848083496 train_acc 0.183076923077 test_acc 0.180327868852 dev_acc 0.165730337079
matches:  119 / 650
119 / 650
matches:  154 / 854
matches:  59 / 356
epoch 443 loss 540.650390625 train_acc 0.176923076923 test_acc 0.180327868852 dev_acc 0.165730337079
matches:  115 / 650
115 / 650
matches:  154 / 854
matches:  59 / 356
epoch 444 loss 544.457885742 train_acc 0.183076923077 test_acc 0.180327868852 dev_acc 0.165730337079
matches:  119 / 650
119 / 650
matches:  154 / 854
matches:  59 / 356
epoch 445 loss 540.266967773 train_acc 0.176923076923 test_acc 0.180327868852 dev_acc 0.165730337079
matches:  115 / 650
115 / 650
matches:  154 / 854
matches:  59 / 356
epoch 446 loss 544.081848145 train_acc 0.183076923077 test_acc 0.180327868852 dev_acc 0.165730337079
matches:  119 / 650
119 / 650
matches:  154 / 854
matches:  59 / 356
epoch 447 loss 539.897155762 train_acc 0.176923076923 test_acc 0.180327868852 dev_acc 0.165730337079
matches:  115 / 650
115 / 650
matches:  154 / 854
matches:  59 / 356
epoch 448 loss 543.719055176 train_acc 0.183076923077 test_acc 0.180327868852 dev_acc 0.165730337079
matches:  119 / 650
119 / 650
matches:  154 / 854
matches:  59 / 356
epoch 449 loss 539.539428711 train_acc 0.176923076923 test_acc 0.180327868852 dev_acc 0.165730337079
matches:  115 / 650
115 / 650
matches:  154 / 854
matches:  59 / 356
epoch 450 loss 543.367919922 train_acc 0.183076923077 test_acc 0.180327868852 dev_acc 0.165730337079
matches:  119 / 650
119 / 650
matches:  154 / 854
matches:  59 / 356
epoch 451 loss 539.192077637 train_acc 0.176923076923 test_acc 0.180327868852 dev_acc 0.165730337079
matches:  115 / 650
115 / 650
matches:  154 / 854
matches:  59 / 356
epoch 452 loss 543.026672363 train_acc 0.183076923077 test_acc 0.180327868852 dev_acc 0.165730337079
matches:  119 / 650
119 / 650
matches:  154 / 854
matches:  59 / 356
epoch 453 loss 538.852478027 train_acc 0.176923076923 test_acc 0.180327868852 dev_acc 0.165730337079
matches:  115 / 650
115 / 650
matches:  154 / 854
matches:  59 / 356
epoch 454 loss 542.692382812 train_acc 0.183076923077 test_acc 0.180327868852 dev_acc 0.165730337079
matches:  119 / 650
119 / 650
matches:  154 / 854
matches:  59 / 356
epoch 455 loss 538.516357422 train_acc 0.176923076923 test_acc 0.180327868852 dev_acc 0.165730337079
matches:  115 / 650
115 / 650
matches:  154 / 854
matches:  59 / 356
epoch 456 loss 542.359924316 train_acc 0.183076923077 test_acc 0.180327868852 dev_acc 0.165730337079
matches:  119 / 650
119 / 650
matches:  154 / 854
matches:  59 / 356
epoch 457 loss 538.175354004 train_acc 0.176923076923 test_acc 0.180327868852 dev_acc 0.165730337079
matches:  115 / 650
115 / 650
matches:  154 / 854
matches:  59 / 356
epoch 458 loss 542.018798828 train_acc 0.183076923077 test_acc 0.180327868852 dev_acc 0.165730337079
matches:  119 / 650
119 / 650
matches:  154 / 854
matches:  59 / 356
epoch 459 loss 537.808654785 train_acc 0.176923076923 test_acc 0.180327868852 dev_acc 0.165730337079
matches:  115 / 650
115 / 650
matches:  154 / 854
matches:  59 / 356
epoch 460 loss 541.637390137 train_acc 0.183076923077 test_acc 0.180327868852 dev_acc 0.165730337079
matches:  119 / 650
119 / 650
matches:  154 / 854
matches:  59 / 356
epoch 461 loss 537.339294434 train_acc 0.176923076923 test_acc 0.180327868852 dev_acc 0.165730337079
matches:  115 / 650
115 / 650
matches:  154 / 854
matches:  59 / 356
epoch 462 loss 541.050231934 train_acc 0.183076923077 test_acc 0.180327868852 dev_acc 0.165730337079
matches:  119 / 650
119 / 650
matches:  154 / 854
matches:  59 / 356
epoch 463 loss 536.045776367 train_acc 0.176923076923 test_acc 0.180327868852 dev_acc 0.165730337079
matches:  115 / 650
115 / 650
matches:  131 / 854
matches:  52 / 356
epoch 464 loss 532.686157227 train_acc 0.150769230769 test_acc 0.153395784543 dev_acc 0.14606741573
matches:  98 / 650
98 / 650
matches:  154 / 854
matches:  59 / 356
epoch 465 loss 474.427215576 train_acc 0.176923076923 test_acc 0.180327868852 dev_acc 0.165730337079
matches:  115 / 650
115 / 650
matches:  154 / 854
matches:  59 / 356
epoch 466 loss 531.097290039 train_acc 0.183076923077 test_acc 0.180327868852 dev_acc 0.165730337079
matches:  119 / 650
119 / 650
matches:  154 / 854
matches:  59 / 356
epoch 467 loss 515.597290039 train_acc 0.176923076923 test_acc 0.180327868852 dev_acc 0.165730337079
matches:  115 / 650
115 / 650
matches:  131 / 854
matches:  52 / 356
epoch 468 loss 456.019805908 train_acc 0.150769230769 test_acc 0.153395784543 dev_acc 0.14606741573
matches:  98 / 650
98 / 650
matches:  64 / 854
matches:  27 / 356
epoch 469 loss 469.275939941 train_acc 0.0861538461538 test_acc 0.0749414519906 dev_acc 0.0758426966292
matches:  56 / 650
56 / 650
matches:  154 / 854
matches:  59 / 356
epoch 470 loss 537.226013184 train_acc 0.183076923077 test_acc 0.180327868852 dev_acc 0.165730337079
matches:  119 / 650
119 / 650
matches:  158 / 854
matches:  71 / 356
epoch 471 loss 235.118377686 train_acc 0.18 test_acc 0.185011709602 dev_acc 0.199438202247
matches:  117 / 650
117 / 650
matches:  64 / 854
matches:  27 / 356
epoch 472 loss 326.234954834 train_acc 0.0861538461538 test_acc 0.0749414519906 dev_acc 0.0758426966292
matches:  56 / 650
56 / 650
matches:  64 / 854
matches:  27 / 356
epoch 473 loss 608.387207031 train_acc 0.0861538461538 test_acc 0.0749414519906 dev_acc 0.0758426966292
matches:  56 / 650
56 / 650
matches:  64 / 854
matches:  27 / 356
epoch 474 loss 607.61920166 train_acc 0.0861538461538 test_acc 0.0749414519906 dev_acc 0.0758426966292
matches:  56 / 650
56 / 650
matches:  64 / 854
matches:  27 / 356
epoch 475 loss 606.65447998 train_acc 0.0861538461538 test_acc 0.0749414519906 dev_acc 0.0758426966292
matches:  56 / 650
56 / 650
matches:  64 / 854
matches:  27 / 356
epoch 476 loss 605.391235352 train_acc 0.0861538461538 test_acc 0.0749414519906 dev_acc 0.0758426966292
matches:  56 / 650
56 / 650
matches:  64 / 854
matches:  27 / 356
epoch 477 loss 603.417724609 train_acc 0.0861538461538 test_acc 0.0749414519906 dev_acc 0.0758426966292
matches:  56 / 650
56 / 650
matches:  64 / 854
matches:  27 / 356
epoch 478 loss 599.72644043 train_acc 0.0861538461538 test_acc 0.0749414519906 dev_acc 0.0758426966292
matches:  56 / 650
56 / 650
matches:  64 / 854
matches:  27 / 356
epoch 479 loss 589.081481934 train_acc 0.0861538461538 test_acc 0.0749414519906 dev_acc 0.0758426966292
matches:  56 / 650
56 / 650
matches:  131 / 854
matches:  52 / 356
epoch 480 loss 512.192749023 train_acc 0.150769230769 test_acc 0.153395784543 dev_acc 0.14606741573
matches:  98 / 650
98 / 650
matches:  131 / 854
matches:  52 / 356
epoch 481 loss 564.722961426 train_acc 0.144615384615 test_acc 0.153395784543 dev_acc 0.14606741573
matches:  94 / 650
94 / 650
matches:  131 / 854
matches:  52 / 356
epoch 482 loss 568.135925293 train_acc 0.150769230769 test_acc 0.153395784543 dev_acc 0.14606741573
matches:  98 / 650
98 / 650
matches:  131 / 854
matches:  52 / 356
epoch 483 loss 563.482971191 train_acc 0.144615384615 test_acc 0.153395784543 dev_acc 0.14606741573
matches:  94 / 650
94 / 650
matches:  131 / 854
matches:  52 / 356
epoch 484 loss 566.676452637 train_acc 0.150769230769 test_acc 0.153395784543 dev_acc 0.14606741573
matches:  98 / 650
98 / 650
matches:  131 / 854
matches:  52 / 356
epoch 485 loss 561.667419434 train_acc 0.144615384615 test_acc 0.153395784543 dev_acc 0.14606741573
matches:  94 / 650
94 / 650
matches:  131 / 854
matches:  52 / 356
epoch 486 loss 564.188232422 train_acc 0.150769230769 test_acc 0.153395784543 dev_acc 0.14606741573
matches:  98 / 650
98 / 650
matches:  131 / 854
matches:  52 / 356
epoch 487 loss 557.767272949 train_acc 0.144615384615 test_acc 0.153395784543 dev_acc 0.14606741573
matches:  94 / 650
94 / 650
matches:  131 / 854
matches:  52 / 356
epoch 488 loss 556.339233398 train_acc 0.150769230769 test_acc 0.153395784543 dev_acc 0.14606741573
matches:  98 / 650
98 / 650
matches:  131 / 854
matches:  52 / 356
epoch 489 loss 531.957885742 train_acc 0.144615384615 test_acc 0.153395784543 dev_acc 0.14606741573
matches:  94 / 650
94 / 650
matches:  64 / 854
matches:  27 / 356
epoch 490 loss 265.149749756 train_acc 0.0861538461538 test_acc 0.0749414519906 dev_acc 0.0758426966292
matches:  56 / 650
56 / 650
matches:  64 / 854
matches:  27 / 356
epoch 491 loss 615.232788086 train_acc 0.0861538461538 test_acc 0.0749414519906 dev_acc 0.0758426966292
matches:  56 / 650
56 / 650
matches:  64 / 854
matches:  27 / 356
epoch 492 loss 614.809814453 train_acc 0.0861538461538 test_acc 0.0749414519906 dev_acc 0.0758426966292
matches:  56 / 650
56 / 650
matches:  64 / 854
matches:  27 / 356
epoch 493 loss 614.395202637 train_acc 0.0861538461538 test_acc 0.0749414519906 dev_acc 0.0758426966292
matches:  56 / 650
56 / 650
matches:  64 / 854
matches:  27 / 356
epoch 494 loss 613.988830566 train_acc 0.0861538461538 test_acc 0.0749414519906 dev_acc 0.0758426966292
matches:  56 / 650
56 / 650
matches:  64 / 854
matches:  27 / 356
epoch 495 loss 613.590332031 train_acc 0.0861538461538 test_acc 0.0749414519906 dev_acc 0.0758426966292
matches:  56 / 650
56 / 650
matches:  64 / 854
matches:  27 / 356
epoch 496 loss 613.199768066 train_acc 0.0861538461538 test_acc 0.0749414519906 dev_acc 0.0758426966292
matches:  56 / 650
56 / 650
matches:  64 / 854
matches:  27 / 356
epoch 497 loss 612.816833496 train_acc 0.0861538461538 test_acc 0.0749414519906 dev_acc 0.0758426966292
matches:  56 / 650
56 / 650
matches:  64 / 854
matches:  27 / 356
epoch 498 loss 612.441467285 train_acc 0.0861538461538 test_acc 0.0749414519906 dev_acc 0.0758426966292
matches:  56 / 650
56 / 650
matches:  64 / 854
matches:  27 / 356
epoch 499 loss 612.073364258 train_acc 0.0861538461538 test_acc 0.0749414519906 dev_acc 0.0758426966292
matches:  56 / 650
56 / 650
HasLabel Final accuracy: 0.075% 
HasLabel Final F1: 0.075% 
+------------------+-----------------+-----------------+-----------------+----------------+----------------+-----------------+---------+-------------+
| Class/Classifier |    Precision    |      Recall     |        F1       | NegPred Value  |    TN rate     |     Accuracy    | Support | Neg Support |
+------------------+-----------------+-----------------+-----------------+----------------+----------------+-----------------+---------+-------------+
|        AI        | 0.0749414519906 |       1.0       |  0.139433551198 |       0        |      0.0       | 0.0749414519906 |   128   |     1580    |
|        ML        |        0        |       0.0       |        0        | 0.814988290398 |      1.0       |  0.814988290398 |   316   |     1392    |
|        IR        |        0        |       0.0       |        0        | 0.803278688525 |      1.0       |  0.803278688525 |   336   |     1372    |
|        DB        |        0        |       0.0       |        0        | 0.790398126464 |      1.0       |  0.790398126464 |   358   |     1350    |
|      Agents      |        0        |       0.0       |        0        | 0.819672131148 |      1.0       |  0.819672131148 |   308   |     1400    |
|       HCI        |        0        |       0.0       |        0        | 0.846604215457 |      1.0       |  0.846604215457 |   262   |     1446    |
|     HasLabel     | 0.0749414519906 | 0.0749414519906 | 0.0749414519906 | 0.814988290398 | 0.814988290398 | 0.0749414519906 |   1708  |     8540    |
+------------------+-----------------+-----------------+-----------------+----------------+----------------+-----------------+---------+-------------+
