3312
1656 802
1300 650
356 183
0
3264 128
Features being used
extract_document
SIZE OF VECTOR (3703,)
Paper(B) & Graph(G) & InGraph(B,G) => HasLabel(B,X^PaperLabel-Multiclass-6)
Building nnet for predicate HasLabel
{u'models': [{u'layers': [{u'ltype': u'Dense', u'act_func': u'softmax'}], u'weighted_examples': True, u'epsilon': 1e-06, u'learning_rate': 0.06, u'measurement': u'acc', u'batch_size': 100, u'patience': 15, u'rho': 1e-06, u'gradient_method': u'SGD', u'average': u'macro', u'momentum': 0.9}, {u'layers': [{u'ltype': u'Dense', u'act_func': u'softmax'}], u'weighted_examples': True, u'epsilon': 1e-06, u'learning_rate': 0.06, u'measurement': u'acc', u'batch_size': 100, u'patience': 15, u'rho': 1e-06, u'gradient_method': u'SGD', u'average': u'macro', u'momentum': 0.9}, {u'layers': [{u'ltype': u'Dense', u'act_func': u'softmax'}], u'weighted_examples': True, u'epsilon': 1e-06, u'learning_rate': 0.06, u'measurement': u'acc', u'batch_size': 100, u'patience': 15, u'rho': 1e-06, u'gradient_method': u'SGD', u'average': u'macro', u'momentum': 0.9}]}
Extracting train rules...
Extracting test rules...
Extracting dev rules...
matches:  127 / 854
matches:  47 / 356
epoch -1 loss None train_acc 0.135384615385 test_acc 0.148711943794 dev_acc 0.13202247191
matches:  88 / 650
88 / 650
matches:  320 / 854
matches:  127 / 356
epoch 0 loss 21.1095428467 train_acc 0.395384615385 test_acc 0.374707259953 dev_acc 0.356741573034
matches:  257 / 650
257 / 650
matches:  192 / 854
matches:  74 / 356
epoch 1 loss 117.796089172 train_acc 0.24 test_acc 0.224824355972 dev_acc 0.207865168539
matches:  156 / 650
156 / 650
matches:  179 / 854
matches:  74 / 356
epoch 2 loss 312.545959473 train_acc 0.207692307692 test_acc 0.209601873536 dev_acc 0.207865168539
matches:  135 / 650
135 / 650
matches:  179 / 854
matches:  74 / 356
epoch 3 loss 532.516967773 train_acc 0.204615384615 test_acc 0.209601873536 dev_acc 0.207865168539
matches:  133 / 650
133 / 650
matches:  179 / 854
matches:  74 / 356
epoch 4 loss 534.148132324 train_acc 0.207692307692 test_acc 0.209601873536 dev_acc 0.207865168539
matches:  135 / 650
135 / 650
matches:  179 / 854
matches:  74 / 356
epoch 5 loss 531.75390625 train_acc 0.204615384615 test_acc 0.209601873536 dev_acc 0.207865168539
matches:  133 / 650
133 / 650
matches:  179 / 854
matches:  74 / 356
epoch 6 loss 533.394714355 train_acc 0.207692307692 test_acc 0.209601873536 dev_acc 0.207865168539
matches:  135 / 650
135 / 650
matches:  179 / 854
matches:  74 / 356
epoch 7 loss 531.001403809 train_acc 0.204615384615 test_acc 0.209601873536 dev_acc 0.207865168539
matches:  133 / 650
133 / 650
matches:  179 / 854
matches:  74 / 356
epoch 8 loss 532.648681641 train_acc 0.207692307692 test_acc 0.209601873536 dev_acc 0.207865168539
matches:  135 / 650
135 / 650
matches:  179 / 854
matches:  74 / 356
epoch 9 loss 530.250366211 train_acc 0.204615384615 test_acc 0.209601873536 dev_acc 0.207865168539
matches:  133 / 650
133 / 650
matches:  179 / 854
matches:  74 / 356
epoch 10 loss 531.899353027 train_acc 0.207692307692 test_acc 0.209601873536 dev_acc 0.207865168539
matches:  135 / 650
135 / 650
matches:  179 / 854
matches:  74 / 356
epoch 11 loss 529.48651123 train_acc 0.204615384615 test_acc 0.209601873536 dev_acc 0.207865168539
matches:  133 / 650
133 / 650
matches:  179 / 854
matches:  74 / 356
epoch 12 loss 531.127746582 train_acc 0.207692307692 test_acc 0.209601873536 dev_acc 0.207865168539
matches:  135 / 650
135 / 650
matches:  179 / 854
matches:  74 / 356
epoch 13 loss 528.682250977 train_acc 0.204615384615 test_acc 0.209601873536 dev_acc 0.207865168539
matches:  133 / 650
133 / 650
matches:  179 / 854
matches:  74 / 356
epoch 14 loss 530.295166016 train_acc 0.207692307692 test_acc 0.209601873536 dev_acc 0.207865168539
matches:  135 / 650
135 / 650
matches:  179 / 854
matches:  74 / 356
epoch 15 loss 527.77557373 train_acc 0.204615384615 test_acc 0.209601873536 dev_acc 0.207865168539
matches:  133 / 650
133 / 650
matches:  179 / 854
matches:  74 / 356
epoch 16 loss 529.301269531 train_acc 0.207692307692 test_acc 0.209601873536 dev_acc 0.207865168539
matches:  135 / 650
135 / 650
matches:  179 / 854
matches:  74 / 356
epoch 17 loss 526.581481934 train_acc 0.204615384615 test_acc 0.209601873536 dev_acc 0.207865168539
matches:  133 / 650
133 / 650
matches:  179 / 854
matches:  74 / 356
epoch 18 loss 527.778137207 train_acc 0.207692307692 test_acc 0.209601873536 dev_acc 0.207865168539
matches:  135 / 650
135 / 650
matches:  179 / 854
matches:  74 / 356
epoch 19 loss 524.186401367 train_acc 0.204615384615 test_acc 0.209601873536 dev_acc 0.207865168539
matches:  133 / 650
133 / 650
matches:  181 / 854
matches:  74 / 356
epoch 20 loss 522.713928223 train_acc 0.209230769231 test_acc 0.211943793911 dev_acc 0.207865168539
matches:  136 / 650
136 / 650
matches:  278 / 854
matches:  118 / 356
epoch 21 loss 501.879974365 train_acc 0.327692307692 test_acc 0.325526932084 dev_acc 0.331460674157
matches:  213 / 650
213 / 650
matches:  158 / 854
matches:  71 / 356
epoch 22 loss 367.677825928 train_acc 0.169230769231 test_acc 0.185011709602 dev_acc 0.199438202247
matches:  110 / 650
110 / 650
matches:  278 / 854
matches:  133 / 356
epoch 23 loss 526.372741699 train_acc 0.350769230769 test_acc 0.325526932084 dev_acc 0.373595505618
matches:  228 / 650
228 / 650
matches:  287 / 854
matches:  132 / 356
epoch 24 loss 343.553985596 train_acc 0.336923076923 test_acc 0.33606557377 dev_acc 0.370786516854
matches:  219 / 650
219 / 650
matches:  193 / 854
matches:  80 / 356
epoch 25 loss 318.830749512 train_acc 0.238461538462 test_acc 0.225995316159 dev_acc 0.224719101124
matches:  155 / 650
155 / 650
matches:  179 / 854
matches:  74 / 356
epoch 26 loss 441.114013672 train_acc 0.209230769231 test_acc 0.209601873536 dev_acc 0.207865168539
matches:  136 / 650
136 / 650
matches:  189 / 854
matches:  76 / 356
epoch 27 loss 517.177246094 train_acc 0.216923076923 test_acc 0.22131147541 dev_acc 0.213483146067
matches:  141 / 650
141 / 650
matches:  267 / 854
matches:  118 / 356
epoch 28 loss 496.390960693 train_acc 0.312307692308 test_acc 0.312646370023 dev_acc 0.331460674157
matches:  203 / 650
203 / 650
matches:  170 / 854
matches:  74 / 356
epoch 29 loss 366.257781982 train_acc 0.190769230769 test_acc 0.19906323185 dev_acc 0.207865168539
matches:  124 / 650
124 / 650
matches:  259 / 854
matches:  124 / 356
epoch 30 loss 496.932739258 train_acc 0.330769230769 test_acc 0.303278688525 dev_acc 0.348314606742
matches:  215 / 650
215 / 650
matches:  286 / 854
matches:  128 / 356
epoch 31 loss 282.202331543 train_acc 0.363076923077 test_acc 0.334894613583 dev_acc 0.359550561798
matches:  236 / 650
236 / 650
matches:  90 / 854
matches:  36 / 356
epoch 32 loss 265.667602539 train_acc 0.115384615385 test_acc 0.105386416862 dev_acc 0.101123595506
matches:  75 / 650
75 / 650
matches:  281 / 854
matches:  129 / 356
epoch 33 loss 512.02947998 train_acc 0.355384615385 test_acc 0.329039812646 dev_acc 0.362359550562
matches:  231 / 650
231 / 650
matches:  303 / 854
matches:  140 / 356
epoch 34 loss 365.149658203 train_acc 0.375384615385 test_acc 0.354800936768 dev_acc 0.393258426966
matches:  244 / 650
244 / 650
matches:  247 / 854
matches:  111 / 356
epoch 35 loss 289.727996826 train_acc 0.316923076923 test_acc 0.289227166276 dev_acc 0.311797752809
matches:  206 / 650
206 / 650
matches:  246 / 854
matches:  115 / 356
epoch 36 loss 368.381439209 train_acc 0.298461538462 test_acc 0.288056206089 dev_acc 0.323033707865
matches:  194 / 650
194 / 650
matches:  282 / 854
matches:  138 / 356
epoch 37 loss 440.486022949 train_acc 0.389230769231 test_acc 0.330210772834 dev_acc 0.387640449438
matches:  253 / 650
253 / 650
matches:  229 / 854
matches:  106 / 356
epoch 38 loss 287.206207275 train_acc 0.343076923077 test_acc 0.268149882904 dev_acc 0.297752808989
matches:  223 / 650
223 / 650
matches:  373 / 854
matches:  168 / 356
epoch 39 loss 348.479431152 train_acc 0.475384615385 test_acc 0.436768149883 dev_acc 0.47191011236
matches:  309 / 650
309 / 650
matches:  372 / 854
matches:  176 / 356
epoch 40 loss 249.530593872 train_acc 0.486153846154 test_acc 0.435597189696 dev_acc 0.494382022472
matches:  316 / 650
316 / 650
matches:  360 / 854
matches:  173 / 356
epoch 41 loss 252.089447021 train_acc 0.521538461538 test_acc 0.421545667447 dev_acc 0.48595505618
matches:  339 / 650
339 / 650
matches:  388 / 854
matches:  181 / 356
epoch 42 loss 202.036590576 train_acc 0.510769230769 test_acc 0.454332552693 dev_acc 0.508426966292
matches:  332 / 650
332 / 650
matches:  363 / 854
matches:  171 / 356
epoch 43 loss 206.731063843 train_acc 0.52 test_acc 0.425058548009 dev_acc 0.480337078652
matches:  338 / 650
338 / 650
matches:  350 / 854
matches:  166 / 356
epoch 44 loss 185.684249878 train_acc 0.463076923077 test_acc 0.409836065574 dev_acc 0.466292134831
matches:  301 / 650
301 / 650
matches:  236 / 854
matches:  101 / 356
epoch 45 loss 251.819274902 train_acc 0.3 test_acc 0.276346604215 dev_acc 0.283707865169
matches:  195 / 650
195 / 650
matches:  207 / 854
matches:  80 / 356
epoch 46 loss 416.75402832 train_acc 0.26 test_acc 0.242388758782 dev_acc 0.224719101124
matches:  169 / 650
169 / 650
matches:  224 / 854
matches:  84 / 356
epoch 47 loss 421.68157959 train_acc 0.293846153846 test_acc 0.262295081967 dev_acc 0.23595505618
matches:  191 / 650
191 / 650
matches:  363 / 854
matches:  161 / 356
epoch 48 loss 410.989471436 train_acc 0.490769230769 test_acc 0.425058548009 dev_acc 0.452247191011
matches:  319 / 650
319 / 650
matches:  364 / 854
matches:  170 / 356
epoch 49 loss 236.005157471 train_acc 0.538461538462 test_acc 0.426229508197 dev_acc 0.477528089888
matches:  350 / 650
350 / 650
matches:  359 / 854
matches:  173 / 356
epoch 50 loss 189.718109131 train_acc 0.524615384615 test_acc 0.42037470726 dev_acc 0.48595505618
matches:  341 / 650
341 / 650
matches:  294 / 854
matches:  135 / 356
epoch 51 loss 194.997467041 train_acc 0.429230769231 test_acc 0.344262295082 dev_acc 0.379213483146
matches:  279 / 650
279 / 650
matches:  298 / 854
matches:  135 / 356
epoch 52 loss 236.513839722 train_acc 0.401538461538 test_acc 0.348946135831 dev_acc 0.379213483146
matches:  261 / 650
261 / 650
matches:  346 / 854
matches:  146 / 356
epoch 53 loss 339.421203613 train_acc 0.450769230769 test_acc 0.405152224824 dev_acc 0.410112359551
matches:  293 / 650
293 / 650
matches:  325 / 854
matches:  153 / 356
epoch 54 loss 287.317321777 train_acc 0.44 test_acc 0.38056206089 dev_acc 0.429775280899
matches:  286 / 650
286 / 650
matches:  327 / 854
matches:  158 / 356
epoch 55 loss 253.024475098 train_acc 0.523076923077 test_acc 0.382903981265 dev_acc 0.443820224719
matches:  340 / 650
340 / 650
matches:  377 / 854
matches:  178 / 356
epoch 56 loss 192.296554565 train_acc 0.524615384615 test_acc 0.441451990632 dev_acc 0.5
matches:  341 / 650
341 / 650
matches:  297 / 854
matches:  142 / 356
epoch 57 loss 235.82208252 train_acc 0.429230769231 test_acc 0.347775175644 dev_acc 0.398876404494
matches:  279 / 650
279 / 650
matches:  305 / 854
matches:  139 / 356
epoch 58 loss 294.90145874 train_acc 0.426153846154 test_acc 0.357142857143 dev_acc 0.390449438202
matches:  277 / 650
277 / 650
matches:  350 / 854
matches:  167 / 356
epoch 59 loss 278.316131592 train_acc 0.550769230769 test_acc 0.409836065574 dev_acc 0.469101123596
matches:  358 / 650
358 / 650
matches:  299 / 854
matches:  142 / 356
epoch 60 loss 186.270797729 train_acc 0.481538461538 test_acc 0.350117096019 dev_acc 0.398876404494
matches:  313 / 650
313 / 650
matches:  377 / 854
matches:  170 / 356
epoch 61 loss 249.039367676 train_acc 0.509230769231 test_acc 0.441451990632 dev_acc 0.477528089888
matches:  331 / 650
331 / 650
matches:  345 / 854
matches:  154 / 356
epoch 62 loss 231.830856323 train_acc 0.469230769231 test_acc 0.403981264637 dev_acc 0.432584269663
matches:  305 / 650
305 / 650
matches:  339 / 854
matches:  160 / 356
epoch 63 loss 266.591186523 train_acc 0.498461538462 test_acc 0.396955503513 dev_acc 0.449438202247
matches:  324 / 650
324 / 650
matches:  307 / 854
matches:  143 / 356
epoch 64 loss 238.35710144 train_acc 0.449230769231 test_acc 0.359484777518 dev_acc 0.401685393258
matches:  292 / 650
292 / 650
matches:  277 / 854
matches:  123 / 356
epoch 65 loss 265.400848389 train_acc 0.367692307692 test_acc 0.324355971897 dev_acc 0.345505617978
matches:  239 / 650
239 / 650
matches:  280 / 854
matches:  122 / 356
epoch 66 loss 351.113800049 train_acc 0.396923076923 test_acc 0.327868852459 dev_acc 0.342696629213
matches:  258 / 650
258 / 650
matches:  251 / 854
matches:  115 / 356
epoch 67 loss 303.927886963 train_acc 0.389230769231 test_acc 0.293911007026 dev_acc 0.323033707865
matches:  253 / 650
253 / 650
matches:  277 / 854
matches:  127 / 356
epoch 68 loss 326.624359131 train_acc 0.409230769231 test_acc 0.324355971897 dev_acc 0.356741573034
matches:  266 / 650
266 / 650
matches:  228 / 854
matches:  104 / 356
epoch 69 loss 299.33026123 train_acc 0.378461538462 test_acc 0.266978922717 dev_acc 0.292134831461
matches:  246 / 650
246 / 650
matches:  377 / 854
matches:  179 / 356
epoch 70 loss 315.973175049 train_acc 0.515384615385 test_acc 0.441451990632 dev_acc 0.502808988764
matches:  335 / 650
335 / 650
matches:  382 / 854
matches:  180 / 356
epoch 71 loss 245.074325562 train_acc 0.524615384615 test_acc 0.447306791569 dev_acc 0.505617977528
matches:  341 / 650
341 / 650
matches:  363 / 854
matches:  178 / 356
epoch 72 loss 253.738967896 train_acc 0.510769230769 test_acc 0.425058548009 dev_acc 0.5
matches:  332 / 650
332 / 650
matches:  358 / 854
matches:  164 / 356
epoch 73 loss 238.923721313 train_acc 0.504615384615 test_acc 0.419203747073 dev_acc 0.460674157303
matches:  328 / 650
328 / 650
matches:  386 / 854
matches:  176 / 356
epoch 74 loss 260.707855225 train_acc 0.538461538462 test_acc 0.451990632319 dev_acc 0.494382022472
matches:  350 / 650
350 / 650
matches:  354 / 854
matches:  169 / 356
epoch 75 loss 212.640335083 train_acc 0.529230769231 test_acc 0.414519906323 dev_acc 0.474719101124
matches:  344 / 650
344 / 650
matches:  300 / 854
matches:  146 / 356
epoch 76 loss 227.308639526 train_acc 0.472307692308 test_acc 0.351288056206 dev_acc 0.410112359551
matches:  307 / 650
307 / 650
matches:  289 / 854
matches:  140 / 356
epoch 77 loss 283.455688477 train_acc 0.435384615385 test_acc 0.338407494145 dev_acc 0.393258426966
matches:  283 / 650
283 / 650
matches:  302 / 854
matches:  145 / 356
epoch 78 loss 319.338653564 train_acc 0.446153846154 test_acc 0.353629976581 dev_acc 0.407303370787
matches:  290 / 650
290 / 650
matches:  309 / 854
matches:  142 / 356
epoch 79 loss 291.69631958 train_acc 0.449230769231 test_acc 0.361826697892 dev_acc 0.398876404494
matches:  292 / 650
292 / 650
matches:  365 / 854
matches:  170 / 356
epoch 80 loss 261.633514404 train_acc 0.563076923077 test_acc 0.427400468384 dev_acc 0.477528089888
matches:  366 / 650
366 / 650
matches:  378 / 854
matches:  182 / 356
epoch 81 loss 210.112182617 train_acc 0.572307692308 test_acc 0.44262295082 dev_acc 0.511235955056
matches:  372 / 650
372 / 650
matches:  352 / 854
matches:  167 / 356
epoch 82 loss 194.659759521 train_acc 0.573846153846 test_acc 0.412177985948 dev_acc 0.469101123596
matches:  373 / 650
373 / 650
matches:  387 / 854
matches:  182 / 356
epoch 83 loss 191.314697266 train_acc 0.578461538462 test_acc 0.453161592506 dev_acc 0.511235955056
matches:  376 / 650
376 / 650
matches:  329 / 854
matches:  156 / 356
epoch 84 loss 199.773208618 train_acc 0.523076923077 test_acc 0.385245901639 dev_acc 0.438202247191
matches:  340 / 650
340 / 650
matches:  331 / 854
matches:  150 / 356
epoch 85 loss 192.549102783 train_acc 0.563076923077 test_acc 0.387587822014 dev_acc 0.421348314607
matches:  366 / 650
366 / 650
matches:  378 / 854
matches:  184 / 356
epoch 86 loss 180.513168335 train_acc 0.561538461538 test_acc 0.44262295082 dev_acc 0.516853932584
matches:  365 / 650
365 / 650
matches:  362 / 854
matches:  174 / 356
epoch 87 loss 184.036972046 train_acc 0.567692307692 test_acc 0.423887587822 dev_acc 0.488764044944
matches:  369 / 650
369 / 650
matches:  337 / 854
matches:  165 / 356
epoch 88 loss 187.739013672 train_acc 0.567692307692 test_acc 0.394613583138 dev_acc 0.463483146067
matches:  369 / 650
369 / 650
matches:  380 / 854
matches:  184 / 356
epoch 89 loss 160.333572388 train_acc 0.578461538462 test_acc 0.444964871194 dev_acc 0.516853932584
matches:  376 / 650
376 / 650
matches:  411 / 854
matches:  176 / 356
epoch 90 loss 156.452270508 train_acc 0.606153846154 test_acc 0.481264637002 dev_acc 0.494382022472
matches:  394 / 650
394 / 650
matches:  466 / 854
matches:  216 / 356
epoch 91 loss 145.178878784 train_acc 0.712307692308 test_acc 0.545667447307 dev_acc 0.606741573034
matches:  463 / 650
463 / 650
matches:  472 / 854
matches:  215 / 356
epoch 92 loss 105.222236633 train_acc 0.733846153846 test_acc 0.552693208431 dev_acc 0.60393258427
matches:  477 / 650
477 / 650
matches:  491 / 854
matches:  239 / 356
epoch 93 loss 86.9178161621 train_acc 0.813846153846 test_acc 0.574941451991 dev_acc 0.671348314607
matches:  529 / 650
529 / 650
matches:  507 / 854
matches:  237 / 356
epoch 94 loss 48.3234329224 train_acc 0.849230769231 test_acc 0.593676814988 dev_acc 0.665730337079
matches:  552 / 650
552 / 650
matches:  471 / 854
matches:  214 / 356
epoch 95 loss 40.6022186279 train_acc 0.744615384615 test_acc 0.551522248244 dev_acc 0.601123595506
matches:  484 / 650
484 / 650
matches:  435 / 854
matches:  202 / 356
epoch 96 loss 79.6360321045 train_acc 0.718461538462 test_acc 0.509367681499 dev_acc 0.567415730337
matches:  467 / 650
467 / 650
matches:  401 / 854
matches:  195 / 356
epoch 97 loss 68.0888671875 train_acc 0.704615384615 test_acc 0.469555035129 dev_acc 0.547752808989
matches:  458 / 650
458 / 650
matches:  385 / 854
matches:  190 / 356
epoch 98 loss 96.1022033691 train_acc 0.638461538462 test_acc 0.450819672131 dev_acc 0.533707865169
matches:  415 / 650
415 / 650
matches:  406 / 854
matches:  197 / 356
epoch 99 loss 117.925514221 train_acc 0.695384615385 test_acc 0.475409836066 dev_acc 0.553370786517
matches:  452 / 650
452 / 650
matches:  510 / 854
matches:  238 / 356
epoch 100 loss 77.471534729 train_acc 0.844615384615 test_acc 0.59718969555 dev_acc 0.668539325843
matches:  549 / 650
549 / 650
matches:  562 / 854
matches:  264 / 356
epoch 101 loss 48.1377639771 train_acc 0.923076923077 test_acc 0.658079625293 dev_acc 0.741573033708
matches:  600 / 650
600 / 650
matches:  565 / 854
matches:  272 / 356
epoch 102 loss 30.9177341461 train_acc 0.950769230769 test_acc 0.661592505855 dev_acc 0.76404494382
matches:  618 / 650
618 / 650
matches:  567 / 854
matches:  272 / 356
epoch 103 loss 25.2044506073 train_acc 0.952307692308 test_acc 0.66393442623 dev_acc 0.76404494382
matches:  619 / 650
619 / 650
matches:  561 / 854
matches:  269 / 356
epoch 104 loss 24.4004440308 train_acc 0.953846153846 test_acc 0.656908665105 dev_acc 0.755617977528
matches:  620 / 650
620 / 650
matches:  557 / 854
matches:  264 / 356
epoch 105 loss 22.6614589691 train_acc 0.98 test_acc 0.652224824356 dev_acc 0.741573033708
matches:  637 / 650
637 / 650
matches:  557 / 854
matches:  266 / 356
epoch 106 loss 18.5217132568 train_acc 0.989230769231 test_acc 0.652224824356 dev_acc 0.747191011236
matches:  643 / 650
643 / 650
matches:  556 / 854
matches:  263 / 356
epoch 107 loss 19.3464679718 train_acc 0.989230769231 test_acc 0.651053864169 dev_acc 0.738764044944
matches:  643 / 650
643 / 650
matches:  557 / 854
matches:  268 / 356
epoch 108 loss 16.282207489 train_acc 0.990769230769 test_acc 0.652224824356 dev_acc 0.752808988764
matches:  644 / 650
644 / 650
matches:  557 / 854
matches:  268 / 356
epoch 109 loss 17.5235710144 train_acc 0.990769230769 test_acc 0.652224824356 dev_acc 0.752808988764
matches:  644 / 650
644 / 650
matches:  556 / 854
matches:  272 / 356
epoch 110 loss 15.2677688599 train_acc 0.993846153846 test_acc 0.651053864169 dev_acc 0.76404494382
matches:  646 / 650
646 / 650
matches:  552 / 854
matches:  273 / 356
epoch 111 loss 16.3645458221 train_acc 0.996923076923 test_acc 0.646370023419 dev_acc 0.766853932584
matches:  648 / 650
648 / 650
matches:  557 / 854
matches:  272 / 356
epoch 112 loss 14.4529676437 train_acc 0.995384615385 test_acc 0.652224824356 dev_acc 0.76404494382
matches:  647 / 650
647 / 650
matches:  556 / 854
matches:  269 / 356
epoch 113 loss 15.4953613281 train_acc 1.0 test_acc 0.651053864169 dev_acc 0.755617977528
matches:  650 / 650
650 / 650
matches:  556 / 854
matches:  269 / 356
epoch 114 loss 13.8563833237 train_acc 0.993846153846 test_acc 0.651053864169 dev_acc 0.755617977528
matches:  646 / 650
646 / 650
matches:  560 / 854
matches:  267 / 356
epoch 115 loss 14.7104024887 train_acc 1.0 test_acc 0.655737704918 dev_acc 0.75
matches:  650 / 650
650 / 650
matches:  560 / 854
matches:  267 / 356
epoch 116 loss 13.3092164993 train_acc 0.995384615385 test_acc 0.655737704918 dev_acc 0.75
matches:  647 / 650
647 / 650
matches:  559 / 854
matches:  270 / 356
epoch 117 loss 14.1152868271 train_acc 0.998461538462 test_acc 0.654566744731 dev_acc 0.758426966292
matches:  649 / 650
649 / 650
matches:  560 / 854
matches:  269 / 356
epoch 118 loss 12.7876729965 train_acc 0.996923076923 test_acc 0.655737704918 dev_acc 0.755617977528
matches:  648 / 650
648 / 650
matches:  559 / 854
matches:  269 / 356
epoch 119 loss 13.5754804611 train_acc 1.0 test_acc 0.654566744731 dev_acc 0.755617977528
matches:  650 / 650
650 / 650
matches:  559 / 854
matches:  269 / 356
epoch 120 loss 12.2758703232 train_acc 0.996923076923 test_acc 0.654566744731 dev_acc 0.755617977528
matches:  648 / 650
648 / 650
matches:  559 / 854
matches:  269 / 356
epoch 121 loss 12.9607191086 train_acc 1.0 test_acc 0.654566744731 dev_acc 0.755617977528
matches:  650 / 650
650 / 650
matches:  559 / 854
matches:  269 / 356
epoch 122 loss 11.787607193 train_acc 0.996923076923 test_acc 0.654566744731 dev_acc 0.755617977528
matches:  648 / 650
648 / 650
matches:  562 / 854
matches:  268 / 356
epoch 123 loss 12.3708133698 train_acc 1.0 test_acc 0.658079625293 dev_acc 0.752808988764
matches:  650 / 650
650 / 650
matches:  562 / 854
matches:  268 / 356
epoch 124 loss 11.3187093735 train_acc 0.996923076923 test_acc 0.658079625293 dev_acc 0.752808988764
matches:  648 / 650
648 / 650
matches:  560 / 854
matches:  268 / 356
epoch 125 loss 11.7405920029 train_acc 1.0 test_acc 0.655737704918 dev_acc 0.752808988764
matches:  650 / 650
650 / 650
matches:  560 / 854
matches:  268 / 356
epoch 126 loss 10.8688211441 train_acc 0.998461538462 test_acc 0.655737704918 dev_acc 0.752808988764
matches:  649 / 650
649 / 650
matches:  558 / 854
matches:  266 / 356
epoch 127 loss 11.0688524246 train_acc 0.998461538462 test_acc 0.653395784543 dev_acc 0.747191011236
matches:  649 / 650
649 / 650
matches:  558 / 854
matches:  268 / 356
epoch 128 loss 10.4634952545 train_acc 0.998461538462 test_acc 0.653395784543 dev_acc 0.752808988764
matches:  649 / 650
649 / 650
matches:  557 / 854
matches:  266 / 356
epoch 129 loss 10.2974367142 train_acc 0.998461538462 test_acc 0.652224824356 dev_acc 0.747191011236
matches:  649 / 650
649 / 650
matches:  556 / 854
matches:  267 / 356
epoch 130 loss 10.0393161774 train_acc 0.998461538462 test_acc 0.651053864169 dev_acc 0.75
matches:  649 / 650
649 / 650
matches:  560 / 854
matches:  267 / 356
epoch 131 loss 9.85584831238 train_acc 1.0 test_acc 0.655737704918 dev_acc 0.75
matches:  650 / 650
650 / 650
matches:  560 / 854
matches:  267 / 356
epoch 132 loss 9.6353635788 train_acc 1.0 test_acc 0.655737704918 dev_acc 0.75
matches:  650 / 650
650 / 650
matches:  560 / 854
matches:  267 / 356
epoch 133 loss 9.44361972809 train_acc 1.0 test_acc 0.655737704918 dev_acc 0.75
matches:  650 / 650
650 / 650
matches:  560 / 854
matches:  267 / 356
epoch 134 loss 9.25569248199 train_acc 1.0 test_acc 0.655737704918 dev_acc 0.75
matches:  650 / 650
650 / 650
matches:  560 / 854
matches:  267 / 356
epoch 135 loss 9.07150363922 train_acc 1.0 test_acc 0.655737704918 dev_acc 0.75
matches:  650 / 650
650 / 650
matches:  560 / 854
matches:  267 / 356
epoch 136 loss 8.89098072052 train_acc 1.0 test_acc 0.655737704918 dev_acc 0.75
matches:  650 / 650
650 / 650
matches:  560 / 854
matches:  267 / 356
epoch 137 loss 8.71405029297 train_acc 1.0 test_acc 0.655737704918 dev_acc 0.75
matches:  650 / 650
650 / 650
matches:  560 / 854
matches:  267 / 356
epoch 138 loss 8.54064178467 train_acc 1.0 test_acc 0.655737704918 dev_acc 0.75
matches:  650 / 650
650 / 650
matches:  560 / 854
matches:  267 / 356
epoch 139 loss 8.37068271637 train_acc 1.0 test_acc 0.655737704918 dev_acc 0.75
matches:  650 / 650
650 / 650
matches:  560 / 854
matches:  267 / 356
epoch 140 loss 8.20410633087 train_acc 1.0 test_acc 0.655737704918 dev_acc 0.75
matches:  650 / 650
650 / 650
matches:  560 / 854
matches:  267 / 356
epoch 141 loss 8.0408449173 train_acc 1.0 test_acc 0.655737704918 dev_acc 0.75
matches:  650 / 650
650 / 650
matches:  560 / 854
matches:  267 / 356
epoch 142 loss 7.88083267212 train_acc 1.0 test_acc 0.655737704918 dev_acc 0.75
matches:  650 / 650
650 / 650
matches:  560 / 854
matches:  267 / 356
epoch 143 loss 7.72400379181 train_acc 1.0 test_acc 0.655737704918 dev_acc 0.75
matches:  650 / 650
650 / 650
matches:  560 / 854
matches:  267 / 356
epoch 144 loss 7.57029676437 train_acc 1.0 test_acc 0.655737704918 dev_acc 0.75
matches:  650 / 650
650 / 650
matches:  560 / 854
matches:  267 / 356
epoch 145 loss 7.4196472168 train_acc 1.0 test_acc 0.655737704918 dev_acc 0.75
matches:  650 / 650
650 / 650
matches:  560 / 854
matches:  267 / 356
epoch 146 loss 7.27199649811 train_acc 1.0 test_acc 0.655737704918 dev_acc 0.75
matches:  650 / 650
650 / 650
matches:  560 / 854
matches:  267 / 356
epoch 147 loss 7.12728452682 train_acc 1.0 test_acc 0.655737704918 dev_acc 0.75
matches:  650 / 650
650 / 650
matches:  560 / 854
matches:  267 / 356
epoch 148 loss 6.98545074463 train_acc 1.0 test_acc 0.655737704918 dev_acc 0.75
matches:  650 / 650
650 / 650
matches:  560 / 854
matches:  267 / 356
epoch 149 loss 6.84644079208 train_acc 1.0 test_acc 0.655737704918 dev_acc 0.75
matches:  650 / 650
650 / 650
matches:  560 / 854
matches:  267 / 356
epoch 150 loss 6.71019697189 train_acc 1.0 test_acc 0.655737704918 dev_acc 0.75
matches:  650 / 650
650 / 650
matches:  560 / 854
matches:  267 / 356
epoch 151 loss 6.57666349411 train_acc 1.0 test_acc 0.655737704918 dev_acc 0.75
matches:  650 / 650
650 / 650
matches:  560 / 854
matches:  267 / 356
epoch 152 loss 6.44578886032 train_acc 1.0 test_acc 0.655737704918 dev_acc 0.75
matches:  650 / 650
650 / 650
matches:  560 / 854
matches:  267 / 356
epoch 153 loss 6.31751728058 train_acc 1.0 test_acc 0.655737704918 dev_acc 0.75
matches:  650 / 650
650 / 650
matches:  560 / 854
matches:  267 / 356
epoch 154 loss 6.19179868698 train_acc 1.0 test_acc 0.655737704918 dev_acc 0.75
matches:  650 / 650
650 / 650
matches:  560 / 854
matches:  267 / 356
epoch 155 loss 6.06858205795 train_acc 1.0 test_acc 0.655737704918 dev_acc 0.75
matches:  650 / 650
650 / 650
matches:  560 / 854
matches:  267 / 356
epoch 156 loss 5.94781780243 train_acc 1.0 test_acc 0.655737704918 dev_acc 0.75
matches:  650 / 650
650 / 650
matches:  560 / 854
matches:  267 / 356
epoch 157 loss 5.82945632935 train_acc 1.0 test_acc 0.655737704918 dev_acc 0.75
matches:  650 / 650
650 / 650
matches:  560 / 854
matches:  267 / 356
epoch 158 loss 5.71345043182 train_acc 1.0 test_acc 0.655737704918 dev_acc 0.75
matches:  650 / 650
650 / 650
matches:  560 / 854
matches:  267 / 356
epoch 159 loss 5.59975242615 train_acc 1.0 test_acc 0.655737704918 dev_acc 0.75
matches:  650 / 650
650 / 650
matches:  560 / 854
matches:  267 / 356
epoch 160 loss 5.48831748962 train_acc 1.0 test_acc 0.655737704918 dev_acc 0.75
matches:  650 / 650
650 / 650
matches:  560 / 854
matches:  267 / 356
epoch 161 loss 5.37910032272 train_acc 1.0 test_acc 0.655737704918 dev_acc 0.75
matches:  650 / 650
650 / 650
matches:  560 / 854
matches:  267 / 356
epoch 162 loss 5.27205610275 train_acc 1.0 test_acc 0.655737704918 dev_acc 0.75
matches:  650 / 650
650 / 650
matches:  560 / 854
matches:  267 / 356
epoch 163 loss 5.1671423912 train_acc 1.0 test_acc 0.655737704918 dev_acc 0.75
matches:  650 / 650
650 / 650
matches:  560 / 854
matches:  267 / 356
epoch 164 loss 5.06431674957 train_acc 1.0 test_acc 0.655737704918 dev_acc 0.75
matches:  650 / 650
650 / 650
matches:  560 / 854
matches:  267 / 356
epoch 165 loss 4.96353673935 train_acc 1.0 test_acc 0.655737704918 dev_acc 0.75
matches:  650 / 650
650 / 650
matches:  560 / 854
matches:  267 / 356
epoch 166 loss 4.86476230621 train_acc 1.0 test_acc 0.655737704918 dev_acc 0.75
matches:  650 / 650
650 / 650
matches:  560 / 854
matches:  267 / 356
epoch 167 loss 4.76795339584 train_acc 1.0 test_acc 0.655737704918 dev_acc 0.75
matches:  650 / 650
650 / 650
matches:  560 / 854
matches:  267 / 356
epoch 168 loss 4.67307138443 train_acc 1.0 test_acc 0.655737704918 dev_acc 0.75
matches:  650 / 650
650 / 650
matches:  560 / 854
matches:  267 / 356
epoch 169 loss 4.58007717133 train_acc 1.0 test_acc 0.655737704918 dev_acc 0.75
matches:  650 / 650
650 / 650
matches:  560 / 854
matches:  267 / 356
epoch 170 loss 4.48893404007 train_acc 1.0 test_acc 0.655737704918 dev_acc 0.75
matches:  650 / 650
650 / 650
matches:  560 / 854
matches:  267 / 356
epoch 171 loss 4.39960432053 train_acc 1.0 test_acc 0.655737704918 dev_acc 0.75
matches:  650 / 650
650 / 650
matches:  560 / 854
matches:  267 / 356
epoch 172 loss 4.31205224991 train_acc 1.0 test_acc 0.655737704918 dev_acc 0.75
matches:  650 / 650
650 / 650
matches:  560 / 854
matches:  267 / 356
epoch 173 loss 4.22624254227 train_acc 1.0 test_acc 0.655737704918 dev_acc 0.75
matches:  650 / 650
650 / 650
matches:  560 / 854
matches:  267 / 356
epoch 174 loss 4.14214038849 train_acc 1.0 test_acc 0.655737704918 dev_acc 0.75
matches:  650 / 650
650 / 650
matches:  560 / 854
matches:  267 / 356
epoch 175 loss 4.05971193314 train_acc 1.0 test_acc 0.655737704918 dev_acc 0.75
matches:  650 / 650
650 / 650
matches:  560 / 854
matches:  267 / 356
epoch 176 loss 3.97892355919 train_acc 1.0 test_acc 0.655737704918 dev_acc 0.75
matches:  650 / 650
650 / 650
matches:  560 / 854
matches:  267 / 356
epoch 177 loss 3.89974284172 train_acc 1.0 test_acc 0.655737704918 dev_acc 0.75
matches:  650 / 650
650 / 650
matches:  560 / 854
matches:  267 / 356
epoch 178 loss 3.82213830948 train_acc 1.0 test_acc 0.655737704918 dev_acc 0.75
matches:  650 / 650
650 / 650
matches:  560 / 854
matches:  267 / 356
epoch 179 loss 3.74607777596 train_acc 1.0 test_acc 0.655737704918 dev_acc 0.75
matches:  650 / 650
650 / 650
matches:  560 / 854
matches:  267 / 356
epoch 180 loss 3.67153048515 train_acc 1.0 test_acc 0.655737704918 dev_acc 0.75
matches:  650 / 650
650 / 650
matches:  560 / 854
matches:  267 / 356
epoch 181 loss 3.59846758842 train_acc 1.0 test_acc 0.655737704918 dev_acc 0.75
matches:  650 / 650
650 / 650
matches:  560 / 854
matches:  267 / 356
epoch 182 loss 3.52685809135 train_acc 1.0 test_acc 0.655737704918 dev_acc 0.75
matches:  650 / 650
650 / 650
matches:  560 / 854
matches:  267 / 356
epoch 183 loss 3.45667386055 train_acc 1.0 test_acc 0.655737704918 dev_acc 0.75
matches:  650 / 650
650 / 650
matches:  560 / 854
matches:  267 / 356
epoch 184 loss 3.38788604736 train_acc 1.0 test_acc 0.655737704918 dev_acc 0.75
matches:  650 / 650
650 / 650
matches:  560 / 854
matches:  267 / 356
epoch 185 loss 3.32046699524 train_acc 1.0 test_acc 0.655737704918 dev_acc 0.75
matches:  650 / 650
650 / 650
matches:  560 / 854
matches:  267 / 356
epoch 186 loss 3.25438952446 train_acc 1.0 test_acc 0.655737704918 dev_acc 0.75
matches:  650 / 650
650 / 650
matches:  560 / 854
matches:  267 / 356
epoch 187 loss 3.18962740898 train_acc 1.0 test_acc 0.655737704918 dev_acc 0.75
matches:  650 / 650
650 / 650
matches:  560 / 854
matches:  267 / 356
epoch 188 loss 3.12615394592 train_acc 1.0 test_acc 0.655737704918 dev_acc 0.75
matches:  650 / 650
650 / 650
matches:  560 / 854
matches:  267 / 356
epoch 189 loss 3.0639436245 train_acc 1.0 test_acc 0.655737704918 dev_acc 0.75
matches:  650 / 650
650 / 650
matches:  560 / 854
matches:  267 / 356
epoch 190 loss 3.00297117233 train_acc 1.0 test_acc 0.655737704918 dev_acc 0.75
matches:  650 / 650
650 / 650
matches:  560 / 854
matches:  267 / 356
epoch 191 loss 2.94321203232 train_acc 1.0 test_acc 0.655737704918 dev_acc 0.75
matches:  650 / 650
650 / 650
matches:  560 / 854
matches:  267 / 356
epoch 192 loss 2.88464212418 train_acc 1.0 test_acc 0.655737704918 dev_acc 0.75
matches:  650 / 650
650 / 650
matches:  560 / 854
matches:  267 / 356
epoch 193 loss 2.82723784447 train_acc 1.0 test_acc 0.655737704918 dev_acc 0.75
matches:  650 / 650
650 / 650
matches:  560 / 854
matches:  267 / 356
epoch 194 loss 2.77097582817 train_acc 1.0 test_acc 0.655737704918 dev_acc 0.75
matches:  650 / 650
650 / 650
matches:  560 / 854
matches:  267 / 356
epoch 195 loss 2.71583342552 train_acc 1.0 test_acc 0.655737704918 dev_acc 0.75
matches:  650 / 650
650 / 650
matches:  560 / 854
matches:  267 / 356
epoch 196 loss 2.66178846359 train_acc 1.0 test_acc 0.655737704918 dev_acc 0.75
matches:  650 / 650
650 / 650
matches:  560 / 854
matches:  267 / 356
epoch 197 loss 2.60881876945 train_acc 1.0 test_acc 0.655737704918 dev_acc 0.75
matches:  650 / 650
650 / 650
matches:  560 / 854
matches:  267 / 356
epoch 198 loss 2.55690360069 train_acc 1.0 test_acc 0.655737704918 dev_acc 0.75
matches:  650 / 650
650 / 650
matches:  560 / 854
matches:  267 / 356
epoch 199 loss 2.50602126122 train_acc 1.0 test_acc 0.655737704918 dev_acc 0.75
matches:  650 / 650
650 / 650
matches:  560 / 854
matches:  267 / 356
epoch 200 loss 2.45615148544 train_acc 1.0 test_acc 0.655737704918 dev_acc 0.75
matches:  650 / 650
650 / 650
matches:  560 / 854
matches:  267 / 356
epoch 201 loss 2.4072740078 train_acc 1.0 test_acc 0.655737704918 dev_acc 0.75
matches:  650 / 650
650 / 650
matches:  560 / 854
matches:  267 / 356
epoch 202 loss 2.35936927795 train_acc 1.0 test_acc 0.655737704918 dev_acc 0.75
matches:  650 / 650
650 / 650
matches:  560 / 854
matches:  267 / 356
epoch 203 loss 2.31241798401 train_acc 1.0 test_acc 0.655737704918 dev_acc 0.75
matches:  650 / 650
650 / 650
matches:  560 / 854
matches:  267 / 356
epoch 204 loss 2.26640081406 train_acc 1.0 test_acc 0.655737704918 dev_acc 0.75
matches:  650 / 650
650 / 650
matches:  560 / 854
matches:  267 / 356
epoch 205 loss 2.22129940987 train_acc 1.0 test_acc 0.655737704918 dev_acc 0.75
matches:  650 / 650
650 / 650
matches:  560 / 854
matches:  267 / 356
epoch 206 loss 2.17709565163 train_acc 1.0 test_acc 0.655737704918 dev_acc 0.75
matches:  650 / 650
650 / 650
matches:  560 / 854
matches:  267 / 356
epoch 207 loss 2.13377165794 train_acc 1.0 test_acc 0.655737704918 dev_acc 0.75
matches:  650 / 650
650 / 650
matches:  560 / 854
matches:  267 / 356
epoch 208 loss 2.09130930901 train_acc 1.0 test_acc 0.655737704918 dev_acc 0.75
matches:  650 / 650
650 / 650
matches:  560 / 854
matches:  267 / 356
epoch 209 loss 2.04969263077 train_acc 1.0 test_acc 0.655737704918 dev_acc 0.75
matches:  650 / 650
650 / 650
matches:  560 / 854
matches:  267 / 356
epoch 210 loss 2.00890350342 train_acc 1.0 test_acc 0.655737704918 dev_acc 0.75
matches:  650 / 650
650 / 650
matches:  560 / 854
matches:  267 / 356
epoch 211 loss 1.96892642975 train_acc 1.0 test_acc 0.655737704918 dev_acc 0.75
matches:  650 / 650
650 / 650
matches:  560 / 854
matches:  267 / 356
epoch 212 loss 1.92974495888 train_acc 1.0 test_acc 0.655737704918 dev_acc 0.75
matches:  650 / 650
650 / 650
matches:  560 / 854
matches:  267 / 356
epoch 213 loss 1.89134299755 train_acc 1.0 test_acc 0.655737704918 dev_acc 0.75
matches:  650 / 650
650 / 650
matches:  560 / 854
matches:  267 / 356
epoch 214 loss 1.85370528698 train_acc 1.0 test_acc 0.655737704918 dev_acc 0.75
matches:  650 / 650
650 / 650
matches:  560 / 854
matches:  267 / 356
epoch 215 loss 1.81681668758 train_acc 1.0 test_acc 0.655737704918 dev_acc 0.75
matches:  650 / 650
650 / 650
matches:  560 / 854
matches:  267 / 356
epoch 216 loss 1.78066194057 train_acc 1.0 test_acc 0.655737704918 dev_acc 0.75
matches:  650 / 650
650 / 650
matches:  560 / 854
matches:  267 / 356
epoch 217 loss 1.74522686005 train_acc 1.0 test_acc 0.655737704918 dev_acc 0.75
matches:  650 / 650
650 / 650
matches:  560 / 854
matches:  267 / 356
epoch 218 loss 1.71049678326 train_acc 1.0 test_acc 0.655737704918 dev_acc 0.75
matches:  650 / 650
650 / 650
matches:  560 / 854
matches:  267 / 356
epoch 219 loss 1.67645800114 train_acc 1.0 test_acc 0.655737704918 dev_acc 0.75
matches:  650 / 650
650 / 650
matches:  560 / 854
matches:  267 / 356
epoch 220 loss 1.6430965662 train_acc 1.0 test_acc 0.655737704918 dev_acc 0.75
matches:  650 / 650
650 / 650
matches:  560 / 854
matches:  267 / 356
epoch 221 loss 1.61039888859 train_acc 1.0 test_acc 0.655737704918 dev_acc 0.75
matches:  650 / 650
650 / 650
matches:  560 / 854
matches:  267 / 356
epoch 222 loss 1.5783520937 train_acc 1.0 test_acc 0.655737704918 dev_acc 0.75
matches:  650 / 650
650 / 650
matches:  560 / 854
matches:  267 / 356
epoch 223 loss 1.54694283009 train_acc 1.0 test_acc 0.655737704918 dev_acc 0.75
matches:  650 / 650
650 / 650
matches:  560 / 854
matches:  267 / 356
epoch 224 loss 1.5161588192 train_acc 1.0 test_acc 0.655737704918 dev_acc 0.75
matches:  650 / 650
650 / 650
matches:  560 / 854
matches:  267 / 356
epoch 225 loss 1.48598718643 train_acc 1.0 test_acc 0.655737704918 dev_acc 0.75
matches:  650 / 650
650 / 650
matches:  560 / 854
matches:  267 / 356
epoch 226 loss 1.45641601086 train_acc 1.0 test_acc 0.655737704918 dev_acc 0.75
matches:  650 / 650
650 / 650
matches:  560 / 854
matches:  267 / 356
epoch 227 loss 1.42743337154 train_acc 1.0 test_acc 0.655737704918 dev_acc 0.75
matches:  650 / 650
650 / 650
matches:  560 / 854
matches:  267 / 356
epoch 228 loss 1.39902758598 train_acc 1.0 test_acc 0.655737704918 dev_acc 0.75
matches:  650 / 650
650 / 650
matches:  560 / 854
matches:  267 / 356
epoch 229 loss 1.37118697166 train_acc 1.0 test_acc 0.655737704918 dev_acc 0.75
matches:  650 / 650
650 / 650
matches:  560 / 854
matches:  267 / 356
epoch 230 loss 1.3439002037 train_acc 1.0 test_acc 0.655737704918 dev_acc 0.75
matches:  650 / 650
650 / 650
matches:  560 / 854
matches:  267 / 356
epoch 231 loss 1.31715667248 train_acc 1.0 test_acc 0.655737704918 dev_acc 0.75
matches:  650 / 650
650 / 650
matches:  560 / 854
matches:  267 / 356
epoch 232 loss 1.29094541073 train_acc 1.0 test_acc 0.655737704918 dev_acc 0.75
matches:  650 / 650
650 / 650
matches:  560 / 854
matches:  267 / 356
epoch 233 loss 1.2652554512 train_acc 1.0 test_acc 0.655737704918 dev_acc 0.75
matches:  650 / 650
650 / 650
matches:  560 / 854
matches:  267 / 356
epoch 234 loss 1.24007689953 train_acc 1.0 test_acc 0.655737704918 dev_acc 0.75
matches:  650 / 650
650 / 650
matches:  560 / 854
matches:  267 / 356
epoch 235 loss 1.21539950371 train_acc 1.0 test_acc 0.655737704918 dev_acc 0.75
matches:  650 / 650
650 / 650
matches:  560 / 854
matches:  267 / 356
epoch 236 loss 1.19121301174 train_acc 1.0 test_acc 0.655737704918 dev_acc 0.75
matches:  650 / 650
650 / 650
matches:  560 / 854
matches:  267 / 356
epoch 237 loss 1.16750788689 train_acc 1.0 test_acc 0.655737704918 dev_acc 0.75
matches:  650 / 650
650 / 650
matches:  560 / 854
matches:  267 / 356
epoch 238 loss 1.1442745924 train_acc 1.0 test_acc 0.655737704918 dev_acc 0.75
matches:  650 / 650
650 / 650
matches:  560 / 854
matches:  267 / 356
epoch 239 loss 1.12150359154 train_acc 1.0 test_acc 0.655737704918 dev_acc 0.75
matches:  650 / 650
650 / 650
matches:  560 / 854
matches:  267 / 356
epoch 240 loss 1.09918558598 train_acc 1.0 test_acc 0.655737704918 dev_acc 0.75
matches:  650 / 650
650 / 650
matches:  560 / 854
matches:  267 / 356
epoch 241 loss 1.07731187344 train_acc 1.0 test_acc 0.655737704918 dev_acc 0.75
matches:  650 / 650
650 / 650
matches:  560 / 854
matches:  267 / 356
epoch 242 loss 1.0558732748 train_acc 1.0 test_acc 0.655737704918 dev_acc 0.75
matches:  650 / 650
650 / 650
matches:  560 / 854
matches:  267 / 356
epoch 243 loss 1.03486144543 train_acc 1.0 test_acc 0.655737704918 dev_acc 0.75
matches:  650 / 650
650 / 650
matches:  560 / 854
matches:  267 / 356
epoch 244 loss 1.01426780224 train_acc 1.0 test_acc 0.655737704918 dev_acc 0.75
matches:  650 / 650
650 / 650
matches:  560 / 854
matches:  267 / 356
epoch 245 loss 0.994083821774 train_acc 1.0 test_acc 0.655737704918 dev_acc 0.75
matches:  650 / 650
650 / 650
matches:  560 / 854
matches:  267 / 356
epoch 246 loss 0.97430151701 train_acc 1.0 test_acc 0.655737704918 dev_acc 0.75
matches:  650 / 650
650 / 650
matches:  560 / 854
matches:  267 / 356
epoch 247 loss 0.954912960529 train_acc 1.0 test_acc 0.655737704918 dev_acc 0.75
matches:  650 / 650
650 / 650
matches:  560 / 854
matches:  267 / 356
epoch 248 loss 0.935910344124 train_acc 1.0 test_acc 0.655737704918 dev_acc 0.75
matches:  650 / 650
650 / 650
matches:  560 / 854
matches:  267 / 356
epoch 249 loss 0.917285621166 train_acc 1.0 test_acc 0.655737704918 dev_acc 0.75
matches:  650 / 650
650 / 650
matches:  560 / 854
matches:  267 / 356
epoch 250 loss 0.899031639099 train_acc 1.0 test_acc 0.655737704918 dev_acc 0.75
matches:  650 / 650
650 / 650
matches:  560 / 854
matches:  267 / 356
epoch 251 loss 0.881141006947 train_acc 1.0 test_acc 0.655737704918 dev_acc 0.75
matches:  650 / 650
650 / 650
matches:  560 / 854
matches:  267 / 356
epoch 252 loss 0.863606274128 train_acc 1.0 test_acc 0.655737704918 dev_acc 0.75
matches:  650 / 650
650 / 650
matches:  560 / 854
matches:  267 / 356
epoch 253 loss 0.8464204669 train_acc 1.0 test_acc 0.655737704918 dev_acc 0.75
matches:  650 / 650
650 / 650
matches:  560 / 854
matches:  267 / 356
epoch 254 loss 0.829576790333 train_acc 1.0 test_acc 0.655737704918 dev_acc 0.75
matches:  650 / 650
650 / 650
matches:  560 / 854
matches:  267 / 356
epoch 255 loss 0.813068211079 train_acc 1.0 test_acc 0.655737704918 dev_acc 0.75
matches:  650 / 650
650 / 650
matches:  560 / 854
matches:  267 / 356
epoch 256 loss 0.796888172626 train_acc 1.0 test_acc 0.655737704918 dev_acc 0.75
matches:  650 / 650
650 / 650
matches:  560 / 854
matches:  267 / 356
epoch 257 loss 0.781030118465 train_acc 1.0 test_acc 0.655737704918 dev_acc 0.75
matches:  650 / 650
650 / 650
matches:  560 / 854
matches:  267 / 356
epoch 258 loss 0.765487611294 train_acc 1.0 test_acc 0.655737704918 dev_acc 0.75
matches:  650 / 650
650 / 650
matches:  560 / 854
matches:  267 / 356
epoch 259 loss 0.750254452229 train_acc 1.0 test_acc 0.655737704918 dev_acc 0.75
matches:  650 / 650
650 / 650
matches:  560 / 854
matches:  267 / 356
epoch 260 loss 0.735324382782 train_acc 1.0 test_acc 0.655737704918 dev_acc 0.75
matches:  650 / 650
650 / 650
matches:  560 / 854
matches:  267 / 356
epoch 261 loss 0.72069144249 train_acc 1.0 test_acc 0.655737704918 dev_acc 0.75
matches:  650 / 650
650 / 650
matches:  560 / 854
matches:  267 / 356
epoch 262 loss 0.706349730492 train_acc 1.0 test_acc 0.655737704918 dev_acc 0.75
matches:  650 / 650
650 / 650
matches:  560 / 854
matches:  267 / 356
epoch 263 loss 0.692293345928 train_acc 1.0 test_acc 0.655737704918 dev_acc 0.75
matches:  650 / 650
650 / 650
matches:  560 / 854
matches:  267 / 356
epoch 264 loss 0.678516745567 train_acc 1.0 test_acc 0.655737704918 dev_acc 0.75
matches:  650 / 650
650 / 650
matches:  560 / 854
matches:  267 / 356
epoch 265 loss 0.665014266968 train_acc 1.0 test_acc 0.655737704918 dev_acc 0.75
matches:  650 / 650
650 / 650
matches:  560 / 854
matches:  267 / 356
epoch 266 loss 0.651780545712 train_acc 1.0 test_acc 0.655737704918 dev_acc 0.75
matches:  650 / 650
650 / 650
matches:  560 / 854
matches:  267 / 356
epoch 267 loss 0.638810098171 train_acc 1.0 test_acc 0.655737704918 dev_acc 0.75
matches:  650 / 650
650 / 650
matches:  560 / 854
matches:  267 / 356
epoch 268 loss 0.626097798347 train_acc 1.0 test_acc 0.655737704918 dev_acc 0.75
matches:  650 / 650
650 / 650
matches:  560 / 854
matches:  267 / 356
epoch 269 loss 0.613638460636 train_acc 1.0 test_acc 0.655737704918 dev_acc 0.75
matches:  650 / 650
650 / 650
matches:  560 / 854
matches:  267 / 356
epoch 270 loss 0.601427018642 train_acc 1.0 test_acc 0.655737704918 dev_acc 0.75
matches:  650 / 650
650 / 650
matches:  560 / 854
matches:  267 / 356
epoch 271 loss 0.58945864439 train_acc 1.0 test_acc 0.655737704918 dev_acc 0.75
matches:  650 / 650
650 / 650
matches:  560 / 854
matches:  267 / 356
epoch 272 loss 0.577728450298 train_acc 1.0 test_acc 0.655737704918 dev_acc 0.75
matches:  650 / 650
650 / 650
matches:  560 / 854
matches:  267 / 356
epoch 273 loss 0.566231667995 train_acc 1.0 test_acc 0.655737704918 dev_acc 0.75
matches:  650 / 650
650 / 650
matches:  560 / 854
matches:  267 / 356
epoch 274 loss 0.554963648319 train_acc 1.0 test_acc 0.655737704918 dev_acc 0.75
matches:  650 / 650
650 / 650
matches:  560 / 854
matches:  267 / 356
epoch 275 loss 0.543919920921 train_acc 1.0 test_acc 0.655737704918 dev_acc 0.75
matches:  650 / 650
650 / 650
matches:  560 / 854
matches:  267 / 356
epoch 276 loss 0.533095896244 train_acc 1.0 test_acc 0.655737704918 dev_acc 0.75
matches:  650 / 650
650 / 650
matches:  560 / 854
matches:  267 / 356
epoch 277 loss 0.522487282753 train_acc 1.0 test_acc 0.655737704918 dev_acc 0.75
matches:  650 / 650
650 / 650
matches:  560 / 854
matches:  267 / 356
epoch 278 loss 0.512089848518 train_acc 1.0 test_acc 0.655737704918 dev_acc 0.75
matches:  650 / 650
650 / 650
matches:  560 / 854
matches:  267 / 356
epoch 279 loss 0.501899182796 train_acc 1.0 test_acc 0.655737704918 dev_acc 0.75
matches:  650 / 650
650 / 650
matches:  560 / 854
matches:  267 / 356
epoch 280 loss 0.491911411285 train_acc 1.0 test_acc 0.655737704918 dev_acc 0.75
matches:  650 / 650
650 / 650
matches:  560 / 854
matches:  267 / 356
epoch 281 loss 0.482122421265 train_acc 1.0 test_acc 0.655737704918 dev_acc 0.75
matches:  650 / 650
650 / 650
matches:  560 / 854
matches:  267 / 356
epoch 282 loss 0.472528219223 train_acc 1.0 test_acc 0.655737704918 dev_acc 0.75
matches:  650 / 650
650 / 650
matches:  560 / 854
matches:  267 / 356
epoch 283 loss 0.463124841452 train_acc 1.0 test_acc 0.655737704918 dev_acc 0.75
matches:  650 / 650
650 / 650
matches:  560 / 854
matches:  267 / 356
epoch 284 loss 0.45390868187 train_acc 1.0 test_acc 0.655737704918 dev_acc 0.75
matches:  650 / 650
650 / 650
matches:  560 / 854
matches:  267 / 356
epoch 285 loss 0.444875955582 train_acc 1.0 test_acc 0.655737704918 dev_acc 0.75
matches:  650 / 650
650 / 650
matches:  560 / 854
matches:  267 / 356
epoch 286 loss 0.436022907495 train_acc 1.0 test_acc 0.655737704918 dev_acc 0.75
matches:  650 / 650
650 / 650
matches:  560 / 854
matches:  267 / 356
epoch 287 loss 0.427346050739 train_acc 1.0 test_acc 0.655737704918 dev_acc 0.75
matches:  650 / 650
650 / 650
matches:  560 / 854
matches:  267 / 356
epoch 288 loss 0.418841898441 train_acc 1.0 test_acc 0.655737704918 dev_acc 0.75
matches:  650 / 650
650 / 650
matches:  560 / 854
matches:  267 / 356
epoch 289 loss 0.41050696373 train_acc 1.0 test_acc 0.655737704918 dev_acc 0.75
matches:  650 / 650
650 / 650
matches:  560 / 854
matches:  267 / 356
epoch 290 loss 0.40233784914 train_acc 1.0 test_acc 0.655737704918 dev_acc 0.75
matches:  650 / 650
650 / 650
matches:  560 / 854
matches:  267 / 356
epoch 291 loss 0.394331336021 train_acc 1.0 test_acc 0.655737704918 dev_acc 0.75
matches:  650 / 650
650 / 650
matches:  560 / 854
matches:  267 / 356
epoch 292 loss 0.38648417592 train_acc 1.0 test_acc 0.655737704918 dev_acc 0.75
matches:  650 / 650
650 / 650
matches:  560 / 854
matches:  267 / 356
epoch 293 loss 0.378793120384 train_acc 1.0 test_acc 0.655737704918 dev_acc 0.75
matches:  650 / 650
650 / 650
matches:  560 / 854
matches:  267 / 356
epoch 294 loss 0.371255129576 train_acc 1.0 test_acc 0.655737704918 dev_acc 0.75
matches:  650 / 650
650 / 650
matches:  560 / 854
matches:  267 / 356
epoch 295 loss 0.36386719346 train_acc 1.0 test_acc 0.655737704918 dev_acc 0.75
matches:  650 / 650
650 / 650
matches:  560 / 854
matches:  267 / 356
epoch 296 loss 0.356626242399 train_acc 1.0 test_acc 0.655737704918 dev_acc 0.75
matches:  650 / 650
650 / 650
matches:  560 / 854
matches:  267 / 356
epoch 297 loss 0.349529355764 train_acc 1.0 test_acc 0.655737704918 dev_acc 0.75
matches:  650 / 650
650 / 650
matches:  560 / 854
matches:  267 / 356
epoch 298 loss 0.34257376194 train_acc 1.0 test_acc 0.655737704918 dev_acc 0.75
matches:  650 / 650
650 / 650
matches:  560 / 854
matches:  267 / 356
epoch 299 loss 0.335756540298 train_acc 1.0 test_acc 0.655737704918 dev_acc 0.75
matches:  650 / 650
650 / 650
matches:  560 / 854
matches:  267 / 356
epoch 300 loss 0.329074978828 train_acc 1.0 test_acc 0.655737704918 dev_acc 0.75
matches:  650 / 650
650 / 650
matches:  560 / 854
matches:  267 / 356
epoch 301 loss 0.322526395321 train_acc 1.0 test_acc 0.655737704918 dev_acc 0.75
matches:  650 / 650
650 / 650
matches:  560 / 854
matches:  267 / 356
epoch 302 loss 0.316108137369 train_acc 1.0 test_acc 0.655737704918 dev_acc 0.75
matches:  650 / 650
650 / 650
matches:  560 / 854
matches:  267 / 356
epoch 303 loss 0.309817582369 train_acc 1.0 test_acc 0.655737704918 dev_acc 0.75
matches:  650 / 650
650 / 650
matches:  560 / 854
matches:  267 / 356
epoch 304 loss 0.303652226925 train_acc 1.0 test_acc 0.655737704918 dev_acc 0.75
matches:  650 / 650
650 / 650
matches:  560 / 854
matches:  267 / 356
epoch 305 loss 0.29760953784 train_acc 1.0 test_acc 0.655737704918 dev_acc 0.75
matches:  650 / 650
650 / 650
matches:  560 / 854
matches:  267 / 356
epoch 306 loss 0.291687101126 train_acc 1.0 test_acc 0.655737704918 dev_acc 0.75
matches:  650 / 650
650 / 650
matches:  560 / 854
matches:  267 / 356
epoch 307 loss 0.285882562399 train_acc 1.0 test_acc 0.655737704918 dev_acc 0.75
matches:  650 / 650
650 / 650
matches:  560 / 854
matches:  267 / 356
epoch 308 loss 0.280193507671 train_acc 1.0 test_acc 0.655737704918 dev_acc 0.75
matches:  650 / 650
650 / 650
matches:  560 / 854
matches:  267 / 356
epoch 309 loss 0.274617642164 train_acc 1.0 test_acc 0.655737704918 dev_acc 0.75
matches:  650 / 650
650 / 650
matches:  560 / 854
matches:  267 / 356
epoch 310 loss 0.269152760506 train_acc 1.0 test_acc 0.655737704918 dev_acc 0.75
matches:  650 / 650
650 / 650
matches:  560 / 854
matches:  267 / 356
epoch 311 loss 0.263796657324 train_acc 1.0 test_acc 0.655737704918 dev_acc 0.75
matches:  650 / 650
650 / 650
matches:  560 / 854
matches:  267 / 356
epoch 312 loss 0.258547097445 train_acc 1.0 test_acc 0.655737704918 dev_acc 0.75
matches:  650 / 650
650 / 650
matches:  560 / 854
matches:  267 / 356
epoch 313 loss 0.253401994705 train_acc 1.0 test_acc 0.655737704918 dev_acc 0.75
matches:  650 / 650
650 / 650
matches:  560 / 854
matches:  267 / 356
epoch 314 loss 0.248359307647 train_acc 1.0 test_acc 0.655737704918 dev_acc 0.75
matches:  650 / 650
650 / 650
matches:  560 / 854
matches:  267 / 356
epoch 315 loss 0.243416979909 train_acc 1.0 test_acc 0.655737704918 dev_acc 0.75
matches:  650 / 650
650 / 650
matches:  560 / 854
matches:  267 / 356
epoch 316 loss 0.238572984934 train_acc 1.0 test_acc 0.655737704918 dev_acc 0.75
matches:  650 / 650
650 / 650
matches:  560 / 854
matches:  267 / 356
epoch 317 loss 0.233825370669 train_acc 1.0 test_acc 0.655737704918 dev_acc 0.75
matches:  650 / 650
650 / 650
matches:  560 / 854
matches:  267 / 356
epoch 318 loss 0.229172229767 train_acc 1.0 test_acc 0.655737704918 dev_acc 0.75
matches:  650 / 650
650 / 650
matches:  560 / 854
matches:  267 / 356
epoch 319 loss 0.224611714482 train_acc 1.0 test_acc 0.655737704918 dev_acc 0.75
matches:  650 / 650
650 / 650
matches:  560 / 854
matches:  267 / 356
epoch 320 loss 0.220141962171 train_acc 1.0 test_acc 0.655737704918 dev_acc 0.75
matches:  650 / 650
650 / 650
matches:  560 / 854
matches:  267 / 356
epoch 321 loss 0.215761139989 train_acc 1.0 test_acc 0.655737704918 dev_acc 0.75
matches:  650 / 650
650 / 650
matches:  560 / 854
matches:  267 / 356
epoch 322 loss 0.211467504501 train_acc 1.0 test_acc 0.655737704918 dev_acc 0.75
matches:  650 / 650
650 / 650
matches:  560 / 854
matches:  267 / 356
epoch 323 loss 0.207259297371 train_acc 1.0 test_acc 0.655737704918 dev_acc 0.75
matches:  650 / 650
650 / 650
matches:  560 / 854
matches:  267 / 356
epoch 324 loss 0.203134819865 train_acc 1.0 test_acc 0.655737704918 dev_acc 0.75
matches:  650 / 650
650 / 650
matches:  560 / 854
matches:  267 / 356
epoch 325 loss 0.199092462659 train_acc 1.0 test_acc 0.655737704918 dev_acc 0.75
matches:  650 / 650
650 / 650
matches:  560 / 854
matches:  267 / 356
epoch 326 loss 0.195130512118 train_acc 1.0 test_acc 0.655737704918 dev_acc 0.75
matches:  650 / 650
650 / 650
matches:  560 / 854
matches:  267 / 356
epoch 327 loss 0.191247433424 train_acc 1.0 test_acc 0.655737704918 dev_acc 0.75
matches:  650 / 650
650 / 650
matches:  560 / 854
matches:  267 / 356
epoch 328 loss 0.18744161725 train_acc 1.0 test_acc 0.655737704918 dev_acc 0.75
matches:  650 / 650
650 / 650
matches:  560 / 854
matches:  267 / 356
epoch 329 loss 0.183711528778 train_acc 1.0 test_acc 0.655737704918 dev_acc 0.75
matches:  650 / 650
650 / 650
matches:  560 / 854
matches:  267 / 356
epoch 330 loss 0.18005566299 train_acc 1.0 test_acc 0.655737704918 dev_acc 0.75
matches:  650 / 650
650 / 650
matches:  560 / 854
matches:  267 / 356
epoch 331 loss 0.176472559571 train_acc 1.0 test_acc 0.655737704918 dev_acc 0.75
matches:  650 / 650
650 / 650
matches:  560 / 854
matches:  267 / 356
epoch 332 loss 0.17296077311 train_acc 1.0 test_acc 0.655737704918 dev_acc 0.75
matches:  650 / 650
650 / 650
matches:  560 / 854
matches:  267 / 356
epoch 333 loss 0.169518843293 train_acc 1.0 test_acc 0.655737704918 dev_acc 0.75
matches:  650 / 650
650 / 650
matches:  560 / 854
matches:  267 / 356
epoch 334 loss 0.166145429015 train_acc 1.0 test_acc 0.655737704918 dev_acc 0.75
matches:  650 / 650
650 / 650
matches:  560 / 854
matches:  267 / 356
epoch 335 loss 0.162839129567 train_acc 1.0 test_acc 0.655737704918 dev_acc 0.75
matches:  650 / 650
650 / 650
matches:  560 / 854
matches:  267 / 356
epoch 336 loss 0.159598633647 train_acc 1.0 test_acc 0.655737704918 dev_acc 0.75
matches:  650 / 650
650 / 650
matches:  560 / 854
matches:  267 / 356
epoch 337 loss 0.156422629952 train_acc 1.0 test_acc 0.655737704918 dev_acc 0.75
matches:  650 / 650
650 / 650
matches:  560 / 854
matches:  267 / 356
epoch 338 loss 0.153309822083 train_acc 1.0 test_acc 0.655737704918 dev_acc 0.75
matches:  650 / 650
650 / 650
matches:  560 / 854
matches:  267 / 356
epoch 339 loss 0.15025895834 train_acc 1.0 test_acc 0.655737704918 dev_acc 0.75
matches:  650 / 650
650 / 650
matches:  560 / 854
matches:  267 / 356
epoch 340 loss 0.147268816829 train_acc 1.0 test_acc 0.655737704918 dev_acc 0.75
matches:  650 / 650
650 / 650
matches:  560 / 854
matches:  267 / 356
epoch 341 loss 0.144338175654 train_acc 1.0 test_acc 0.655737704918 dev_acc 0.75
matches:  650 / 650
650 / 650
matches:  560 / 854
matches:  267 / 356
epoch 342 loss 0.141465842724 train_acc 1.0 test_acc 0.655737704918 dev_acc 0.75
matches:  650 / 650
650 / 650
matches:  560 / 854
matches:  267 / 356
epoch 343 loss 0.138650670648 train_acc 1.0 test_acc 0.655737704918 dev_acc 0.75
matches:  650 / 650
650 / 650
matches:  560 / 854
matches:  267 / 356
epoch 344 loss 0.135891526937 train_acc 1.0 test_acc 0.655737704918 dev_acc 0.75
matches:  650 / 650
650 / 650
matches:  560 / 854
matches:  267 / 356
epoch 345 loss 0.133187279105 train_acc 1.0 test_acc 0.655737704918 dev_acc 0.75
matches:  650 / 650
650 / 650
matches:  560 / 854
matches:  267 / 356
epoch 346 loss 0.130536869168 train_acc 1.0 test_acc 0.655737704918 dev_acc 0.75
matches:  650 / 650
650 / 650
matches:  560 / 854
matches:  267 / 356
epoch 347 loss 0.12793917954 train_acc 1.0 test_acc 0.655737704918 dev_acc 0.75
matches:  650 / 650
650 / 650
matches:  560 / 854
matches:  267 / 356
epoch 348 loss 0.12539319694 train_acc 1.0 test_acc 0.655737704918 dev_acc 0.75
matches:  650 / 650
650 / 650
matches:  560 / 854
matches:  267 / 356
epoch 349 loss 0.122897863388 train_acc 1.0 test_acc 0.655737704918 dev_acc 0.75
matches:  650 / 650
650 / 650
matches:  560 / 854
matches:  267 / 356
epoch 350 loss 0.120452202857 train_acc 1.0 test_acc 0.655737704918 dev_acc 0.75
matches:  650 / 650
650 / 650
matches:  560 / 854
matches:  267 / 356
epoch 351 loss 0.118055216968 train_acc 1.0 test_acc 0.655737704918 dev_acc 0.75
matches:  650 / 650
650 / 650
matches:  560 / 854
matches:  267 / 356
epoch 352 loss 0.115705922246 train_acc 1.0 test_acc 0.655737704918 dev_acc 0.75
matches:  650 / 650
650 / 650
matches:  560 / 854
matches:  267 / 356
epoch 353 loss 0.113403357565 train_acc 1.0 test_acc 0.655737704918 dev_acc 0.75
matches:  650 / 650
650 / 650
matches:  560 / 854
matches:  267 / 356
epoch 354 loss 0.111146643758 train_acc 1.0 test_acc 0.655737704918 dev_acc 0.75
matches:  650 / 650
650 / 650
matches:  560 / 854
matches:  267 / 356
epoch 355 loss 0.108934834599 train_acc 1.0 test_acc 0.655737704918 dev_acc 0.75
matches:  650 / 650
650 / 650
matches:  560 / 854
matches:  267 / 356
epoch 356 loss 0.10676702112 train_acc 1.0 test_acc 0.655737704918 dev_acc 0.75
matches:  650 / 650
650 / 650
matches:  560 / 854
matches:  267 / 356
epoch 357 loss 0.104642368853 train_acc 1.0 test_acc 0.655737704918 dev_acc 0.75
matches:  650 / 650
650 / 650
matches:  560 / 854
matches:  267 / 356
epoch 358 loss 0.10255997628 train_acc 1.0 test_acc 0.655737704918 dev_acc 0.75
matches:  650 / 650
650 / 650
matches:  560 / 854
matches:  267 / 356
epoch 359 loss 0.100519038737 train_acc 1.0 test_acc 0.655737704918 dev_acc 0.75
matches:  650 / 650
650 / 650
matches:  560 / 854
matches:  267 / 356
epoch 360 loss 0.0985187143087 train_acc 1.0 test_acc 0.655737704918 dev_acc 0.75
matches:  650 / 650
650 / 650
matches:  560 / 854
matches:  267 / 356
epoch 361 loss 0.0965581908822 train_acc 1.0 test_acc 0.655737704918 dev_acc 0.75
matches:  650 / 650
650 / 650
matches:  560 / 854
matches:  267 / 356
epoch 362 loss 0.0946366861463 train_acc 1.0 test_acc 0.655737704918 dev_acc 0.75
matches:  650 / 650
650 / 650
matches:  560 / 854
matches:  267 / 356
epoch 363 loss 0.0927534252405 train_acc 1.0 test_acc 0.655737704918 dev_acc 0.75
matches:  650 / 650
650 / 650
matches:  560 / 854
matches:  267 / 356
epoch 364 loss 0.090907625854 train_acc 1.0 test_acc 0.655737704918 dev_acc 0.75
matches:  650 / 650
650 / 650
matches:  560 / 854
matches:  267 / 356
epoch 365 loss 0.0890985652804 train_acc 1.0 test_acc 0.655737704918 dev_acc 0.75
matches:  650 / 650
650 / 650
matches:  560 / 854
matches:  267 / 356
epoch 366 loss 0.0873255059123 train_acc 1.0 test_acc 0.655737704918 dev_acc 0.75
matches:  650 / 650
650 / 650
matches:  560 / 854
matches:  267 / 356
epoch 367 loss 0.0855877324939 train_acc 1.0 test_acc 0.655737704918 dev_acc 0.75
matches:  650 / 650
650 / 650
matches:  560 / 854
matches:  267 / 356
epoch 368 loss 0.08388453722 train_acc 1.0 test_acc 0.655737704918 dev_acc 0.75
matches:  650 / 650
650 / 650
matches:  560 / 854
matches:  267 / 356
epoch 369 loss 0.0822152420878 train_acc 1.0 test_acc 0.655737704918 dev_acc 0.75
matches:  650 / 650
650 / 650
matches:  560 / 854
matches:  267 / 356
epoch 370 loss 0.0805791541934 train_acc 1.0 test_acc 0.655737704918 dev_acc 0.75
matches:  650 / 650
650 / 650
matches:  560 / 854
matches:  267 / 356
epoch 371 loss 0.0789756327868 train_acc 1.0 test_acc 0.655737704918 dev_acc 0.75
matches:  650 / 650
650 / 650
matches:  560 / 854
matches:  267 / 356
epoch 372 loss 0.0774040147662 train_acc 1.0 test_acc 0.655737704918 dev_acc 0.75
matches:  650 / 650
650 / 650
matches:  560 / 854
matches:  267 / 356
epoch 373 loss 0.0758636817336 train_acc 1.0 test_acc 0.655737704918 dev_acc 0.75
matches:  650 / 650
650 / 650
matches:  560 / 854
matches:  267 / 356
epoch 374 loss 0.0743539854884 train_acc 1.0 test_acc 0.655737704918 dev_acc 0.75
matches:  650 / 650
650 / 650
matches:  560 / 854
matches:  267 / 356
epoch 375 loss 0.0728743523359 train_acc 1.0 test_acc 0.655737704918 dev_acc 0.75
matches:  650 / 650
650 / 650
matches:  560 / 854
matches:  267 / 356
epoch 376 loss 0.0714241489768 train_acc 1.0 test_acc 0.655737704918 dev_acc 0.75
matches:  650 / 650
650 / 650
matches:  560 / 854
matches:  267 / 356
epoch 377 loss 0.0700028166175 train_acc 1.0 test_acc 0.655737704918 dev_acc 0.75
matches:  650 / 650
650 / 650
matches:  560 / 854
matches:  267 / 356
epoch 378 loss 0.0686097666621 train_acc 1.0 test_acc 0.655737704918 dev_acc 0.75
matches:  650 / 650
650 / 650
matches:  560 / 854
matches:  267 / 356
epoch 379 loss 0.067244425416 train_acc 1.0 test_acc 0.655737704918 dev_acc 0.75
matches:  650 / 650
650 / 650
matches:  560 / 854
matches:  267 / 356
epoch 380 loss 0.0659062638879 train_acc 1.0 test_acc 0.655737704918 dev_acc 0.75
matches:  650 / 650
650 / 650
matches:  560 / 854
matches:  267 / 356
epoch 381 loss 0.0645947307348 train_acc 1.0 test_acc 0.655737704918 dev_acc 0.75
matches:  650 / 650
650 / 650
matches:  560 / 854
matches:  267 / 356
epoch 382 loss 0.0633092969656 train_acc 1.0 test_acc 0.655737704918 dev_acc 0.75
matches:  650 / 650
650 / 650
matches:  560 / 854
matches:  267 / 356
epoch 383 loss 0.0620494447649 train_acc 1.0 test_acc 0.655737704918 dev_acc 0.75
matches:  650 / 650
650 / 650
matches:  560 / 854
matches:  267 / 356
epoch 384 loss 0.0608146600425 train_acc 1.0 test_acc 0.655737704918 dev_acc 0.75
matches:  650 / 650
650 / 650
matches:  560 / 854
matches:  267 / 356
epoch 385 loss 0.059604447335 train_acc 1.0 test_acc 0.655737704918 dev_acc 0.75
matches:  650 / 650
650 / 650
matches:  560 / 854
matches:  267 / 356
epoch 386 loss 0.058418314904 train_acc 1.0 test_acc 0.655737704918 dev_acc 0.75
matches:  650 / 650
650 / 650
matches:  560 / 854
matches:  267 / 356
epoch 387 loss 0.0572558008134 train_acc 1.0 test_acc 0.655737704918 dev_acc 0.75
matches:  650 / 650
650 / 650
matches:  560 / 854
matches:  267 / 356
epoch 388 loss 0.0561164095998 train_acc 1.0 test_acc 0.655737704918 dev_acc 0.75
matches:  650 / 650
650 / 650
matches:  560 / 854
matches:  267 / 356
epoch 389 loss 0.0549996905029 train_acc 1.0 test_acc 0.655737704918 dev_acc 0.75
matches:  650 / 650
650 / 650
matches:  560 / 854
matches:  267 / 356
epoch 390 loss 0.0539051964879 train_acc 1.0 test_acc 0.655737704918 dev_acc 0.75
matches:  650 / 650
650 / 650
matches:  560 / 854
matches:  267 / 356
epoch 391 loss 0.0528324842453 train_acc 1.0 test_acc 0.655737704918 dev_acc 0.75
matches:  650 / 650
650 / 650
matches:  560 / 854
matches:  267 / 356
epoch 392 loss 0.0517811179161 train_acc 1.0 test_acc 0.655737704918 dev_acc 0.75
matches:  650 / 650
650 / 650
matches:  560 / 854
matches:  267 / 356
epoch 393 loss 0.0507506802678 train_acc 1.0 test_acc 0.655737704918 dev_acc 0.75
matches:  650 / 650
650 / 650
matches:  560 / 854
matches:  267 / 356
epoch 394 loss 0.0497407391667 train_acc 1.0 test_acc 0.655737704918 dev_acc 0.75
matches:  650 / 650
650 / 650
matches:  560 / 854
matches:  267 / 356
epoch 395 loss 0.0487509034574 train_acc 1.0 test_acc 0.655737704918 dev_acc 0.75
matches:  650 / 650
650 / 650
matches:  560 / 854
matches:  267 / 356
epoch 396 loss 0.0477807596326 train_acc 1.0 test_acc 0.655737704918 dev_acc 0.75
matches:  650 / 650
650 / 650
matches:  560 / 854
matches:  267 / 356
epoch 397 loss 0.0468299202621 train_acc 1.0 test_acc 0.655737704918 dev_acc 0.75
matches:  650 / 650
650 / 650
matches:  560 / 854
matches:  267 / 356
epoch 398 loss 0.0458980053663 train_acc 1.0 test_acc 0.655737704918 dev_acc 0.75
matches:  650 / 650
650 / 650
matches:  560 / 854
matches:  267 / 356
epoch 399 loss 0.0449846386909 train_acc 1.0 test_acc 0.655737704918 dev_acc 0.75
matches:  650 / 650
650 / 650
matches:  560 / 854
matches:  267 / 356
epoch 400 loss 0.0440894477069 train_acc 1.0 test_acc 0.655737704918 dev_acc 0.75
matches:  650 / 650
650 / 650
matches:  560 / 854
matches:  267 / 356
epoch 401 loss 0.0432120673358 train_acc 1.0 test_acc 0.655737704918 dev_acc 0.75
matches:  650 / 650
650 / 650
matches:  560 / 854
matches:  267 / 356
epoch 402 loss 0.0423521474004 train_acc 1.0 test_acc 0.655737704918 dev_acc 0.75
matches:  650 / 650
650 / 650
matches:  560 / 854
matches:  267 / 356
epoch 403 loss 0.0415093377233 train_acc 1.0 test_acc 0.655737704918 dev_acc 0.75
matches:  650 / 650
650 / 650
matches:  560 / 854
matches:  267 / 356
epoch 404 loss 0.0406833030283 train_acc 1.0 test_acc 0.655737704918 dev_acc 0.75
matches:  650 / 650
650 / 650
matches:  560 / 854
matches:  267 / 356
epoch 405 loss 0.0398737080395 train_acc 1.0 test_acc 0.655737704918 dev_acc 0.75
matches:  650 / 650
650 / 650
matches:  560 / 854
matches:  267 / 356
epoch 406 loss 0.0390802212059 train_acc 1.0 test_acc 0.655737704918 dev_acc 0.75
matches:  650 / 650
650 / 650
matches:  560 / 854
matches:  267 / 356
epoch 407 loss 0.038302525878 train_acc 1.0 test_acc 0.655737704918 dev_acc 0.75
matches:  650 / 650
650 / 650
matches:  560 / 854
matches:  267 / 356
epoch 408 loss 0.0375403091311 train_acc 1.0 test_acc 0.655737704918 dev_acc 0.75
matches:  650 / 650
650 / 650
matches:  560 / 854
matches:  267 / 356
epoch 409 loss 0.0367932543159 train_acc 1.0 test_acc 0.655737704918 dev_acc 0.75
matches:  650 / 650
650 / 650
matches:  560 / 854
matches:  267 / 356
epoch 410 loss 0.0360610708594 train_acc 1.0 test_acc 0.655737704918 dev_acc 0.75
matches:  650 / 650
650 / 650
matches:  560 / 854
matches:  267 / 356
epoch 411 loss 0.0353434570134 train_acc 1.0 test_acc 0.655737704918 dev_acc 0.75
matches:  650 / 650
650 / 650
matches:  560 / 854
matches:  267 / 356
epoch 412 loss 0.034640122205 train_acc 1.0 test_acc 0.655737704918 dev_acc 0.75
matches:  650 / 650
650 / 650
matches:  560 / 854
matches:  267 / 356
epoch 413 loss 0.0339507833123 train_acc 1.0 test_acc 0.655737704918 dev_acc 0.75
matches:  650 / 650
650 / 650
matches:  560 / 854
matches:  267 / 356
epoch 414 loss 0.0332751646638 train_acc 1.0 test_acc 0.655737704918 dev_acc 0.75
matches:  650 / 650
650 / 650
matches:  560 / 854
matches:  267 / 356
epoch 415 loss 0.0326129905879 train_acc 1.0 test_acc 0.655737704918 dev_acc 0.75
matches:  650 / 650
650 / 650
matches:  560 / 854
matches:  267 / 356
epoch 416 loss 0.0319639891386 train_acc 1.0 test_acc 0.655737704918 dev_acc 0.75
matches:  650 / 650
650 / 650
matches:  560 / 854
matches:  267 / 356
epoch 417 loss 0.031327906996 train_acc 1.0 test_acc 0.655737704918 dev_acc 0.75
matches:  650 / 650
650 / 650
matches:  560 / 854
matches:  267 / 356
epoch 418 loss 0.0307044833899 train_acc 1.0 test_acc 0.655737704918 dev_acc 0.75
matches:  650 / 650
650 / 650
matches:  560 / 854
matches:  267 / 356
epoch 419 loss 0.0300934650004 train_acc 1.0 test_acc 0.655737704918 dev_acc 0.75
matches:  650 / 650
650 / 650
matches:  560 / 854
matches:  267 / 356
epoch 420 loss 0.0294946040958 train_acc 1.0 test_acc 0.655737704918 dev_acc 0.75
matches:  650 / 650
650 / 650
matches:  560 / 854
matches:  267 / 356
epoch 421 loss 0.0289076622576 train_acc 1.0 test_acc 0.655737704918 dev_acc 0.75
matches:  650 / 650
650 / 650
matches:  560 / 854
matches:  267 / 356
epoch 422 loss 0.028332401067 train_acc 1.0 test_acc 0.655737704918 dev_acc 0.75
matches:  650 / 650
650 / 650
matches:  560 / 854
matches:  267 / 356
epoch 423 loss 0.0277685876936 train_acc 1.0 test_acc 0.655737704918 dev_acc 0.75
matches:  650 / 650
650 / 650
matches:  560 / 854
matches:  267 / 356
epoch 424 loss 0.0272159911692 train_acc 1.0 test_acc 0.655737704918 dev_acc 0.75
matches:  650 / 650
650 / 650
matches:  560 / 854
matches:  267 / 356
epoch 425 loss 0.0266743954271 train_acc 1.0 test_acc 0.655737704918 dev_acc 0.75
matches:  650 / 650
650 / 650
matches:  560 / 854
matches:  267 / 356
epoch 426 loss 0.0261435713619 train_acc 1.0 test_acc 0.655737704918 dev_acc 0.75
matches:  650 / 650
650 / 650
matches:  560 / 854
matches:  267 / 356
epoch 427 loss 0.0256233196706 train_acc 1.0 test_acc 0.655737704918 dev_acc 0.75
matches:  650 / 650
650 / 650
matches:  560 / 854
matches:  267 / 356
epoch 428 loss 0.0251134131104 train_acc 1.0 test_acc 0.655737704918 dev_acc 0.75
matches:  650 / 650
650 / 650
matches:  560 / 854
matches:  267 / 356
epoch 429 loss 0.0246136579663 train_acc 1.0 test_acc 0.655737704918 dev_acc 0.75
matches:  650 / 650
650 / 650
matches:  560 / 854
matches:  267 / 356
epoch 430 loss 0.0241238456219 train_acc 1.0 test_acc 0.655737704918 dev_acc 0.75
matches:  650 / 650
650 / 650
matches:  560 / 854
matches:  267 / 356
epoch 431 loss 0.0236437823623 train_acc 1.0 test_acc 0.655737704918 dev_acc 0.75
matches:  650 / 650
650 / 650
matches:  560 / 854
matches:  267 / 356
epoch 432 loss 0.0231732707471 train_acc 1.0 test_acc 0.655737704918 dev_acc 0.75
matches:  650 / 650
650 / 650
matches:  560 / 854
matches:  267 / 356
epoch 433 loss 0.0227121245116 train_acc 1.0 test_acc 0.655737704918 dev_acc 0.75
matches:  650 / 650
650 / 650
matches:  560 / 854
matches:  267 / 356
epoch 434 loss 0.0222601536661 train_acc 1.0 test_acc 0.655737704918 dev_acc 0.75
matches:  650 / 650
650 / 650
matches:  560 / 854
matches:  267 / 356
epoch 435 loss 0.0218171775341 train_acc 1.0 test_acc 0.655737704918 dev_acc 0.75
matches:  650 / 650
650 / 650
matches:  560 / 854
matches:  267 / 356
epoch 436 loss 0.0213830154389 train_acc 1.0 test_acc 0.655737704918 dev_acc 0.75
matches:  650 / 650
650 / 650
matches:  560 / 854
matches:  267 / 356
epoch 437 loss 0.0209574922919 train_acc 1.0 test_acc 0.655737704918 dev_acc 0.75
matches:  650 / 650
650 / 650
matches:  560 / 854
matches:  267 / 356
epoch 438 loss 0.0205404404551 train_acc 1.0 test_acc 0.655737704918 dev_acc 0.75
matches:  650 / 650
650 / 650
matches:  560 / 854
matches:  267 / 356
epoch 439 loss 0.0201316848397 train_acc 1.0 test_acc 0.655737704918 dev_acc 0.75
matches:  650 / 650
650 / 650
matches:  560 / 854
matches:  267 / 356
epoch 440 loss 0.0197310652584 train_acc 1.0 test_acc 0.655737704918 dev_acc 0.75
matches:  650 / 650
650 / 650
matches:  560 / 854
matches:  267 / 356
epoch 441 loss 0.0193384177983 train_acc 1.0 test_acc 0.655737704918 dev_acc 0.75
matches:  650 / 650
650 / 650
matches:  560 / 854
matches:  267 / 356
epoch 442 loss 0.0189535841346 train_acc 1.0 test_acc 0.655737704918 dev_acc 0.75
matches:  650 / 650
650 / 650
matches:  560 / 854
matches:  267 / 356
epoch 443 loss 0.0185764078051 train_acc 1.0 test_acc 0.655737704918 dev_acc 0.75
matches:  650 / 650
650 / 650
matches:  560 / 854
matches:  267 / 356
epoch 444 loss 0.0182067360729 train_acc 1.0 test_acc 0.655737704918 dev_acc 0.75
matches:  650 / 650
650 / 650
matches:  560 / 854
matches:  267 / 356
epoch 445 loss 0.0178444236517 train_acc 1.0 test_acc 0.655737704918 dev_acc 0.75
matches:  650 / 650
650 / 650
matches:  560 / 854
matches:  267 / 356
epoch 446 loss 0.0174893196672 train_acc 1.0 test_acc 0.655737704918 dev_acc 0.75
matches:  650 / 650
650 / 650
matches:  560 / 854
matches:  267 / 356
epoch 447 loss 0.0171412825584 train_acc 1.0 test_acc 0.655737704918 dev_acc 0.75
matches:  650 / 650
650 / 650
matches:  560 / 854
matches:  267 / 356
epoch 448 loss 0.016800172627 train_acc 1.0 test_acc 0.655737704918 dev_acc 0.75
matches:  650 / 650
650 / 650
matches:  560 / 854
matches:  267 / 356
epoch 449 loss 0.0164658483118 train_acc 1.0 test_acc 0.655737704918 dev_acc 0.75
matches:  650 / 650
650 / 650
matches:  560 / 854
matches:  267 / 356
epoch 450 loss 0.0161381792277 train_acc 1.0 test_acc 0.655737704918 dev_acc 0.75
matches:  650 / 650
650 / 650
matches:  560 / 854
matches:  267 / 356
epoch 451 loss 0.0158170294017 train_acc 1.0 test_acc 0.655737704918 dev_acc 0.75
matches:  650 / 650
650 / 650
matches:  560 / 854
matches:  267 / 356
epoch 452 loss 0.0155022712424 train_acc 1.0 test_acc 0.655737704918 dev_acc 0.75
matches:  650 / 650
650 / 650
matches:  560 / 854
matches:  267 / 356
epoch 453 loss 0.0151937752962 train_acc 1.0 test_acc 0.655737704918 dev_acc 0.75
matches:  650 / 650
650 / 650
matches:  560 / 854
matches:  267 / 356
epoch 454 loss 0.014891420491 train_acc 1.0 test_acc 0.655737704918 dev_acc 0.75
matches:  650 / 650
650 / 650
matches:  560 / 854
matches:  267 / 356
epoch 455 loss 0.0145950810984 train_acc 1.0 test_acc 0.655737704918 dev_acc 0.75
matches:  650 / 650
650 / 650
matches:  560 / 854
matches:  267 / 356
epoch 456 loss 0.0143046379089 train_acc 1.0 test_acc 0.655737704918 dev_acc 0.75
matches:  650 / 650
650 / 650
matches:  560 / 854
matches:  267 / 356
epoch 457 loss 0.01401997637 train_acc 1.0 test_acc 0.655737704918 dev_acc 0.75
matches:  650 / 650
650 / 650
matches:  560 / 854
matches:  267 / 356
epoch 458 loss 0.0137409809977 train_acc 1.0 test_acc 0.655737704918 dev_acc 0.75
matches:  650 / 650
650 / 650
matches:  560 / 854
matches:  267 / 356
epoch 459 loss 0.0134675344452 train_acc 1.0 test_acc 0.655737704918 dev_acc 0.75
matches:  650 / 650
650 / 650
matches:  560 / 854
matches:  267 / 356
epoch 460 loss 0.0131995305419 train_acc 1.0 test_acc 0.655737704918 dev_acc 0.75
matches:  650 / 650
650 / 650
matches:  560 / 854
matches:  267 / 356
epoch 461 loss 0.012936860323 train_acc 1.0 test_acc 0.655737704918 dev_acc 0.75
matches:  650 / 650
650 / 650
matches:  560 / 854
matches:  267 / 356
epoch 462 loss 0.0126794176176 train_acc 1.0 test_acc 0.655737704918 dev_acc 0.75
matches:  650 / 650
650 / 650
matches:  560 / 854
matches:  267 / 356
epoch 463 loss 0.0124270971864 train_acc 1.0 test_acc 0.655737704918 dev_acc 0.75
matches:  650 / 650
650 / 650
matches:  560 / 854
matches:  267 / 356
epoch 464 loss 0.0121797984466 train_acc 1.0 test_acc 0.655737704918 dev_acc 0.75
matches:  650 / 650
650 / 650
matches:  560 / 854
matches:  267 / 356
epoch 465 loss 0.0119374198839 train_acc 1.0 test_acc 0.655737704918 dev_acc 0.75
matches:  650 / 650
650 / 650
matches:  560 / 854
matches:  267 / 356
epoch 466 loss 0.0116998655722 train_acc 1.0 test_acc 0.655737704918 dev_acc 0.75
matches:  650 / 650
650 / 650
matches:  560 / 854
matches:  267 / 356
epoch 467 loss 0.0114670386538 train_acc 1.0 test_acc 0.655737704918 dev_acc 0.75
matches:  650 / 650
650 / 650
matches:  560 / 854
matches:  267 / 356
epoch 468 loss 0.0112388450652 train_acc 1.0 test_acc 0.655737704918 dev_acc 0.75
matches:  650 / 650
650 / 650
matches:  560 / 854
matches:  267 / 356
epoch 469 loss 0.0110151916742 train_acc 1.0 test_acc 0.655737704918 dev_acc 0.75
matches:  650 / 650
650 / 650
matches:  560 / 854
matches:  267 / 356
epoch 470 loss 0.0107959900051 train_acc 1.0 test_acc 0.655737704918 dev_acc 0.75
matches:  650 / 650
650 / 650
matches:  560 / 854
matches:  267 / 356
epoch 471 loss 0.0105811497197 train_acc 1.0 test_acc 0.655737704918 dev_acc 0.75
matches:  650 / 650
650 / 650
matches:  560 / 854
matches:  267 / 356
epoch 472 loss 0.0103705851361 train_acc 1.0 test_acc 0.655737704918 dev_acc 0.75
matches:  650 / 650
650 / 650
matches:  560 / 854
matches:  267 / 356
epoch 473 loss 0.0101642105728 train_acc 1.0 test_acc 0.655737704918 dev_acc 0.75
matches:  650 / 650
650 / 650
matches:  560 / 854
matches:  267 / 356
epoch 474 loss 0.00996194314212 train_acc 1.0 test_acc 0.655737704918 dev_acc 0.75
matches:  650 / 650
650 / 650
matches:  560 / 854
matches:  267 / 356
epoch 475 loss 0.00976370088756 train_acc 1.0 test_acc 0.655737704918 dev_acc 0.75
matches:  650 / 650
650 / 650
matches:  560 / 854
matches:  267 / 356
epoch 476 loss 0.00956940371543 train_acc 1.0 test_acc 0.655737704918 dev_acc 0.75
matches:  650 / 650
650 / 650
matches:  560 / 854
matches:  267 / 356
epoch 477 loss 0.00937897246331 train_acc 1.0 test_acc 0.655737704918 dev_acc 0.75
matches:  650 / 650
650 / 650
matches:  560 / 854
matches:  267 / 356
epoch 478 loss 0.00919233076274 train_acc 1.0 test_acc 0.655737704918 dev_acc 0.75
matches:  650 / 650
650 / 650
matches:  560 / 854
matches:  267 / 356
epoch 479 loss 0.00900940410793 train_acc 1.0 test_acc 0.655737704918 dev_acc 0.75
matches:  650 / 650
650 / 650
matches:  560 / 854
matches:  267 / 356
epoch 480 loss 0.00883011706173 train_acc 1.0 test_acc 0.655737704918 dev_acc 0.75
matches:  650 / 650
650 / 650
matches:  560 / 854
matches:  267 / 356
epoch 481 loss 0.00865439791232 train_acc 1.0 test_acc 0.655737704918 dev_acc 0.75
matches:  650 / 650
650 / 650
matches:  560 / 854
matches:  267 / 356
epoch 482 loss 0.00848217587918 train_acc 1.0 test_acc 0.655737704918 dev_acc 0.75
matches:  650 / 650
650 / 650
matches:  560 / 854
matches:  267 / 356
epoch 483 loss 0.00831337925047 train_acc 1.0 test_acc 0.655737704918 dev_acc 0.75
matches:  650 / 650
650 / 650
matches:  560 / 854
matches:  267 / 356
epoch 484 loss 0.00814794376493 train_acc 1.0 test_acc 0.655737704918 dev_acc 0.75
matches:  650 / 650
650 / 650
matches:  560 / 854
matches:  267 / 356
epoch 485 loss 0.00798580050468 train_acc 1.0 test_acc 0.655737704918 dev_acc 0.75
matches:  650 / 650
650 / 650
matches:  560 / 854
matches:  267 / 356
epoch 486 loss 0.00782688241452 train_acc 1.0 test_acc 0.655737704918 dev_acc 0.75
matches:  650 / 650
650 / 650
matches:  560 / 854
matches:  267 / 356
epoch 487 loss 0.00767112756148 train_acc 1.0 test_acc 0.655737704918 dev_acc 0.75
matches:  650 / 650
650 / 650
matches:  560 / 854
matches:  267 / 356
epoch 488 loss 0.00751847261563 train_acc 1.0 test_acc 0.655737704918 dev_acc 0.75
matches:  650 / 650
650 / 650
matches:  560 / 854
matches:  267 / 356
epoch 489 loss 0.00736885517836 train_acc 1.0 test_acc 0.655737704918 dev_acc 0.75
matches:  650 / 650
650 / 650
matches:  560 / 854
matches:  267 / 356
epoch 490 loss 0.00722221517935 train_acc 1.0 test_acc 0.655737704918 dev_acc 0.75
matches:  650 / 650
650 / 650
matches:  560 / 854
matches:  267 / 356
epoch 491 loss 0.00707849254832 train_acc 1.0 test_acc 0.655737704918 dev_acc 0.75
matches:  650 / 650
650 / 650
matches:  560 / 854
matches:  267 / 356
epoch 492 loss 0.00693763140589 train_acc 1.0 test_acc 0.655737704918 dev_acc 0.75
matches:  650 / 650
650 / 650
matches:  560 / 854
matches:  267 / 356
epoch 493 loss 0.00679957261309 train_acc 1.0 test_acc 0.655737704918 dev_acc 0.75
matches:  650 / 650
650 / 650
matches:  560 / 854
matches:  267 / 356
epoch 494 loss 0.00666426122189 train_acc 1.0 test_acc 0.655737704918 dev_acc 0.75
matches:  650 / 650
650 / 650
matches:  560 / 854
matches:  267 / 356
epoch 495 loss 0.00653164228424 train_acc 1.0 test_acc 0.655737704918 dev_acc 0.75
matches:  650 / 650
650 / 650
matches:  560 / 854
matches:  267 / 356
epoch 496 loss 0.00640166271478 train_acc 1.0 test_acc 0.655737704918 dev_acc 0.75
matches:  650 / 650
650 / 650
matches:  560 / 854
matches:  267 / 356
epoch 497 loss 0.00627427035943 train_acc 1.0 test_acc 0.655737704918 dev_acc 0.75
matches:  650 / 650
650 / 650
matches:  560 / 854
matches:  267 / 356
epoch 498 loss 0.00614941259846 train_acc 1.0 test_acc 0.655737704918 dev_acc 0.75
matches:  650 / 650
650 / 650
matches:  560 / 854
matches:  267 / 356
epoch 499 loss 0.00602703914046 train_acc 1.0 test_acc 0.655737704918 dev_acc 0.75
matches:  650 / 650
650 / 650
HasLabel Final accuracy: 0.656% 
HasLabel Final F1: 0.656% 
+------------------+----------------+----------------+----------------+----------------+----------------+----------------+---------+-------------+
| Class/Classifier |   Precision    |     Recall     |       F1       | NegPred Value  |    TN rate     |    Accuracy    | Support | Neg Support |
+------------------+----------------+----------------+----------------+----------------+----------------+----------------+---------+-------------+
|        AI        | 0.324324324324 |     0.375      | 0.347826086957 | 0.948717948718 | 0.936708860759 | 0.894613583138 |   128   |     1580    |
|        ML        | 0.608391608392 | 0.550632911392 | 0.578073089701 | 0.900140646976 | 0.919540229885 | 0.851288056206 |   316   |     1392    |
|        IR        | 0.632768361582 | 0.666666666667 | 0.649275362319 | 0.917282127031 | 0.905247813411 | 0.85831381733  |   336   |     1372    |
|        DB        | 0.716666666667 | 0.720670391061 | 0.718662952646 | 0.925816023739 | 0.924444444444 | 0.881733021077 |   358   |     1350    |
|      Agents      | 0.752941176471 | 0.831168831169 | 0.79012345679  | 0.961988304094 |      0.94      | 0.92037470726  |   308   |     1400    |
|       HCI        | 0.727272727273 | 0.610687022901 | 0.663900414938 | 0.931451612903 | 0.958506224066 | 0.905152224824 |   262   |     1446    |
|     HasLabel     | 0.655737704918 | 0.655737704918 | 0.655737704918 | 0.931147540984 | 0.931147540984 | 0.655737704918 |   1708  |     8540    |
+------------------+----------------+----------------+----------------+----------------+----------------+----------------+---------+-------------+
