40623 40627
40623 40625
96166 96163
62594 62601
96166 96181
18330 18335
14583 14585
3383 3380
112259 112271
20577 20572
20577 20574
77930 77964
112804 112808
80744 80740
113126 113130
3377 3375
92151 92156
18639 18641
114449 114441
34317 34330
111166 111173
6952 6966
6952 6964
62419 62424
62419 62422
112145 112151
36736 36734
54236 54235
113716 113719
16249 16257
114484 114494
68959 68955
111977 111982
112754 112758
56919 56922
113142 113147
34317 34343
93737 93674
111751 111744
113813 113818
111587 111591
24769 24767
10455 10483
36767 36765
36534 36532
98207 98205
89811 89799
79230 79222
111200 111191
111425 111436
54153 54155
54153 54158
114225 114229
99028 99030
98207 98211
50915 50914
112904 112902
111511 111515
112404 112409
62594 62598
114469 114473
37407 37404
115084 115087
45286 45307
54161 54158
198 191
45657 45655
53011 53009
8390 8395
54146 54143
111169 111173
34123 34121
113528 113533
8334 8336
113066 113075
92103 92105
42859 42861
17878 17885
17878 17887
114535 114547
77930 77939
68971 68964
50604 50611
24441 24439
91373 91375
30440 30447
72648 72639
112668 112679
113501 113506
28853 28856
56478 56505
114698 114717
112487 112492
18639 18635
18330 18325
