{
  "shared_params": {
    "shared_user": {
      "nin": 334,
      "nout": 150,
      "type": "layer"
    },
    "shared_title": {
      "nin": 300,
      "nout": 150,
      "type": "layer"
    }
  },

  "models": [
    {
      "model": "SequenceVectorx2Net",
      "module": "nn_sequence_2xvector",
      "learning_rate": 0.01,
      "batch_size": 100,
      "pred_size": 500,
      "shared_layer1": "shared_user",
      "n_input_2": 334,
      "n_hidden_2": 150,
      "n_input_sequence": 300,
      "n_hidden_sequence": 150,
      "n_hidden_concat": 150,
      "use_gpu": true,
      "patience": 15,
      "sort_sequence": true,
      "sort_by": ["input", 0]
    },
    {
      "model": "FF_4inputs",
      "module": "nn_FF_4inputs",
      "shared_layer1": "shared_user",
      "shared_layer2": "shared_user",
      "n_input_3": 334,
      "n_hidden_3": 150,
      "n_input_4": 334,
      "n_hidden_4": 150,
      "n_hidden_concat": 150,
      "learning_rate": 0.01,
      "batch_size": 100,
      "pred_size": 500,
      "patience": 15,
      "use_gpu": true,
      "weighted_examples": true
     },
     {
      "model": "FF_4inputs",
      "module": "nn_FF_4inputs",
      "shared_layer1": "shared_title",
      "n_input_2": 300,
      "n_hidden_2": 150,
      "shared_layer3": "shared_user",
      "n_input_4": 334,
      "n_hidden_4": 150,
      "n_hidden_concat": 150,
      "learning_rate": 0.05,
      "batch_size": 100,
      "pred_size": 500,
      "use_gpu": true,
      "patience": 15
    },
    {
      "model": "FF_2inputs",
      "module": "nn_FF_2inputs",
      "shared_layer1": "shared_title",
      "n_input_2": 300,
      "n_hidden_2": 150,
      "n_hidden_concat": 150,
      "learning_rate": 0.01,
      "batch_size": 100,
      "pred_size": 500,
      "use_gpu": true,
      "patience": 15,
      "weighted_examples": true
    },
    {
      "model": "FF_2inputs",
      "module": "nn_FF_2inputs",
      "shared_layer1": "shared_user",
      "n_input_2": 334,
      "n_hidden_2": 150,
      "n_hidden_concat": 150,
      "learning_rate": 0.01,
      "batch_size": 100,
      "pred_size": 500,
      "use_gpu": true,
      "patience": 15,
      "weighted_examples": true
    }
  ]

}
