{
  "shared_params": {
    "shared_title": {
      "nin": 600,
      "nout": 150,
      "type": "layer"
    },
    "shared_post": {
      "nin": 300,
      "nout": 150,
      "type": "lstm",
      "bidirectional": true
    },
    "shared_user": {
      "nin": 934,
      "nout": 75,
      "type": "layer"
    }
  },
  "models": [
    {
        "model": "FF_4inputs",
        "module": "nn_FF_4inputs",
        "shared_layer1": "shared_title",
        "shared_layer2": "shared_user",
        "shared_layer3": "shared_user",
        "n_input_4": 1868,
        "n_hidden_4": 150,
        "n_hidden_concat": 150,
        "learning_rate": 0.05,
        "batch_size": 100,
        "pred_size": 100,
        "patience": 15,
        "use_gpu": true
     },
    {
      "model": "SequenceVectorNet",
      "module": "nn_sequence_vector",
      "learning_rate": 0.05,
      "batch_size": 100,
      "pred_size": 500,
      "n_hidden_concat": 150,
      "shared_layer": "shared_title",
      "shared_lstm": "shared_post",
      "use_gpu": true,
      "patience": 30,
      "sort_sequence": true,
      "sort_by": ["input", 0]
    },
    {
      "model": "FF_3inputs",
      "module": "nn_FF_3inputs",
      "shared_layer2": "shared_user",
      "shared_layer1": "shared_title",
      "n_input_3":  934,
      "n_hidden_3": 75,
      "n_hidden_concat": 150,
      "learning_rate": 0.05,
      "batch_size": 100,
      "pred_size": 100,
      "use_gpu": true,
      "patience": 30
    },
    {
      "model": "SequenceVectorx2Net",
      "module": "nn_sequence_2xvector",
      "learning_rate": 0.05,
      "batch_size": 100,
      "pred_size": 500,
      "shared_layer1": "shared_user",
      "shared_lstm": "shared_post",
      "n_input_2": 934,
      "n_hidden_2": 75,
      "n_hidden_concat": 150,
      "use_gpu": true,
      "patience": 15,
      "sort_sequence": true,
      "sort_by": ["input", 0]
    }
  ]

}
