{
  "models": [
    {
      "model": "SequenceVectorNet",
      "module": "nn_sequence_vector",
      "learning_rate": 0.05,
      "batch_size": 100,
      "pred_size": 500,
      "n_input_vector": 334,
      "n_hidden_vector": 150,
      "n_input_sequence": 300,
      "n_hidden_sequence": 150,
      "n_hidden_concat": 150,
      "use_gpu": true,
      "patience": 30,
      "sort_sequence": true,
      "sort_by": ["input", 0]
    }
  ]
}
