{
  "models": [
    {
      "model": "FF_1input",
      "module": "nn_FF_1input",
      "n_input_1": 300,
      "n_hidden_1": 150,
      "learning_rate": 0.05,
      "batch_size": 100,
      "pred_size": 500,
      "use_gpu": true,
      "patience": 15,
      "weighted_examples": true,
      "measurement": "f1",
      "average": "macro"
    }
  ]
}
