{
  "models": [
    {
      "model": "BertClassifier",
      "module": "nn_bert",
      "bert_model_type": "google/bert_uncased_L-4_H-512_A-8",
      "learning_rate": 2e-5,
      "batch_size": 16,
      "pred_size": 16,
      "use_gpu": true,
      "patience": 3,
      "weighted_examples": true,
      "clipping": true,
      "measurement": "f1",
      "average": "macro"
    },
    {
      "model": "BertClassifier",
      "module": "nn_bert_features",
      "bert_model_type": "google/bert_uncased_L-4_H-512_A-8",
      "n_input_feats": 442,
      "n_hidden_reln": 512,
      "learning_rate": 2e-5,
      "batch_size": 16,
      "pred_size": 16,
      "use_gpu": true,
      "patience": 3,
      "weighted_examples": true,
      "clipping": true,
      "measurement": "f1",
      "average": "macro"
    }
  ]
}
