{
  "inference": 
    {
      "repetitions": 5
    },
    
  "models": [
    {
      "model": "BertClassifier",
      "module": "nn_bert",
      "bert_model_type": "google/bert_uncased_L-2_H-128_A-2",
      "learning_rate": 5e-5,
      "batch_size": 16,
      "pred_size": 8,
      "use_gpu": true,
      "patience": 3,
      "weighted_examples": true,
      "clipping": true,
      "measurement": "f1",
      "average": "macro"
    },
    {
      "model": "BertClassifier",
      "module": "nn_bert",
      "bert_model_type": "google/bert_uncased_L-2_H-128_A-2",
      "learning_rate": 5e-5,
      "batch_size": 16,
      "pred_size": 8,
      "use_gpu": true,
      "patience": 3,
      "weighted_examples": true,
      "clipping": true,
      "measurement": "f1",
      "average": "macro"
    }
  ]
}
