{
  "shared_params": {
    "shared_type_output": {
      "nin": 768,
      "nout": 3,
      "type": "layer"
    },
    "shared_text_encoder": {
      "type": "bert"
    }
  },

  "models": [
    {
      "model": "BertClassifier",
      "module": "nn_bert",
      "learning_rate": 5e-5,
      "batch_size": 32,
      "pred_size": 4,
      "shared_encoder": "shared_text_encoder",
      "shared_output": "shared_type_output",
      "use_gpu": true,
      "patience": 0,
      "weighted_examples": true,
      "clipping": true
    },
    {
      "model": "BertClassifier",
      "module": "nn_bert_resnet",
      "learning_rate": 5e-5,
      "batch_size": 8,
      "pred_size": 4,
      "resnet_encoder": "shared_text_encoder",
      "resnet_output": "shared_type_output",
      "shared_encoder": "shared_text_encoder",
      "n_hidden": 128,
      "use_gpu": true,
      "patience": 3,
      "weighted_examples": true,
      "clipping": true
    }
  ]
}
