59968 59932
58130 58140
54426 54440
82933 82929
59968 59945
114183 114187
53011 53009
112259 112271
62712 62716
62712 62714
54146 54143
68398 68396
113859 113857
25218 25243
20100 20098
6952 6964
112958 112962
2183 2196
111200 111191
75358 75360
82933 82955
113680 113691
112444 112418
54153 54155
54153 54158
16249 16257
54422 54424
62419 62424
62419 62422
111613 111618
8334 8336
113946 113958
95334 95336
14583 14585
50805 50814
112879 112883
92103 92105
60586 60580
27656 27654
41081 41093
54236 54235
67265 67248
112605 112617
77008 77020
48957 48964
111772 111778
833 838
67098 67123
67098 67126
95334 95342
113023 113030
113996 114000
112446 112428
112414 112418
6101 6099
57363 57361
113026 113030
65010 65023
111527 111531
22022 22030
56587 56582
77008 77018
113452 113456
49676 49680
65018 65023
54416 54415
114535 114547
93854 93876
112412 112418
6500 6513
112238 112250
113967 113979
40388 40386
68959 68955
68971 68964
112414 112428
114205 114209
112449 112418
112412 112428
113898 113896
112404 112409
111308 111319
93122 93114
113501 113506
36475 36473
111289 111294
6952 6966
24437 24435
98147 98156
20100 20087
54426 54415
20100 20121
112487 112492
56919 56922
112446 112418
10847 10845
112449 112428
113588 113592
23147 23144
112444 112428
113198 113205
114504 114533
51799 51801
54161 54158
112023 112027
57482 57480
112387 112392
