2050
1540
10
1557
1558
1562
541
542
543
2480
34
37
1067
1580
1581
1070
1583
1073
50
2102
1591
2111
2112
2116
1094
2119
2120
2121
1100
589
79
80
83
86
88
89
1114
1116
119
1669
652
1689
667
1692
670
161
1188
1701
1703
1704
173
1713
1202
1204
1206
1210
188
1730
1731
1220
1950
200
2251
207
208
1752
1759
2280
1771
1491
894
1271
1279
2306
1285
2312
2314
2320
2325
278
281
282
285
286
1311
807
2348
302
1331
1844
821
2365
831
327
1079
1871
1361
1875
2393
1423
1885
350
867
868
1895
1899
1393
2421
1402
1918
1088
1923
908
911
913
1326
665
68
922
412
414
70
1958
1959
2460
1965
1968
2481
1694
1462
2487
2493
1472
1474
77
2003
561
985
2010
477
1189
1191
1004
493
1006
1363
1012
510
511
