12258 12276
4435 4433
37765 37770
39676 39674
30654 30648
24667 24673
12042 12045
27876 27880
14487 14495
34875 34884
32281 32284
52923 52930
49316 49324
20846 20853
8390 8400
1252 1255
1709 1706
23845 23848
12227 12239
27481 27485
40623 40621
45464 45470
4106 4104
33777 33787
15803 15805
1043 1048
51206 51241
48957 48971
29494 29501
26460 26456
32610 32617
17628 17639
15910 15913
22287 22278
19337 19341
12096 12092
26533 26545
27468 27485
16854 16852
19269 19257
52915 52922
42920 42918
54099 54105
42803 42805
29579 29585
6465 6497
34743 34750
1865 1869
25122 25128
35513 35520
2620 2625
42772 42776
19156 19165
26229 26234
27110 27108
9177 9181
32878 32885
53760 53763
53476 53473
30661 30658
33866 33875
22287 22285
10504 10510
17020 17022
30654 30658
49470 49468
14563 14570
33600 33607
35708 35711
12241 12247
8574 8582
2327 2334
32988 32995
44007 44024
50680 50689
10531 10536
8507 8514
35223 35221
33324 33330
19399 19402
34953 34889
6406 6404
26592 26595
33984 33995
29876 29881
20520 20534
49089 49087
29654 29661
22189 22187
22125 22130
6277 6274
23152 23150
33377 33381
29478 29482
54426 54438
13194 13197
52976 52974
49209 49189
52923 52941
32228 32226
26555 26553
39806 39809
19470 19473
29015 29019
29955 29957
18154 18156
1865 1871
11372 11380
11435 11440
17012 17018
35145 35131
46294 46292
49015 49027
1867 1869
45501 45486
8773 8784
7553 7551
39747 39745
53881 53879
25656 25662
45477 45486
35039 35004
14731 14737
1154 1157
46733 46738
12852 12857
28312 28310
22913 22918
44397 44405
35341 35339
32744 32751
31739 31742
45490 45486
16220 16234
12049 12052
48453 48451
9871 9887
54048 54057
30635 30637
38573 38576
53721 53719
19491 19494
54079 54105
49555 49579
50604 50614
26074 26072
41773 41757
37407 37379
17315 17318
27900 27898
34907 34889
30440 30445
26369 26367
11449 11453
20189 20191
23966 23977
23868 23875
1350 1356
45509 45507
48818 48825
2846 2840
48776 48783
33220 33227
50986 50990
41044 41036
44629 44634
46684 46663
33866 33880
1867 1871
31322 31319
30840 30844
24072 24076
47503 47509
8773 8778
35125 35107
20507 20534
16661 16659
38272 38276
26573 26570
9040 9044
40333 40331
17020 17008
1146 1149
26417 26415
40374 40372
48957 48962
14241 14239
9777 9781
7086 7084
11574 11581
46356 46354
41279 41277
41454 41452
36963 36960
8292 8290
50956 50954
28992 28990
40992 40960
36118 36114
28519 28521
12293 12285
24732 24743
53339 53337
20856 20853
19236 19238
6465 6481
30978 30980
22312 22310
26727 26737
26148 26151
53301 53307
26011 26009
18330 18322
7146 7144
31920 31922
2694 2708
30661 30648
46716 46714
25963 25961
