{
  "models": [
  {
    "model": "BertClassifier",
    "module": "nn_bert",
    "learning_rate": 2e-5,
    "batch_size": 64,
    "output": "softmax",
    "pred_size": 64,
    "use_gpu": true,
    "patience": 5,
    "weighted_examples": true,
    "measurement": "f1",
    "average": "macro",
    "bert_model": "bert-base-uncased",
    "features": ["tweet", "entity"]
  },
  {
    "model": "BertClassifier",
    "module": "nn_bert",
    "learning_rate": 2e-5,
    "batch_size": 64,
    "output": "softmax",
    "pred_size": 64,
    "use_gpu": true,
    "patience": 5,
    "weighted_examples": true,
    "measurement": "f1",
    "average": "macro",
    "bert_model": "bert-base-uncased",
    "features": ["tweet"]
  }
  ]
}

