{
    "inference": {
      "repetitions": 5
    },
    "shared_params": {
      "shared_text_encoder": {
         "nin": 300,
         "nout": 128,
         "type": "lstm",
         "bidirectional": true
      },
      "shared_istype_reln": {
         "nin": 290,
         "nout": 128,
         "type": "layer"
      }
    },
    "models": [
    {
      "model": "SequenceNet",
      "module": "nn_sequence",
      "shared_lstm": "shared_text_encoder",
      "shared_reln": "shared_istype_reln",
      "learning_rate": 0.05,
      "batch_size": 64,
      "pred_size": 500,
      "use_gpu": true,
      "patience": 20,
      "weighted_examples": true,
      "measurement": "f1",
      "average": "macro",
      "dropout_rate": 0.05
    },
    {
      "model": "SequenceSequenceNet",
      "module": "nn_sequence_sequence",
      "shared_lstm_1": "shared_text_encoder",
      "shared_lstm_2": "shared_text_encoder",
      "shared_reln_1": "shared_istype_reln",
      "shared_reln_2": "shared_istype_reln",
      "n_reln_input": 1014,
      "n_hidden_concat": 128,
      "learning_rate": 0.05,
      "batch_size": 64,
      "pred_size": 100,
      "use_gpu": true,
      "patience": 20,
      "weighted_examples": true,
      "measurement": "f1",
      "average": "binary",
      "dropout_rate": 0.05
    },
    {
      "model": "TripleSequenceNet",
      "module": "nn_triple_sequence",
      "shared_lstm_1": "shared_text_encoder",
      "shared_lstm_2": "shared_text_encoder",
      "shared_lstm_3": "shared_text_encoder",
      "shared_reln_1": "shared_istype_reln",
      "shared_reln_2": "shared_istype_reln",
      "shared_reln_3": "shared_istype_reln",
      "n_reln_input": 1500,
      "n_hidden_concat": 128,
      "learning_rate": 0.05,
      "batch_size": 64,
      "pred_size": 100,
      "use_gpu": true,
      "patience": 20,
      "weighted_examples": true,
      "measurement": "f1",
      "average": "binary",
      "dropout_rate": 0.05
    },
    {
      "model": "TripleSequenceNet",
      "module": "nn_triple_sequence",
      "shared_lstm_1": "shared_text_encoder",
      "shared_lstm_2": "shared_text_encoder",
      "shared_lstm_3": "shared_text_encoder",
      "shared_reln_1": "shared_istype_reln",
      "shared_reln_2": "shared_istype_reln",
      "shared_reln_3": "shared_istype_reln",
      "n_reln_input": 1500,
      "n_hidden_concat": 128,
      "learning_rate": 0.05,
      "batch_size": 64,
      "pred_size": 100,
      "use_gpu": true,
      "patience": 20,
      "weighted_examples": true,
      "measurement": "f1",
      "average": "binary",
      "dropout_rate": 0.05
    }
    ]
  }
  
  