{
  "shared_params": {
    "shared_type_output": {
      "nin": 128,
      "nout": 3,
      "type": "layer"
    }
  },

  "models": [
    {
      "model": "SequenceNet",
      "module": "nn_sequence",
      "n_input_sequence": 300,
      "n_hidden_sequence": 128,
      "n_input_vector": 34,
      "n_hidden_layer": 128,
      "shared_output": "shared_type_output",
      "learning_rate": 0.05,
      "batch_size": 64,
      "pred_size": 500,
      "use_gpu": true,
      "patience": 20,
      "weighted_examples": true,
      "measurement": "f1",
      "average": "macro",
      "dropout_rate": 0.05
    },
    {
      "model": "SequenceSequenceNet",
      "module": "nn_sequence_sequence",
      "n_input_sequence_1": 300,
      "n_hidden_sequence_1": 128,
      "n_input_vector_1": 34,
      "n_hidden_layer_1": 128,
      "n_input_sequence_2": 300,
      "n_hidden_sequence_2": 128,
      "n_input_vector_2": 34,
      "n_hidden_layer_2": 128,
      "n_reln_input": 1014,
      "n_hidden_concat": 128,
      "shared_extra": "shared_type_output",
      "n_extra": 3,
      "learning_rate": 0.05,
      "batch_size": 64,
      "pred_size": 100,
      "use_gpu": true,
      "patience": 20,
      "weighted_examples": true,
      "measurement": "f1",
      "average": "binary",
      "dropout_rate": 0.05
    },
    {
      "model": "FF_1input",
      "module": "nn_FF_1input",
      "n_input_1": 6,
      "batch_size": 64,
      "pred_size": 100,
      "use_gpu": true,
      "patience": 20,
      "learning_rate": 0.05,
      "weighted_examples": true,
      "measurement": "f1",
      "average": "binary"
    }
  ]
}
