{
  "models": [
  {
    "model": "BertClassifier",
    "module": "nn_bert",
    "learning_rate": 2e-5,
    "batch_size": 64,
    "output": "softmax",
    "pred_size": 64,
    "use_gpu": true,
    "patience": 5,
    "weighted_examples": true,
    "measurement": "f1",
    "average": "macro",
    "bert_model": "google/bert_uncased_L-4_H-256_A-4"
  }
  ]
}

