{
  "models": [

    {
      "model": "MLP",
      "module": "mlp",
      "n_input": 300,
      "n_hidden": 150,
      "weighted_examples": true,
      "measurement": "f1",
      "average": "macro",
      "patience": 10,
      "use_gpu": true,
      "batch_size": 64,
      "learning_rate": 1e-3
    }

  ]
}
