entity-2026	group-1053
entity-394	group-32
entity-395	group-0
entity-396	group-631
entity-397	group-141
entity-390	group-247
entity-391	group-68
entity-392	group-504
entity-393	group-0
entity-398	group-542
entity-399	group-818
entity-2850	group-149
entity-2050	group-1116
entity-2851	group-1013
entity-2051	group-0
entity-268	group-822
entity-269	group-485
entity-1624	group-641
entity-1625	group-458
entity-1622	group-0
entity-1623	group-22
entity-1620	group-0
entity-1621	group-609
entity-260	group-286
entity-261	group-608
entity-262	group-928
entity-263	group-536
entity-264	group-1047
entity-265	group-809
entity-266	group-492
entity-267	group-566
entity-1398	group-532
entity-1399	group-291
entity-1396	group-155
entity-1397	group-399
entity-1394	group-80
entity-1395	group-80
entity-1392	group-324
entity-1393	group-22
entity-1390	group-133
entity-1391	group-306
entity-2813	group-133
entity-2814	group-0
entity-2815	group-285
entity-1718	group-609
entity-1719	group-367
entity-2816	group-788
entity-1712	group-358
entity-1713	group-332
entity-1710	group-332
entity-1711	group-0
entity-1716	group-80
entity-1717	group-324
entity-1714	group-0
entity-1715	group-1106
entity-2406	group-175
entity-1572	group-9
entity-1573	group-148
entity-1570	group-805
entity-1571	group-779
entity-1576	group-324
entity-1577	group-291
entity-1574	group-457
entity-1575	group-369
entity-1578	group-9
entity-1579	group-264
entity-2056	group-22
entity-1082	group-560
entity-1083	group-799
entity-8	group-542
entity-9	group-328
entity-1086	group-252
entity-1084	group-595
entity-1085	group-608
entity-2	group-577
entity-3	group-450
entity-1088	group-152
entity-1	group-61
entity-6	group-187
entity-7	group-328
entity-4	group-995
entity-5	group-784
entity-2052	group-1012
entity-2053	group-448
entity-1158	group-291
entity-1159	group-1038
entity-1408	group-142
entity-1409	group-80
entity-1154	group-291
entity-1155	group-617
entity-1156	group-617
entity-1157	group-555
entity-1150	group-291
entity-1151	group-530
entity-1152	group-531
entity-1153	group-457
entity-1888	group-291
entity-1889	group-22
entity-1882	group-1153
entity-1883	group-567
entity-1880	group-492
entity-1881	group-378
entity-1886	group-712
entity-1887	group-764
entity-1884	group-830
entity-1885	group-271
entity-888	group-569
entity-889	group-1049
entity-880	group-891
entity-881	group-462
entity-882	group-75
entity-883	group-635
entity-884	group-1087
entity-885	group-340
entity-886	group-1087
entity-887	group-617
entity-2058	group-840
entity-2059	group-291
entity-1978	group-272
entity-1979	group-904
entity-1976	group-797
entity-1977	group-1014
entity-1974	group-171
entity-1975	group-1053
entity-1972	group-376
entity-1973	group-855
entity-1970	group-115
entity-1971	group-113
entity-862	group-179
entity-863	group-0
entity-2739	group-1137
entity-2619	group-1138
entity-76	group-0
entity-77	group-871
entity-74	group-408
entity-75	group-362
entity-72	group-589
entity-73	group-765
entity-70	group-957
entity-71	group-618
entity-2537	group-459
entity-2536	group-812
entity-2535	group-492
entity-2534	group-459
entity-2533	group-562
entity-2532	group-492
entity-78	group-392
entity-79	group-242
entity-868	group-104
entity-466	group-743
entity-467	group-809
entity-464	group-793
entity-465	group-311
entity-462	group-584
entity-463	group-17
entity-460	group-819
entity-461	group-1089
entity-468	group-743
entity-469	group-809
entity-2281	group-541
entity-2280	group-831
entity-2283	group-1012
entity-2282	group-988
entity-2285	group-764
entity-2284	group-0
entity-2287	group-617
entity-2286	group-988
entity-2289	group-1012
entity-2288	group-1149
entity-2443	group-1135
entity-2442	group-475
entity-2441	group-0
entity-2440	group-569
entity-729	group-413
entity-728	group-463
entity-2444	group-531
entity-725	group-811
entity-724	group-475
entity-727	group-573
entity-726	group-410
entity-721	group-291
entity-720	group-495
entity-723	group-452
entity-722	group-213
entity-2849	group-896
entity-2848	group-887
entity-2847	group-116
entity-2846	group-232
entity-2845	group-492
entity-2844	group-0
entity-2843	group-670
entity-2842	group-617
entity-2841	group-327
entity-2840	group-1005
entity-2195	group-507
entity-1912	group-519
entity-2197	group-767
entity-2196	group-22
entity-2191	group-169
entity-2190	group-328
entity-2193	group-1002
entity-2192	group-809
entity-2199	group-107
entity-2198	group-967
entity-2669	group-0
entity-2668	group-968
entity-651	group-295
entity-650	group-291
entity-653	group-1006
entity-652	group-1127
entity-655	group-1012
entity-654	group-140
entity-657	group-0
entity-656	group-975
entity-659	group-358
entity-658	group-793
entity-1913	group-819
entity-1626	group-641
entity-1627	group-22
entity-1914	group-22
entity-2069	group-903
entity-2068	group-903
entity-389	group-720
entity-388	group-784
entity-383	group-137
entity-382	group-757
entity-381	group-793
entity-380	group-0
entity-387	group-192
entity-386	group-783
entity-385	group-686
entity-384	group-1049
entity-2269	group-319
entity-2268	group-422
entity-2263	group-657
entity-2262	group-240
entity-2261	group-972
entity-2260	group-0
entity-2267	group-255
entity-2266	group-347
entity-2265	group-541
entity-2264	group-560
entity-2317	group-159
entity-2316	group-18
entity-1628	group-291
entity-1629	group-913
entity-2319	group-395
entity-2318	group-448
entity-279	group-293
entity-278	group-617
entity-277	group-500
entity-276	group-1144
entity-275	group-79
entity-274	group-606
entity-273	group-0
entity-272	group-485
entity-271	group-818
entity-270	group-878
entity-1363	group-1112
entity-1362	group-609
entity-1361	group-22
entity-1360	group-133
entity-1367	group-641
entity-1366	group-1141
entity-1365	group-97
entity-1364	group-358
entity-1369	group-333
entity-1368	group-742
entity-2496	group-951
entity-2497	group-474
entity-2490	group-1049
entity-2491	group-1024
entity-2492	group-760
entity-1769	group-55
entity-1768	group-0
entity-1767	group-133
entity-1766	group-1073
entity-1765	group-814
entity-1764	group-80
entity-1763	group-532
entity-1762	group-723
entity-1761	group-676
entity-1760	group-0
entity-1507	group-732
entity-1506	group-498
entity-1504	group-133
entity-1503	group-726
entity-1502	group-324
entity-1501	group-617
entity-1500	group-80
entity-2498	group-1012
entity-1997	group-66
entity-2594	group-0
entity-1509	group-0
entity-1508	group-22
entity-2741	group-684
entity-1161	group-312
entity-1160	group-496
entity-1163	group-7
entity-1162	group-617
entity-1165	group-0
entity-1164	group-133
entity-1167	group-746
entity-1166	group-764
entity-1169	group-723
entity-1168	group-104
entity-1219	group-332
entity-1218	group-22
entity-1213	group-559
entity-1212	group-324
entity-1211	group-726
entity-1210	group-444
entity-1217	group-80
entity-1216	group-514
entity-1215	group-514
entity-1214	group-746
entity-1189	group-71
entity-1188	group-809
entity-899	group-137
entity-898	group-746
entity-897	group-454
entity-1182	group-142
entity-895	group-131
entity-1180	group-1034
entity-893	group-523
entity-892	group-1049
entity-891	group-0
entity-1184	group-352
entity-2677	group-1136
entity-1983	group-990
entity-1982	group-184
entity-1981	group-144
entity-1980	group-919
entity-1987	group-22
entity-1986	group-22
entity-1985	group-886
entity-1984	group-455
entity-1989	group-22
entity-1988	group-1012
entity-2373	group-498
entity-2742	group-643
entity-2528	group-0
entity-2529	group-1083
entity-2524	group-87
entity-2525	group-286
entity-2526	group-0
entity-2527	group-475
entity-2521	group-557
entity-2522	group-876
entity-2523	group-56
entity-475	group-142
entity-474	group-782
entity-477	group-1003
entity-476	group-540
entity-471	group-702
entity-470	group-809
entity-473	group-809
entity-472	group-291
entity-479	group-889
entity-478	group-168
entity-2762	group-104
entity-2296	group-347
entity-2297	group-1012
entity-2294	group-809
entity-2295	group-22
entity-2292	group-744
entity-2293	group-712
entity-2290	group-295
entity-2291	group-766
entity-2298	group-772
entity-2299	group-22
entity-710	group-648
entity-711	group-918
entity-712	group-0
entity-713	group-994
entity-714	group-0
entity-715	group-641
entity-716	group-516
entity-717	group-751
entity-718	group-729
entity-719	group-137
entity-2632	group-617
entity-2514	group-0
entity-1653	group-617
entity-2633	group-1020
entity-1652	group-609
entity-2634	group-1032
entity-1651	group-0
entity-2635	group-584
entity-49	group-850
entity-48	group-394
entity-2858	group-756
entity-2636	group-0
entity-43	group-1049
entity-42	group-578
entity-41	group-245
entity-40	group-137
entity-47	group-865
entity-46	group-542
entity-45	group-485
entity-44	group-205
entity-2227	group-609
entity-2188	group-22
entity-2189	group-809
entity-1655	group-451
entity-2226	group-106
entity-2182	group-560
entity-2183	group-457
entity-2180	group-0
entity-1654	group-332
entity-2186	group-0
entity-2187	group-719
entity-2184	group-425
entity-2185	group-234
entity-2674	group-953
entity-2675	group-623
entity-2676	group-313
entity-2224	group-22
entity-2670	group-925
entity-2671	group-492
entity-2672	group-439
entity-2673	group-0
entity-2223	group-875
entity-2678	group-722
entity-2679	group-944
entity-2222	group-792
entity-664	group-609
entity-665	group-864
entity-666	group-986
entity-667	group-906
entity-660	group-793
entity-661	group-492
entity-662	group-1012
entity-663	group-793
entity-2220	group-545
entity-668	group-492
entity-669	group-774
entity-1901	group-546
entity-440	group-65
entity-2078	group-256
entity-441	group-209
entity-2076	group-524
entity-2077	group-869
entity-2074	group-999
entity-2075	group-99
entity-2072	group-364
entity-442	group-0
entity-2070	group-0
entity-2071	group-304
entity-2278	group-397
entity-2279	group-0
entity-443	group-977
entity-2270	group-560
entity-444	group-793
entity-2272	group-843
entity-2273	group-1011
entity-2274	group-448
entity-2275	group-1012
entity-2276	group-448
entity-445	group-665
entity-1473	group-22
entity-446	group-291
entity-1472	group-726
entity-447	group-22
entity-1471	group-324
entity-1470	group-172
entity-1477	group-952
entity-1476	group-804
entity-1475	group-287
entity-1929	group-781
entity-1474	group-133
entity-2225	group-133
entity-1928	group-1056
entity-282	group-127
entity-283	group-1115
entity-280	group-670
entity-281	group-809
entity-286	group-609
entity-287	group-809
entity-284	group-230
entity-285	group-1049
entity-208	group-1033
entity-289	group-668
entity-1080	group-554
entity-1081	group-286
entity-1905	group-0
entity-1940	group-1117
entity-1927	group-1023
entity-1370	group-809
entity-1371	group-702
entity-1372	group-73
entity-1373	group-322
entity-1374	group-403
entity-1375	group-1153
entity-1376	group-324
entity-1377	group-609
entity-1378	group-746
entity-1379	group-291
entity-1089	group-209
entity-1778	group-291
entity-1779	group-22
entity-1774	group-172
entity-1775	group-162
entity-1776	group-231
entity-1777	group-475
entity-1770	group-297
entity-1771	group-133
entity-1772	group-332
entity-1773	group-680
entity-1514	group-1022
entity-1515	group-670
entity-1516	group-837
entity-1517	group-638
entity-1510	group-22
entity-1511	group-0
entity-1512	group-572
entity-1513	group-0
entity-1518	group-133
entity-1519	group-291
entity-2221	group-439
entity-869	group-0
entity-1176	group-324
entity-1177	group-531
entity-1174	group-22
entity-1175	group-0
entity-1172	group-205
entity-1173	group-808
entity-1170	group-0
entity-1171	group-80
entity-1178	group-447
entity-1179	group-504
entity-1208	group-22
entity-1209	group-0
entity-2934	group-950
entity-1200	group-18
entity-1201	group-521
entity-1202	group-324
entity-1203	group-104
entity-1204	group-281
entity-1205	group-9
entity-1206	group-31
entity-1207	group-641
entity-1198	group-0
entity-860	group-864
entity-861	group-277
entity-866	group-27
entity-867	group-72
entity-864	group-821
entity-865	group-841
entity-1190	group-22
entity-1191	group-142
entity-1192	group-0
entity-1193	group-358
entity-1194	group-627
entity-1195	group-550
entity-1196	group-723
entity-1197	group-324
entity-2344	group-921
entity-2345	group-682
entity-2346	group-980
entity-2347	group-1037
entity-2033	group-290
entity-2340	group-492
entity-2341	group-1094
entity-1990	group-1012
entity-1406	group-531
entity-1992	group-780
entity-1993	group-961
entity-1994	group-764
entity-1995	group-0
entity-1996	group-52
entity-1407	group-873
entity-1998	group-1056
entity-1999	group-422
entity-2343	group-596
entity-1404	group-531
entity-2465	group-429
entity-1405	group-291
entity-2464	group-472
entity-1402	group-358
entity-2035	group-959
entity-2467	group-525
entity-1403	group-0
entity-2466	group-426
entity-1400	group-641
entity-2461	group-1056
entity-1401	group-687
entity-2460	group-475
entity-2511	group-0
entity-2510	group-1118
entity-2513	group-1147
entity-2130	group-1012
entity-2515	group-871
entity-2463	group-0
entity-2517	group-436
entity-2516	group-0
entity-2519	group-560
entity-2518	group-955
entity-2462	group-471
entity-448	group-860
entity-449	group-556
entity-918	group-124
entity-919	group-142
entity-912	group-909
entity-913	group-291
entity-910	group-909
entity-911	group-0
entity-916	group-793
entity-917	group-641
entity-914	group-793
entity-915	group-1104
entity-2499	group-0
entity-2853	group-773
entity-707	group-157
entity-706	group-121
entity-705	group-1102
entity-704	group-78
entity-703	group-485
entity-702	group-337
entity-701	group-382
entity-700	group-343
entity-2469	group-797
entity-2468	group-569
entity-709	group-533
entity-708	group-745
entity-2861	group-0
entity-2860	group-756
entity-2863	group-1068
entity-2862	group-801
entity-58	group-865
entity-59	group-63
entity-2867	group-801
entity-2866	group-552
entity-54	group-27
entity-55	group-871
entity-56	group-389
entity-57	group-883
entity-50	group-1049
entity-51	group-573
entity-52	group-54
entity-53	group-573
entity-2649	group-1012
entity-2648	group-796
entity-1730	group-133
entity-2641	group-17
entity-2640	group-1012
entity-2643	group-259
entity-2642	group-1097
entity-2645	group-797
entity-2644	group-286
entity-2647	group-971
entity-2646	group-106
entity-679	group-137
entity-678	group-291
entity-2729	group-0
entity-673	group-587
entity-672	group-1049
entity-671	group-528
entity-670	group-1110
entity-677	group-608
entity-676	group-440
entity-675	group-0
entity-674	group-209
entity-1731	group-609
entity-2865	group-0
entity-2749	group-0
entity-2864	group-182
entity-2083	group-1063
entity-2082	group-347
entity-2081	group-22
entity-2080	group-471
entity-2087	group-693
entity-2086	group-22
entity-2085	group-291
entity-2084	group-1012
entity-2089	group-374
entity-2088	group-1081
entity-2203	group-422
entity-2245	group-423
entity-2244	group-446
entity-2247	group-784
entity-2246	group-150
entity-2241	group-764
entity-2240	group-569
entity-2243	group-937
entity-2242	group-239
entity-2487	group-756
entity-2666	group-559
entity-291	group-793
entity-290	group-0
entity-293	group-0
entity-292	group-454
entity-295	group-209
entity-294	group-450
entity-297	group-668
entity-296	group-166
entity-299	group-492
entity-298	group-250
entity-2486	group-415
entity-1345	group-20
entity-1344	group-1119
entity-1347	group-902
entity-1346	group-795
entity-1341	group-18
entity-1340	group-291
entity-1342	group-592
entity-2485	group-502
entity-1349	group-924
entity-1348	group-82
entity-1699	group-1153
entity-1698	group-291
entity-1741	group-530
entity-1740	group-172
entity-1743	group-903
entity-1742	group-332
entity-1745	group-475
entity-1744	group-718
entity-1747	group-0
entity-1746	group-730
entity-1749	group-609
entity-1748	group-1153
entity-2760	group-0
entity-2761	group-1075
entity-2766	group-475
entity-2767	group-327
entity-2764	group-129
entity-2765	group-668
entity-2883	group-448
entity-2882	group-1068
entity-2881	group-609
entity-2880	group-70
entity-2887	group-1026
entity-2661	group-958
entity-2886	group-0
entity-2885	group-908
entity-2884	group-1039
entity-1640	group-458
entity-2254	group-199
entity-1239	group-291
entity-1238	group-332
entity-1235	group-358
entity-1234	group-332
entity-1237	group-641
entity-1236	group-133
entity-1231	group-0
entity-1230	group-22
entity-1233	group-142
entity-1232	group-22
entity-871	group-868
entity-870	group-137
entity-873	group-846
entity-872	group-386
entity-875	group-50
entity-874	group-1049
entity-877	group-846
entity-876	group-1049
entity-879	group-482
entity-878	group-39
entity-2480	group-793
entity-1528	group-1153
entity-2758	group-51
entity-1521	group-292
entity-1520	group-133
entity-1523	group-569
entity-1522	group-0
entity-1525	group-235
entity-1524	group-609
entity-1527	group-475
entity-1526	group-1030
entity-1643	group-324
entity-1789	group-609
entity-1788	group-576
entity-1787	group-80
entity-2506	group-459
entity-2507	group-12
entity-2504	group-1153
entity-1786	group-9
entity-2502	group-884
entity-2503	group-441
entity-2500	group-560
entity-2501	group-668
entity-2508	group-724
entity-2509	group-359
entity-909	group-881
entity-908	group-920
entity-459	group-100
entity-458	group-713
entity-457	group-94
entity-456	group-867
entity-455	group-77
entity-454	group-702
entity-453	group-895
entity-452	group-887
entity-451	group-47
entity-450	group-632
entity-1839	group-133
entity-1838	group-22
entity-1833	group-0
entity-1832	group-22
entity-1831	group-9
entity-1830	group-998
entity-1837	group-1060
entity-1836	group-260
entity-1835	group-455
entity-1834	group-86
entity-2021	group-1123
entity-2478	group-17
entity-2479	group-527
entity-2714	group-0
entity-2472	group-291
entity-2473	group-147
entity-2470	group-173
entity-2471	group-652
entity-2476	group-1157
entity-2477	group-0
entity-2474	group-57
entity-2475	group-569
entity-2020	group-0
entity-1900	group-797
entity-2877	group-0
entity-2874	group-11
entity-2875	group-492
entity-2873	group-492
entity-2870	group-349
entity-2871	group-1054
entity-2878	group-492
entity-2879	group-801
entity-2658	group-518
entity-2659	group-945
entity-2656	group-0
entity-2657	group-609
entity-2654	group-263
entity-2655	group-337
entity-2652	group-0
entity-2653	group-426
entity-2650	group-0
entity-2651	group-492
entity-2898	group-492
entity-2899	group-0
entity-608	group-255
entity-609	group-224
entity-606	group-0
entity-607	group-419
entity-604	group-341
entity-605	group-871
entity-602	group-404
entity-603	group-664
entity-600	group-153
entity-601	group-793
entity-2920	group-442
entity-2921	group-104
entity-2922	group-1086
entity-2090	group-609
entity-2091	group-701
entity-2092	group-609
entity-2093	group-22
entity-2094	group-1012
entity-2095	group-987
entity-2096	group-859
entity-2098	group-22
entity-2099	group-347
entity-2925	group-873
entity-112	group-0
entity-113	group-450
entity-110	group-336
entity-111	group-871
entity-116	group-793
entity-117	group-726
entity-114	group-793
entity-115	group-0
entity-118	group-185
entity-119	group-142
entity-1732	group-430
entity-1733	group-453
entity-1734	group-1142
entity-1735	group-0
entity-1736	group-358
entity-2869	group-0
entity-1737	group-22
entity-2531	group-337
entity-2530	group-450
entity-2248	group-92
entity-2018	group-22
entity-1684	group-0
entity-1685	group-712
entity-1686	group-816
entity-1687	group-0
entity-1680	group-306
entity-1681	group-853
entity-1682	group-306
entity-1683	group-689
entity-1688	group-22
entity-859	group-403
entity-858	group-291
entity-1756	group-133
entity-1757	group-241
entity-1754	group-641
entity-1755	group-291
entity-1753	group-133
entity-1750	group-0
entity-1751	group-430
entity-1459	group-369
entity-1758	group-0
entity-1759	group-609
entity-338	group-158
entity-339	group-1124
entity-332	group-809
entity-333	group-755
entity-330	group-1126
entity-331	group-947
entity-336	group-262
entity-337	group-851
entity-334	group-670
entity-335	group-176
entity-1458	group-794
entity-2719	group-549
entity-1259	group-609
entity-854	group-377
entity-2868	group-492
entity-2718	group-1051
entity-1903	group-133
entity-1358	group-22
entity-1359	group-205
entity-1902	group-0
entity-1353	group-746
entity-1350	group-1122
entity-1351	group-332
entity-1356	group-22
entity-1357	group-1153
entity-1354	group-946
entity-1355	group-764
entity-1222	group-641
entity-1223	group-1073
entity-1220	group-726
entity-1221	group-754
entity-1226	group-641
entity-1227	group-776
entity-1224	group-617
entity-1225	group-156
entity-1907	group-22
entity-1228	group-617
entity-1229	group-223
entity-1906	group-595
entity-844	group-1
entity-845	group-617
entity-846	group-303
entity-847	group-0
entity-840	group-178
entity-841	group-1003
entity-842	group-1074
entity-843	group-1048
entity-1904	group-249
entity-848	group-1049
entity-849	group-28
entity-1538	group-999
entity-1539	group-1065
entity-1536	group-148
entity-1537	group-0
entity-1534	group-1129
entity-1535	group-559
entity-1532	group-743
entity-1533	group-123
entity-1530	group-568
entity-1531	group-454
entity-598	group-201
entity-599	group-250
entity-596	group-793
entity-597	group-1012
entity-594	group-871
entity-595	group-291
entity-592	group-793
entity-593	group-0
entity-590	group-1049
entity-591	group-660
entity-2219	group-76
entity-2800	group-563
entity-1650	group-133
entity-938	group-793
entity-939	group-253
entity-934	group-1013
entity-935	group-248
entity-936	group-33
entity-937	group-329
entity-930	group-101
entity-931	group-768
entity-932	group-217
entity-933	group-612
entity-1828	group-641
entity-1829	group-641
entity-1657	group-80
entity-1820	group-246
entity-1821	group-114
entity-1822	group-133
entity-1823	group-133
entity-1824	group-104
entity-1825	group-667
entity-1826	group-641
entity-1827	group-9
entity-2763	group-0
entity-1656	group-582
entity-2321	group-1119
entity-2054	group-420
entity-2409	group-645
entity-2019	group-1012
entity-2407	group-985
entity-2013	group-22
entity-2405	group-1084
entity-2404	group-287
entity-2403	group-472
entity-2402	group-286
entity-2401	group-687
entity-2327	group-317
entity-2010	group-617
entity-2011	group-1158
entity-2447	group-0
entity-2012	group-76
entity-2446	group-1156
entity-353	group-1026
entity-2014	group-22
entity-2015	group-1012
entity-2313	group-358
entity-2312	group-628
entity-2311	group-694
entity-2310	group-1049
entity-619	group-485
entity-618	group-619
entity-2315	group-19
entity-2314	group-387
entity-615	group-43
entity-614	group-809
entity-617	group-0
entity-616	group-0
entity-611	group-669
entity-610	group-0
entity-613	group-861
entity-612	group-0
entity-2016	group-22
entity-2798	group-177
entity-2797	group-342
entity-2796	group-185
entity-2795	group-580
entity-2794	group-1114
entity-2793	group-1024
entity-2792	group-505
entity-2791	group-541
entity-2790	group-934
entity-2017	group-98
entity-2055	group-22
entity-101	group-0
entity-100	group-406
entity-103	group-309
entity-102	group-809
entity-105	group-402
entity-104	group-134
entity-107	group-706
entity-106	group-936
entity-109	group-795
entity-108	group-483
entity-2229	group-595
entity-2228	group-609
entity-2752	group-525
entity-1697	group-617
entity-1696	group-726
entity-1695	group-133
entity-1694	group-172
entity-1693	group-358
entity-1692	group-894
entity-2139	group-0
entity-2138	group-445
entity-1691	group-133
entity-2133	group-48
entity-2132	group-196
entity-2131	group-1052
entity-1690	group-609
entity-2137	group-154
entity-2136	group-760
entity-2135	group-644
entity-2134	group-520
entity-1991	group-1007
entity-329	group-675
entity-328	group-872
entity-321	group-10
entity-320	group-793
entity-323	group-1024
entity-322	group-1103
entity-325	group-58
entity-324	group-733
entity-327	group-253
entity-326	group-1121
entity-1033	group-1049
entity-1032	group-997
entity-1031	group-755
entity-1030	group-634
entity-1037	group-0
entity-1036	group-572
entity-1035	group-609
entity-1034	group-809
entity-1785	group-558
entity-1784	group-133
entity-1039	group-793
entity-1038	group-291
entity-1781	group-795
entity-1780	group-291
entity-1783	group-1140
entity-1782	group-44
entity-356	group-38
entity-1329	group-1042
entity-1328	group-291
entity-1327	group-1153
entity-1326	group-490
entity-1325	group-9
entity-1324	group-30
entity-1323	group-9
entity-1322	group-586
entity-1321	group-609
entity-1320	group-133
entity-1257	group-291
entity-1256	group-609
entity-1255	group-9
entity-1254	group-641
entity-1253	group-291
entity-1252	group-453
entity-1251	group-453
entity-853	group-793
entity-852	group-1041
entity-851	group-291
entity-850	group-63
entity-857	group-1035
entity-856	group-180
entity-855	group-543
entity-1258	group-687
entity-2667	group-659
entity-2194	group-697
entity-2665	group-573
entity-2664	group-803
entity-2663	group-1071
entity-2662	group-358
entity-589	group-291
entity-588	group-13
entity-2057	group-1012
entity-585	group-3
entity-584	group-83
entity-587	group-549
entity-586	group-22
entity-581	group-280
entity-580	group-163
entity-583	group-726
entity-582	group-286
entity-2512	group-459
entity-2216	group-609
entity-2217	group-22
entity-2214	group-345
entity-2215	group-137
entity-2212	group-0
entity-2213	group-760
entity-2210	group-775
entity-2211	group-603
entity-923	group-209
entity-922	group-104
entity-921	group-609
entity-920	group-793
entity-927	group-202
entity-926	group-1096
entity-925	group-291
entity-924	group-330
entity-929	group-329
entity-928	group-573
entity-1819	group-832
entity-1818	group-926
entity-1815	group-291
entity-1814	group-641
entity-1817	group-705
entity-1816	group-1092
entity-1811	group-764
entity-1810	group-291
entity-1813	group-22
entity-1812	group-0
entity-2271	group-358
entity-1442	group-699
entity-2715	group-668
entity-2418	group-401
entity-2419	group-1122
entity-1443	group-956
entity-2414	group-569
entity-2415	group-133
entity-2416	group-0
entity-2417	group-123
entity-2410	group-760
entity-1440	group-795
entity-2412	group-836
entity-2413	group-0
entity-1441	group-0
entity-1446	group-371
entity-1447	group-739
entity-1444	group-0
entity-1431	group-0
entity-1445	group-795
entity-87	group-291
entity-86	group-1049
entity-85	group-0
entity-84	group-242
entity-83	group-809
entity-82	group-907
entity-81	group-209
entity-80	group-251
entity-89	group-617
entity-88	group-1071
entity-620	group-544
entity-621	group-387
entity-622	group-291
entity-623	group-459
entity-624	group-573
entity-625	group-793
entity-626	group-291
entity-627	group-350
entity-628	group-475
entity-629	group-871
entity-2691	group-549
entity-2788	group-0
entity-2789	group-282
entity-2784	group-0
entity-2785	group-678
entity-2786	group-666
entity-2787	group-637
entity-2780	group-941
entity-2781	group-835
entity-2782	group-522
entity-2783	group-411
entity-2779	group-17
entity-134	group-38
entity-135	group-690
entity-136	group-517
entity-137	group-287
entity-130	group-527
entity-131	group-1024
entity-132	group-277
entity-133	group-786
entity-138	group-434
entity-139	group-100
entity-2342	group-142
entity-2128	group-22
entity-2129	group-1012
entity-1412	group-475
entity-2120	group-455
entity-2121	group-468
entity-2122	group-809
entity-2123	group-22
entity-2124	group-1012
entity-2125	group-847
entity-2126	group-273
entity-2127	group-888
entity-2825	group-866
entity-2824	group-893
entity-2827	group-287
entity-2061	group-291
entity-2826	group-760
entity-2060	group-809
entity-2821	group-477
entity-2063	group-1012
entity-2820	group-1053
entity-1414	group-291
entity-2062	group-485
entity-2823	group-1005
entity-2065	group-539
entity-2822	group-753
entity-2064	group-220
entity-2660	group-17
entity-318	group-485
entity-319	group-123
entity-314	group-203
entity-315	group-770
entity-316	group-485
entity-317	group-542
entity-310	group-473
entity-311	group-976
entity-312	group-1003
entity-313	group-382
entity-1020	group-629
entity-1021	group-277
entity-1023	group-211
entity-1024	group-338
entity-1025	group-765
entity-1026	group-668
entity-1027	group-714
entity-1028	group-793
entity-1029	group-46
entity-1799	group-0
entity-2411	group-489
entity-2107	group-846
entity-2755	group-656
entity-1338	group-1106
entity-1339	group-9
entity-1334	group-148
entity-1335	group-291
entity-1336	group-0
entity-1337	group-609
entity-1330	group-205
entity-1331	group-641
entity-1332	group-0
entity-1333	group-530
entity-1244	group-324
entity-1245	group-0
entity-1246	group-641
entity-1247	group-475
entity-1240	group-9
entity-1241	group-461
entity-1242	group-324
entity-1243	group-641
entity-826	group-1012
entity-827	group-274
entity-824	group-632
entity-825	group-764
entity-1249	group-570
entity-820	group-793
entity-821	group-879
entity-2456	group-443
entity-2559	group-223
entity-2754	group-761
entity-957	group-1056
entity-954	group-664
entity-955	group-1049
entity-952	group-1029
entity-953	group-741
entity-482	group-793
entity-483	group-641
entity-488	group-653
entity-489	group-683
entity-958	group-1049
entity-959	group-205
entity-1802	group-457
entity-1803	group-0
entity-1800	group-332
entity-1801	group-931
entity-1806	group-897
entity-1807	group-291
entity-1804	group-530
entity-1805	group-453
entity-1808	group-771
entity-1809	group-771
entity-2630	group-680
entity-2421	group-142
entity-2420	group-1148
entity-2423	group-915
entity-2422	group-104
entity-2425	group-221
entity-2424	group-1088
entity-2427	group-0
entity-2426	group-332
entity-2429	group-906
entity-2428	group-0
entity-2939	group-80
entity-2938	group-535
entity-2631	group-9
entity-98	group-943
entity-99	group-573
entity-558	group-668
entity-559	group-809
entity-552	group-617
entity-553	group-1003
entity-550	group-298
entity-551	group-668
entity-556	group-617
entity-557	group-1003
entity-554	group-1049
entity-555	group-228
entity-2685	group-466
entity-2684	group-0
entity-2687	group-569
entity-2686	group-1046
entity-2681	group-862
entity-2680	group-0
entity-2683	group-1049
entity-2682	group-0
entity-2689	group-235
entity-2688	group-848
entity-637	group-809
entity-636	group-24
entity-635	group-209
entity-634	group-370
entity-633	group-209
entity-632	group-549
entity-631	group-1049
entity-630	group-726
entity-2339	group-1076
entity-2338	group-646
entity-639	group-573
entity-638	group-351
entity-2747	group-470
entity-2209	group-447
entity-2208	group-846
entity-129	group-610
entity-128	group-405
entity-123	group-581
entity-122	group-1049
entity-121	group-668
entity-120	group-793
entity-126	group-110
entity-125	group-793
entity-124	group-0
entity-2300	group-0
entity-2301	group-1101
entity-2302	group-961
entity-2181	group-145
entity-2303	group-511
entity-2304	group-973
entity-2305	group-749
entity-2637	group-459
entity-2306	group-560
entity-2307	group-0
entity-2308	group-538
entity-2309	group-291
entity-2623	group-547
entity-2119	group-641
entity-2118	group-1153
entity-2115	group-672
entity-2114	group-93
entity-2117	group-560
entity-2116	group-229
entity-2111	group-0
entity-2110	group-291
entity-2112	group-120
entity-2923	group-37
entity-2740	group-0
entity-303	group-125
entity-302	group-95
entity-301	group-1009
entity-300	group-96
entity-307	group-809
entity-306	group-755
entity-305	group-100
entity-304	group-981
entity-309	group-595
entity-308	group-291
entity-1015	group-746
entity-1014	group-1005
entity-1017	group-350
entity-1016	group-224
entity-1011	group-29
entity-1010	group-480
entity-1013	group-0
entity-1012	group-142
entity-1019	group-793
entity-1018	group-929
entity-1491	group-210
entity-1490	group-332
entity-1493	group-617
entity-1492	group-291
entity-1495	group-617
entity-1494	group-704
entity-1497	group-809
entity-1496	group-291
entity-1499	group-630
entity-1498	group-641
entity-2408	group-472
entity-1301	group-820
entity-1300	group-358
entity-1303	group-609
entity-1302	group-324
entity-1305	group-988
entity-1304	group-0
entity-1307	group-764
entity-1306	group-809
entity-1309	group-530
entity-1308	group-324
entity-1659	group-9
entity-1658	group-332
entity-2743	group-989
entity-1479	group-1012
entity-1478	group-22
entity-839	group-608
entity-838	group-658
entity-835	group-324
entity-834	group-209
entity-837	group-1017
entity-836	group-782
entity-831	group-318
entity-830	group-492
entity-833	group-287
entity-832	group-877
entity-2744	group-0
entity-2745	group-1138
entity-2746	group-464
entity-1279	group-1132
entity-1278	group-641
entity-1271	group-133
entity-1270	group-22
entity-1273	group-532
entity-1272	group-291
entity-1275	group-358
entity-1274	group-532
entity-1277	group-609
entity-1276	group-324
entity-499	group-914
entity-498	group-400
entity-493	group-142
entity-492	group-133
entity-491	group-769
entity-490	group-328
entity-497	group-746
entity-496	group-1127
entity-495	group-948
entity-494	group-328
entity-945	group-1012
entity-944	group-578
entity-947	group-1015
entity-946	group-204
entity-941	group-858
entity-940	group-296
entity-942	group-755
entity-949	group-685
entity-948	group-632
entity-1877	group-1012
entity-1876	group-1037
entity-1875	group-428
entity-1874	group-0
entity-1873	group-51
entity-1872	group-1053
entity-1871	group-274
entity-1870	group-1012
entity-1879	group-605
entity-1878	group-988
entity-2436	group-0
entity-2437	group-21
entity-2434	group-787
entity-2435	group-475
entity-2433	group-128
entity-2430	group-0
entity-2431	group-636
entity-2928	group-1127
entity-2929	group-0
entity-2438	group-0
entity-2439	group-316
entity-2505	group-363
entity-2400	group-591
entity-549	group-26
entity-548	group-616
entity-1909	group-374
entity-1908	group-1012
entity-1641	group-946
entity-541	group-22
entity-540	group-174
entity-543	group-674
entity-542	group-632
entity-545	group-785
entity-544	group-687
entity-547	group-80
entity-546	group-1003
entity-209	group-1057
entity-1644	group-80
entity-2622	group-527
entity-1645	group-156
entity-2234	group-1062
entity-2328	group-51
entity-2329	group-737
entity-1646	group-22
entity-2539	group-1148
entity-2235	group-286
entity-2322	group-22
entity-2323	group-560
entity-2320	group-112
entity-1647	group-324
entity-2326	group-22
entity-2236	group-727
entity-2324	group-104
entity-2325	group-291
entity-1648	group-650
entity-2237	group-22
entity-1649	group-1153
entity-2230	group-144
entity-2231	group-560
entity-2538	group-0
entity-2232	group-723
entity-2233	group-1012
entity-1318	group-0
entity-2620	group-0
entity-205	group-731
entity-1468	group-306
entity-1469	group-324
entity-2238	group-845
entity-2239	group-475
entity-2748	group-137
entity-901	group-1049
entity-158	group-16
entity-159	group-1003
entity-156	group-142
entity-157	group-344
entity-154	group-334
entity-155	group-257
entity-152	group-793
entity-153	group-345
entity-150	group-819
entity-151	group-620
entity-798	group-1012
entity-799	group-291
entity-902	group-573
entity-790	group-641
entity-791	group-1012
entity-792	group-460
entity-793	group-328
entity-794	group-291
entity-795	group-542
entity-796	group-328
entity-797	group-328
entity-1460	group-172
entity-2698	group-104
entity-2699	group-315
entity-907	group-14
entity-1461	group-0
entity-2692	group-1114
entity-2693	group-0
entity-2690	group-617
entity-906	group-307
entity-2696	group-569
entity-2697	group-1157
entity-2694	group-932
entity-2695	group-0
entity-1932	group-1012
entity-1933	group-988
entity-1930	group-328
entity-2896	group-1028
entity-1931	group-639
entity-1936	group-610
entity-1937	group-100
entity-2102	group-755
entity-2103	group-380
entity-2100	group-1012
entity-2101	group-498
entity-2106	group-484
entity-1934	group-22
entity-2104	group-809
entity-2105	group-617
entity-2108	group-892
entity-1935	group-740
entity-2897	group-503
entity-376	group-209
entity-377	group-0
entity-374	group-906
entity-375	group-671
entity-372	group-763
entity-373	group-0
entity-370	group-838
entity-371	group-748
entity-378	group-717
entity-379	group-235
entity-2753	group-426
entity-1486	group-142
entity-1487	group-609
entity-1484	group-1012
entity-1485	group-912
entity-1482	group-449
entity-1483	group-641
entity-1480	group-205
entity-1481	group-641
entity-92	group-793
entity-1488	group-291
entity-1489	group-1105
entity-1316	group-609
entity-1317	group-324
entity-1314	group-0
entity-1315	group-641
entity-1312	group-609
entity-1313	group-163
entity-1310	group-531
entity-1311	group-617
entity-202	group-0
entity-203	group-515
entity-200	group-1003
entity-201	group-357
entity-206	group-132
entity-207	group-622
entity-204	group-947
entity-1319	group-22
entity-800	group-161
entity-801	group-524
entity-802	group-375
entity-803	group-485
entity-804	group-579
entity-805	group-631
entity-806	group-1003
entity-807	group-1126
entity-808	group-849
entity-809	group-174
entity-1462	group-430
entity-1463	group-8
entity-1464	group-2
entity-1465	group-687
entity-1466	group-324
entity-1467	group-324
entity-2751	group-0
entity-2372	group-275
entity-2807	group-0
entity-2806	group-809
entity-2805	group-617
entity-2804	group-346
entity-2750	group-478
entity-1008	group-821
entity-1009	group-544
entity-2378	group-560
entity-1002	group-930
entity-1003	group-501
entity-1000	group-300
entity-1001	group-1016
entity-1006	group-679
entity-1007	group-573
entity-1004	group-793
entity-1005	group-301
entity-2201	group-1053
entity-2808	group-70
entity-2757	group-989
entity-2889	group-335
entity-2572	group-0
entity-2756	group-0
entity-2888	group-668
entity-1268	group-0
entity-1269	group-1134
entity-1266	group-531
entity-1267	group-617
entity-1264	group-9
entity-1265	group-602
entity-1262	group-723
entity-1263	group-777
entity-1260	group-978
entity-1261	group-687
entity-978	group-1082
entity-979	group-609
entity-970	group-291
entity-971	group-123
entity-972	group-571
entity-973	group-1050
entity-974	group-809
entity-975	group-0
entity-976	group-450
entity-977	group-793
entity-2736	group-492
entity-1864	group-520
entity-1865	group-339
entity-1866	group-912
entity-1867	group-988
entity-1860	group-220
entity-1861	group-0
entity-1862	group-1012
entity-1863	group-361
entity-1868	group-807
entity-1869	group-1059
entity-2915	group-873
entity-2914	group-379
entity-2917	group-314
entity-2916	group-906
entity-2911	group-707
entity-2910	group-414
entity-2913	group-1098
entity-2912	group-0
entity-2919	group-887
entity-2918	group-526
entity-1918	group-492
entity-1919	group-661
entity-578	group-475
entity-579	group-1049
entity-574	group-191
entity-575	group-608
entity-576	group-471
entity-577	group-94
entity-570	group-798
entity-571	group-299
entity-572	group-900
entity-573	group-137
entity-2359	group-820
entity-2358	group-385
entity-2357	group-517
entity-2356	group-1012
entity-2355	group-123
entity-2354	group-278
entity-2353	group-1053
entity-2352	group-23
entity-2351	group-144
entity-2350	group-609
entity-2599	group-0
entity-1183	group-22
entity-896	group-793
entity-2591	group-979
entity-2590	group-1003
entity-2593	group-286
entity-2592	group-782
entity-2595	group-471
entity-1181	group-22
entity-2597	group-559
entity-2596	group-903
entity-894	group-564
entity-1962	group-839
entity-1187	group-193
entity-1186	group-332
entity-1185	group-453
entity-890	group-283
entity-149	group-1113
entity-148	group-1049
entity-145	group-809
entity-144	group-142
entity-147	group-1056
entity-146	group-499
entity-141	group-1003
entity-140	group-1087
entity-143	group-793
entity-142	group-0
entity-1964	group-144
entity-789	group-224
entity-788	group-255
entity-787	group-614
entity-786	group-793
entity-784	group-589
entity-783	group-327
entity-782	group-203
entity-781	group-589
entity-780	group-793
entity-2177	group-359
entity-2176	group-746
entity-2175	group-343
entity-2174	group-457
entity-2173	group-81
entity-2172	group-969
entity-2171	group-809
entity-2170	group-734
entity-2179	group-806
entity-2178	group-759
entity-2717	group-0
entity-2009	group-218
entity-2008	group-960
entity-2716	group-549
entity-2003	group-0
entity-2002	group-142
entity-2001	group-1012
entity-2000	group-623
entity-2007	group-610
entity-2006	group-94
entity-2005	group-609
entity-365	group-450
entity-364	group-608
entity-367	group-205
entity-366	group-0
entity-361	group-513
entity-360	group-756
entity-363	group-513
entity-362	group-474
entity-2713	group-613
entity-369	group-727
entity-368	group-871
entity-2712	group-0
entity-2711	group-1003
entity-2710	group-549
entity-2890	group-698
entity-2891	group-1012
entity-2892	group-492
entity-2893	group-0
entity-2894	group-0
entity-2895	group-927
entity-219	group-350
entity-218	group-80
entity-1677	group-815
entity-1676	group-49
entity-1671	group-898
entity-1670	group-996
entity-1673	group-354
entity-1672	group-142
entity-211	group-608
entity-210	group-1005
entity-213	group-1049
entity-212	group-0
entity-215	group-332
entity-214	group-608
entity-217	group-828
entity-216	group-291
entity-817	group-793
entity-816	group-137
entity-815	group-267
entity-814	group-0
entity-813	group-209
entity-812	group-291
entity-811	group-909
entity-810	group-0
entity-1455	group-2
entity-1454	group-1036
entity-1109	group-1043
entity-1108	group-450
entity-1451	group-1159
entity-1450	group-1012
entity-819	group-40
entity-818	group-1024
entity-2484	group-910
entity-2483	group-17
entity-2482	group-523
entity-2481	group-527
entity-1589	group-764
entity-1588	group-358
entity-1587	group-809
entity-1586	group-641
entity-1585	group-530
entity-1584	group-291
entity-1583	group-133
entity-1582	group-833
entity-1581	group-1108
entity-1580	group-324
entity-1079	group-607
entity-1078	group-668
entity-1077	group-456
entity-1076	group-1099
entity-1075	group-0
entity-1074	group-823
entity-1073	group-36
entity-1072	group-793
entity-1071	group-450
entity-1070	group-0
entity-1792	group-198
entity-1793	group-417
entity-1790	group-922
entity-1791	group-30
entity-1796	group-133
entity-1797	group-355
entity-1794	group-809
entity-1795	group-738
entity-1293	group-609
entity-1292	group-609
entity-1291	group-662
entity-1290	group-728
entity-1297	group-291
entity-1296	group-641
entity-1295	group-641
entity-1294	group-0
entity-1299	group-41
entity-1298	group-291
entity-969	group-1044
entity-968	group-209
entity-967	group-549
entity-966	group-551
entity-965	group-1053
entity-964	group-809
entity-963	group-730
entity-962	group-225
entity-961	group-784
entity-960	group-673
entity-1858	group-789
entity-2494	group-291
entity-1851	group-241
entity-1850	group-360
entity-1853	group-795
entity-1852	group-572
entity-1855	group-2
entity-1854	group-148
entity-1857	group-358
entity-1856	group-548
entity-563	group-851
entity-562	group-176
entity-561	group-391
entity-560	group-852
entity-567	group-774
entity-566	group-365
entity-565	group-797
entity-564	group-27
entity-1925	group-422
entity-1924	group-802
entity-569	group-72
entity-568	group-640
entity-1921	group-293
entity-1920	group-617
entity-1923	group-961
entity-1922	group-186
entity-29	group-1026
entity-28	group-549
entity-2348	group-437
entity-2349	group-181
entity-21	group-67
entity-20	group-337
entity-23	group-809
entity-22	group-651
entity-25	group-1021
entity-24	group-1131
entity-27	group-1012
entity-26	group-136
entity-2588	group-1003
entity-2589	group-0
entity-2586	group-654
entity-2587	group-69
entity-2584	group-857
entity-2585	group-0
entity-2582	group-235
entity-2583	group-646
entity-2580	group-255
entity-2581	group-687
entity-2495	group-390
entity-2908	group-0
entity-2909	group-492
entity-2902	group-215
entity-2903	group-0
entity-2900	group-384
entity-2901	group-492
entity-2906	group-195
entity-2907	group-911
entity-2904	group-100
entity-2905	group-295
entity-171	group-641
entity-172	group-291
entity-173	group-793
entity-174	group-870
entity-175	group-404
entity-176	group-1019
entity-177	group-793
entity-178	group-647
entity-179	group-362
entity-2768	group-291
entity-2769	group-1116
entity-2621	group-793
entity-772	group-1127
entity-773	group-1150
entity-770	group-0
entity-771	group-948
entity-776	group-573
entity-777	group-104
entity-774	group-589
entity-775	group-0
entity-2627	group-17
entity-778	group-237
entity-779	group-1012
entity-2626	group-703
entity-2625	group-475
entity-900	group-0
entity-2624	group-0
entity-2252	group-512
entity-2253	group-236
entity-2250	group-1052
entity-2251	group-45
entity-903	group-871
entity-2256	group-0
entity-2257	group-625
entity-2164	group-485
entity-2165	group-291
entity-2166	group-747
entity-2167	group-76
entity-2160	group-510
entity-2161	group-366
entity-2162	group-1053
entity-2163	group-609
entity-2255	group-170
entity-2168	group-181
entity-2169	group-1146
entity-686	group-811
entity-687	group-137
entity-684	group-746
entity-685	group-137
entity-682	group-608
entity-683	group-668
entity-680	group-475
entity-681	group-1049
entity-2258	group-208
entity-688	group-22
entity-689	group-984
entity-2259	group-809
entity-905	group-409
entity-358	group-291
entity-359	group-513
entity-828	group-0
entity-350	group-105
entity-351	group-212
entity-352	group-664
entity-829	group-793
entity-354	group-361
entity-355	group-1049
entity-904	group-573
entity-357	group-600
entity-198	group-228
entity-199	group-254
entity-192	group-846
entity-193	group-1049
entity-190	group-89
entity-191	group-542
entity-196	group-793
entity-197	group-1049
entity-194	group-1113
entity-195	group-328
entity-1248	group-291
entity-823	group-117
entity-1668	group-0
entity-1669	group-617
entity-1662	group-22
entity-1663	group-133
entity-1660	group-680
entity-1661	group-758
entity-1666	group-1143
entity-1667	group-609
entity-1664	group-332
entity-1665	group-569
entity-1910	group-809
entity-228	group-609
entity-229	group-570
entity-1911	group-291
entity-224	group-341
entity-225	group-0
entity-226	group-1012
entity-227	group-793
entity-220	group-151
entity-221	group-624
entity-222	group-277
entity-223	group-608
entity-1110	group-291
entity-1111	group-1049
entity-1112	group-0
entity-1113	group-708
entity-1114	group-209
entity-1115	group-668
entity-1116	group-954
entity-1117	group-59
entity-1118	group-291
entity-1119	group-475
entity-1448	group-905
entity-1449	group-332
entity-1915	group-974
entity-1916	group-809
entity-1917	group-885
entity-1598	group-711
entity-1599	group-641
entity-1594	group-532
entity-1595	group-609
entity-1596	group-611
entity-1597	group-1109
entity-1590	group-9
entity-1591	group-705
entity-1592	group-641
entity-1593	group-123
entity-1068	group-534
entity-1069	group-700
entity-1064	group-710
entity-1065	group-142
entity-1066	group-793
entity-1067	group-0
entity-1060	group-793
entity-1061	group-310
entity-1062	group-476
entity-1063	group-574
entity-1280	group-641
entity-1281	group-291
entity-1282	group-532
entity-1283	group-723
entity-1284	group-324
entity-1285	group-291
entity-1286	group-641
entity-1287	group-22
entity-1288	group-104
entity-1289	group-358
entity-992	group-700
entity-990	group-0
entity-991	group-793
entity-996	group-355
entity-997	group-1012
entity-994	group-609
entity-995	group-970
entity-998	group-332
entity-999	group-492
entity-1848	group-9
entity-1849	group-1025
entity-1846	group-358
entity-1847	group-530
entity-1844	group-530
entity-1845	group-469
entity-1842	group-324
entity-1843	group-746
entity-1840	group-532
entity-1841	group-0
entity-1411	group-430
entity-1410	group-532
entity-1642	group-22
entity-1413	group-641
entity-516	group-1127
entity-517	group-126
entity-514	group-1127
entity-515	group-372
entity-512	group-637
entity-513	group-111
entity-510	group-1049
entity-511	group-863
entity-1415	group-764
entity-1938	group-1012
entity-1939	group-1053
entity-2452	group-778
entity-518	group-346
entity-519	group-1133
entity-2025	group-249
entity-2453	group-181
entity-1417	group-527
entity-2024	group-133
entity-2454	group-332
entity-1416	group-641
entity-2027	group-328
entity-2455	group-0
entity-2371	group-0
entity-2370	group-623
entity-38	group-454
entity-39	group-403
entity-2375	group-294
entity-2374	group-809
entity-2377	group-0
entity-2376	group-0
entity-32	group-593
entity-33	group-623
entity-30	group-485
entity-31	group-291
entity-36	group-326
entity-37	group-793
entity-34	group-271
entity-35	group-102
entity-2573	group-479
entity-2458	group-351
entity-2571	group-17
entity-2570	group-553
entity-2577	group-793
entity-2023	group-492
entity-2575	group-553
entity-2459	group-88
entity-2579	group-687
entity-2022	group-0
entity-428	group-1079
entity-429	group-0
entity-422	group-549
entity-423	group-995
entity-420	group-793
entity-421	group-899
entity-426	group-189
entity-427	group-288
entity-424	group-53
entity-425	group-782
entity-167	group-22
entity-166	group-321
entity-165	group-601
entity-164	group-492
entity-163	group-353
entity-162	group-1067
entity-161	group-793
entity-160	group-856
entity-169	group-700
entity-168	group-632
entity-761	group-323
entity-760	group-0
entity-763	group-1061
entity-762	group-328
entity-765	group-793
entity-764	group-793
entity-767	group-816
entity-766	group-407
entity-769	group-343
entity-768	group-1018
entity-2489	group-898
entity-2488	group-917
entity-2450	group-289
entity-2159	group-935
entity-2158	group-1049
entity-2629	group-0
entity-2628	group-451
entity-2151	group-22
entity-2150	group-1012
entity-2153	group-1053
entity-2152	group-1004
entity-2155	group-144
entity-2154	group-609
entity-2157	group-42
entity-2156	group-398
entity-2399	group-1155
entity-2398	group-175
entity-2451	group-368
entity-2393	group-0
entity-2392	group-0
entity-2391	group-326
entity-2390	group-164
entity-2397	group-569
entity-2396	group-842
entity-2395	group-363
entity-2394	group-506
entity-695	group-287
entity-694	group-573
entity-697	group-809
entity-696	group-166
entity-691	group-60
entity-690	group-793
entity-693	group-851
entity-692	group-0
entity-699	group-194
entity-698	group-331
entity-2859	group-801
entity-1689	group-133
entity-2854	group-492
entity-2855	group-963
entity-2856	group-1012
entity-2857	group-691
entity-2029	group-291
entity-2028	group-89
entity-349	group-871
entity-348	group-938
entity-347	group-846
entity-346	group-0
entity-345	group-793
entity-344	group-0
entity-343	group-588
entity-342	group-573
entity-341	group-746
entity-340	group-209
entity-189	group-328
entity-188	group-28
entity-2852	group-1151
entity-181	group-668
entity-180	group-560
entity-183	group-1126
entity-182	group-433
entity-185	group-277
entity-184	group-983
entity-187	group-1049
entity-186	group-0
entity-1947	group-22
entity-1619	group-609
entity-1618	group-0
entity-1617	group-527
entity-1616	group-291
entity-1615	group-104
entity-1614	group-1153
entity-1613	group-133
entity-1612	group-291
entity-1611	group-291
entity-1610	group-609
entity-233	group-809
entity-232	group-1049
entity-231	group-475
entity-230	group-703
entity-237	group-350
entity-236	group-224
entity-235	group-255
entity-234	group-746
entity-239	group-508
entity-238	group-756
entity-1125	group-200
entity-1124	group-709
entity-1127	group-396
entity-1126	group-942
entity-1121	group-882
entity-1120	group-765
entity-1123	group-1003
entity-1122	group-432
entity-1129	group-626
entity-1128	group-243
entity-1439	group-358
entity-1438	group-238
entity-2457	group-571
entity-2493	group-139
entity-1051	group-0
entity-1050	group-350
entity-1053	group-1056
entity-1052	group-793
entity-1055	group-1049
entity-1054	group-291
entity-1057	group-258
entity-1056	group-465
entity-1059	group-649
entity-1058	group-0
entity-1729	group-291
entity-1728	group-324
entity-2778	group-0
entity-1549	group-291
entity-1548	group-532
entity-1543	group-264
entity-1542	group-609
entity-1541	group-0
entity-1540	group-62
entity-1547	group-399
entity-1546	group-172
entity-1545	group-609
entity-1544	group-133
entity-2775	group-1053
entity-2774	group-560
entity-2777	group-537
entity-2776	group-668
entity-2771	group-1104
entity-2770	group-695
entity-2773	group-742
entity-2772	group-687
entity-981	group-1077
entity-980	group-174
entity-983	group-561
entity-982	group-746
entity-985	group-475
entity-984	group-0
entity-987	group-475
entity-986	group-1049
entity-989	group-250
entity-988	group-1049
entity-1941	group-328
entity-484	group-746
entity-485	group-1153
entity-486	group-1012
entity-487	group-84
entity-480	group-190
entity-1437	group-641
entity-950	group-964
entity-1436	group-5
entity-951	group-846
entity-1435	group-609
entity-1961	group-692
entity-1434	group-1142
entity-1960	group-108
entity-1433	group-22
entity-1963	group-90
entity-1432	group-133
entity-505	group-17
entity-504	group-598
entity-507	group-454
entity-506	group-793
entity-501	group-793
entity-500	group-793
entity-503	group-793
entity-502	group-207
entity-1965	group-494
entity-1430	group-453
entity-509	group-1049
entity-508	group-100
entity-1949	group-992
entity-1948	group-560
entity-1967	group-269
entity-1966	group-854
entity-2366	group-585
entity-2364	group-22
entity-2365	group-412
entity-2362	group-810
entity-2363	group-621
entity-2360	group-155
entity-2361	group-569
entity-2818	group-271
entity-2819	group-320
entity-2368	group-560
entity-2369	group-266
entity-2560	group-0
entity-2561	group-560
entity-2562	group-291
entity-2563	group-1152
entity-2564	group-25
entity-2565	group-0
entity-2566	group-282
entity-2567	group-609
entity-2568	group-1078
entity-2569	group-524
entity-439	group-939
entity-438	group-209
entity-431	group-1049
entity-433	group-133
entity-432	group-726
entity-435	group-1027
entity-434	group-143
entity-437	group-874
entity-436	group-726
entity-2704	group-118
entity-2705	group-475
entity-2706	group-0
entity-2707	group-475
entity-2700	group-0
entity-2701	group-1049
entity-2702	group-181
entity-2703	group-305
entity-2708	group-0
entity-2709	group-337
entity-754	group-381
entity-755	group-1049
entity-756	group-291
entity-757	group-583
entity-750	group-923
entity-751	group-485
entity-752	group-609
entity-753	group-181
entity-758	group-381
entity-759	group-1049
entity-2638	group-527
entity-2639	group-756
entity-2148	group-934
entity-2149	group-825
entity-2146	group-427
entity-2147	group-584
entity-2144	group-916
entity-2145	group-880
entity-2142	group-809
entity-2143	group-819
entity-2140	group-181
entity-2141	group-291
entity-2388	group-356
entity-2389	group-289
entity-2380	group-15
entity-2382	group-844
entity-2383	group-760
entity-2384	group-287
entity-2385	group-797
entity-2386	group-760
entity-2387	group-760
entity-2811	group-527
entity-2933	group-167
entity-2932	group-373
entity-2079	group-325
entity-2548	group-80
entity-2549	group-1080
entity-2812	group-782
entity-2937	group-906
entity-2936	group-22
entity-2032	group-846
entity-1723	group-332
entity-2030	group-966
entity-2031	group-762
entity-2036	group-965
entity-2037	group-22
entity-2034	group-22
entity-1722	group-324
entity-2038	group-967
entity-2039	group-1012
entity-1721	group-1031
entity-2073	group-255
entity-1720	group-284
entity-1727	group-655
entity-1726	group-418
entity-1725	group-0
entity-2546	group-1012
entity-1724	group-0
entity-2547	group-527
entity-1608	group-133
entity-1609	group-609
entity-1604	group-641
entity-1605	group-764
entity-1606	group-142
entity-1607	group-133
entity-1600	group-227
entity-1601	group-0
entity-1602	group-0
entity-1603	group-532
entity-246	group-793
entity-247	group-17
entity-244	group-788
entity-245	group-824
entity-242	group-949
entity-243	group-1003
entity-240	group-599
entity-241	group-183
entity-248	group-793
entity-249	group-214
entity-1424	group-264
entity-1425	group-0
entity-1426	group-532
entity-1427	group-22
entity-1420	group-133
entity-1421	group-80
entity-1422	group-641
entity-1423	group-764
entity-1428	group-358
entity-1429	group-358
entity-2277	group-1024
entity-2218	group-1012
entity-2817	group-597
entity-1046	group-228
entity-1047	group-1044
entity-1044	group-575
entity-1045	group-1049
entity-1042	group-1130
entity-1043	group-681
entity-1040	group-475
entity-1041	group-1049
entity-1738	group-291
entity-1739	group-0
entity-1048	group-940
entity-1049	group-696
entity-1558	group-142
entity-1559	group-104
entity-1550	group-641
entity-1551	group-1153
entity-1552	group-676
entity-1553	group-1153
entity-1554	group-0
entity-1555	group-133
entity-1556	group-0
entity-1557	group-549
entity-90	group-34
entity-1138	group-793
entity-1139	group-982
entity-91	group-735
entity-1132	group-793
entity-1133	group-137
entity-1130	group-253
entity-1131	group-291
entity-1136	group-542
entity-1137	group-746
entity-1134	group-615
entity-1135	group-485
entity-93	group-665
entity-94	group-291
entity-95	group-896
entity-96	group-1090
entity-97	group-1069
entity-2449	group-356
entity-2109	group-383
entity-2944	group-276
entity-538	group-103
entity-539	group-270
entity-530	group-0
entity-531	group-481
entity-532	group-827
entity-533	group-791
entity-534	group-393
entity-535	group-1070
entity-536	group-63
entity-537	group-542
entity-1954	group-8
entity-1955	group-155
entity-1956	group-108
entity-1957	group-985
entity-1950	group-670
entity-1951	group-947
entity-1952	group-901
entity-1953	group-529
entity-1959	group-517
entity-10	group-302
entity-11	group-0
entity-12	group-416
entity-13	group-641
entity-14	group-760
entity-15	group-328
entity-16	group-991
entity-17	group-1145
entity-18	group-1010
entity-19	group-904
entity-2924	group-492
entity-2829	group-663
entity-2828	group-0
entity-2555	group-0
entity-2554	group-560
entity-2557	group-912
entity-2556	group-206
entity-2551	group-636
entity-2550	group-549
entity-2553	group-354
entity-2552	group-726
entity-2067	group-22
entity-2558	group-279
entity-408	group-752
entity-409	group-820
entity-404	group-1144
entity-405	group-226
entity-406	group-388
entity-407	group-380
entity-400	group-146
entity-401	group-809
entity-403	group-438
entity-2066	group-437
entity-2576	group-286
entity-2738	group-560
entity-2926	group-122
entity-2731	group-0
entity-2730	group-560
entity-2733	group-505
entity-2732	group-934
entity-2735	group-291
entity-2734	group-431
entity-2737	group-474
entity-2723	group-106
entity-749	group-137
entity-748	group-864
entity-743	group-617
entity-742	group-150
entity-741	group-497
entity-740	group-219
entity-747	group-726
entity-746	group-286
entity-745	group-962
entity-744	group-1049
entity-2335	group-0
entity-2927	group-486
entity-2334	group-439
entity-2337	group-1100
entity-2336	group-339
entity-2331	group-822
entity-2574	group-165
entity-288	group-209
entity-2330	group-1012
entity-2333	group-993
entity-2332	group-491
entity-2609	group-569
entity-2608	group-1049
entity-737	group-1153
entity-2605	group-0
entity-2604	group-829
entity-2607	group-569
entity-2606	group-1111
entity-2601	group-104
entity-2600	group-1111
entity-2603	group-609
entity-2602	group-746
entity-731	group-755
entity-2803	group-871
entity-2047	group-160
entity-2046	group-1053
entity-2045	group-348
entity-2044	group-817
entity-2043	group-1085
entity-2042	group-22
entity-2041	group-1012
entity-2040	group-448
entity-2802	group-1066
entity-2049	group-804
entity-2048	group-477
entity-2578	group-1122
entity-2801	group-933
entity-1631	group-834
entity-1630	group-35
entity-1633	group-623
entity-1632	group-119
entity-1635	group-332
entity-1634	group-109
entity-1637	group-641
entity-1636	group-205
entity-1639	group-946
entity-1638	group-22
entity-255	group-488
entity-254	group-573
entity-257	group-17
entity-256	group-291
entity-251	group-1064
entity-250	group-0
entity-253	group-890
entity-252	group-308
entity-259	group-64
entity-258	group-138
entity-1389	group-750
entity-1388	group-1160
entity-1381	group-142
entity-1380	group-80
entity-1383	group-1012
entity-1382	group-764
entity-1385	group-498
entity-1384	group-291
entity-1387	group-800
entity-1386	group-142
entity-2837	group-1049
entity-1705	group-764
entity-1704	group-421
entity-1707	group-531
entity-1706	group-790
entity-1701	group-509
entity-1700	group-1120
entity-1703	group-265
entity-1702	group-261
entity-1709	group-9
entity-1708	group-9
entity-1569	group-1128
entity-1568	group-324
entity-1565	group-726
entity-1564	group-809
entity-1567	group-85
entity-1566	group-22
entity-1561	group-764
entity-1560	group-80
entity-1563	group-133
entity-1562	group-1153
entity-1099	group-809
entity-1098	group-746
entity-1095	group-0
entity-1094	group-222
entity-1097	group-517
entity-1096	group-1093
entity-1091	group-1095
entity-1090	group-664
entity-1093	group-233
entity-1092	group-573
entity-1419	group-358
entity-1418	group-123
entity-1149	group-498
entity-1148	group-424
entity-1147	group-641
entity-1146	group-435
entity-1145	group-74
entity-1144	group-590
entity-1143	group-808
entity-1142	group-1107
entity-1141	group-328
entity-1140	group-1040
entity-1895	group-617
entity-1894	group-1056
entity-1897	group-809
entity-1896	group-467
entity-1891	group-1053
entity-1890	group-0
entity-1893	group-617
entity-1892	group-291
entity-1899	group-1056
entity-1898	group-0
entity-2759	group-428
entity-2200	group-197
entity-2611	group-0
entity-2809	group-642
entity-2617	group-633
entity-1969	group-216
entity-1968	group-188
entity-529	group-1005
entity-528	group-291
entity-527	group-1005
entity-526	group-431
entity-525	group-0
entity-524	group-1005
entity-523	group-0
entity-522	group-493
entity-521	group-250
entity-520	group-721
entity-1675	group-985
entity-2202	group-14
entity-1674	group-604
entity-2205	group-22
entity-2204	group-1000
entity-2207	group-716
entity-2206	group-76
entity-2931	group-0
entity-65	group-426
entity-64	group-91
entity-67	group-4
entity-66	group-793
entity-61	group-1055
entity-60	group-268
entity-63	group-793
entity-62	group-1043
entity-2542	group-135
entity-2543	group-0
entity-2540	group-0
entity-2541	group-459
entity-69	group-826
entity-68	group-1001
entity-2544	group-527
entity-2545	group-332
entity-2930	group-948
entity-413	group-137
entity-412	group-17
entity-411	group-565
entity-410	group-793
entity-417	group-947
entity-416	group-641
entity-415	group-1072
entity-414	group-688
entity-1679	group-291
entity-419	group-1008
entity-1678	group-291
entity-2598	group-871
entity-2945	group-6
entity-2942	group-0
entity-2943	group-492
entity-2940	group-314
entity-2941	group-887
entity-1103	group-1049
entity-2728	group-0
entity-1102	group-358
entity-2726	group-0
entity-2727	group-793
entity-2724	group-1045
entity-2725	group-820
entity-2722	group-475
entity-1101	group-1053
entity-2720	group-982
entity-2721	group-244
entity-1100	group-347
entity-738	group-746
entity-739	group-130
entity-1107	group-1049
entity-734	group-715
entity-735	group-328
entity-732	group-809
entity-733	group-935
entity-730	group-846
entity-1106	group-617
entity-1105	group-886
entity-1104	group-774
entity-2838	group-363
entity-2839	group-594
entity-2935	group-414
entity-2832	group-595
entity-2833	group-0
entity-2830	group-253
entity-2831	group-0
entity-2836	group-813
entity-1457	group-0
entity-2834	group-725
entity-2835	group-487
entity-1926	group-1154
entity-1456	group-74
entity-1946	group-609
entity-1945	group-1012
entity-2612	group-0
entity-2613	group-569
entity-2610	group-287
entity-1944	group-1012
entity-2616	group-1125
entity-1453	group-809
entity-2614	group-793
entity-2615	group-0
entity-1943	group-268
entity-2618	group-0
entity-1452	group-1058
entity-1942	group-1091
entity-642	group-793
entity-643	group-22
entity-640	group-736
entity-641	group-1003
entity-646	group-1044
entity-647	group-623
entity-644	group-632
entity-645	group-636
entity-648	group-1003
entity-649	group-1139
