kristen-1961	2016-06-12
kristen-863	2015-12-11
kristen-1747	2014-07-02
kristen-141	2015-06-25
kristen-140	2015-06-25
kristen-2001	2016-06-12
kristen-2000	2016-06-15
kristen-145	2015-06-19
kristen-2006	2016-03-15
kristen-2005	2016-03-22
kristen-146	2015-06-19
kristen-1964	2016-03-25
kristen-1967	2016-03-21
kristen-978	2014-07-16
kristen-390	2016-03-28
kristen-391	2016-03-23
kristen-72	2016-06-02
kristen-143	2015-06-24
kristen-1505	2015-12-07
kristen-541	2015-10-01
kristen-543	2015-08-26
kristen-407	2015-12-08
kristen-77	2016-04-08
kristen-1334	2016-04-03
kristen-1335	2016-03-30
kristen-1336	2016-03-29
kristen-1337	2016-03-23
kristen-1331	2016-04-06
kristen-1332	2016-04-05
kristen-1483	2015-09-15
kristen-1481	2015-10-01
kristen-1339	2016-03-22
kristen-1484	2015-07-29
kristen-1554	2016-06-20
kristen-1491	2015-04-29
kristen-328	2016-06-15
kristen-982	2015-12-16
kristen-1493	2015-04-13
kristen-487	2016-06-22
kristen-488	2016-06-22
kristen-630	2016-06-17
kristen-323	2016-06-20
kristen-894	2016-06-13
kristen-893	2016-06-15
kristen-324	2016-06-20
kristen-891	2016-06-17
kristen-1340	2016-03-22
kristen-240	2014-04-07
kristen-246	2016-06-27
kristen-715	2015-06-18
kristen-718	2015-02-26
kristen-1021	2013-08-01
kristen-1023	2013-06-26
kristen-1024	2013-06-26
kristen-938	2015-12-09
kristen-1155	2016-06-23
kristen-1156	2016-06-23
kristen-1159	2016-06-22
kristen-933	2016-06-16
kristen-1653	2016-06-22
kristen-1652	2016-06-22
kristen-937	2016-02-25
kristen-1933	2015-11-02
kristen-1936	2015-10-08
kristen-1934	2015-10-28
kristen-1935	2015-10-23
kristen-1557	2015-12-15
kristen-988	2015-11-18
kristen-438	2016-06-15
kristen-1235	2015-01-13
kristen-431	2016-06-22
kristen-1230	2015-01-22
kristen-1233	2015-01-13
kristen-682	2016-06-15
kristen-32	2016-05-02
kristen-680	2016-06-20
kristen-30	2016-05-02
kristen-1808	2016-06-12
kristen-686	2016-06-13
kristen-1804	2016-06-16
kristen-687	2016-06-12
kristen-291	2016-04-12
kristen-290	2016-04-13
kristen-119	2015-09-28
kristen-299	2016-06-27
kristen-298	2016-06-27
kristen-110	2015-12-04
kristen-500	2016-06-20
kristen-503	2016-06-18
kristen-506	2016-06-17
kristen-509	2016-06-17
kristen-508	2016-06-17
kristen-886	2016-06-22
kristen-1077	2016-02-02
kristen-683	2016-06-15
kristen-1075	2016-02-02
kristen-681	2016-06-16
kristen-1073	2016-03-03
kristen-1072	2016-03-11
kristen-684	2016-06-15
kristen-688	2016-06-12
kristen-689	2016-06-08
kristen-1078	2016-01-23
kristen-883	2016-06-22
kristen-725	2014-11-21
kristen-1479	2015-10-09
kristen-1478	2015-10-09
kristen-754	2015-12-02
kristen-1471	2015-12-03
kristen-1470	2015-12-04
kristen-751	2015-12-08
kristen-1475	2015-10-28
kristen-753	2015-12-03
kristen-1572	2015-08-05
kristen-1570	2015-10-08
kristen-1577	2015-01-28
kristen-599	2016-06-20
kristen-822	2015-06-09
kristen-595	2016-06-21
kristen-592	2016-06-22
kristen-618	2016-04-26
kristen-591	2016-06-22
kristen-1976	2015-12-16
kristen-1612	2016-06-15
kristen-1611	2016-06-15
kristen-1610	2016-06-16
kristen-1617	2016-03-28
kristen-1973	2016-01-15
kristen-1970	2016-02-05
kristen-1753	2016-06-27
kristen-877	2015-09-01
kristen-876	2015-09-02
kristen-871	2015-10-01
kristen-1209	2016-01-06
kristen-478	2016-06-24
kristen-1682	2015-06-25
kristen-1683	2015-06-25
kristen-1684	2015-06-18
kristen-728	2014-05-15
kristen-1378	2015-10-05
kristen-373	2016-06-15
kristen-371	2016-06-16
kristen-1275	2016-01-06
kristen-377	2016-06-13
kristen-374	2016-06-14
kristen-378	2016-06-12
kristen-270	2016-06-12
kristen-757	2015-11-28
kristen-1101	2016-05-09
kristen-752	2015-12-03
kristen-1297	2015-08-05
kristen-1293	2015-10-09
kristen-1194	2016-05-17
kristen-904	2016-05-23
kristen-1198	2016-06-22
kristen-1661	2016-03-22
kristen-2034	2015-01-30
kristen-2032	2015-02-03
kristen-61	2016-06-22
kristen-63	2016-06-21
kristen-62	2016-06-21
kristen-65	2016-06-21
kristen-153	2015-04-08
kristen-68	2016-06-17
kristen-1855	2016-06-26
kristen-1854	2016-06-26
kristen-1998	2015-07-14
kristen-1999	2015-07-14
kristen-1853	2016-06-27
kristen-619	2016-04-19
kristen-1993	2015-08-14
kristen-1608	2016-06-20
kristen-1613	2016-06-14
kristen-975	2014-09-04
kristen-1506	2015-11-17
kristen-1200	2016-05-24
kristen-1201	2016-05-18
kristen-122	2015-09-28
kristen-121	2015-09-28
kristen-120	2015-09-28
kristen-1615	2016-06-12
kristen-656	2015-11-17
kristen-128	2015-09-09
kristen-874	2015-09-11
kristen-1324	2016-04-22
kristen-1323	2016-04-27
kristen-1490	2015-06-02
kristen-1321	2016-05-11
kristen-1087	2015-12-24
kristen-1629	2015-10-09
kristen-1499	2016-05-17
kristen-1080	2016-01-12
kristen-841	2016-06-14
kristen-337	2016-06-13
kristen-334	2016-06-15
kristen-881	2016-06-23
kristen-331	2016-06-15
kristen-237	2014-04-17
kristen-234	2014-05-12
kristen-722	2014-11-26
kristen-1032	2016-06-24
kristen-1036	2016-06-22
kristen-1035	2016-06-22
kristen-1034	2016-06-22
kristen-1884	2016-06-22
kristen-1929	2015-12-14
kristen-1925	2016-01-13
kristen-1924	2016-02-09
kristen-1660	2016-04-18
kristen-1926	2016-01-05
kristen-1923	2016-02-11
kristen-1397	2015-03-23
kristen-802	2015-12-07
kristen-906	2016-05-16
kristen-366	2016-06-20
kristen-839	2016-06-15
kristen-1249	2016-06-23
kristen-349	2016-06-24
kristen-427	2016-06-27
kristen-425	2016-06-27
kristen-341	2016-06-08
kristen-1243	2014-08-06
kristen-835	2016-06-17
kristen-1245	2014-07-31
kristen-1246	2014-07-31
kristen-29	2016-05-03
kristen-21	2016-06-16
kristen-20	2016-06-16
kristen-1819	2016-05-18
kristen-1811	2016-05-26
kristen-1810	2016-05-26
kristen-1812	2016-05-25
kristen-428	2016-06-23
kristen-696	2016-01-12
kristen-473	2015-06-25
kristen-1767	2016-06-23
kristen-472	2015-06-25
kristen-98	2016-01-22
kristen-92	2016-02-26
kristen-164	2015-02-11
kristen-162	2015-02-18
kristen-161	2015-02-18
kristen-289	2016-04-14
kristen-516	2016-06-16
kristen-372	2016-06-15
kristen-514	2016-06-17
kristen-515	2016-06-16
kristen-511	2016-06-17
kristen-1862	2016-06-25
kristen-519	2016-06-16
kristen-912	2016-04-27
kristen-376	2016-06-14
kristen-1593	2014-05-22
kristen-1594	2014-05-22
kristen-1595	2014-05-22
kristen-1569	2015-10-08
kristen-764	2015-10-01
kristen-1565	2015-10-08
kristen-1564	2015-10-15
kristen-1567	2015-10-08
kristen-1566	2015-10-08
kristen-1560	2015-10-30
kristen-1562	2015-10-30
kristen-1675	2015-07-30
kristen-567	2014-03-31
kristen-565	2014-06-30
kristen-1745	2014-07-14
kristen-1216	2015-07-14
kristen-1740	2014-08-02
kristen-1211	2015-10-08
kristen-783	2016-06-20
kristen-782	2016-06-20
kristen-780	2016-06-27
kristen-785	2016-05-25
kristen-1218	2015-07-09
kristen-469	2015-07-14
kristen-1693	2015-05-14
kristen-1690	2015-05-20
kristen-712	2015-06-26
kristen-460	2015-11-03
kristen-306	2016-06-23
kristen-301	2016-06-24
kristen-1345	2016-03-14
kristen-262	2016-06-17
kristen-267	2016-06-14
kristen-1469	2015-12-07
kristen-1914	2016-03-30
kristen-1917	2016-03-22
kristen-1911	2016-04-20
kristen-249	2016-06-24
kristen-1775	2016-06-22
kristen-949	2015-10-13
kristen-1185	2016-06-02
kristen-1184	2016-06-02
kristen-1182	2016-06-12
kristen-1180	2016-06-13
kristen-941	2015-12-07
kristen-1624	2015-11-19
kristen-258	2016-06-21
kristen-1622	2015-12-03
kristen-1623	2015-12-02
kristen-947	2015-12-02
kristen-946	2015-12-02
kristen-2028	2015-03-23
kristen-743	2016-03-31
kristen-1959	2016-06-16
kristen-54	2016-06-24
kristen-56	2016-06-23
kristen-57	2016-06-22
kristen-1989	2015-11-15
kristen-1988	2015-11-17
kristen-1829	2016-03-27
kristen-1985	2015-12-01
kristen-1981	2015-12-08
kristen-1980	2015-12-09
kristen-711	2015-07-14
kristen-1461	2016-06-02
kristen-775	2015-06-29
kristen-629	2016-06-22
kristen-130	2015-08-27
kristen-647	2016-01-12
kristen-1523	2014-10-13
kristen-1522	2014-11-17
kristen-134	2015-07-08
kristen-135	2015-07-08
kristen-529	2016-06-22
kristen-987	2015-11-18
kristen-526	2016-06-22
kristen-770	2015-07-29
kristen-521	2016-06-16
kristen-520	2016-06-16
kristen-1510	2015-07-15
kristen-1312	2016-06-04
kristen-1310	2016-06-09
kristen-1314	2016-06-03
kristen-966	2015-02-10
kristen-1093	2015-12-03
kristen-1094	2015-12-03
kristen-1794	2016-06-14
kristen-739	2016-06-12
kristen-1792	2016-06-15
kristen-1791	2016-06-15
kristen-730	2016-06-23
kristen-1607	2016-06-20
kristen-736	2016-06-20
kristen-1798	2016-06-13
kristen-1006	2014-02-04
kristen-1007	2014-01-13
kristen-1556	2016-03-22
kristen-1005	2014-02-04
kristen-188	2015-06-25
kristen-1000	2015-05-27
kristen-223	2014-10-22
kristen-1559	2015-12-03
kristen-1891	2016-06-22
kristen-1890	2016-06-22
kristen-1676	2015-07-23
kristen-1895	2016-06-22
kristen-1779	2016-06-21
kristen-1896	2016-06-22
kristen-852	2016-01-22
kristen-1776	2016-06-22
kristen-919	2016-04-04
kristen-1954	2016-06-22
kristen-1773	2016-06-22
kristen-1386	2015-06-24
kristen-1383	2015-07-16
kristen-847	2016-02-19
kristen-851	2016-01-27
kristen-1388	2015-06-04
kristen-1001	2014-09-29
kristen-359	2016-06-23
kristen-455	2015-11-18
kristen-453	2016-01-05
kristen-450	2016-01-13
kristen-1700	2015-04-13
kristen-352	2016-06-24
kristen-1705	2015-03-31
kristen-355	2016-06-23
kristen-356	2016-06-23
kristen-1706	2015-03-23
kristen-12	2016-06-17
kristen-18	2016-06-16
kristen-814	2015-09-16
kristen-288	2016-04-14
kristen-1179	2016-06-13
kristen-1176	2016-06-15
kristen-1953	2016-06-23
kristen-97	2016-01-22
kristen-1172	2016-06-15
kristen-1171	2016-06-15
kristen-517	2016-06-16
kristen-435	2016-06-21
kristen-2015	2016-01-06
kristen-86	2016-03-23
kristen-85	2016-03-23
kristen-177	2015-01-05
kristen-83	2016-03-24
kristen-631	2016-06-15
kristen-80	2016-03-29
kristen-1878	2016-06-23
kristen-1876	2016-06-23
kristen-1875	2016-06-23
kristen-1874	2016-06-23
kristen-433	2016-06-22
kristen-1257	2016-06-12
kristen-432	2016-06-22
kristen-64	2016-06-21
kristen-1581	2014-12-15
kristen-1580	2014-12-19
kristen-1589	2014-07-15
kristen-1588	2014-07-16
kristen-518	2016-06-16
kristen-389	2016-03-31
kristen-387	2016-04-08
kristen-385	2016-04-18
kristen-384	2016-04-19
kristen-380	2016-06-08
kristen-774	2015-07-16
kristen-1452	2016-06-20
kristen-1454	2016-06-17
kristen-679	2016-06-20
kristen-771	2015-07-29
kristen-1459	2016-06-02
kristen-1458	2016-06-02
kristen-674	2015-06-18
kristen-672	2015-06-24
kristen-778	2015-06-25
kristen-670	2015-06-26
kristen-573	2013-05-16
kristen-1255	2016-06-16
kristen-578	2016-06-28
kristen-369	2016-06-17
kristen-1222	2015-06-11
kristen-1223	2015-05-20
kristen-1220	2015-06-24
kristen-1221	2015-06-17
kristen-1226	2015-03-26
kristen-1739	2014-08-02
kristen-365	2016-06-20
kristen-492	2016-06-22
kristen-491	2016-06-22
kristen-490	2016-06-22
kristen-496	2016-06-21
kristen-494	2016-06-22
kristen-701	2015-11-17
kristen-700	2015-11-17
kristen-1350	2016-06-16
kristen-313	2016-06-22
kristen-254	2016-06-22
kristen-257	2016-06-21
kristen-256	2016-06-22
kristen-251	2016-06-23
kristen-250	2016-06-23
kristen-253	2016-06-23
kristen-1052	2016-06-02
kristen-1121	2013-08-22
kristen-1649	2016-06-27
kristen-922	2016-03-30
kristen-1640	2015-04-15
kristen-1641	2015-04-14
kristen-925	2016-03-28
kristen-1643	2015-03-11
kristen-1902	2016-06-20
kristen-1901	2016-06-23
kristen-408	2015-12-04
kristen-958	2015-07-29
kristen-959	2015-07-29
kristen-401	2016-02-10
kristen-1636	2015-06-12
kristen-705	2015-11-16
kristen-42	2016-02-11
kristen-41	2016-02-11
kristen-46	2016-02-03
kristen-974	2014-09-05
kristen-1054	2016-05-19
kristen-709	2015-07-31
kristen-708	2015-08-04
kristen-1836	2016-01-20
kristen-417	2015-06-25
kristen-252	2016-06-23
kristen-416	2015-06-30
kristen-734	2016-06-20
kristen-104	2015-12-15
kristen-107	2015-12-08
kristen-106	2015-12-09
kristen-1555	2016-06-13
kristen-534	2016-06-12
kristen-108	2015-12-08
kristen-1064	2016-03-30
kristen-1065	2016-03-28
kristen-1066	2016-03-28
kristen-1067	2016-03-28
kristen-1060	2016-04-28
kristen-1063	2016-03-30
kristen-697	2015-12-17
kristen-634	2016-06-13
kristen-1068	2016-03-24
kristen-692	2016-04-11
kristen-762	2015-10-08
kristen-1781	2016-06-21
kristen-1780	2016-06-21
kristen-1782	2016-06-20
kristen-748	2016-03-04
kristen-1789	2016-06-16
kristen-1788	2016-06-16
kristen-1462	2016-06-02
kristen-1463	2016-05-06
kristen-1464	2016-03-08
kristen-217	2015-02-03
kristen-620	2016-04-18
kristen-602	2016-06-14
kristen-1542	2014-05-30
kristen-194	2016-06-20
kristen-768	2015-08-07
kristen-581	2016-06-24
kristen-580	2016-06-27
kristen-582	2016-06-24
kristen-584	2016-06-23
kristen-587	2016-06-22
kristen-586	2016-06-23
kristen-849	2016-01-27
kristen-1604	2016-06-22
kristen-1605	2016-06-22
kristen-1768	2016-06-23
kristen-1943	2015-07-20
kristen-1942	2015-08-13
kristen-1765	2016-06-23
kristen-843	2016-06-12
kristen-1947	2015-06-25
kristen-1762	2016-06-24
kristen-1761	2016-06-24
kristen-1944	2015-07-20
kristen-707	2015-11-13
kristen-993	2015-10-06
kristen-990	2015-11-18
kristen-997	2015-07-01
kristen-706	2015-11-16
kristen-1267	2016-02-12
kristen-446	2016-06-01
kristen-1265	2016-02-24
kristen-1309	2016-06-10
kristen-368	2016-06-20
kristen-443	2016-06-12
kristen-1305	2016-06-20
kristen-1306	2016-06-14
kristen-360	2016-06-23
kristen-1777	2016-06-22
kristen-1119	2013-09-17
kristen-1115	2014-06-02
kristen-1116	2014-01-13
kristen-1111	2014-12-17
kristen-559	2014-08-14
kristen-1281	2015-12-18
kristen-1958	2016-06-17
kristen-1169	2016-06-20
kristen-1168	2016-06-21
kristen-292	2016-04-08
kristen-1162	2016-06-22
kristen-1164	2016-06-21
kristen-1166	2016-06-21
kristen-804	2015-11-23
kristen-73	2016-05-19
kristen-70	2016-06-14
kristen-74	2016-05-19
kristen-2008	2016-02-12
kristen-1849	2015-12-02
kristen-1966	2016-03-23
kristen-1846	2015-12-04
kristen-1847	2015-12-04
kristen-786	2016-05-23
kristen-668	2015-07-09
kristen-660	2015-10-26
kristen-661	2015-10-19
kristen-662	2015-10-06
kristen-1504	2016-01-13
kristen-547	2015-06-25
kristen-546	2015-06-25
kristen-1723	2014-11-14
kristen-805	2015-11-20
kristen-1488	2015-06-25
kristen-1720	2014-11-21
kristen-800	2015-12-08
kristen-809	2015-10-21
kristen-329	2016-06-15
kristen-1709	2015-02-27
kristen-482	2016-06-23
kristen-485	2016-06-23
kristen-321	2016-06-20
kristen-320	2016-06-22
kristen-890	2016-06-20
kristen-710	2015-07-22
kristen-7	2016-06-23
kristen-986	2015-11-19
kristen-1349	2016-06-23
kristen-1348	2016-06-23
kristen-1027	2013-05-16
kristen-1157	2016-06-23
kristen-243	2014-04-02
kristen-1239	2014-11-21
kristen-1238	2014-12-04
kristen-458	2015-11-12
kristen-39	2016-03-02
kristen-31	2016-05-02
kristen-1803	2016-06-20
kristen-260	2016-06-20
kristen-294	2016-04-07
kristen-296	2016-06-27
kristen-112	2015-11-19
kristen-116	2015-09-29
kristen-505	2016-06-17
kristen-507	2016-06-17
kristen-264	2016-06-15
kristen-1366	2015-12-03
kristen-309	2016-06-23
kristen-308	2016-06-23
kristen-1076	2016-02-02
kristen-275	2016-05-19
kristen-755	2015-12-02
kristen-204	2016-01-05
kristen-750	2016-01-05
kristen-614	2016-05-18
kristen-1576	2015-02-02
kristen-610	2016-05-25
kristen-598	2016-06-20
kristen-1575	2015-02-03
kristen-596	2016-06-21
kristen-597	2016-06-20
kristen-594	2016-06-21
kristen-1375	2015-11-10
kristen-593	2016-06-22
kristen-1207	2016-02-11
kristen-879	2016-06-24
kristen-1202	2016-05-13
kristen-1619	2016-02-11
kristen-1208	2016-01-14
kristen-1978	2015-12-11
kristen-1686	2015-06-11
kristen-476	2016-06-27
kristen-1271	2016-01-08
kristen-1273	2016-01-07
kristen-1272	2016-01-08
kristen-1277	2016-01-05
kristen-1276	2016-01-06
kristen-273	2016-05-26
kristen-272	2016-05-31
kristen-277	2016-05-18
kristen-756	2015-11-30
kristen-1376	2015-11-10
kristen-274	2016-05-20
kristen-1298	2016-06-27
kristen-1292	2015-10-23
kristen-1291	2015-10-23
kristen-905	2016-05-17
kristen-1190	2016-05-18
kristen-1191	2016-05-18
kristen-611	2016-05-24
kristen-612	2016-05-19
kristen-2033	2015-02-03
kristen-60	2016-06-22
kristen-155	2015-04-06
kristen-1472	2015-12-02
kristen-1850	2016-06-28
kristen-1994	2015-08-07
kristen-1859	2016-06-26
kristen-650	2015-12-14
kristen-655	2015-12-01
kristen-972	2014-09-16
kristen-553	2015-02-03
kristen-557	2014-11-21
kristen-554	2015-01-08
kristen-1494	2015-03-25
kristen-1086	2016-01-05
kristen-1084	2016-01-05
kristen-1498	2016-05-23
kristen-1328	2016-04-18
kristen-873	2015-09-24
kristen-101	2016-01-07
kristen-888	2016-06-20
kristen-889	2016-06-20
kristen-880	2016-06-24
kristen-333	2016-06-15
kristen-330	2016-06-15
kristen-236	2014-04-25
kristen-235	2014-05-05
kristen-726	2014-11-21
kristen-233	2014-05-14
kristen-230	2014-07-01
kristen-1037	2016-06-22
kristen-1882	2016-06-23
kristen-908	2016-05-16
kristen-1880	2016-06-23
kristen-1881	2016-06-23
kristen-1662	2016-01-20
kristen-1149	2016-06-27
kristen-900	2016-05-31
kristen-903	2016-05-24
kristen-902	2016-05-26
kristen-807	2015-11-03
kristen-1392	2015-05-14
kristen-1268	2016-02-02
kristen-1396	2015-03-23
kristen-1719	2014-12-04
kristen-343	2016-06-02
kristen-1717	2015-01-14
kristen-833	2016-06-22
kristen-340	2016-06-08
kristen-1244	2014-07-31
kristen-346	2016-06-27
kristen-1710	2015-02-13
kristen-1711	2015-02-13
kristen-1764	2016-06-24
kristen-1240	2014-09-18
kristen-1547	2014-04-16
kristen-1817	2016-05-18
kristen-1816	2016-05-18
kristen-1713	2015-02-03
kristen-99	2016-01-07
kristen-282	2016-05-05
kristen-169	2015-02-03
kristen-90	2016-03-02
kristen-166	2015-02-03
kristen-165	2015-02-06
kristen-94	2016-02-02
kristen-95	2016-02-02
kristen-96	2016-02-02
kristen-1869	2016-06-24
kristen-1864	2016-06-25
kristen-1865	2016-06-25
kristen-1867	2016-06-24
kristen-1863	2016-06-25
kristen-480	2016-06-23
kristen-481	2016-06-23
kristen-1598	2016-06-27
kristen-1049	2016-06-14
kristen-1370	2015-12-03
kristen-1278	2016-01-04
kristen-1818	2016-05-18
kristen-769	2015-07-29
kristen-1374	2015-12-01
kristen-607	2016-06-09
kristen-1449	2016-06-20
kristen-897	2016-06-01
kristen-566	2014-06-26
kristen-896	2016-06-03
kristen-1217	2015-07-09
kristen-789	2016-04-18
kristen-1210	2015-10-28
kristen-1969	2016-02-23
kristen-1968	2016-02-26
kristen-781	2016-06-23
kristen-787	2016-05-19
kristen-1748	2014-06-30
kristen-468	2015-07-16
kristen-466	2015-07-22
kristen-467	2015-07-22
kristen-1697	2015-05-14
kristen-463	2015-09-29
kristen-307	2016-06-23
kristen-1362	2015-12-04
kristen-1361	2015-12-15
kristen-1360	2015-12-18
kristen-1367	2015-12-03
kristen-265	2016-06-15
kristen-1365	2015-12-04
kristen-1364	2015-12-04
kristen-1130	2012-06-20
kristen-1916	2016-03-23
kristen-1913	2016-03-31
kristen-1302	2016-06-24
kristen-419	2015-06-25
kristen-418	2015-06-25
kristen-940	2015-12-09
kristen-942	2015-12-07
kristen-745	2016-03-23
kristen-1189	2016-05-19
kristen-1188	2016-05-23
kristen-2020	2015-07-30
kristen-2027	2015-03-23
kristen-741	2016-05-19
kristen-1821	2016-04-27
kristen-1822	2016-04-27
kristen-1823	2016-04-27
kristen-1828	2016-04-04
kristen-1986	2015-12-01
kristen-1984	2015-12-02
kristen-1983	2015-12-04
kristen-1982	2015-12-08
kristen-191	2015-02-28
kristen-931	2016-06-23
kristen-1015	2013-10-28
kristen-583	2016-06-24
kristen-1520	2014-11-20
kristen-645	2016-02-23
kristen-640	2016-04-05
kristen-528	2016-06-22
kristen-522	2016-06-16
kristen-1098	2016-06-23
kristen-965	2015-06-16
kristen-737	2016-06-16
kristen-224	2014-10-09
kristen-225	2014-10-01
kristen-220	2014-11-20
kristen-221	2014-11-20
kristen-187	2015-07-23
kristen-180	2016-05-24
kristen-1008	2014-01-07
kristen-182	2016-01-05
kristen-913	2016-04-25
kristen-1892	2016-06-22
kristen-916	2016-04-13
kristen-914	2016-04-18
kristen-915	2016-04-18
kristen-1951	2016-06-23
kristen-918	2016-04-06
kristen-1957	2016-06-20
kristen-133	2015-07-09
kristen-1381	2015-08-03
kristen-1774	2016-06-22
kristen-358	2016-06-23
kristen-981	2016-01-12
kristen-452	2016-01-05
kristen-451	2016-01-06
kristen-824	2015-06-09
kristen-357	2016-06-23
kristen-1952	2016-06-23
kristen-719	2015-02-21
kristen-1175	2016-06-15
kristen-1173	2016-06-15
kristen-1170	2016-06-16
kristen-2010	2016-01-19
kristen-2013	2016-01-07
kristen-2014	2016-01-06
kristen-819	2015-06-25
kristen-174	2015-01-22
kristen-84	2016-03-24
kristen-171	2015-02-02
kristen-266	2016-06-14
kristen-1879	2016-06-23
kristen-1877	2016-06-23
kristen-1873	2016-06-23
kristen-1872	2016-06-23
kristen-1871	2016-06-23
kristen-1870	2016-06-23
kristen-1585	2014-07-16
kristen-386	2016-04-18
kristen-383	2016-05-18
kristen-381	2016-06-03
kristen-1451	2016-06-20
kristen-1450	2016-06-20
kristen-772	2015-07-28
kristen-678	2015-05-12
kristen-677	2015-06-02
kristen-675	2015-06-17
kristen-671	2015-06-25
kristen-779	2015-06-25
kristen-574	2013-05-16
kristen-575	2013-05-16
kristen-576	2013-04-18
kristen-798	2016-01-05
kristen-1732	2014-09-08
kristen-1227	2015-02-25
kristen-790	2016-04-14
kristen-791	2016-03-23
kristen-1228	2015-02-25
kristen-1229	2015-02-25
kristen-794	2016-01-19
kristen-795	2016-01-12
kristen-796	2016-01-11
kristen-797	2016-01-08
kristen-1009	2014-01-03
kristen-1254	2016-06-20
kristen-498	2016-06-20
kristen-1357	2016-01-11
kristen-310	2016-06-23
kristen-1353	2016-04-04
kristen-1351	2016-04-04
kristen-1057	2016-05-19
kristen-1056	2016-05-19
kristen-318	2016-06-22
kristen-319	2016-06-22
kristen-1358	2016-01-11
kristen-1359	2016-01-07
kristen-1127	2013-02-06
kristen-923	2016-03-29
kristen-1645	2015-02-10
kristen-1646	2015-02-03
kristen-920	2016-04-04
kristen-261	2016-06-20
kristen-1909	2016-04-29
kristen-1908	2016-05-10
kristen-315	2016-06-22
kristen-1045	2016-06-15
kristen-1633	2015-06-25
kristen-1635	2015-06-16
kristen-953	2015-09-17
kristen-951	2015-09-20
kristen-763	2015-10-07
kristen-1830	2016-03-24
kristen-731	2016-06-23
kristen-929	2016-06-27
kristen-2045	2014-11-21
kristen-538	2016-01-05
kristen-100	2016-01-07
kristen-102	2016-01-07
kristen-537	2016-01-05
kristen-530	2016-06-22
kristen-532	2016-06-22
kristen-189	2015-05-26
kristen-921	2016-03-30
kristen-761	2015-10-23
kristen-760	2015-10-23
kristen-695	2016-02-23
kristen-414	2015-07-14
kristen-691	2016-05-19
kristen-690	2016-05-26
kristen-765	2015-10-01
kristen-639	2016-04-11
kristen-219	2014-12-12
kristen-1785	2016-06-20
kristen-210	2015-06-25
kristen-742	2016-03-31
kristen-1466	2016-01-05
kristen-216	2015-02-04
kristen-193	2015-01-14
kristen-1544	2014-05-30
kristen-1543	2014-05-30
kristen-1014	2013-10-31
kristen-626	2016-03-28
kristen-766	2015-09-29
kristen-198	2016-04-04
kristen-199	2016-03-04
kristen-1549	2016-06-23
kristen-1601	2016-06-23
kristen-1602	2016-06-23
kristen-1948	2015-06-25
kristen-962	2015-06-25
kristen-1766	2016-06-23
kristen-1940	2015-09-10
kristen-910	2016-05-04
kristen-1945	2015-06-29
kristen-917	2016-04-07
kristen-1266	2016-02-23
kristen-1950	2016-06-24
kristen-1262	2016-05-12
kristen-1263	2016-04-18
kristen-1261	2016-05-12
kristen-1304	2016-06-23
kristen-367	2016-06-20
kristen-1301	2016-06-24
kristen-449	2016-01-19
kristen-363	2016-06-23
kristen-1269	2016-02-02
kristen-1118	2013-10-29
kristen-1114	2014-07-10
kristen-1113	2014-09-09
kristen-1288	2015-11-18
kristen-1284	2015-12-04
kristen-1283	2015-12-08
kristen-1161	2016-06-22
kristen-1163	2016-06-22
kristen-1744	2014-07-14
kristen-860	2016-01-05
kristen-1214	2015-07-14
kristen-1587	2014-07-16
kristen-864	2015-12-04
kristen-1584	2014-07-16
kristen-869	2015-10-11
kristen-2003	2016-05-17
kristen-1746	2014-07-09
kristen-388	2016-03-31
kristen-1741	2014-07-21
kristen-776	2015-06-26
kristen-777	2015-06-26
kristen-1699	2015-04-28
kristen-1698	2015-04-30
kristen-773	2015-07-23
kristen-1842	2015-12-07
kristen-1843	2015-12-04
kristen-1840	2015-12-10
kristen-1841	2015-12-07
kristen-1696	2015-05-14
kristen-1695	2015-05-14
kristen-1196	2016-05-17
kristen-302	2016-06-24
kristen-1193	2016-05-17
kristen-579	2016-06-27
kristen-1885	2016-06-22
kristen-34	2016-05-02
kristen-247	2016-06-27
kristen-817	2015-07-16
kristen-816	2015-07-23
kristen-1260	2016-05-13
kristen-811	2015-10-01
kristen-245	2016-06-27
kristen-33	2016-05-02
kristen-156	2015-03-23
kristen-1915	2016-03-23
kristen-470	2015-07-03
kristen-1912	2016-04-11
kristen-151	2015-05-13
kristen-624	2016-04-05
kristen-158	2015-03-23
kristen-393	2016-03-23
kristen-1574	2015-02-24
kristen-1502	2016-03-11
kristen-1858	2016-06-26
kristen-545	2015-06-26
kristen-1354	2016-02-04
kristen-1355	2016-02-04
kristen-1183	2016-06-09
kristen-627	2016-03-24
kristen-1626	2015-11-10
kristen-411	2015-10-01
kristen-1053	2016-05-26
kristen-1621	2015-12-03
kristen-344	2016-05-09
kristen-1721	2014-11-20
kristen-1648	2016-06-27
kristen-1726	2014-09-26
kristen-1644	2015-03-02
kristen-1486	2015-07-23
kristen-1487	2015-06-26
kristen-50	2016-06-27
kristen-52	2016-06-27
kristen-1900	2016-06-27
kristen-0	2016-06-27
kristen-558	2014-10-06
kristen-484	2016-06-23
kristen-552	2015-04-22
kristen-129	2015-09-04
kristen-1492	2015-04-28
kristen-325	2016-06-17
kristen-1639	2015-04-24
kristen-1638	2015-06-01
kristen-1343	2016-03-17
kristen-5	2016-06-26
kristen-2	2016-06-27
kristen-3	2016-06-26
kristen-244	2016-06-28
kristen-1	2016-06-27
kristen-400	2016-02-26
kristen-957	2015-08-05
kristen-248	2016-06-24
kristen-1632	2015-06-25
kristen-1637	2015-06-08
kristen-9	2016-06-22
kristen-1150	2016-06-27
kristen-1151	2016-06-27
kristen-49	2016-01-22
kristen-1496	2015-03-07
kristen-40	2016-02-24
kristen-1658	2016-04-27
kristen-1657	2016-05-10
kristen-1085	2016-01-05
kristen-47	2016-01-22
kristen-1083	2016-01-05
kristen-1651	2016-06-26
kristen-1650	2016-06-27
kristen-413	2015-07-14
kristen-827	2015-06-09
kristen-2025	2015-04-13
kristen-136	2015-06-30
kristen-137	2015-06-30
kristen-138	2015-06-26
kristen-1839	2015-12-14
kristen-1838	2015-12-14
kristen-332	2016-06-15
kristen-882	2016-06-22
kristen-649	2015-12-17
kristen-577	2013-03-27
kristen-1031	2016-06-27
kristen-1030	2016-06-27
kristen-729	2016-06-27
kristen-464	2015-09-24
kristen-1140	2011-05-04
kristen-1883	2016-06-23
kristen-1091	2015-12-03
kristen-1090	2015-12-03
kristen-1927	2016-01-05
kristen-35	2016-04-27
kristen-901	2016-05-27
kristen-1920	2016-03-02
kristen-1888	2016-06-22
kristen-1844	2015-12-04
kristen-1390	2015-05-20
kristen-1391	2015-05-20
kristen-1939	2015-09-16
kristen-1793	2016-06-14
kristen-2046	2014-11-19
kristen-1248	2016-06-23
kristen-2021	2015-06-25
kristen-226	2014-10-01
kristen-426	2016-06-27
kristen-1718	2014-12-18
kristen-831	2016-06-24
kristen-342	2016-06-02
kristen-1715	2015-01-22
kristen-1712	2015-02-11
kristen-834	2016-06-17
kristen-836	2016-06-16
kristen-826	2015-06-09
kristen-28	2016-05-03
kristen-25	2016-05-22
kristen-1338	2016-03-23
kristen-27	2016-05-04
kristen-300	2016-06-27
kristen-1679	2015-07-22
kristen-1678	2015-07-23
kristen-1956	2016-06-20
kristen-845	2016-03-03
kristen-293	2016-04-07
kristen-295	2016-04-07
kristen-1380	2015-08-17
kristen-830	2016-06-24
kristen-1389	2015-06-04
kristen-115	2015-11-02
kristen-218	2015-01-22
kristen-832	2016-06-24
kristen-749	2016-03-02
kristen-1786	2016-06-18
kristen-347	2016-06-26
kristen-215	2015-02-13
kristen-214	2015-03-11
kristen-1708	2015-03-06
kristen-1259	2016-05-25
kristen-454	2015-11-20
kristen-196	2016-05-26
kristen-625	2016-03-31
kristen-1152	2016-06-27
kristen-1701	2015-04-08
kristen-351	2016-06-24
kristen-1250	2016-06-22
kristen-354	2016-06-24
kristen-1707	2015-03-08
kristen-848	2016-01-29
kristen-808	2015-10-26
kristen-524	2016-06-16
kristen-14	2016-06-16
kristen-475	2016-06-27
kristen-53	2016-06-26
kristen-1763	2016-06-24
kristen-1946	2015-06-26
kristen-286	2016-04-18
kristen-284	2016-04-28
kristen-477	2016-06-26
kristen-280	2016-05-16
kristen-857	2016-01-13
kristen-91	2016-03-02
kristen-160	2015-03-07
kristen-878	2015-08-31
kristen-551	2015-05-19
kristen-1631	2015-07-30
kristen-345	2016-05-09
kristen-1866	2016-06-25
kristen-1860	2016-06-25
kristen-1861	2016-06-25
kristen-1089	2015-12-08
kristen-445	2016-06-12
kristen-617	2016-05-04
kristen-447	2016-03-08
kristen-613	2016-05-18
kristen-1264	2016-02-26
kristen-865	2015-12-02
kristen-1578	2015-01-23
kristen-1579	2015-01-23
kristen-448	2016-02-26
kristen-362	2016-06-23
kristen-1590	2014-07-10
kristen-1591	2014-07-10
kristen-1592	2014-06-26
kristen-1041	2016-06-16
kristen-231	2014-06-30
kristen-1752	2016-06-27
kristen-1599	2016-06-25
kristen-1750	2016-06-27
kristen-1751	2016-06-27
kristen-1756	2016-06-24
kristen-1757	2016-06-24
kristen-1754	2016-06-26
kristen-350	2016-06-24
kristen-361	2016-06-23
kristen-178	2014-12-17
kristen-89	2016-03-02
kristen-175	2015-01-14
kristen-1282	2015-12-11
kristen-173	2015-01-22
kristen-209	2015-06-26
kristen-1680	2015-06-26
kristen-1681	2015-06-26
kristen-26	2016-05-17
kristen-513	2016-06-17
kristen-1561	2015-10-30
kristen-1685	2015-06-15
kristen-1563	2015-10-15
kristen-1687	2015-06-01
kristen-563	2014-07-11
kristen-465	2015-09-03
kristen-278	2016-05-18
kristen-1274	2016-01-07
kristen-1558	2015-12-08
kristen-1742	2014-07-16
kristen-271	2016-06-01
kristen-550	2015-05-19
kristen-861	2016-01-05
kristen-1108	2015-11-19
kristen-1749	2014-06-24
kristen-2002	2016-05-27
kristen-142	2015-06-25
kristen-2007	2016-03-07
kristen-144	2015-06-23
kristen-75	2016-04-21
kristen-148	2015-06-18
kristen-1294	2015-10-03
kristen-1074	2016-03-02
kristen-1457	2016-06-12
kristen-1456	2016-06-16
kristen-1692	2015-05-14
kristen-1691	2015-05-15
kristen-1694	2015-05-14
kristen-268	2016-06-13
kristen-1195	2016-05-17
kristen-305	2016-06-24
kristen-1197	2016-05-17
kristen-1225	2015-04-07
kristen-793	2016-01-20
kristen-1136	2011-07-06
kristen-1137	2011-05-26
kristen-1135	2011-07-11
kristen-150	2015-06-16
kristen-69	2016-06-14
kristen-1919	2016-03-08
kristen-439	2016-06-15
kristen-493	2016-06-22
kristen-589	2016-06-22
kristen-497	2016-06-20
kristen-669	2015-07-09
kristen-495	2016-06-22
kristen-499	2016-06-20
kristen-314	2016-06-22
kristen-316	2016-06-22
kristen-1352	2016-04-04
kristen-8	2016-06-22
kristen-1181	2016-06-13
kristen-542	2015-09-04
kristen-1055	2016-05-19
kristen-410	2015-11-18
kristen-486	2016-06-23
kristen-1125	2013-04-11
kristen-1126	2013-03-12
kristen-1725	2014-10-17
kristen-1333	2016-04-05
kristen-1728	2014-09-16
kristen-13	2016-06-17
kristen-1128	2012-12-12
kristen-2026	2015-04-06
kristen-1906	2016-06-15
kristen-1905	2016-06-16
kristen-1904	2016-06-16
kristen-1903	2016-06-19
kristen-123	2015-09-28
kristen-1537	2014-07-29
kristen-483	2016-06-23
kristen-127	2015-09-15
kristen-126	2015-09-16
kristen-125	2015-09-22
kristen-1614	2016-06-12
kristen-556	2014-11-24
kristen-327	2016-06-15
kristen-43	2016-02-05
kristen-1347	2016-03-10
kristen-1630	2015-09-29
kristen-932	2016-06-16
kristen-406	2016-01-06
kristen-1153	2016-06-24
kristen-1154	2016-06-23
kristen-1628	2015-10-09
kristen-1158	2016-06-23
kristen-1655	2016-06-20
kristen-1654	2016-06-22
kristen-934	2016-06-12
kristen-935	2016-03-22
kristen-45	2016-02-05
kristen-44	2016-02-05
kristen-255	2016-06-22
kristen-1930	2015-12-02
kristen-1937	2015-10-08
kristen-1938	2015-09-22
kristen-1521	2014-11-18
kristen-353	2016-06-24
kristen-642	2016-03-30
kristen-338	2016-06-13
kristen-336	2016-06-13
kristen-525	2016-06-23
kristen-335	2016-06-15
kristen-648	2016-01-07
kristen-1039	2016-06-20
kristen-721	2014-12-21
kristen-1033	2016-06-23
kristen-1234	2015-01-13
kristen-1237	2014-12-10
kristen-430	2016-06-23
kristen-1142	2011-05-02
kristen-1141	2011-05-04
kristen-1667	2015-11-19
kristen-1665	2015-11-24
kristen-1806	2016-06-13
kristen-1801	2016-06-21
kristen-1796	2016-06-13
kristen-539	2015-12-02
kristen-269	2016-06-13
kristen-732	2016-06-22
kristen-733	2016-06-22
kristen-17	2016-06-16
kristen-531	2016-06-22
kristen-533	2016-06-22
kristen-423	2015-01-20
kristen-1550	2016-06-22
kristen-1551	2016-06-22
kristen-1552	2016-06-22
kristen-1553	2016-06-20
kristen-637	2016-04-18
kristen-228	2014-07-18
kristen-19	2016-06-16
kristen-1674	2015-08-03
kristen-1043	2016-06-16
kristen-858	2016-01-11
kristen-1671	2015-11-11
kristen-1061	2016-04-06
kristen-1673	2015-09-29
kristen-1672	2015-10-15
kristen-694	2016-03-22
kristen-1770	2016-06-22
kristen-1955	2016-06-20
kristen-1772	2016-06-22
kristen-22	2016-06-15
kristen-572	2013-06-26
kristen-928	2016-03-23
kristen-1382	2015-07-24
kristen-111	2015-11-19
kristen-117	2015-09-29
kristen-1784	2016-06-20
kristen-55	2016-06-23
kristen-1460	2016-06-02
kristen-746	2016-03-22
kristen-457	2015-11-14
kristen-622	2016-04-12
kristen-623	2016-04-05
kristen-195	2016-06-17
kristen-628	2016-03-23
kristen-1702	2015-04-06
kristen-989	2015-11-18
kristen-1600	2016-06-25
kristen-11	2016-06-20
kristen-1603	2016-06-22
kristen-15	2016-06-16
kristen-1606	2016-06-22
kristen-1070	2016-03-22
kristen-1609	2016-06-20
kristen-842	2016-06-13
kristen-844	2016-03-22
kristen-968	2015-01-07
kristen-287	2016-04-18
kristen-285	2016-04-20
kristen-604	2016-06-12
kristen-281	2016-05-13
kristen-1778	2016-06-22
kristen-93	2016-02-22
kristen-1760	2016-06-24
kristen-995	2015-07-31
kristen-759	2015-10-28
kristen-510	2016-06-17
kristen-1473	2015-11-14
kristen-810	2015-10-01
kristen-1477	2015-10-09
kristen-1476	2015-10-15
kristen-201	2016-02-23
kristen-615	2016-05-17
kristen-1571	2015-09-11
kristen-1178	2016-06-13
kristen-364	2016-06-22
kristen-1174	2016-06-15
kristen-590	2016-06-22
kristen-1205	2016-03-02
kristen-1758	2016-06-24
kristen-1759	2016-06-24
kristen-1046	2016-06-15
kristen-1044	2016-06-15
kristen-1597	2014-05-07
kristen-585	2016-06-23
kristen-616	2016-05-13
kristen-1307	2016-06-12
kristen-1769	2016-06-23
kristen-88	2016-03-02
kristen-16	2016-06-16
kristen-1824	2016-04-07
kristen-1286	2015-12-04
kristen-170	2015-02-02
kristen-437	2016-06-15
kristen-479	2016-06-23
kristen-608	2016-05-27
kristen-609	2016-05-27
kristen-1568	2015-10-08
kristen-601	2016-06-15
kristen-606	2016-06-09
kristen-1448	2016-06-22
kristen-279	2016-05-17
kristen-560	2014-07-15
kristen-375	2016-06-14
kristen-312	2016-06-22
kristen-1167	2016-06-21
kristen-1377	2015-10-05
kristen-29304	2015-07-23
kristen-21183	2015-09-24
kristen-21203	2015-06-18
kristen-924	2016-03-28
kristen-12306	2015-07-28
kristen-13360	2012-03-01
kristen-49002	2016-03-02
kristen-47612	2015-07-16
kristen-68328	2015-07-16
kristen-89127	2015-07-15
kristen-60279	2015-10-07
kristen-46645	2015-07-16
kristen-41805	2016-01-12
kristen-32510	2015-12-11
kristen-17397	2015-11-06
kristen-29305	2015-07-15
kristen-81104	2015-07-14
kristen-24034	2013-01-22
kristen-45713	2016-06-13
kristen-54480	2013-06-26
kristen-44813	2015-07-28
kristen-1088	2015-12-14
kristen-35654	2015-04-28
kristen-47213	2015-07-21
kristen-14152	2015-07-14
kristen-38772	2012-05-30
kristen-28392	2015-07-30
kristen-76251	2014-12-12
kristen-67912	2014-01-22
kristen-89139	2015-06-11
kristen-74941	2015-09-16
kristen-1834	2016-01-22
kristen-77617	2015-06-18
kristen-56608	2015-07-15
kristen-89185	2014-11-17
kristen-621	2016-04-14
kristen-47647	2014-04-09
kristen-86642	2013-04-06
kristen-38577	2013-05-28
kristen-86135	2015-07-08
kristen-21576	2015-07-22
kristen-50059	2015-06-18
