180	391500006	391500005
155	440000302	440000301
200	645500053	645500052
178	68200010	68200009
155	440000324	440000316
177	235700069	235700068
175	29600078	29600077
188	302900007	302900006
173	196500029	196500028
162	581700045	581700041
179	402100018	402100017
191	54600064	54600061
183	113100114	113100113
193	672800021	672800019
155	440000344	440000343
167	344900024	344900023
155	440000291	440000284
178	68200050	68200049
163	12200019	12200016
182	736400046	736400045
191	54600151	54600150
156	675300123	675300122
153	107300005	107300004
166	485100061	485100060
175	29600069	29600068
201	760200101	760200100
169	76400194	76400191
189	33900044	33900001
187	296700020	296700019
192	152100013	152100012
164	154300152	154300151
201	760200112	760200108
191	54600196	54600195
156	675300152	675300151
155	440000082	440000080
166	485100017	485100016
193	672800004	672800003
173	196500020	196500019
156	675300080	675300079
179	402100017	402100016
155	440000259	440000258
155	440000120	440000119
191	54600285	54600284
200	645500070	645500069
154	750700019	750700018
155	440000080	440000077
178	68200025	68200024
169	76400068	76400065
153	107300014	107300012
155	440000104	440000097
191	54600134	54600133
187	296700002	296700001
155	440000012	440000011
164	154300079	154300078
153	107300042	107300040
186	153400030	153400029
175	29600099	29600098
164	154300022	154300017
156	675300010	675300009
155	440000050	440000049
178	68200021	68200020
199	65700042	65700041
164	154300142	154300141
164	154300172	154300171
155	440000330	440000323
201	760200073	760200072
155	440000116	440000114
154	750700037	750700036
182	736400079	736400010
186	153400010	153400009
202	4800014	4800012
164	154300070	154300068
189	33900038	33900001
190	285900013	285900012
155	440000225	440000224
188	302900024	302900023
164	154300143	154300142
181	760500036	760500034
155	440000365	440000364
186	153400015	153400014
188	302900030	302900029
155	440000366	440000365
189	33900024	33900001
155	440000355	440000354
188	302900025	302900024
202	4800022	4800021
155	440000024	440000023
162	581700017	581700016
201	760200121	760200120
193	672800039	672800038
191	54600197	54600196
197	778000015	778000014
189	33900017	33900001
156	675300124	675300123
155	440000099	440000097
164	154300154	154300120
155	440000343	440000342
161	17300037	17300001
155	440000279	440000278
181	760500010	760500008
195	266900016	266900015
191	54600222	54600221
161	17300020	17300001
166	485100030	485100028
183	113100061	113100060
169	76400037	76400036
185	677700002	677700001
200	645500007	645500006
196	5200028	5200026
169	76400034	76400024
168	241700045	241700016
175	29600021	29600001
173	196500039	196500038
156	675300145	675300144
166	485100008	485100007
155	440000266	440000264
192	152100023	152100021
168	241700033	241700032
199	65700013	65700012
175	29600003	29600001
189	33900064	33900001
175	29600079	29600077
201	760200050	760200049
196	5200026	5200025
193	672800056	672800055
161	17300030	17300001
184	742700009	742700008
192	152100011	152100010
164	154300100	154300099
164	154300147	154300146
196	5200022	5200003
178	68200059	68200058
164	154300033	154300031
189	33900031	33900001
182	736400010	736400007
164	154300112	154300110
182	736400076	736400001
200	645500020	645500004
183	113100012	113100011
194	119400015	119400014
193	672800055	672800054
169	76400183	76400171
164	154300110	154300109
193	672800036	672800035
177	235700047	235700046
197	778000006	778000005
164	154300002	154300001
169	76400196	76400194
183	113100101	113100085
160	97500022	97500021
188	302900022	302900021
201	760200072	760200071
158	107600007	107600006
189	33900074	33900001
189	33900046	33900001
155	440000073	440000072
175	29600029	29600001
172	478600010	478600009
155	440000118	440000015
164	154300071	154300070
193	672800010	672800009
169	76400077	76400069
192	152100042	152100041
201	760200097	760200096
175	29600056	29600001
161	17300027	17300001
201	760200051	760200050
154	750700011	750700010
155	440000297	440000296
164	154300129	154300128
166	485100058	485100057
202	4800003	4800002
191	54600265	54600264
184	742700008	742700006
166	485100022	485100021
166	485100062	485100061
153	107300003	107300001
157	784000010	784000009
156	675300043	675300042
169	76400191	76400186
161	17300023	17300001
188	302900013	302900012
177	235700058	235700057
201	760200042	760200041
161	17300025	17300001
167	344900009	344900007
175	29600057	29600001
201	760200045	760200044
183	113100027	113100026
175	29600094	29600093
199	65700020	65700001
201	760200104	760200101
161	17300002	17300001
155	440000106	440000105
197	778000008	778000007
180	391500008	391500001
173	196500040	196500039
201	760200099	760200097
187	296700022	296700021
164	154300035	154300034
164	154300105	154300104
158	107600019	107600018
173	196500023	196500022
200	645500043	645500042
159	537600020	537600019
197	778000145	778000144
164	154300178	154300177
182	736400027	736400026
159	537600013	537600012
199	65700006	65700005
187	296700015	296700013
188	302900002	302900001
182	736400037	736400036
191	54600019	54600018
201	760200110	760200109
202	4800017	4800016
188	302900015	302900013
165	427100019	427100016
202	4800058	4800051
161	17300098	17300096
192	152100012	152100011
175	29600105	29600001
169	76400132	76400131
168	241700041	241700040
191	54600229	54600228
156	675300093	675300092
173	196500060	196500044
169	76400157	76400156
182	736400021	736400020
161	17300032	17300001
192	152100035	152100034
154	750700035	750700034
164	154300138	154300137
183	113100151	113100150
164	154300109	154300108
167	344900013	344900012
191	54600131	54600130
200	645500022	645500015
168	241700069	241700068
161	17300058	17300056
156	675300069	675300066
200	645500066	645500065
169	76400195	76400192
168	241700031	241700015
183	113100108	113100107
164	154300116	154300115
183	113100013	113100012
191	54600208	54600207
195	266900003	266900001
192	152100017	152100016
154	750700046	750700045
189	33900032	33900001
168	241700002	241700001
157	784000029	784000028
173	196500017	196500015
181	760500008	760500007
193	672800035	672800034
182	736400032	736400031
166	485100051	485100046
156	675300149	675300147
173	196500031	196500030
186	153400020	153400018
185	677700016	677700015
164	154300148	154300143
153	107300039	107300034
186	153400019	153400018
156	675300125	675300124
166	485100049	485100046
189	33900053	33900001
189	33900040	33900001
201	760200076	760200075
161	17300076	17300071
175	29600045	29600001
201	760200060	760200059
183	113100003	113100002
188	302900004	302900003
191	54600035	54600032
200	645500014	645500013
200	645500019	645500018
196	5200025	5200024
189	33900018	33900001
167	344900023	344900021
155	440000003	440000002
183	113100066	113100065
187	296700018	296700017
189	33900072	33900001
155	440000076	440000073
193	672800029	672800028
155	440000228	440000223
181	760500017	760500016
193	672800025	672800015
154	750700044	750700035
189	33900080	33900002
183	113100010	113100009
188	302900008	302900007
191	54600031	54600030
187	296700012	296700011
197	778000018	778000017
181	760500038	760500037
164	154300080	154300079
155	440000211	440000208
163	12200003	12200001
155	440000275	440000272
156	675300118	675300117
169	76400073	76400072
155	440000299	440000298
201	760200039	760200038
182	736400026	736400025
200	645500024	645500023
162	581700028	581700024
170	471200007	471200001
169	76400130	76400125
183	113100080	113100079
155	440000023	440000022
189	33900058	33900001
155	440000383	440000005
159	537600018	537600017
154	750700053	750700045
155	440000257	440000255
193	672800052	672800051
191	54600170	54600169
165	427100043	427100042
201	760200043	760200042
189	33900043	33900001
174	124600004	124600003
201	760200100	760200098
175	29600005	29600001
169	76400115	76400114
154	750700006	750700005
182	736400033	736400031
191	54600046	54600043
168	241700010	241700009
179	402100011	402100010
158	107600010	107600007
168	241700011	241700009
155	440000119	440000118
197	778000168	778000167
155	440000102	440000101
201	760200059	760200058
155	440000338	440000337
162	581700029	581700022
166	485100054	485100053
196	5200030	5200029
191	54600045	54600044
175	29600043	29600001
185	677700011	677700010
182	736400020	736400018
197	778000179	778000178
182	736400078	736400011
188	302900019	302900015
155	440000098	440000096
192	152100038	152100035
161	17300057	17300056
155	440000296	440000293
161	17300009	17300001
175	29600060	29600001
174	124600021	124600020
184	742700006	742700005
156	675300067	675300061
201	760200028	760200027
178	68200018	68200015
165	427100005	427100004
197	778000031	778000030
161	17300029	17300001
197	778000036	778000030
178	68200063	68200062
193	672800041	672800040
158	107600069	107600068
175	29600088	29600087
155	440000272	440000270
175	29600104	29600103
193	672800076	672800074
195	266900019	266900018
169	76400008	76400006
193	672800037	672800035
164	154300069	154300067
164	154300072	154300071
164	154300136	154300135
162	581700004	581700003
164	154300102	154300100
155	440000377	440000375
164	154300124	154300123
202	4800046	4800045
196	5200027	5200026
155	440000026	440000025
185	677700061	677700060
155	440000029	440000028
175	29600103	29600099
175	29600020	29600001
189	33900034	33900001
155	440000301	440000300
191	54600017	54600015
165	427100039	427100038
189	33900052	33900001
181	760500020	760500019
156	675300037	675300036
164	154300123	154300120
188	302900014	302900008
155	440000081	440000079
168	241700005	241700004
155	440000186	440000185
197	778000032	778000015
155	440000072	440000071
198	4900028	4900001
165	427100017	427100016
193	672800007	672800006
191	54600127	54600126
170	471200005	471200004
175	29600008	29600001
155	440000374	440000373
182	736400040	736400037
155	440000300	440000299
173	196500022	196500021
165	427100042	427100041
156	675300113	675300112
168	241700075	241700001
171	65100048	65100047
188	302900009	302900008
155	440000386	440000015
166	485100053	485100052
173	196500016	196500011
156	675300114	675300113
155	440000069	440000068
201	760200047	760200043
158	107600012	107600011
201	760200109	760200105
153	107300006	107300005
201	760200074	760200073
165	427100028	427100019
182	736400070	736400069
155	440000122	440000121
156	675300130	675300123
200	645500034	645500032
201	760200009	760200005
169	76400153	76400152
171	65100024	65100012
196	5200031	5200027
177	235700054	235700053
155	440000270	440000269
174	124600020	124600019
202	4800015	4800013
202	4800008	4800007
168	241700014	241700013
182	736400060	736400059
177	235700042	235700041
201	760200078	760200067
183	113100105	113100101
175	29600098	29600097
164	154300137	154300121
160	97500008	97500007
196	5200024	5200023
172	478600004	478600002
166	485100027	485100026
158	107600023	107600021
193	672800066	672800065
168	241700036	241700035
191	54600284	54600283
177	235700014	235700013
178	68200030	68200029
155	440000339	440000336
201	760200115	760200114
176	81700003	81700002
155	440000183	440000015
186	153400034	153400033
173	196500042	196500041
191	54600069	54600067
162	581700010	581700009
161	17300034	17300001
182	736400030	736400029
197	778000033	778000032
171	65100039	65100038
189	33900055	33900001
175	29600033	29600001
165	427100013	427100012
163	12200020	12200019
188	302900041	302900040
170	471200012	471200011
161	17300006	17300001
154	750700081	750700080
199	65700018	65700013
173	196500033	196500032
179	402100013	402100012
166	485100043	485100042
182	736400047	736400046
177	235700024	235700023
200	645500068	645500067
193	672800013	672800012
171	65100019	65100018
156	675300109	675300108
173	196500045	196500044
164	154300066	154300065
164	154300107	154300106
201	760200092	760200091
164	154300117	154300116
171	65100008	65100005
161	17300050	17300049
163	12200010	12200001
155	440000114	440000109
191	54600182	54600181
182	736400031	736400030
169	76400141	76400140
155	440000233	440000211
178	68200005	68200001
174	124600019	124600018
191	54600177	54600168
201	760200079	760200078
201	760200117	760200116
173	196500049	196500048
155	440000346	440000345
191	54600171	54600170
193	672800079	672800078
155	440000112	440000111
188	302900011	302900010
166	485100021	485100020
175	29600042	29600001
155	440000351	440000350
193	672800009	672800007
161	17300049	17300048
158	107600003	107600002
201	760200084	760200083
159	537600009	537600008
156	675300008	675300006
173	196500048	196500047
189	33900020	33900001
197	778000074	778000072
186	153400031	153400001
164	154300067	154300066
158	107600011	107600010
189	33900061	33900001
173	196500019	196500016
193	672800023	672800022
201	760200105	760200104
168	241700003	241700002
168	241700008	241700007
161	17300041	17300038
158	107600017	107600016
177	235700003	235700002
201	760200120	760200119
175	29600058	29600001
182	736400063	736400062
200	645500036	645500035
180	391500011	391500010
164	154300106	154300103
156	675300092	675300091
189	33900006	33900001
172	478600012	478600011
168	241700040	241700039
164	154300140	154300139
164	154300075	154300074
201	760200113	760200112
155	440000213	440000210
185	677700003	677700001
155	440000185	440000184
156	675300046	675300045
156	675300121	675300120
184	742700023	742700015
156	675300011	675300010
155	440000025	440000023
181	760500042	760500041
154	750700080	750700079
187	296700004	296700001
191	54600024	54600023
155	440000219	440000218
175	29600015	29600001
156	675300116	675300115
178	68200024	68200022
201	760200068	760200067
181	760500007	760500006
201	760200088	760200087
173	196500034	196500033
175	29600085	29600084
156	675300048	675300046
153	107300016	107300013
161	17300036	17300001
155	440000361	440000360
172	478600008	478600006
156	675300041	675300040
157	784000023	784000022
200	645500026	645500025
175	29600097	29600096
155	440000250	440000249
178	68200027	68200026
161	17300040	17300001
191	54600120	54600118
192	152100015	152100014
191	54600223	54600222
155	440000010	440000009
155	440000064	440000063
183	113100089	113100087
164	154300031	154300029
177	235700057	235700056
181	760500018	760500017
201	760200048	760200047
161	17300031	17300001
180	391500014	391500013
181	760500025	760500023
177	235700051	235700001
173	196500038	196500034
162	581700030	581700029
176	81700009	81700008
197	778000029	778000028
155	440000197	440000196
155	440000071	440000070
198	4900056	4900054
201	760200103	760200102
155	440000375	440000374
171	65100043	65100042
166	485100023	485100022
155	440000298	440000297
189	33900010	33900001
155	440000093	440000092
175	29600081	29600080
155	440000268	440000267
199	65700035	65700034
166	485100034	485100033
155	440000195	440000193
197	778000003	778000002
191	54600090	54600088
200	645500072	645500071
189	33900023	33900001
187	296700019	296700018
155	440000226	440000225
179	402100003	402100002
155	440000136	440000135
182	736400068	736400067
156	675300091	675300089
173	196500061	196500060
170	471200013	471200012
175	29600014	29600001
185	677700036	677700035
189	33900041	33900001
155	440000367	440000366
155	440000249	440000248
169	76400127	76400125
173	196500018	196500017
181	760500015	760500014
193	672800008	672800007
193	672800019	672800018
162	581700005	581700004
175	29600068	29600067
155	440000353	440000352
201	760200093	760200092
192	152100018	152100017
191	54600032	54600031
161	17300052	17300051
186	153400025	153400024
155	440000345	440000344
164	154300119	154300117
189	33900002	33900001
189	33900069	33900001
174	124600024	124600023
155	440000387	440000015
166	485100064	485100061
155	440000318	440000317
201	760200058	760200057
164	154300149	154300144
167	344900006	344900005
155	440000334	440000333
182	736400025	736400024
154	750700029	750700027
193	672800011	672800010
202	4800053	4800052
157	784000020	784000019
155	440000110	440000107
155	440000121	440000118
155	440000363	440000362
155	440000008	440000005
180	391500012	391500011
164	154300177	154300176
201	760200107	760200106
159	537600007	537600006
180	391500010	391500006
162	581700011	581700010
161	17300051	17300050
154	750700060	750700059
167	344900003	344900001
156	675300147	675300146
168	241700035	241700034
181	760500016	760500015
160	97500002	97500001
178	68200040	68200039
166	485100026	485100024
164	154300103	154300102
155	440000331	440000330
169	76400113	76400112
155	440000223	440000221
157	784000024	784000023
174	124600015	124600014
164	154300111	154300110
164	154300122	154300110
201	760200116	760200115
174	124600003	124600002
156	675300065	675300064
164	154300104	154300103
155	440000348	440000347
201	760200055	760200054
185	677700057	677700056
169	76400125	76400122
187	296700016	296700014
194	119400002	119400001
165	427100016	427100015
198	4900036	4900001
201	760200062	760200060
155	440000304	440000303
179	402100006	402100005
174	124600023	124600022
183	113100124	113100122
155	440000303	440000302
182	736400066	736400065
164	154300078	154300075
179	402100008	402100007
175	29600090	29600089
200	645500013	645500012
156	675300034	675300033
164	154300150	154300149
155	440000065	440000064
165	427100015	427100014
181	760500032	760500031
168	241700056	241700055
156	675300012	675300011
156	675300119	675300118
187	296700017	296700016
164	154300108	154300106
173	196500050	196500049
189	33900081	33900080
169	76400122	76400121
182	736400029	736400028
156	675300144	675300142
189	33900037	33900001
155	440000101	440000100
167	344900011	344900010
153	107300023	107300016
158	107600006	107600005
155	440000067	440000066
191	54600183	54600182
156	675300068	675300066
199	65700052	65700047
155	440000129	440000128
197	778000019	778000017
157	784000019	784000018
182	736400072	736400071
169	76400200	76400196
201	760200069	760200068
173	196500063	196500062
201	760200075	760200074
182	736400013	736400012
169	76400142	76400140
173	196500035	196500034
176	81700027	81700026
175	29600023	29600001
155	440000095	440000094
185	677700024	677700023
167	344900021	344900020
155	440000085	440000083
155	440000013	440000012
155	440000009	440000008
185	677700060	677700059
175	29600031	29600001
188	302900035	302900034
186	153400011	153400010
197	778000173	778000172
187	296700014	296700013
189	33900004	33900001
168	241700074	241700010
155	440000360	440000359
185	677700025	677700024
164	154300156	154300155
178	68200049	68200048
188	302900017	302900014
189	33900063	33900001
174	124600025	124600024
155	440000097	440000095
193	672800074	672800072
183	113100046	113100044
172	478600007	478600006
165	427100006	427100003
201	760200085	760200082
183	113100028	113100027
189	33900015	33900001
156	675300120	675300118
193	672800038	672800037
166	485100032	485100030
174	124600002	124600001
174	124600018	124600017
168	241700009	241700001
155	440000011	440000009
183	113100037	113100036
158	107600005	107600004
196	5200021	5200001
175	29600092	29600091
179	402100002	402100001
161	17300047	17300046
164	154300163	154300162
155	440000115	440000111
182	736400024	736400023
155	440000056	440000054
168	241700072	241700065
181	760500028	760500027
155	440000117	440000115
171	65100023	65100022
175	29600053	29600001
175	29600040	29600001
168	241700060	241700059
198	4900102	4900100
164	154300182	154300181
177	235700019	235700018
173	196500021	196500020
200	645500011	645500010
167	344900007	344900006
201	760200063	760200062
168	241700032	241700029
175	29600025	29600001
155	440000335	440000334
153	107300026	107300023
164	154300120	154300118
189	33900066	33900001
155	440000276	440000275
193	672800006	672800005
153	107300013	107300007
161	17300007	17300001
164	154300097	154300096
169	76400078	76400076
196	5200011	5200001
191	54600215	54600214
197	778000147	778000136
201	760200106	760200105
155	440000103	440000102
157	784000008	784000007
175	29600073	29600072
175	29600030	29600001
180	391500007	391500006
169	76400017	76400016
195	266900007	266900006
184	742700005	742700004
153	107300002	107300001
159	537600017	537600016
189	33900008	33900001
155	440000096	440000094
201	760200053	760200052
161	17300017	17300001
201	760200077	760200076
167	344900018	344900016
174	124600026	124600001
201	760200114	760200113
201	760200086	760200084
177	235700035	235700034
200	645500069	645500068
189	33900076	33900001
200	645500033	645500032
175	29600017	29600001
155	440000269	440000268
174	124600008	124600007
170	471200008	471200007
201	760200067	760200066
155	440000051	440000050
197	778000086	778000085
191	54600048	54600032
155	440000252	440000251
196	5200029	5200016
191	54600071	54600070
155	440000347	440000346
155	440000282	440000276
191	54600156	54600155
183	113100043	113100042
173	196500041	196500039
169	76400047	76400037
182	736400069	736400068
169	76400165	76400164
169	76400197	76400196
181	760500012	760500011
199	65700027	65700025
186	153400028	153400027
175	29600087	29600086
189	33900007	33900001
175	29600002	29600001
155	440000333	440000332
155	440000109	440000107
164	154300141	154300140
198	4900074	4900073
164	154300115	154300114
167	344900020	344900019
175	29600035	29600001
172	478600002	478600001
173	196500058	196500057
155	440000088	440000087
192	152100033	152100018
199	65700016	65700013
189	33900013	33900001
159	537600010	537600009
197	778000163	778000162
201	760200089	760200088
201	760200071	760200054
161	17300038	17300001
193	672800018	672800015
193	672800042	672800041
193	672800080	672800079
192	152100045	152100044
155	440000362	440000361
178	68200020	68200019
179	402100010	402100009
197	778000195	778000194
175	29600096	29600093
164	154300084	154300083
175	29600016	29600001
179	402100019	402100018
193	672800070	672800067
169	76400163	76400162
186	153400018	153400017
171	65100044	65100043
156	675300066	675300065
201	760200083	760200082
168	241700016	241700015
154	750700034	750700033
189	33900048	33900001
175	29600028	29600001
191	54600169	54600168
167	344900019	344900018
201	760200007	760200003
193	672800071	672800070
166	485100055	485100054
188	302900033	302900030
155	440000357	440000356
198	4900100	4900099
201	760200108	760200104
197	778000054	778000053
193	672800053	672800052
193	672800072	672800071
155	440000385	440000357
193	672800026	672800025
199	65700005	65700004
155	440000253	440000252
181	760500014	760500013
197	778000121	778000119
175	29600082	29600081
183	113100009	113100008
155	440000280	440000278
155	440000234	440000233
201	760200119	760200118
169	76400014	76400013
188	302900010	302900002
193	672800014	672800013
161	17300061	17300060
155	440000113	440000110
155	440000201	440000200
188	302900018	302900017
155	440000349	440000348
173	196500002	196500001
175	29600050	29600001
165	427100040	427100039
156	675300156	675300155
191	54600040	54600039
165	427100014	427100013
183	113100082	113100081
188	302900006	302900003
173	196500047	196500046
198	4900055	4900012
175	29600024	29600001
156	675300049	675300046
201	760200087	760200086
178	68200038	68200037
177	235700008	235700007
155	440000256	440000255
167	344900010	344900009
155	440000358	440000357
155	440000090	440000089
158	107600002	107600001
168	241700024	241700023
155	440000070	440000069
168	241700004	241700003
159	537600019	537600017
191	54600014	54600002
169	76400048	76400047
175	29600013	29600001
197	778000073	778000072
158	107600022	107600020
190	285900004	285900002
189	33900082	33900081
175	29600091	29600084
181	760500011	760500010
155	440000092	440000090
182	736400028	736400027
155	440000248	440000247
156	675300072	675300071
155	440000284	440000283
198	4900078	4900077
175	29600048	29600001
197	778000185	778000181
156	675300042	675300041
186	153400012	153400011
177	235700005	235700004
156	675300061	675300060
164	154300113	154300112
167	344900012	344900011
157	784000038	784000037
168	241700021	241700020
199	65700026	65700025
168	241700037	241700036
181	760500019	760500018
155	440000078	440000076
161	17300075	17300074
195	266900002	266900001
181	760500031	760500030
171	65100045	65100044
157	784000037	784000036
155	440000356	440000355
161	17300019	17300001
155	440000388	440000387
201	760200090	760200089
168	241700027	241700009
166	485100044	485100043
161	17300066	17300065
201	760200070	760200053
166	485100012	485100011
168	241700006	241700005
201	760200094	760200093
173	196500030	196500029
200	645500021	645500020
180	391500009	391500001
156	675300028	675300024
156	675300101	675300100
183	113100085	113100084
173	196500046	196500045
175	29600100	29600099
188	302900037	302900036
197	778000166	778000165
187	296700013	296700012
153	107300034	107300026
164	154300151	154300015
168	241700054	241700053
155	440000389	440000388
155	440000079	440000078
155	440000074	440000072
170	471200009	471200008
155	440000222	440000221
168	241700039	241700038
173	196500028	196500027
198	4900053	4900052
167	344900022	344900020
183	113100041	113100039
155	440000354	440000353
155	440000372	440000371
161	17300059	17300058
202	4800016	4800015
162	581700041	581700040
155	440000007	440000006
172	478600011	478600010
162	581700046	581700045
201	760200044	760200043
166	485100045	485100044
171	65100018	65100016
187	296700021	296700016
155	440000100	440000098
198	4900026	4900001
156	675300115	675300114
176	81700011	81700010
157	784000011	784000010
177	235700007	235700006
170	471200010	471200009
165	427100009	427100008
197	778000023	778000022
170	471200004	471200003
193	672800040	672800038
200	645500027	645500026
191	54600091	54600090
199	65700038	65700013
169	76400079	76400078
166	485100031	485100030
188	302900028	302900027
189	33900036	33900001
164	154300128	154300127
187	296700003	296700002
198	4900077	4900076
156	675300168	675300167
185	677700010	677700009
201	760200054	760200053
201	760200096	760200094
173	196500012	196500011
169	76400041	76400040
190	285900002	285900001
174	124600022	124600020
195	266900014	266900013
193	672800075	672800074
155	440000326	440000323
175	29600027	29600001
172	478600006	478600004
157	784000022	784000020
155	440000323	440000322
155	440000068	440000067
189	33900057	33900001
188	302900016	302900015
175	29600055	29600001
160	97500005	97500004
201	760200049	760200048
156	675300076	675300050
181	760500033	760500032
164	154300126	154300125
177	235700063	235700062
159	537600006	537600005
164	154300127	154300125
163	12200024	12200023
175	29600102	29600099
189	33900027	33900001
169	76400013	76400012
200	645500015	645500014
192	152100004	152100002
155	440000224	440000223
155	440000325	440000324
186	153400014	153400013
161	17300015	17300001
156	675300054	675300053
183	113100045	113100028
178	68200028	68200027
164	154300139	154300138
155	440000341	440000340
176	81700033	81700030
189	33900060	33900001
197	778000172	778000171
155	440000066	440000065
189	33900068	33900001
158	107600048	107600046
173	196500062	196500061
155	440000251	440000250
191	54600178	54600177
182	736400071	736400070
192	152100046	152100045
169	76400148	76400147
156	675300122	675300121
202	4800049	4800048
197	778000159	778000158
153	107300017	107300014
179	402100009	402100008
164	154300083	154300069
155	440000083	440000081
175	29600086	29600085
155	440000359	440000358
175	29600049	29600001
179	402100012	402100001
192	152100019	152100018
166	485100052	485100051
155	440000108	440000107
173	196500006	196500004
156	675300150	675300149
155	440000111	440000110
191	54600168	54600167
156	675300051	675300049
180	391500003	391500002
191	54600286	54600285
161	17300035	17300001
175	29600011	29600001
164	154300153	154300152
188	302900038	302900037
175	29600093	29600091
173	196500044	196500042
170	471200003	471200002
163	12200015	12200001
193	672800063	672800062
201	760200052	760200051
168	241700034	241700033
202	4800009	4800008
201	760200102	760200101
161	17300048	17300047
156	675300143	675300142
201	760200012	760200009
193	672800005	672800004
164	154300135	154300133
195	266900009	266900008
162	581700044	581700043
166	485100009	485100008
166	485100046	485100045
181	760500027	760500026
164	154300036	154300035
182	736400049	736400048
157	784000031	784000030
197	778000167	778000166
175	29600006	29600001
155	440000221	440000219
197	778000065	778000062
191	54600205	54600204
155	440000075	440000074
201	760200091	760200090
165	427100041	427100039
191	54600176	54600175
180	391500004	391500003
153	107300043	107300039
192	152100043	152100042
164	154300101	154300100
156	675300112	675300110
164	154300146	154300144
161	17300026	17300001
181	760500009	760500007
155	440000352	440000351
161	17300054	17300053
161	17300053	17300052
201	760200118	760200117
189	33900050	33900001
156	675300095	675300094
155	440000169	440000168
170	471200006	471200005
158	107600013	107600001
155	440000263	440000262
188	302900023	302900022
164	154300125	154300121
200	645500071	645500070
175	29600080	29600005
155	440000287	440000282
164	154300145	154300142
180	391500005	391500004
163	12200021	12200020
200	645500025	645500024
177	235700061	235700059
156	675300135	675300122
193	672800017	672800010
164	154300015	154300013
183	113100081	113100080
182	736400044	736400031
173	196500032	196500031
153	107300044	107300040
156	675300148	675300147
155	440000327	440000318
159	537600005	537600004
181	760500029	760500028
155	440000006	440000005
181	760500023	760500022
156	675300045	675300043
172	478600014	478600013
169	76400072	76400068
201	760200081	760200080
201	760200008	760200007
181	760500030	760500029
169	76400112	76400111
155	440000332	440000331
153	107300008	107300006
176	81700026	81700023
192	152100010	152100009
169	76400055	76400054
178	68200053	68200050
155	440000105	440000104
159	537600021	537600020
171	65100042	65100041
192	152100006	152100005
193	672800078	672800077
153	107300007	107300006
193	672800030	672800029
198	4900076	4900074
191	54600044	54600043
201	760200080	760200079
178	68200064	68200061
155	440000091	440000088
196	5200023	5200016
161	17300039	17300001
173	196500007	196500006
157	784000007	784000006
197	778000176	778000175
180	391500013	391500012
155	440000063	440000061
186	153400032	153400031
175	29600039	29600001
156	675300131	675300126
169	76400099	76400094
159	537600003	537600002
175	29600052	29600001
156	675300126	675300123
188	302900034	302900033
155	440000368	440000367
188	302900027	302900025
166	485100059	485100058
172	478600015	478600014
156	675300117	675300116
202	4800005	4800004
155	440000022	440000019
156	675300146	675300145
172	478600009	478600008
177	235700046	235700045
156	675300111	675300110
164	154300130	154300128
191	54600070	54600069
158	107600004	107600003
188	302900020	302900001
193	672800016	672800012
155	440000130	440000129
155	440000084	440000082
155	440000047	440000046
197	778000092	778000091
183	113100044	113100043
168	241700073	241700072
181	760500037	760500036
191	54600181	54600180
168	241700007	241700006
186	153400021	153400020
155	440000342	440000341
191	54600055	54600054
155	440000364	440000363
156	675300137	675300134
155	440000054	440000018
170	471200002	471200001
179	402100014	402100013
181	760500034	760500033
183	113100079	113100078
183	113100033	113100032
180	391500002	391500001
188	302900021	302900020
181	760500013	760500012
201	760200082	760200081
162	581700039	581700038
177	235700006	235700005
202	4800004	4800003
164	154300144	154300140
161	17300024	17300001
191	54600018	54600017
183	113100123	113100122
161	17300090	17300089
166	485100050	485100046
164	154300170	154300169
202	4800045	4800043
169	76400011	76400008
193	672800073	672800071
177	235700068	235700065
178	68200043	68200029
155	440000077	440000076
178	68200004	68200001
201	760200046	760200045
186	153400029	153400028
201	760200098	760200097
189	33900073	33900001
174	124600006	124600005
156	675300052	675300050
179	402100004	402100003
201	760200123	760200122
175	29600038	29600001
193	672800049	672800048
175	29600101	29600100
155	440000196	440000195
161	17300021	17300001
175	29600077	29600015
175	29600089	29600088
155	440000107	440000106
155	440000350	440000349
201	760200111	760200110
171	65100013	65100012
191	54600047	54600046
166	485100060	485100059
189	33900029	33900001
193	672800012	672800011
175	29600036	29600001
155	440000293	440000287
186	153400005	153400003
164	154300118	154300117
193	672800024	672800023
170	471200011	471200010
156	675300136	675300135
188	302900036	302900035
191	54600236	54600229
193	672800015	672800014
168	241700038	241700037
191	54600063	54600062
182	736400043	736400030
153	107300004	107300001
162	581700042	581700041
189	33900011	33900001
162	581700047	581700046
164	154300121	154300120
193	672800067	672800066
158	107600054	107600050
155	440000227	440000195
192	152100044	152100043
156	675300006	675300005
200	645500023	645500022
173	196500024	196500015
188	302900003	302900002
201	760200095	760200094
198	4900054	4900053
156	675300167	675300166
169	76400199	76400197
186	153400024	153400023
164	154300053	154300052
