3086 O
3087 O
3088 O
3089 O
3090 O
3091 O
3092 O
3093 O
3094 O
3095 O
3096 Loc
3097 O
3098 Loc
3099 O
3100 Loc
3101 O
110237 O
110238 Peop
110239 O
110240 O
110241 O
110242 O
110243 Peop
110244 O
110245 O
110246 O
110247 O
110248 Peop
110249 O
110250 O
110251 O
110252 O
110253 Peop
110254 O
110255 O
110256 O
110257 O
110258 O
110259 O
110260 Peop
110261 O
41032 O
41033 O
41034 O
41035 O
41036 Org
41037 O
41038 O
41039 O
41040 Loc
41041 O
41042 Loc
41043 O
41044 Peop
41045 O
41046 O
41047 O
41048 O
41049 O
41050 O
41051 O
41052 O
41053 Loc
41054 O
41055 O
41056 O
41057 O
41058 O
41059 O
41060 O
41061 Org
41062 O
35193 O
35194 O
35195 O
35196 O
35197 O
35198 O
35199 O
35200 O
35201 O
35202 O
35203 O
35204 O
35205 O
35206 O
35207 O
35208 O
35209 O
35210 O
35211 O
35212 Other
35213 O
35214 O
35215 Loc
35216 O
35217 O
35218 O
35219 Loc
35220 O
35221 Org
35222 O
35223 Peop
35224 O
104986 O
104987 O
104988 O
104989 O
104990 O
104991 O
104992 O
104993 O
104994 Loc
104995 O
104996 Peop
104997 O
104998 O
104999 O
105000 O
105001 O
105002 O
105003 O
105004 O
105005 O
105006 Peop
105007 O
103198 O
103199 O
103200 O
103201 O
103202 O
103203 O
103204 O
103205 O
103206 O
103207 O
103208 O
103209 O
103210 O
103211 O
103212 O
103213 O
103214 O
103215 O
103216 Peop
103217 O
103218 O
103219 O
103220 O
103221 O
103222 O
103223 O
103224 O
103225 O
103226 O
103227 O
103228 Org
103229 O
82997 O
82998 O
82999 O
83000 O
83001 O
83002 O
83003 O
83004 O
83005 O
83006 O
83007 O
83008 O
83009 Org
83010 Peop
83011 O
83012 O
83013 Peop
83014 O
83015 O
83016 O
83017 Loc
83018 O
83019 O
83020 O
83021 O
83022 O
83023 O
83024 O
83025 Peop
83026 O
83027 O
83028 O
83029 O
83030 Loc
83031 O
83032 O
83033 O
83034 O
83035 O
83036 O
83037 O
83038 O
83039 Loc
83040 O
83041 O
83042 O
100589 O
100590 O
100591 Org
100592 O
100593 O
100594 Peop
100595 O
105287 O
105288 O
105289 O
105290 O
105291 O
105292 O
105293 O
105294 O
105295 O
105296 Other
105297 O
105298 Loc
105299 O
105300 Peop
105301 O
105302 O
105303 O
105304 O
105305 O
105306 O
105307 O
105308 O
105309 O
105310 Peop
105311 O
40517 Peop
40518 O
40519 O
40520 O
40521 O
40522 O
40523 O
40524 O
40525 O
40526 O
40527 O
40528 O
40529 O
40530 O
40531 Other
40532 O
40533 O
40534 O
40535 O
40536 O
40537 O
40538 O
40539 Loc
40540 O
40541 Loc
40542 Peop
40543 O
40544 O
40545 O
40546 O
40547 O
40548 O
40549 O
40550 O
40551 O
40552 O
40553 O
40554 O
40555 O
40556 O
40557 O
40558 O
40559 O
40560 O
40561 Loc
40562 O
40563 Loc
73755 Loc
73756 Org
3580 Loc
3581 O
3582 Loc
110791 O
110792 O
110793 O
110794 O
110795 Peop
110796 O
110797 O
110798 O
110799 O
110800 O
110801 O
110802 Other
110803 O
110804 O
110805 O
110806 O
110807 O
110808 O
110809 O
110810 O
110811 O
110812 O
110813 O
110814 O
110815 O
110816 O
110817 O
110818 O
110819 O
110820 O
110821 O
110822 O
110823 O
110824 O
110825 O
110826 O
110827 O
110828 O
110829 O
110830 O
110831 O
110832 Peop
110833 O
110834 O
110835 O
110836 O
110837 O
110838 O
110839 Peop
110840 O
110841 Peop
110842 O
110843 O
110844 O
110845 O
110846 O
110847 O
110848 O
110849 Peop
110850 O
110851 O
110852 O
110853 Org
110854 O
95962 O
95963 Loc
95964 Org
95965 O
95966 O
95967 Other
95968 Other
49294 Peop
49295 O
49296 O
49297 O
49298 O
49299 O
49300 O
49301 O
49302 O
49303 O
49304 O
49305 O
49306 O
49307 O
49308 O
49309 O
49310 Peop
49311 O
49312 O
49313 O
49314 O
49315 O
49316 Peop
49317 O
49318 O
49319 O
49320 O
49321 O
49322 O
49323 O
49324 Org
49325 O
49326 O
49327 O
49328 O
49329 O
49330 O
49331 O
49332 O
49333 O
49334 O
108898 Peop
108899 O
108900 O
108901 O
108902 O
108903 O
108904 O
108905 O
108906 O
108907 Peop
108908 O
108909 Other
108910 O
108911 O
108912 O
108913 O
108914 O
108915 O
108916 O
108917 O
108918 O
108919 O
108920 O
108921 O
108922 O
108923 Loc
108924 O
108925 O
108926 Loc
108927 O
108928 O
108929 O
108930 O
108931 O
108932 O
108933 O
108934 O
108935 O
108936 Loc
108937 O
112107 O
112108 O
112109 O
112110 O
112111 O
112112 O
112113 O
112114 Peop
112115 O
112116 O
112117 O
112118 O
112119 O
112120 Loc
112121 O
112122 O
112123 O
112124 O
112125 O
112126 O
112127 O
112128 O
112129 Org
112130 O
112131 O
112132 O
112133 O
112134 O
112135 O
112136 O
112137 O
112138 O
109206 O
109207 O
109208 O
109209 O
109210 O
109211 O
109212 O
109213 Peop
109214 O
109215 O
109216 O
109217 O
109218 Peop
109219 O
109220 O
109221 Loc
109222 O
109223 O
109224 O
109225 O
109226 O
109227 O
109228 O
109229 O
109230 O
109231 O
22009 O
22010 O
22011 O
22012 O
22013 O
22014 O
22015 O
22016 O
22017 O
22018 O
22019 O
22020 O
22021 O
22022 Peop
22023 O
22024 O
22025 O
22026 O
22027 O
22028 O
22029 O
22030 Loc
22031 O
108366 Peop
108367 O
108368 O
108369 Peop
108370 O
108371 O
108372 O
108373 Peop
108374 O
108375 O
108376 O
38466 O
38467 O
38468 O
38469 O
38470 Org
38471 O
38472 Loc
15909 O
15910 Peop
15911 O
15912 O
15913 Org
15914 O
15915 Loc
15916 O
15917 O
15918 O
15919 O
15920 O
15921 O
15922 O
15923 O
15924 O
15925 O
15926 O
15927 O
15928 O
15929 O
15930 O
15931 O
15932 O
15933 O
15934 O
15935 O
15936 O
15937 O
15938 O
15939 O
15940 O
15941 O
89115 O
89116 O
89117 O
89118 O
89119 O
89120 O
89121 O
89122 O
89123 O
89124 O
89125 O
89126 Org
89127 O
89128 Peop
89129 O
89130 O
89131 O
89132 O
89133 Peop
89134 O
89135 O
89136 O
89137 O
89138 O
89139 O
89140 O
89141 O
89142 O
82610 Loc
82611 Org
51198 O
51199 O
51200 O
51201 O
51202 O
51203 O
51204 Org
51205 O
51206 Peop
51207 O
51208 O
51209 O
51210 O
51211 Peop
51212 O
51213 O
51214 O
51215 O
51216 O
51217 O
51218 O
51219 O
51220 O
51221 O
51222 O
51223 O
51224 O
51225 O
51226 O
51227 O
51228 O
51229 O
51230 O
51231 O
51232 O
51233 O
51234 O
51235 O
51236 O
51237 O
51238 O
51239 O
51240 O
51241 Org
51242 O
51243 Loc
3146 Loc
3147 O
3148 Loc
3149 O
3150 Loc
3151 O
41135 O
41136 O
41137 O
41138 O
41139 O
41140 O
41141 O
41142 O
41143 O
41144 O
41145 O
41146 O
41147 O
41148 O
41149 O
41150 O
41151 O
41152 O
41153 O
41154 O
41155 O
41156 O
41157 O
41158 O
41159 O
41160 O
41161 O
41162 Peop
41163 O
41164 Loc
34811 O
34812 O
34813 O
34814 O
34815 O
34816 O
34817 O
34818 O
34819 O
34820 O
34821 O
34822 Peop
34823 O
34824 O
34825 O
34826 O
34827 O
34828 O
34829 O
34830 O
34831 Loc
34832 O
34833 O
34834 Loc
115197 O
115198 O
115199 O
115200 O
115201 Other
115202 O
115203 O
115204 O
115205 O
115206 O
115207 O
115208 O
115209 Peop
115210 O
115211 O
115212 Loc
115213 O
115214 O
115215 O
115216 O
115217 O
115218 O
115219 O
115220 O
115221 O
115222 O
115223 O
115224 O
115225 O
115226 O
58408 O
58409 O
58410 O
58411 O
58412 O
58413 O
58414 O
58415 O
58416 O
58417 O
58418 O
58419 O
58420 O
58421 O
58422 O
58423 O
58424 O
58425 O
58426 O
58427 O
58428 Loc
58429 O
58430 O
58431 Loc
58432 O
58433 O
58434 O
52199 O
52200 O
52201 O
52202 O
52203 O
52204 O
52205 O
52206 O
52207 O
52208 O
52209 O
52210 O
52211 Loc
52212 O
52213 Loc
2618 O
2619 O
2620 Peop
2621 O
2622 O
2623 O
2624 O
2625 Org
2626 O
2627 Loc
2628 O
2629 O
2630 O
2631 O
2632 O
2633 O
2634 O
2635 O
2636 O
2637 O
2638 O
2639 O
2640 O
2641 O
2642 O
2643 O
2644 O
2645 O
2646 Other
2647 O
114572 Peop
114573 O
114574 O
114575 O
114576 O
114577 O
114578 O
114579 Other
114580 O
114581 O
114582 O
114583 O
114584 O
114585 Loc
114586 O
62630 Loc
62631 O
62632 O
62633 Peop
62634 O
62635 O
62636 O
62637 O
62638 O
62639 Peop
62640 O
62641 O
74978 O
74979 O
74980 O
74981 O
74982 O
74983 O
74984 O
74985 O
74986 O
74987 Loc
74988 Org
74989 Other
74990 O
74991 O
74992 O
74993 O
74994 O
74995 O
74996 O
95707 Loc
95708 Org
113447 O
113448 O
113449 O
113450 O
113451 O
113452 Peop
113453 O
113454 O
113455 O
113456 Loc
88110 O
88111 Loc
88112 Org
88113 O
88114 O
88115 Other
88116 O
88117 O
111174 O
111175 O
111176 O
111177 O
111178 Peop
111179 O
111180 O
111181 O
111182 Loc
111183 O
110504 Peop
110505 O
110506 O
110507 O
110508 O
110509 O
110510 O
110511 Peop
110512 O
110513 O
110514 O
110515 O
110516 O
110517 O
110518 O
110519 O
110520 O
110521 O
110522 O
31033 Org
31034 O
31035 O
31036 O
31037 O
31038 Loc
31039 O
31040 O
31041 O
31042 O
31043 O
31044 Loc
31045 O
31046 Loc
31047 O
31048 Loc
31049 O
11349 O
11350 O
11351 O
11352 Other
11353 O
11354 O
11355 O
11356 O
11357 O
11358 O
11359 O
11360 O
11361 O
11362 O
11363 O
11364 O
11365 O
11366 O
11367 O
11368 O
11369 O
11370 O
11371 O
11372 Peop
11373 O
11374 O
11375 O
11376 O
11377 O
11378 O
11379 O
11380 Org
11381 O
11382 O
11383 O
11384 O
11385 O
11386 O
52974 Org
52975 O
52976 Peop
52977 O
52978 O
52979 O
52980 O
52981 O
52982 O
52983 O
52984 O
52985 O
52986 O
52987 O
52988 O
52989 O
52990 Loc
52991 O
52992 O
52993 O
93759 O
93760 O
93761 O
93762 O
93763 O
93764 O
93765 Org
93766 O
93767 Peop
93768 O
93769 O
93770 O
93771 O
93772 O
93773 O
93774 O
93775 O
93776 O
93777 O
93778 O
93779 Other
93780 O
93781 O
93782 O
93783 O
93784 Loc
93785 O
93786 O
93787 O
93788 O
93789 O
93790 O
93791 O
93792 O
93793 O
93794 O
93795 O
93796 O
93797 O
93798 O
93799 O
114201 O
114202 O
114203 O
114204 O
114205 Peop
114206 O
114207 O
114208 O
114209 Loc
114210 O
475 Loc
476 O
477 Loc
478 O
479 Org
480 O
94544 Loc
94545 Org
108409 O
108410 O
108411 O
108412 Peop
108413 O
108414 O
108415 O
108416 O
108417 Peop
108418 O
108419 O
108420 O
108421 Org
108422 O
108423 O
108424 O
108425 O
108426 O
108427 O
108428 O
108429 O
108430 O
108431 O
108432 O
108433 O
108434 O
108435 O
108436 O
108437 O
108438 O
108439 O
108440 O
108441 O
108442 O
108443 Peop
108444 O
108445 O
106982 Peop
106983 O
106984 O
106985 O
106986 O
106987 O
106988 O
106989 O
106990 O
106991 O
106992 O
106993 O
106994 O
106995 O
106996 O
106997 O
106998 O
106999 O
107000 Peop
107001 O
107002 O
107003 O
107004 O
107005 O
107006 O
107007 O
107008 O
107009 O
107010 Other
107011 O
107012 O
107013 O
107014 O
113932 O
113933 O
113934 O
113935 O
113936 Peop
113937 O
113938 O
113939 O
113940 O
113941 Loc
113942 O
92251 O
92252 O
92253 O
92254 O
92255 O
92256 O
92257 O
92258 Peop
92259 O
92260 O
92261 O
92262 O
92263 Loc
92264 O
92265 O
92266 O
92267 Org
92268 O
92269 O
92270 O
92271 O
92272 O
92273 O
92274 O
92275 O
92276 Loc
92277 O
92278 O
92279 O
92280 O
92281 O
26044 O
26045 O
26046 O
26047 O
26048 O
26049 O
26050 O
26051 O
26052 O
26053 O
26054 O
26055 O
26056 O
26057 O
26058 O
26059 O
26060 O
26061 O
26062 O
26063 O
26064 O
26065 O
26066 O
26067 O
26068 O
26069 O
26070 O
26071 O
26072 Org
26073 O
26074 Peop
26075 O
26076 O
26077 O
26078 Loc
26079 O
22257 O
22258 O
22259 O
22260 O
22261 O
22262 O
22263 O
22264 O
22265 O
22266 O
22267 O
22268 O
22269 O
22270 O
22271 O
22272 O
22273 O
22274 O
22275 O
22276 O
22277 O
22278 Org
22279 O
22280 Loc
22281 O
22282 Loc
22283 O
22284 O
22285 Org
22286 O
22287 Peop
22288 O
112377 O
112378 O
112379 O
112380 O
112381 O
112382 O
112383 O
112384 O
112385 Loc
112386 O
112387 Peop
112388 O
112389 O
112390 O
112391 O
112392 Loc
112393 O
67914 O
67915 O
67916 O
67917 O
67918 O
67919 O
67920 O
67921 O
67922 O
67923 O
67924 Loc
67925 Org
67926 O
67927 O
67928 Other
67929 Other
106526 Peop
106527 O
106528 Loc
106529 O
106530 O
106531 O
106532 Peop
106533 O
106534 Loc
106535 O
106536 O
106537 O
106538 O
106539 O
106540 O
106541 O
106542 O
106543 O
106544 O
106545 O
106546 Peop
3950 O
3951 O
3952 Loc
3953 O
3954 Org
3955 O
3956 Loc
3957 O
3958 Loc
3959 O
3960 Org
3961 O
3962 O
3963 O
3964 O
3965 O
3966 O
3967 O
3968 Other
3969 O
3970 O
3971 Loc
3972 O
3973 O
3974 Loc
3975 O
3976 Peop
3977 O
3978 Peop
3979 O
3980 Other
3981 O
3982 O
3983 O
3984 O
105910 O
105911 O
105912 O
105913 Peop
105914 O
105915 O
105916 O
105917 O
105918 O
105919 O
105920 O
105921 Peop
105922 O
3108 Org
3109 O
3110 Loc
3111 O
3112 Loc
3113 O
89937 Peop
89938 O
89939 O
89940 Loc
89941 O
89942 O
89943 O
89944 O
89945 O
89946 O
89947 O
89948 O
89949 O
89950 O
89951 O
89952 O
716 O
717 O
718 O
719 O
720 O
721 O
722 O
723 O
724 O
725 O
726 O
727 O
728 O
729 O
730 O
731 Org
732 O
733 O
734 O
735 O
736 O
737 O
738 O
739 O
740 O
741 O
742 O
743 O
744 O
745 O
746 O
747 O
748 O
749 Loc
750 O
751 Other
752 Peop
753 O
754 O
755 O
756 O
757 O
758 O
759 O
760 O
761 O
762 O
763 O
94336 Loc
94337 Org
64465 Loc
64466 Other
64467 O
64468 Org
64469 O
64470 O
64471 Loc
64472 O
64473 O
64474 O
64475 O
64476 O
64477 O
64478 O
64479 O
64480 Peop
64481 O
64482 O
64483 Peop
64484 O
64485 O
64486 O
64487 O
64488 O
64489 O
64490 O
64491 O
64492 O
77778 O
77779 O
77780 O
77781 O
77782 O
77783 O
77784 O
77785 O
77786 O
77787 O
77788 O
77789 O
77790 O
77791 O
77792 Peop
77793 O
77794 O
77795 O
77796 Org
77797 O
77798 O
77799 O
77800 Loc
77801 O
77802 O
77803 O
113347 O
113348 O
113349 O
113350 O
113351 Peop
113352 O
113353 O
113354 O
113355 Loc
113356 O
128977 O
128978 O
128979 Loc
128980 O
128981 Loc
128982 O
128983 O
128984 O
128985 O
128986 O
128987 O
128988 O
128989 O
128990 O
128991 O
128992 O
128993 O
128994 O
128995 O
128996 O
128997 O
128998 O
128999 O
129000 O
129001 O
129002 O
129003 O
129004 O
129005 O
129006 O
129007 O
129008 O
129009 O
16821 O
16822 O
16823 O
16824 Loc
16825 O
16826 O
16827 O
16828 O
16829 O
16830 O
16831 O
16832 O
16833 O
16834 O
16835 O
16836 O
16837 O
16838 O
16839 O
16840 O
16841 O
16842 O
16843 O
16844 O
16845 O
16846 O
16847 O
16848 O
16849 O
16850 O
16851 O
16852 Org
16853 O
16854 Peop
16855 O
82828 O
82829 O
82830 O
82831 O
82832 O
82833 O
82834 O
82835 O
82836 O
82837 Loc
82838 Org
82839 O
82840 O
82841 Other
82842 O
82843 O
112019 O
112020 O
112021 O
112022 O
112023 Peop
112024 O
112025 O
112026 O
112027 Loc
112028 O
109149 Peop
109150 O
109151 O
109152 O
109153 Peop
109154 O
109155 O
109156 O
109157 O
109158 O
19356 O
19357 O
19358 O
19359 O
19360 O
19361 O
19362 Loc
19363 O
19364 O
19365 O
19366 Other
19367 O
19368 O
19369 O
19370 O
19371 O
19372 O
19373 O
19374 O
19375 O
19376 O
19377 O
19378 Peop
19379 O
19380 O
19381 O
19382 O
19383 O
19384 Loc
19385 O
111593 O
111594 O
111595 O
111596 O
111597 Peop
111598 O
111599 O
111600 O
111601 Loc
111602 O
20506 O
20507 Peop
20508 O
20509 O
20510 O
20511 O
20512 O
20513 O
20514 O
20515 O
20516 O
20517 Other
20518 O
20519 O
20520 Peop
20521 O
20522 O
20523 O
20524 O
20525 O
20526 O
20527 O
20528 Other
20529 O
20530 O
20531 O
20532 O
20533 O
20534 Org
20535 O
20536 O
20537 O
80024 O
80025 O
80026 O
80027 O
80028 O
80029 O
80030 O
80031 O
80032 O
80033 O
80034 O
80035 O
80036 O
80037 O
80038 O
80039 O
80040 O
80041 O
80042 O
80043 O
80044 O
80045 O
80046 O
80047 O
80048 O
80049 O
80050 O
80051 O
80052 O
80053 Loc
80054 O
80055 O
80056 Loc
80057 O
80058 O
80059 O
80060 O
80061 O
80062 O
80063 O
80064 O
80065 O
80066 O
80067 O
80068 O
80069 O
80070 O
80071 O
80072 O
80073 Loc
80074 O
40958 O
40959 O
40960 Org
40961 O
40962 O
40963 O
40964 O
40965 O
40966 O
40967 O
40968 O
40969 O
40970 O
40971 O
40972 O
40973 O
40974 O
40975 O
40976 Org
40977 O
40978 O
40979 O
40980 O
40981 O
40982 O
40983 O
40984 O
40985 O
40986 O
40987 O
40988 O
40989 O
40990 O
40991 O
40992 Peop
40993 O
40994 O
40995 O
40996 O
40997 O
40998 O
40999 O
41000 O
44460 O
44461 O
44462 O
44463 O
44464 O
44465 Org
44466 O
44467 Loc
44468 O
44469 Loc
44470 O
44471 O
44472 O
44473 O
44474 O
44475 O
44476 O
44477 Peop
44478 O
44479 O
44480 O
44481 O
44482 O
44483 O
44484 O
44485 O
44486 O
44487 Org
44488 O
44489 Peop
44490 O
44491 O
44492 O
44493 O
44494 O
44495 O
44496 O
44497 O
44498 O
44499 O
44500 O
44501 O
44502 O
54877 Org
54878 O
54879 O
54880 Loc
54881 O
54882 O
54883 O
54884 O
54885 O
54886 O
54887 O
54888 Org
53766 O
53767 O
53768 O
53769 O
53770 O
53771 O
53772 Other
53773 O
53774 O
53775 O
53776 O
53777 O
53778 O
53779 O
53780 O
53781 Loc
53782 O
53783 Peop
109993 Other
109994 O
109995 O
109996 O
109997 Loc
109998 O
109999 O
110000 Loc
110001 O
110002 O
110003 O
110004 Peop
110005 O
110006 O
110007 O
110008 O
110009 O
110010 O
110011 Peop
110012 O
110013 O
110014 O
110015 O
110016 O
110017 O
24723 O
24724 O
24725 O
24726 O
24727 O
24728 O
24729 O
24730 O
24731 O
24732 Peop
24733 O
24734 O
24735 O
24736 O
24737 O
24738 O
24739 O
24740 O
24741 O
24742 O
24743 Org
24744 O
24745 O
24746 O
24747 O
24748 O
24749 O
24750 O
24751 O
24752 O
24753 O
24754 O
73323 O
73324 O
73325 O
73326 O
73327 O
73328 O
73329 O
73330 O
73331 O
73332 Loc
73333 Org
73334 O
73335 O
73336 Other
73337 Other
36947 Peop
36948 O
36949 O
36950 Loc
36951 O
36952 Loc
36953 O
36954 O
36955 Loc
36956 O
96347 Peop
96348 O
96349 O
96350 O
96351 O
96352 O
96353 O
96354 O
96355 O
96356 O
96357 O
96358 O
96359 O
96360 O
96361 Loc
96362 O
96363 O
96364 O
96365 O
96366 O
96367 O
96368 O
96369 O
96370 O
96371 O
96372 O
96373 O
96374 O
96375 O
96376 O
96377 Loc
96378 O
67165 O
67166 Peop
67167 O
67168 O
67169 O
67170 Peop
67171 O
67172 O
67173 O
67174 Org
67175 O
67176 O
67177 O
67178 O
67179 O
67180 O
67181 O
67182 Loc
67183 O
67184 O
67185 O
67186 O
67187 O
67188 O
67189 O
67190 O
67191 Loc
67192 O
67193 O
67194 O
67195 O
55465 O
55466 Loc
55467 O
55468 O
55469 Other
55470 O
55471 O
55472 O
55473 O
55474 O
55475 O
55476 O
55477 O
55478 O
55479 O
55480 O
55481 Loc
55482 O
55483 O
55484 O
55485 O
55486 O
55487 O
55488 O
55489 O
111826 O
111827 O
111828 O
111829 Org
111830 O
111831 Peop
111832 O
111833 O
111834 O
111835 Loc
111836 O
104577 Peop
104578 O
104579 O
104580 O
104581 O
104582 Loc
104583 O
104584 Org
104585 O
104586 O
104587 O
104588 O
104589 O
104590 O
104591 Other
104592 O
104593 O
104594 O
104595 O
104596 O
104597 O
104598 Peop
104599 O
12028 O
12029 O
12030 O
12031 O
12032 O
12033 O
12034 O
12035 O
12036 O
12037 O
12038 O
12039 O
12040 Peop
12041 O
12042 Peop
12043 O
12044 O
12045 Org
12046 O
12047 Loc
12048 O
12049 Peop
12050 O
12051 O
12052 Org
12053 O
12054 O
12055 Loc
12056 O
107596 Peop
107597 O
107598 O
107599 O
107600 O
107601 O
107602 O
107603 O
107604 O
107605 O
107606 Peop
107607 O
107608 O
107609 Peop
107610 O
107611 O
107612 O
107613 O
107614 O
107615 Peop
107616 O
107617 Peop
107618 O
107619 Other
107620 O
107621 O
107622 O
107623 O
112321 O
112322 O
112323 O
112324 O
112325 O
112326 Peop
112327 O
112328 O
112329 O
112330 Loc
57662 O
57663 O
57664 O
57665 Org
57666 O
57667 O
57668 O
57669 O
57670 O
57671 O
57672 O
57673 O
57674 O
57675 O
57676 O
57677 Peop
57678 O
57679 O
57680 O
57681 Loc
57682 O
60580 Loc
60581 O
60582 O
60583 O
60584 O
60585 O
60586 Peop
60587 O
60588 O
60589 O
60590 O
60591 O
60592 O
60593 O
60594 O
60595 O
60596 O
60597 O
60598 O
60599 Other
60600 O
60601 O
60602 O
60603 O
60604 O
60605 O
60606 Loc
60607 O
60608 O
60609 O
60610 O
60611 O
60612 O
60613 O
60614 O
92139 Loc
92140 Org
56186 O
56187 Loc
56188 O
56189 O
56190 O
56191 O
56192 O
56193 O
56194 O
56195 O
56196 O
56197 O
56198 Loc
56199 O
56200 O
56201 O
56202 O
56203 O
56204 O
56205 O
56206 O
56207 O
56208 O
56209 O
56210 O
56211 O
56212 Loc
56213 Loc
111296 Peop
111297 O
111298 O
111299 O
111300 Peop
111301 O
111302 O
111303 O
111304 O
111305 O
111306 Loc
111307 O
109417 O
109418 O
109419 O
109420 Peop
109421 O
109422 O
109423 O
109424 O
109425 O
109426 O
109427 O
109428 Peop
109429 O
109430 Other
109431 O
109432 Other
109433 O
109434 Loc
109435 O
109436 O
109437 O
109438 O
109439 O
109440 O
35708 Peop
35709 O
35710 O
35711 Org
35712 O
35713 Loc
35714 O
35715 O
35716 O
35717 O
35718 O
35719 Loc
113508 O
113509 O
113510 O
113511 O
113512 Peop
113513 O
113514 O
113515 O
113516 Loc
113517 O
57476 Loc
57477 O
57478 Org
57479 O
114667 Peop
114668 O
114669 O
114670 O
114671 O
114672 O
114673 O
114674 Other
114675 O
114676 O
114677 O
114678 O
114679 O
114680 O
114681 O
114682 O
114683 O
114684 O
114685 Loc
114686 O
114687 O
114688 O
114689 O
114690 O
114691 O
114692 O
114693 O
114694 O
114695 O
114696 O
114697 O
105140 Peop
105141 O
105142 O
105143 O
105144 O
105145 O
105146 Loc
105147 O
105148 O
105149 O
105150 Peop
105151 O
105152 O
105153 O
105154 O
105155 O
105156 O
105157 O
105158 O
105159 O
105160 O
105161 O
105162 O
105163 O
105164 O
105165 O
105166 O
105167 O
105168 O
105169 O
105170 O
105171 O
105172 Peop
105173 O
105174 O
105175 O
105176 O
105177 O
105178 O
105179 O
105180 O
105181 O
105182 O
105183 Loc
105184 O
114034 O
114035 O
114036 Other
114037 O
114038 O
114039 O
114040 O
114041 O
114042 O
114043 O
114044 O
114045 O
114046 Other
114047 O
114048 O
114049 O
114050 O
114051 Peop
114052 O
114053 O
114054 O
114055 O
114056 O
114057 O
114058 Loc
114059 O
114060 O
114061 O
114062 O
114063 Loc
114064 O
53301 Peop
53302 O
53303 O
53304 O
53305 O
53306 O
53307 Org
53308 O
53309 O
53310 O
53311 Other
53312 O
53313 O
53314 O
53315 O
53316 O
53317 O
53318 O
53319 O
53320 O
53321 Org
53322 O
53323 O
53324 O
53325 O
53326 O
53327 O
53328 O
53329 O
53330 O
53331 O
53332 O
53333 O
53334 O
53335 O
4188 Loc
4189 O
4190 Loc
4191 O
4192 Org
4193 O
107624 O
107625 O
107626 O
107627 O
107628 O
107629 O
107630 Peop
107631 O
107632 O
107633 O
107634 O
107635 O
107636 O
107637 O
107638 O
107639 O
107640 O
107641 O
107642 O
107643 O
107644 O
107645 O
107646 Peop
107647 O
107648 Peop
107649 O
107650 Other
107651 O
107652 O
107653 O
107654 O
107655 O
107656 Loc
107657 O
60934 Peop
60935 O
60936 O
60937 O
60938 O
60939 O
60940 O
60941 O
60942 O
60943 Org
60944 O
60945 O
60946 O
60947 Other
60948 O
60949 O
60950 O
60951 O
60952 O
60953 O
60954 O
60955 O
76057 O
76058 O
76059 O
76060 O
76061 O
76062 O
76063 O
76064 O
76065 O
76066 O
76067 Peop
76068 O
76069 O
76070 O
76071 O
76072 Org
76073 O
76074 O
76075 O
76076 O
76077 O
76078 O
76079 O
76080 O
76081 O
76082 Loc
111395 Peop
111396 O
111397 Other
111398 O
111399 O
111400 O
111401 O
111402 O
111403 O
111404 O
111405 O
111406 Loc
111407 O
111408 O
111409 O
111410 O
111411 O
111412 O
111413 O
111414 O
111415 O
111416 O
111417 O
111418 O
111419 O
111420 O
111421 O
111422 O
95268 O
95269 Loc
95270 Org
95271 O
95272 O
95273 Other
95274 Other
46886 Loc
46887 O
46888 Loc
46889 O
46890 Org
46891 O
69390 Loc
69391 Org
72369 Loc
72370 Org
46692 O
46693 O
46694 O
46695 O
46696 O
46697 O
46698 O
46699 O
46700 O
46701 O
46702 O
46703 O
46704 O
46705 O
46706 O
46707 O
46708 O
46709 O
46710 O
46711 O
46712 O
46713 O
46714 Org
46715 O
46716 Peop
14204 Loc
14205 O
14206 Loc
14207 O
14208 Org
14209 O
57480 Loc
57481 O
57482 Peop
57483 O
57484 O
57485 O
57486 O
57487 O
57488 O
57489 Loc
57490 O
57491 O
57492 O
57493 O
57494 O
57495 O
57496 O
57497 O
57498 O
57499 O
57500 O
57501 O
57502 O
57503 O
57504 O
57505 O
57506 O
57507 O
57508 O
57509 O
57510 O
57511 O
57512 O
57513 O
57514 O
57515 O
57516 O
57517 O
57518 O
57519 Loc
17273 Loc
17274 O
17275 Loc
17276 O
17277 Org
17278 O
87847 O
87848 O
87849 O
87850 O
87851 O
87852 Loc
87853 O
87854 Loc
87855 O
87856 O
87857 Loc
87858 O
87859 Loc
87860 O
87861 Loc
87862 O
87863 O
87864 O
87865 O
87866 O
87867 O
87868 Loc
87869 O
87870 O
87871 O
87872 O
87873 O
87874 O
87875 O
87876 O
87877 O
87878 O
87879 O
87880 O
87881 O
87882 Loc
87883 O
87884 Loc
87885 O
87886 Loc
87887 O
87888 O
87889 O
87890 O
87891 O
87892 O
87893 Loc
87894 O
87895 Loc
87896 O
87897 O
87898 Loc
87899 O
109722 O
109723 Peop
109724 O
109725 O
109726 Peop
109727 O
109728 O
109729 O
109730 O
109731 O
109732 Loc
109733 O
109734 O
109735 O
109736 O
109737 O
109738 O
109739 Loc
109740 O
109741 O
109742 Peop
109743 O
109744 O
20809 O
20810 Other
20811 O
20812 O
20813 O
20814 O
20815 O
20816 O
20817 O
20818 O
20819 Other
20820 O
20821 O
20822 Other
20823 O
20824 O
20825 O
20826 Other
20827 O
20828 O
20829 O
20830 O
20831 Org
20832 O
20833 Loc
20834 O
20835 Loc
20836 O
20837 O
20838 O
20839 O
20840 Other
20841 O
20842 O
20843 O
20844 Loc
20845 O
764 O
765 O
766 O
767 O
768 O
769 O
770 O
771 O
772 O
773 O
774 O
775 O
776 O
777 Org
778 O
779 Loc
780 Other
781 O
782 Org
783 O
784 O
785 O
786 O
787 O
788 O
789 Loc
790 O
791 O
792 O
793 O
794 O
795 O
796 O
797 O
798 O
799 O
800 O
801 O
802 O
803 O
804 O
805 O
806 O
807 O
808 O
809 O
810 O
19022 O
19023 O
19024 O
19025 O
19026 O
19027 O
19028 Loc
19029 O
19030 O
19031 Other
19032 O
19033 Other
19034 O
19035 Other
19036 O
19037 O
19038 Org
19039 O
19040 O
107878 O
107879 Other
107880 O
107881 O
107882 O
107883 O
107884 O
107885 O
107886 O
107887 O
107888 O
107889 Peop
107890 O
107891 O
107892 O
107893 O
107894 O
107895 O
107896 O
107897 O
107898 Peop
107899 O
107900 O
107901 O
107902 O
107903 O
107904 Other
107905 O
107906 Other
107907 O
661 Peop
662 O
663 O
664 O
665 O
666 O
667 O
668 O
669 O
670 O
671 O
672 O
673 O
674 O
675 O
676 O
677 O
678 O
679 O
680 O
681 O
682 O
683 O
684 O
685 O
686 O
687 Other
688 O
689 O
690 O
691 O
692 O
693 Loc
694 O
695 O
696 O
697 O
698 O
699 O
700 O
701 O
702 O
703 O
704 O
705 O
706 O
707 O
708 O
709 O
710 O
711 O
712 O
713 Other
714 O
715 O
107970 O
107971 O
107972 O
107973 Peop
107974 O
107975 O
107976 O
107977 O
107978 Peop
107979 O
107658 Peop
107659 O
107660 O
107661 O
107662 O
107663 O
107664 O
107665 O
107666 O
107667 O
107668 O
107669 O
107670 Loc
107671 O
107672 O
107673 Loc
107674 O
107675 Peop
107676 O
107677 Peop
107678 O
107679 Other
107680 O
107681 O
65410 O
65411 O
65412 O
65413 O
65414 O
65415 O
65416 O
65417 O
65418 O
65419 O
65420 O
65421 O
65422 O
65423 O
65424 O
65425 O
65426 O
65427 O
65428 O
65429 O
65430 O
65431 O
65432 O
65433 O
65434 O
65435 O
65436 O
65437 O
65438 Loc
65439 O
65440 O
65441 Peop
65442 O
65443 O
65444 O
65445 O
65446 O
65447 O
65448 O
65449 O
65450 O
105185 O
105186 Peop
105187 O
105188 O
105189 O
105190 O
105191 O
105192 O
105193 O
105194 O
105195 O
105196 O
105197 O
105198 O
105199 O
105200 O
105201 O
105202 O
105203 O
105204 O
105205 O
105206 O
105207 O
105208 Peop
105209 O
105210 O
105211 O
105212 O
105213 Other
105214 O
105215 O
105216 O
105217 O
105218 Peop
105219 O
107812 O
107813 O
107814 O
107815 O
107816 O
107817 O
107818 Loc
107819 O
107820 Peop
107821 O
107822 O
107823 O
107824 Peop
107825 O
107826 O
107827 O
107828 O
107829 O
107830 Peop
109506 O
109507 O
109508 O
109509 O
109510 Other
109511 O
109512 O
109513 Peop
109514 O
109515 O
109516 O
109517 Peop
109518 O
109519 O
109520 O
109521 O
109522 Org
109523 O
109524 O
109525 O
109526 Other
109527 O
109528 O
109529 O
109530 O
64051 Org
64052 O
64053 O
64054 Peop
64055 O
64056 O
64057 O
64058 Loc
64059 O
64060 O
64061 O
64062 O
64063 O
64064 O
64065 Other
64066 O
64067 O
110460 O
110461 O
110462 O
110463 Peop
110464 O
110465 O
110466 O
110467 O
110468 O
110469 O
110470 O
110471 O
110472 O
110473 O
110474 Peop
110475 O
110476 O
110477 O
110478 Peop
110479 O
110480 O
110481 O
110482 O
110483 O
110484 O
110485 O
110486 O
110855 Peop
110856 O
110857 Peop
110858 O
110859 O
110860 O
110861 O
110862 O
110863 Other
110864 O
110865 O
110866 O
110867 O
110868 O
110869 Loc
110870 O
110871 O
110872 Other
110873 O
110874 O
110875 O
110876 O
110877 O
110878 O
110879 O
110880 Peop
110881 O
110882 O
110883 O
68142 Peop
68143 O
68144 Loc
68145 O
68146 O
68147 O
68148 O
68149 O
68150 Loc
68151 Org
68152 O
68153 O
68154 Other
68155 Other
103299 O
103300 O
103301 O
103302 O
103303 O
103304 O
103305 Peop
103306 O
103307 O
103308 Org
103309 O
103310 O
103311 O
103312 O
103313 O
103314 O
103315 O
103316 O
103317 O
103318 O
103319 O
103320 O
113820 Peop
113821 O
113822 Other
113823 O
113824 O
113825 O
113826 O
113827 Peop
113828 O
113829 O
113830 O
113831 Loc
113832 O
113833 O
113834 O
113835 O
113836 O
113837 O
113838 O
113839 O
113840 O
113841 O
113842 Peop
113843 O
113844 Peop
113845 O
95756 O
95757 O
95758 O
95759 O
95760 Peop
95761 O
95762 O
95763 O
95764 O
95765 O
95766 O
95767 O
95768 Loc
95769 O
95770 O
106919 Peop
106920 O
106921 O
106922 Other
106923 O
106924 O
106925 O
106926 O
106927 O
106928 O
106929 Peop
106930 O
106931 O
106932 O
106933 O
106934 O
106935 O
106936 O
106937 O
106938 O
106939 Loc
106940 O
106941 O
106942 O
106943 O
106944 O
106945 O
106946 O
106947 O
106948 O
15792 O
15793 O
15794 O
15795 O
15796 O
15797 O
15798 O
15799 O
15800 O
15801 O
15802 O
15803 Peop
15804 O
15805 Org
15806 O
15807 Loc
15808 O
109803 O
109804 O
109805 O
109806 O
109807 Peop
109808 O
109809 O
109810 O
109811 O
109812 Loc
109813 O
109814 O
109815 O
109816 O
109817 Other
109818 O
109819 Loc
109820 O
109821 O
109822 Peop
109823 O
109824 O
109825 O
111279 O
111280 O
111281 O
111282 O
111283 O
111284 O
111285 O
111286 O
111287 Loc
111288 O
111289 Peop
111290 O
111291 O
111292 O
111293 O
111294 Loc
111295 O
66007 O
66008 O
66009 O
66010 Org
66011 O
66012 Peop
66013 O
62891 O
62892 O
62893 O
62894 O
62895 O
62896 O
62897 O
62898 O
62899 O
62900 O
62901 O
62902 O
62903 O
62904 O
62905 O
62906 O
62907 O
62908 O
62909 O
62910 O
62911 O
62912 O
62913 Other
62914 O
62915 Peop
62916 O
62917 O
62918 O
62919 O
62920 O
62921 O
62922 Org
62923 O
62924 O
62925 O
62926 O
62927 O
62928 O
62929 O
62930 O
62931 O
62932 O
62933 O
62934 O
62935 O
62936 O
62937 O
62938 O
62939 O
106693 O
106694 O
106695 O
106696 Peop
106697 O
106698 O
106699 O
106700 Loc
106701 O
106702 Loc
106703 O
106704 O
106705 O
106706 O
106707 O
106708 O
106709 O
106710 O
106711 Peop
106712 O
31682 O
31683 O
31684 O
31685 O
31686 O
31687 Loc
31688 O
31689 Loc
31690 O
31691 O
31692 Loc
31693 O
31694 Loc
99247 O
99248 O
99249 Org
99250 O
99251 Peop
99252 O
99253 Peop
99254 O
99255 Loc
99256 O
99257 Other
99258 O
99259 O
99260 O
99261 O
99262 O
99263 O
99264 O
99265 O
99266 O
99267 O
99268 O
99269 O
99270 O
99271 O
99272 O
99273 O
99274 O
99275 O
99276 O
99277 O
99278 O
99279 O
99280 O
99281 O
99282 O
99283 O
99284 O
99285 O
99286 Peop
99287 O
12850 O
12851 O
12852 Peop
12853 O
12854 O
12855 O
12856 O
12857 Org
12858 O
12859 O
12860 O
12861 O
12862 O
12863 O
12864 O
12865 O
12866 O
12867 O
12868 O
12869 O
12870 O
12871 O
12872 O
12873 O
12874 O
12875 Peop
12876 O
12877 O
12878 O
12879 O
12880 O
12881 O
12882 O
12883 O
12884 O
12885 O
12886 O
12887 O
12888 O
12889 O
12890 O
12891 O
66074 O
66075 O
66076 O
66077 O
66078 O
66079 O
66080 O
66081 O
66082 Peop
66083 O
66084 O
66085 O
66086 O
66087 Peop
66088 O
66089 Peop
66090 O
66091 O
66092 O
66093 O
66094 O
66095 O
66096 O
66097 O
66098 O
66099 O
66100 O
66101 O
66102 O
66103 O
66104 O
66105 O
66106 O
66107 O
66108 O
66109 O
66110 O
66111 O
66112 O
66113 O
66114 O
66115 O
66116 O
66117 O
66118 O
66119 O
66120 O
66121 O
66122 O
66123 O
66124 O
66125 O
66126 O
66127 O
66128 O
66129 O
66130 O
66131 O
66132 O
66133 O
66134 Peop
66135 O
66136 O
66137 O
66138 O
66139 Peop
66140 O
66141 O
66142 O
66143 Peop
66144 O
66145 O
66146 O
66147 Loc
66148 O
66149 O
66150 O
66151 O
66152 O
66153 O
66154 O
66155 O
66156 O
66157 O
66158 O
66159 O
66160 O
66161 O
61565 Org
61566 O
61567 O
61568 O
61569 Loc
61570 O
61571 O
61572 O
61573 O
61574 O
61575 O
61576 Other
61577 O
61578 O
62741 Peop
62742 O
62743 Loc
62744 O
62745 Loc
62746 O
62747 O
62748 O
62749 O
62750 O
62751 Org
62752 O
62753 O
62754 O
62755 O
62756 O
62757 O
62758 O
62759 O
28925 O
28926 O
28927 O
28928 O
28929 O
28930 O
28931 O
28932 O
28933 O
28934 O
28935 O
28936 O
28937 O
28938 Org
28939 O
28940 Loc
28941 O
28942 Org
28943 O
28944 O
28945 O
28946 O
28947 O
28948 Org
28949 O
28950 O
28951 O
28952 O
28953 O
28954 O
28955 O
28956 O
28957 O
28958 O
28959 O
28960 O
28961 O
28962 O
28963 O
9011 O
9012 O
9013 O
9014 O
9015 Other
9016 O
9017 O
9018 O
9019 O
9020 O
9021 O
9022 O
9023 Loc
9024 O
9025 O
9026 O
9027 O
9028 O
9029 O
9030 O
9031 O
9032 O
9033 O
9034 O
9035 O
9036 O
9037 O
9038 O
9039 O
9040 Peop
9041 O
9042 O
9043 O
9044 Org
9045 O
9046 O
9047 O
9048 O
9049 O
9050 O
9051 O
9052 O
9053 O
9054 O
9055 O
9056 O
9057 O
115100 O
115101 O
115102 Peop
115103 O
115104 O
115105 O
115106 Loc
115107 O
115108 O
115109 O
115110 O
115111 O
115112 O
115113 O
115114 O
115115 O
115116 O
115117 Loc
115118 O
115119 O
115120 O
115121 O
115122 O
115123 O
115124 O
115125 Other
115126 O
115127 O
115128 O
115129 O
109458 O
109459 Peop
109460 O
109461 O
109462 O
109463 O
109464 Peop
109465 O
109466 O
109467 O
109468 O
109469 O
109470 O
109471 Other
109472 O
109473 O
37939 O
37940 O
37941 O
37942 O
37943 O
37944 O
37945 O
37946 O
37947 Peop
37948 O
37949 O
37950 O
37951 O
37952 O
37953 O
37954 Loc
37955 O
37956 O
37957 Peop
37958 O
37959 O
37960 O
37961 O
37962 O
37963 O
37964 O
37965 O
37966 O
37967 O
37968 O
37969 O
37970 O
37971 Loc
106829 O
106830 O
106831 O
106832 O
106833 O
106834 Loc
106835 O
106836 O
106837 O
106838 Peop
106839 O
106840 O
106841 O
106842 O
106843 O
106844 O
106845 O
106846 O
106847 O
106848 Peop
106849 O
59046 O
59047 Peop
59048 O
59049 Loc
59050 O
59051 Org
59052 O
59053 O
59054 O
59055 Loc
59056 O
59057 O
59058 O
113032 O
113033 O
113034 O
113035 O
113036 O
113037 O
113038 Peop
113039 O
113040 O
113041 Loc
113042 O
113043 O
113044 O
113045 O
113046 O
113047 O
113048 O
113049 O
113050 O
113051 O
113052 O
113053 O
113054 O
113055 O
113056 O
113057 O
113058 O
113059 O
113060 O
98111 O
98112 O
98113 O
98114 O
98115 O
98116 Org
98117 O
98118 O
98119 O
98120 O
98121 O
98122 O
98123 O
98124 O
98125 O
98126 O
98127 O
98128 O
98129 O
98130 O
98131 O
98132 O
98133 O
98134 O
98135 O
98136 O
98137 O
98138 O
98139 O
98140 O
98141 O
98142 O
98143 O
98144 O
98145 O
98146 O
98147 Peop
98148 O
98149 O
98150 O
98151 O
98152 O
98153 O
98154 O
98155 O
98156 Loc
98157 O
108998 Peop
108999 O
109000 O
109001 O
109002 O
109003 O
109004 O
109005 O
109006 O
109007 O
109008 O
109009 O
109010 O
109011 Org
109012 O
109013 O
109014 O
109015 O
109016 O
109017 O
109018 O
109019 O
109020 O
109021 O
109022 O
109023 O
109024 O
109025 Loc
109026 O
109027 O
109028 O
109029 O
109030 O
109031 O
109032 O
109033 O
109034 O
109035 O
109036 O
109037 O
109038 Peop
22289 O
22290 O
22291 O
22292 O
22293 O
22294 O
22295 O
22296 O
22297 O
22298 O
22299 O
22300 O
22301 O
22302 O
22303 O
22304 O
22305 O
22306 O
22307 Other
22308 O
22309 O
22310 Org
22311 O
22312 Peop
22313 O
4428 Peop
4429 O
4430 O
4431 O
4432 O
4433 Org
4434 O
4435 Peop
4436 O
4437 O
4438 O
4439 O
4440 O
4441 O
4442 O
4443 O
4444 O
4445 O
4446 O
4447 O
4448 O
4449 O
4450 O
4451 O
4452 Other
4453 O
4454 O
4455 O
4456 O
4457 O
4458 O
4459 O
4460 O
4461 O
38718 O
38719 O
38720 O
38721 O
38722 O
38723 O
38724 O
38725 O
38726 O
38727 O
38728 O
38729 O
38730 O
38731 O
38732 Loc
38733 O
38734 Loc
38735 O
38736 O
38737 O
38738 O
38739 O
38740 O
38741 O
38742 O
38743 O
38744 O
38745 O
35994 Loc
35995 O
35996 Org
35997 O
64463 Loc
64464 Org
49769 O
49770 O
49771 O
49772 O
49773 O
49774 O
49775 O
49776 O
49777 O
49778 O
49779 O
49780 Loc
49781 O
49782 O
49783 O
49784 O
49785 O
49786 O
49787 O
49788 O
49789 O
49790 O
49791 O
49792 Loc
49793 O
49794 O
49795 O
49796 O
49797 O
49798 O
49799 Loc
49800 O
49801 O
49802 O
49803 O
49804 O
49805 O
49806 O
49807 Org
88958 Loc
88959 Org
105743 O
105744 O
105745 O
105746 O
105747 Peop
105748 O
105749 O
105750 O
105751 Other
105752 O
105753 O
105754 O
105755 O
105756 O
105757 O
105758 O
105759 Loc
105760 O
105761 O
105762 O
105763 O
105764 O
105765 Peop
105766 O
105767 Loc
105768 O
105769 Other
105770 O
105771 O
105772 O
105773 O
99086 O
99087 Peop
99088 O
99089 O
99090 O
99091 O
99092 O
99093 O
99094 O
99095 O
99096 O
99097 O
99098 O
99099 O
99100 O
99101 O
99102 Loc
99103 O
99104 O
99105 O
99106 O
99107 O
99108 O
99109 O
99110 O
99111 O
99112 O
99113 O
99114 O
99115 O
99116 Peop
99117 O
99118 Peop
99119 O
99120 O
99121 O
99122 O
99123 O
99124 O
99125 O
99126 O
74022 O
74023 O
74024 O
74025 O
74026 O
74027 O
74028 O
74029 Loc
74030 Org
74031 O
74032 O
74033 Other
74034 O
74035 O
56083 Peop
56084 O
56085 O
56086 Other
56087 O
56088 O
56089 O
56090 O
56091 O
56092 O
56093 O
56094 O
56095 O
56096 O
56097 O
56098 O
56099 O
56100 O
56101 O
56102 Loc
56103 Org
56104 O
56105 O
56106 O
56107 O
56108 O
56109 O
56110 O
56111 O
56112 O
56113 O
56114 O
56115 O
56116 O
56117 O
56118 O
56119 O
56120 O
56121 Loc
41266 O
41267 O
41268 O
41269 O
41270 O
41271 O
41272 O
41273 O
41274 O
41275 O
41276 O
41277 Org
41278 O
41279 Peop
41280 O
41281 O
41282 O
41283 O
41284 O
41285 O
41286 O
41287 O
41288 O
41289 O
41290 O
41291 O
41292 Loc
41293 O
41294 O
41295 O
41296 O
41297 O
41298 O
41299 O
41300 O
41301 O
41302 O
41303 O
41304 O
3126 Loc
3127 O
3128 Loc
3129 O
17905 Peop
17906 O
17907 O
17908 Other
17909 O
17910 O
17911 Loc
17912 O
17913 Loc
17914 O
17915 O
17916 O
17917 O
17918 O
17919 O
17920 O
17921 O
17922 O
17923 O
17924 O
17925 O
17926 O
17927 O
17928 O
17929 O
17930 O
17931 O
17932 O
17933 O
17934 O
17935 O
17936 O
17937 O
17938 O
17939 O
104880 Peop
104881 O
104882 O
104883 O
104884 O
104885 O
104886 O
104887 O
104888 O
104889 O
104890 Peop
104891 O
104892 O
104893 O
104894 O
104895 O
104896 O
104897 O
104898 Loc
104899 O
104900 O
88950 O
88951 Loc
88952 Org
88953 O
88954 Loc
88955 Other
88956 O
88957 O
108142 O
108143 O
108144 O
108145 O
108146 Peop
108147 O
108148 O
108149 O
108150 O
108151 O
108152 Peop
108153 O
108154 O
108155 O
108156 O
108157 O
108158 O
108159 O
108160 O
48957 Peop
48958 O
48959 O
48960 O
48961 O
48962 Org
48963 O
48964 Loc
48965 O
48966 O
48967 O
48968 O
48969 O
48970 Other
48971 Org
48972 O
48973 O
48974 O
48975 Peop
48976 O
48977 O
48978 O
48979 O
48980 O
48981 O
48982 O
48983 O
48984 O
48985 O
48986 O
48987 Other
48988 O
48989 O
48990 O
48991 O
48992 O
48993 O
48994 O
48995 O
48996 Other
48997 O
48998 O
48999 O
49000 O
49001 O
49002 O
49003 O
49004 O
49005 O
49006 O
49007 O
49008 O
49009 O
108509 Peop
108510 O
108511 O
108512 O
108513 O
108514 O
108515 O
108516 O
108517 Loc
108518 O
108519 O
108520 O
108521 O
108522 O
108523 O
108524 O
108525 Peop
108526 O
108527 O
108528 O
108529 Peop
108530 O
108531 O
113198 Peop
113199 O
113200 O
113201 Other
113202 O
113203 O
113204 O
113205 Loc
113206 O
113207 O
113208 O
113209 O
113210 Loc
113211 O
113212 O
113213 O
113214 O
113215 O
113216 O
113217 O
114587 Other
114588 O
114589 Other
114590 O
114591 O
114592 O
114593 O
114594 O
114595 O
114596 O
114597 O
114598 O
114599 O
114600 O
114601 O
114602 O
114603 O
114604 O
114605 O
114606 Peop
114607 O
114608 O
114609 O
114610 Other
114611 O
114612 O
114613 O
114614 O
114615 O
114616 O
114617 O
114618 O
114619 O
114620 O
114621 O
114622 Loc
114623 O
59927 O
59928 O
59929 O
59930 O
59931 O
59932 Loc
59933 O
59934 Other
59935 O
59936 O
59937 O
59938 O
59939 O
59940 O
59941 O
59942 O
59943 O
59944 O
59945 Loc
59946 O
59947 O
59948 O
59949 O
59950 O
59951 O
59952 O
59953 O
59954 O
59955 O
59956 O
59957 O
59958 O
59959 O
59960 O
59961 O
59962 O
59963 O
59964 O
59965 O
59966 O
59967 O
59968 Peop
107521 Other
107522 O
107523 O
107524 O
107525 Peop
107526 O
107527 O
107528 O
107529 O
107530 Other
107531 O
107532 Org
107533 O
107534 O
107535 O
107536 O
107537 Peop
107538 O
107539 O
107540 Peop
107541 O
107542 O
107543 O
107544 O
107545 O
107546 Org
107547 O
86691 O
86692 O
86693 O
86694 O
86695 Org
86696 O
86697 O
86698 O
86699 O
86700 O
86701 O
86702 O
86703 O
86704 O
86705 O
86706 O
86707 O
86708 O
86709 O
86710 O
86711 Other
86712 O
86713 Loc
86714 O
86715 O
86716 O
86717 O
86718 O
86719 O
86720 O
86721 Loc
86722 O
86723 O
86724 O
86725 Loc
86726 O
86727 O
86728 O
86729 O
86730 O
86731 O
86732 O
86733 O
86734 Loc
86735 O
86736 O
86737 Peop
86738 O
86739 O
86740 O
86741 O
86742 O
86743 O
86744 O
86745 Other
86746 O
86747 O
86748 O
86749 O
86750 O
86751 O
86752 O
86753 O
86754 O
86755 O
86756 O
86757 O
86758 O
86759 Loc
86760 O
86761 Peop
86762 O
86763 O
86764 O
86765 O
86766 O
86767 O
56033 Loc
56034 O
56035 O
56036 O
56037 O
56038 O
56039 Loc
56040 O
56041 O
56042 O
56043 O
56044 O
56045 O
56046 Org
56047 O
56048 O
56049 Loc
56050 O
56051 O
56052 O
56053 O
56054 O
56055 O
56056 O
56057 O
56058 O
110523 O
110524 O
110525 O
110526 O
110527 O
110528 O
110529 O
110530 O
110531 O
110532 O
110533 O
110534 Peop
110535 O
110536 Peop
110537 O
110538 Peop
110539 O
110540 Peop
110541 O
110542 Peop
110543 O
110544 Peop
110545 O
110546 Peop
110547 O
110548 Peop
110549 O
110550 Peop
110551 O
110552 Peop
110553 O
110554 Other
110555 O
110556 Peop
110557 O
110558 O
110559 O
110560 O
110561 O
110562 Peop
110563 O
110564 O
110565 Peop
110566 O
110567 Peop
110568 O
110569 O
110570 O
110571 Peop
110572 O
110573 O
114624 Peop
114625 O
114626 O
114627 Other
114628 O
114629 O
114630 O
114631 O
114632 O
114633 Loc
114634 O
114635 O
114636 O
114637 O
114638 O
114639 O
114640 O
114641 O
114642 O
114643 Loc
114644 O
114645 O
114646 O
114647 O
114648 O
114649 O
114650 O
114651 O
110487 Peop
110488 O
110489 O
110490 O
110491 O
110492 O
110493 O
110494 O
110495 O
110496 Peop
110497 O
110498 O
110499 O
110500 O
110501 O
110502 Peop
110503 O
57582 Peop
57583 O
57584 O
57585 O
57586 O
57587 O
57588 O
57589 O
57590 O
57591 O
57592 O
57593 Peop
57594 O
57595 O
57596 O
57597 Peop
57598 O
57599 O
57600 O
57601 O
57602 O
57603 O
57604 O
57605 Org
57606 O
57607 O
57608 O
57609 O
57610 Loc
57611 O
57612 O
57613 O
57614 O
111345 Peop
111346 O
111347 Other
111348 O
111349 O
111350 O
111351 O
111352 O
111353 Loc
111354 O
111355 O
111356 O
111357 O
111358 O
111359 O
111360 O
111361 O
111362 O
111363 O
111364 O
111365 O
111366 Peop
111367 O
111368 O
111369 O
111370 O
111371 O
111372 Other
114896 O
114897 Org
114898 O
114899 Other
114900 O
114901 O
114902 O
114903 O
114904 O
114905 O
114906 O
114907 Peop
114908 O
114909 Loc
114910 O
114911 O
114912 O
114913 O
114914 O
114915 O
114916 O
114917 O
114918 O
114919 O
114920 O
114921 O
114922 O
114923 O
114924 O
114925 O
114926 O
75358 Peop
75359 O
75360 Loc
75361 O
75362 O
75363 O
75364 O
75365 O
75366 O
75367 O
75368 O
75369 O
75370 O
75371 O
75372 O
75373 O
75374 O
75375 Loc
75376 O
75377 O
75378 O
75379 O
75380 O
74352 Loc
74353 Org
87391 O
87392 O
87393 Peop
87394 O
87395 Peop
87396 O
87397 O
87398 O
87399 O
87400 O
87401 O
87402 Loc
87403 O
87404 O
87405 O
87406 O
87407 O
87408 O
87409 O
87410 O
87411 O
87412 O
87413 O
87414 O
87415 O
87416 O
87417 O
87418 O
87419 O
87420 O
87421 O
87422 O
87423 O
87424 O
87425 O
87426 O
87427 Loc
87428 O
87429 O
87430 O
87431 O
87432 Org
87433 O
87434 O
87435 Peop
87436 O
87437 O
87438 O
87439 O
87440 O
87441 Other
87442 O
87443 O
87444 O
87445 Loc
87446 O
39887 Loc
39888 O
39889 Loc
39890 O
39891 Org
39892 O
48800 O
48801 O
48802 O
48803 O
48804 O
48805 O
48806 O
48807 O
48808 O
48809 O
48810 O
48811 O
48812 O
48813 O
48814 O
48815 O
48816 O
48817 O
48818 Peop
48819 O
48820 O
48821 O
48822 O
48823 O
48824 O
48825 Org
48826 O
48827 O
48828 O
48829 Peop
48830 O
48831 O
48832 O
48833 O
48834 O
48835 O
48836 O
48837 O
48838 O
48839 O
48840 O
7886 O
7887 Loc
7888 O
7889 Other
7890 O
7891 O
7892 O
7893 Loc
7894 O
7895 O
7896 O
7897 O
7898 O
7899 O
7900 O
7901 O
7902 O
106289 O
106290 O
106291 Peop
106292 O
106293 O
106294 O
106295 O
106296 O
106297 O
106298 O
106299 O
106300 Peop
106301 O
106302 O
106303 O
31157 O
31158 O
31159 O
31160 O
31161 O
31162 O
31163 O
31164 O
31165 O
31166 O
31167 O
31168 O
31169 O
31170 O
31171 O
31172 Peop
31173 O
31174 O
31175 O
31176 O
31177 Loc
31178 O
31179 O
31180 O
31181 O
31182 O
31183 O
31184 O
98313 O
98314 O
98315 O
98316 O
98317 O
98318 O
98319 O
98320 O
98321 O
98322 O
98323 O
98324 O
98325 O
98326 O
98327 O
98328 O
98329 O
98330 O
98331 O
98332 O
98333 O
98334 O
98335 O
98336 O
98337 Org
98338 O
98339 Loc
98340 O
98341 O
98342 O
98343 O
98344 O
98345 O
98346 O
98347 O
98348 O
98349 O
98350 O
98351 O
98352 O
98353 O
98354 O
98355 O
98356 O
98357 O
98358 O
98359 O
98360 O
98361 O
98362 O
98363 Org
98364 O
110018 O
110019 O
110020 O
110021 O
110022 Other
110023 O
110024 O
110025 O
110026 O
110027 O
110028 O
110029 O
110030 O
110031 O
110032 O
110033 O
110034 Org
110035 O
110036 O
110037 O
110038 Peop
110039 O
110040 O
110041 O
110042 O
110043 O
110044 Peop
110045 O
50506 O
50507 Org
50508 O
50509 Peop
50510 O
50511 O
50512 O
50513 O
50514 O
50515 O
50516 O
50517 O
50518 O
50519 O
50520 O
50521 O
50522 O
50523 Loc
50524 O
50525 Org
112840 O
112841 O
112842 O
112843 O
112844 O
112845 O
112846 O
112847 O
112848 O
112849 O
112850 O
112851 O
112852 Loc
112853 O
112854 Peop
112855 O
112856 O
112857 O
112858 O
112859 Loc
112860 O
109629 Loc
109630 O
109631 O
109632 O
109633 O
109634 Peop
109635 O
109636 O
109637 O
109638 Peop
109639 O
109640 Peop
109641 O
109642 O
109643 Peop
109644 O
109645 Peop
109646 O
31695 O
31696 O
31697 O
31698 O
31699 O
31700 O
31701 O
31702 O
31703 O
31704 O
31705 O
31706 O
31707 O
31708 O
31709 O
31710 O
31711 O
31712 O
31713 O
31714 O
31715 Other
31716 O
31717 O
31718 O
31719 O
31720 O
31721 O
31722 O
31723 O
31724 O
31725 O
31726 O
31727 O
31728 O
31729 Loc
31730 O
31731 Loc
31732 O
31733 O
31734 Loc
31735 O
31736 O
31737 O
31738 O
31739 Peop
31740 O
31741 O
31742 Org
108377 O
108378 Org
108379 O
108380 O
108381 Peop
108382 O
108383 O
108384 O
108385 O
108386 O
108387 O
108388 O
108389 O
108390 O
108391 Peop
108392 O
108393 O
108394 Peop
108395 O
108396 O
108397 O
108398 Loc
108399 O
108400 O
108401 O
108402 Other
108403 O
108404 O
108405 O
108406 O
108407 Loc
108408 O
54413 O
54414 O
54415 Loc
54416 Peop
54417 O
54418 O
54419 O
54420 O
54421 O
54422 Peop
54423 O
54424 Loc
54425 O
54426 Peop
54427 O
54428 O
54429 O
54430 O
54431 O
54432 O
54433 O
54434 O
54435 O
54436 O
54437 O
54438 Org
54439 O
54440 Loc
96042 O
96043 Peop
96044 O
96045 O
96046 Peop
96047 O
96048 O
96049 O
96050 O
96051 O
96052 O
96053 O
96054 O
96055 Peop
96056 O
96057 Loc
96058 O
96059 O
96060 O
96061 O
96062 O
96063 O
96064 O
96065 O
96066 O
96067 O
96068 O
96069 O
96070 Org
96071 O
96072 Org
96073 O
96074 O
96075 Org
96076 O
96077 Org
96078 O
96079 O
96080 O
96081 O
96082 O
96083 O
96084 O
96085 O
96086 O
96087 O
96088 O
96089 Peop
96090 O
96091 O
96092 O
96093 O
96094 O
96095 O
96096 O
96097 O
96098 O
96099 O
96100 O
96101 O
96102 O
96103 O
96104 O
96105 O
9988 Peop
9989 O
9990 O
9991 O
9992 O
9993 O
9994 O
9995 O
9996 O
9997 O
9998 O
9999 Loc
10000 O
10001 Loc
10002 O
10003 O
10004 Loc
10005 O
10006 Loc
10007 O
10008 O
10009 Loc
10010 O
6400 O
6401 O
6402 O
6403 O
6404 Org
6405 O
6406 Peop
6407 O
6408 O
6409 O
6410 O
6411 O
6412 O
6413 O
6414 O
6415 O
6416 O
6417 O
6418 O
100505 O
100506 O
100507 Peop
100508 O
100509 O
100510 O
100511 O
100512 O
100513 O
100514 O
100515 O
100516 O
100517 O
100518 O
100519 O
100520 O
100521 O
100522 O
100523 O
100524 O
100525 O
100526 O
100527 O
100528 Org
100529 O
100530 O
100531 Peop
100532 O
100533 O
100534 O
100535 O
100536 O
100537 O
100538 O
100539 O
100540 O
97135 Org
97136 O
97137 Peop
97138 O
97139 O
97140 O
97141 O
97142 O
97143 O
97144 Loc
97145 O
97146 O
97147 O
97148 O
97149 Org
97150 O
97151 O
97152 O
92313 O
92314 Loc
92315 Org
92316 O
92317 O
92318 Other
92319 O
92320 O
92321 O
92322 O
38202 Peop
38203 O
38204 O
38205 O
38206 O
38207 Loc
38208 O
38209 Loc
38210 O
38211 O
38212 O
38213 O
38214 O
38215 O
38216 O
38217 O
38218 O
38219 O
38220 O
38221 O
38222 O
38223 O
38224 O
38225 O
38226 O
38227 O
38228 O
38229 O
38230 O
38231 O
38232 O
38233 O
38234 O
38235 Org
38236 O
38237 O
38238 O
38239 O
104830 O
104831 O
104832 O
104833 O
104834 O
104835 O
104836 Peop
104837 O
104838 O
104839 O
104840 Peop
104841 O
104842 Other
104843 O
104844 O
104845 O
104846 O
104847 O
104848 O
104849 O
104850 O
104851 O
35003 O
35004 Org
35005 O
35006 O
35007 O
35008 O
35009 O
35010 O
35011 O
35012 O
35013 O
35014 O
35015 O
35016 O
35017 O
35018 O
35019 O
35020 O
35021 O
35022 O
35023 O
35024 O
35025 O
35026 O
35027 O
35028 O
35029 O
35030 O
35031 O
35032 O
35033 O
35034 O
35035 O
35036 O
35037 O
35038 O
35039 Peop
75947 Peop
75948 O
75949 O
75950 O
75951 O
75952 O
75953 O
75954 O
75955 O
75956 Loc
75957 O
75958 O
75959 O
75960 Other
75961 O
75962 O
75963 O
75964 O
75965 O
75966 O
75967 Loc
75968 O
75969 O
75970 O
75971 O
75972 O
75973 O
75974 O
107795 O
107796 O
107797 O
107798 Peop
107799 O
107800 O
107801 O
107802 Loc
107803 O
107804 O
107805 O
107806 O
107807 O
107808 O
107809 O
107810 O
107811 Peop
74363 O
74364 O
74365 Loc
74366 O
74367 O
74368 O
74369 O
74370 O
74371 Loc
74372 Org
74373 O
74374 O
74375 O
74376 O
74377 O
74378 Loc
74379 O
74380 Other
74381 O
74382 Org
74383 O
74384 O
74385 O
74386 O
74387 O
74388 O
74389 Org
74390 O
74391 O
74392 O
74393 O
74394 O
74395 O
74396 O
74397 O
74398 O
74399 O
74400 O
74401 Other
74402 O
74403 O
74404 O
74405 O
74406 O
74407 Loc
74408 O
74409 O
74410 O
74411 O
95275 Loc
95276 Org
115000 O
115001 O
115002 O
115003 O
115004 O
115005 O
115006 Peop
115007 O
115008 O
115009 O
115010 Loc
115011 O
115012 O
115013 O
115014 O
115015 O
115016 O
115017 O
115018 O
115019 O
115020 O
115021 O
115022 O
115023 O
115024 O
115025 O
115026 O
115027 O
115028 O
115029 O
115030 O
115031 O
115032 O
115033 O
115034 O
115035 O
115036 O
115037 O
115038 O
113248 O
113249 O
113250 O
113251 O
113252 Peop
113253 O
113254 O
113255 O
113256 O
113257 Loc
113258 O
113259 O
113260 O
113261 O
113262 O
113263 O
113264 O
113265 O
113266 O
113267 O
113268 O
113269 O
18199 Loc
18200 O
18201 Loc
18202 O
18203 Org
18204 O
97900 Peop
97901 O
97902 O
97903 O
97904 O
97905 O
97906 O
97907 O
97908 O
97909 O
97910 O
97911 O
97912 O
97913 O
97914 O
97915 O
97916 O
97917 O
97918 O
97919 Org
97920 O
97921 Loc
97922 O
97923 Loc
97924 O
97925 Loc
97926 O
97927 Loc
97928 O
97929 O
97930 Loc
97931 O
97932 O
97933 O
97934 O
97935 O
97936 O
97937 O
97938 O
97939 O
97940 O
97941 O
93001 O
93002 Loc
93003 Org
93004 O
93005 O
93006 Other
93007 O
93008 O
105923 O
105924 O
105925 O
105926 O
105927 O
105928 O
105929 O
105930 Org
105931 O
105932 O
105933 O
105934 O
105935 Peop
105936 O
105937 O
105938 O
105939 O
105940 Peop
105941 O
105942 O
105943 O
105944 O
105945 O
105946 O
105947 O
105948 O
105949 O
105950 O
105951 O
105952 O
105953 O
105954 O
105955 O
105956 O
105957 O
105958 O
105959 O
105960 O
105961 O
105962 O
105963 O
105964 O
105965 O
105966 O
105967 O
112681 O
112682 O
112683 O
112684 O
112685 O
112686 O
112687 O
112688 O
112689 Loc
112690 O
112691 Peop
112692 O
112693 O
112694 O
112695 O
112696 Loc
112697 O
74334 Org
74335 O
74336 O
74337 O
74338 O
74339 Loc
74340 O
74341 Loc
74342 Org
74343 O
74344 O
74345 Other
74346 Other
74347 O
74348 O
74349 O
74350 O
74351 O
62523 Peop
62524 O
62525 O
62526 O
62527 O
62528 O
62529 Loc
62530 O
62531 Loc
62532 O
62533 O
62534 O
62535 O
62536 O
62537 O
62538 Loc
62539 O
62540 Loc
62541 O
62542 Loc
62543 O
62544 O
62545 O
62546 O
62547 O
62548 O
62549 O
62550 O
62551 Other
62552 O
62553 O
102527 Peop
102528 O
102529 O
102530 O
102531 O
102532 O
102533 O
102534 O
102535 O
102536 O
102537 O
102538 O
102539 O
102540 O
102541 O
102542 O
102543 O
102544 Loc
102545 O
102546 O
102547 O
102548 O
102549 O
102550 O
102551 O
102552 O
102553 O
102554 O
102555 O
102556 O
102557 O
102558 Org
102559 O
102560 O
102561 O
102562 O
102563 O
26229 Peop
26230 O
26231 O
26232 O
26233 O
26234 Org
26235 O
26236 O
26237 O
26238 O
26239 O
26240 O
26241 O
26242 O
26243 O
26244 O
26245 O
26246 O
26247 O
26248 O
26249 O
26250 O
26251 O
26252 O
26253 O
26254 O
26255 O
26256 O
26257 O
26258 O
26259 O
26260 O
26261 O
26262 O
26263 O
26264 O
26265 O
26266 O
26267 O
26268 O
26269 O
26270 O
26271 O
26272 O
26273 O
26274 O
26275 O
24072 Peop
24073 O
24074 O
24075 O
24076 Org
24077 O
24078 O
24079 O
24080 O
24081 O
24082 O
24083 Other
24084 O
24085 O
24086 O
24087 O
24088 O
24089 O
24090 O
24091 O
24092 O
24093 O
24094 O
24095 O
24096 O
24097 O
24098 O
24099 O
24100 O
24101 O
24102 O
24103 O
24104 O
24105 Org
24106 O
24107 O
68393 O
68394 O
68395 O
68396 Loc
68397 O
68398 Peop
68399 O
68400 O
68401 O
68402 O
68403 O
68404 O
68405 O
68406 O
68407 O
68408 Loc
68409 O
68410 O
68411 O
68412 O
68413 O
68414 O
68415 O
68416 O
68417 O
68418 Loc
68419 O
68420 O
68421 Peop
68422 O
68423 O
68424 O
68425 O
68426 O
68427 O
68428 O
68429 O
68430 O
68431 O
68432 O
68433 O
68434 O
68435 O
68436 O
68437 O
68438 O
68439 Loc
68440 O
68441 Loc
68442 O
90914 O
90915 O
90916 O
90917 O
90918 O
90919 O
90920 O
90921 O
90922 O
90923 O
90924 O
90925 O
90926 O
90927 O
90928 Loc
90929 Org
90930 O
90931 O
90932 Org
90933 O
90934 O
90935 O
90936 O
90937 O
90938 O
90939 O
90940 O
90941 O
90942 O
90943 O
90944 O
90945 O
90946 O
90947 O
90948 O
90949 O
90950 O
112297 O
112298 O
112299 Peop
112300 O
112301 O
112302 O
112303 O
112304 O
112305 O
112306 O
112307 O
112308 O
112309 O
112310 O
112311 Loc
112312 O
112313 O
112314 O
112315 O
112316 O
112317 O
112318 O
112319 O
112320 O
83873 O
83874 O
83875 O
83876 O
83877 O
83878 O
83879 O
83880 O
83881 O
83882 Peop
83883 O
83884 O
83885 O
83886 O
83887 Org
83888 O
83889 O
83890 O
83891 O
93018 O
93019 O
93020 O
93021 Peop
93022 O
93023 O
93024 O
93025 O
93026 Peop
93027 O
93028 O
93029 O
93030 O
93031 Org
93032 O
93033 Org
93034 O
93035 O
93036 O
93037 Other
93038 O
93039 O
93040 O
93041 O
93042 O
93043 O
93044 O
93045 O
93046 O
93047 O
93048 O
93049 O
93050 O
93051 O
93052 O
93053 O
93054 O
93055 O
93056 O
93057 O
93058 O
93059 O
93060 O
93061 Org
93062 O
93063 O
93064 O
93065 O
93066 O
93067 Org
93068 O
93069 O
93070 O
93071 O
93072 O
93073 Org
93074 O
110574 Peop
110575 O
110576 O
110577 O
110578 O
110579 Peop
110580 O
110581 O
110582 Peop
110583 O
110584 O
110585 O
110586 Org
110587 O
110588 O
110589 O
110590 O
110591 O
110592 O
14749 Loc
14750 O
14751 Loc
50680 Peop
50681 O
50682 O
50683 O
50684 O
50685 O
50686 O
50687 O
50688 O
50689 Org
50690 O
50691 O
50692 O
50693 O
50694 O
50695 O
50696 O
50697 Other
112531 O
112532 Peop
112533 O
112534 Loc
112535 O
112536 O
112537 O
112538 O
112539 Loc
112540 O
112541 Loc
112542 O
112543 Loc
112544 O
112545 O
112546 Org
112547 O
112548 O
112549 Loc
112550 O
112551 O
112552 Loc
112553 O
112554 O
112555 O
112556 O
112557 O
112558 O
112559 O
112560 O
112561 O
112562 O
112563 O
112564 Other
112565 O
112566 O
112567 O
112568 Other
112569 O
112570 O
112571 O
112572 O
112573 O
10864 Peop
10865 O
10866 O
10867 O
10868 O
10869 O
10870 O
10871 O
10872 Peop
10873 O
10874 O
10875 O
10876 O
10877 Loc
10878 O
10879 Peop
10880 O
10881 O
10882 O
10883 O
10884 Peop
10885 O
53719 Org
53720 O
53721 Peop
53722 O
53723 O
53724 O
53725 O
53726 O
53727 O
53728 O
53729 O
53730 O
53731 O
53732 O
53733 O
53734 O
53735 O
53736 O
113218 O
113219 O
113220 O
113221 O
113222 O
113223 O
113224 Loc
113225 O
113226 Peop
113227 O
113228 O
113229 O
113230 O
113231 O
113232 O
113233 O
113234 O
113235 O
113236 O
113237 O
113238 O
113239 O
113240 O
113241 O
113242 O
113243 O
113244 O
113245 O
113246 O
113247 O
82596 Peop
82597 O
82598 O
82599 O
82600 O
82601 O
82602 O
82603 Loc
82604 Org
82605 O
82606 O
82607 Other
82608 O
82609 O
105868 O
105869 O
105870 O
105871 O
105872 O
105873 Peop
105874 O
105875 O
105876 O
105877 O
105878 O
105879 O
105880 O
105881 O
105882 O
105883 O
105884 O
105885 O
105886 O
105887 O
105888 O
105889 O
105890 O
105891 O
105892 O
105893 O
105894 O
105895 O
105896 O
105897 O
105898 O
105899 Other
105900 O
105901 Peop
105902 O
105903 Peop
105904 O
105905 O
105906 O
105907 O
105908 Peop
105909 O
33837 O
33838 O
33839 O
33840 O
33841 O
33842 O
33843 O
33844 O
33845 O
33846 O
33847 O
33848 O
33849 O
33850 O
33851 O
33852 O
33853 O
33854 O
33855 O
33856 O
33857 O
33858 O
33859 O
33860 O
33861 O
33862 O
33863 O
33864 O
33865 O
33866 Peop
33867 O
33868 O
33869 O
33870 O
33871 O
33872 O
33873 O
33874 O
33875 Org
33876 O
33877 O
33878 O
33879 O
33880 Org
33881 O
33882 O
33883 O
33884 O
33885 O
97309 O
97310 O
97311 O
97312 O
97313 O
97314 O
97315 O
97316 O
97317 O
97318 O
97319 O
97320 O
97321 O
97322 O
97323 Org
97324 O
97325 Loc
97326 O
97327 O
97328 O
97329 Loc
97330 O
97331 Loc
97332 O
97333 O
97334 O
97335 O
97336 O
97337 O
97338 O
97339 O
97340 O
97341 O
97342 O
97343 Loc
97344 O
97345 O
97346 O
97347 O
97348 O
97349 O
97350 O
97351 O
97352 Loc
97353 O
27683 Loc
27684 O
27685 Org
27686 O
1865 Peop
1866 O
1867 Peop
1868 O
1869 Org
1870 O
1871 Org
1872 O
1873 O
1874 O
1875 O
1876 O
1877 O
1878 O
1879 O
1880 O
1881 O
1882 O
1883 O
1884 O
1885 O
1886 O
1887 O
1888 O
1889 O
1890 O
1891 O
1892 O
1893 O
1894 O
1895 Other
1896 O
1897 O
1898 O
1899 O
1900 Other
1901 O
1902 O
1903 O
1904 O
1905 O
1906 O
1907 O
1908 O
1909 Loc
1910 O
1911 O
6909 Loc
6910 O
6911 O
6912 O
6913 O
6914 O
6915 O
6916 O
6917 O
6918 O
6919 Org
6920 O
6921 O
6922 O
6923 O
6924 O
6925 O
6926 O
6927 O
6928 O
6929 O
6930 O
6931 O
6932 O
6933 O
6934 O
6935 O
6936 O
6937 O
6938 O
6939 O
6940 O
6941 O
6942 O
6943 O
6944 O
6945 O
6946 O
6947 O
79526 O
79527 O
79528 O
79529 O
79530 O
79531 O
79532 O
79533 O
79534 O
79535 O
79536 O
79537 Loc
79538 O
79539 Loc
79540 O
79541 Loc
79542 O
79543 O
79544 O
79545 O
79546 O
79547 O
79548 O
79549 O
79550 Loc
79551 O
79552 Loc
79553 O
79554 Loc
79555 O
112494 O
112495 O
112496 O
112497 O
112498 O
112499 O
112500 O
112501 O
112502 O
112503 O
112504 O
112505 O
112506 O
112507 O
112508 O
112509 O
112510 O
112511 O
112512 O
112513 Peop
112514 O
112515 O
112516 O
112517 O
112518 Org
112519 O
112520 Peop
112521 O
112522 O
112523 Loc
112524 O
112525 O
112526 O
112527 O
112528 O
112529 Loc
112530 O
110210 O
110211 O
110212 O
110213 O
110214 Peop
110215 O
110216 O
110217 Peop
110218 O
110219 O
110220 O
110221 O
110222 O
110223 O
110224 O
110225 O
110226 O
110227 O
110228 O
110229 O
110230 O
110231 O
110232 O
110233 O
110234 O
110235 O
110236 O
87635 O
87636 O
87637 O
87638 O
87639 O
87640 O
87641 O
87642 Org
87643 O
87644 Loc
87645 O
87646 O
87647 O
87648 Org
87649 O
87650 Loc
87651 O
87652 Loc
87653 O
87654 O
87655 O
87656 O
87657 O
87658 Org
87659 O
87660 Loc
87661 O
87662 O
87663 O
87664 O
87665 O
87666 O
87667 Org
87668 O
87669 Loc
87670 O
87671 O
87672 O
87673 Org
87674 O
103154 Loc
103155 Org
103156 O
103157 Other
103158 O
98742 O
98743 O
98744 O
98745 Loc
98746 O
98747 Other
98748 O
98749 O
98750 O
98751 O
98752 Peop
98753 O
98754 O
98755 O
98756 Loc
98757 O
98758 O
98759 O
98760 O
98761 O
98762 O
98763 O
98764 O
98765 O
98766 O
98767 O
98768 O
98769 O
98770 O
98771 O
98772 O
98773 O
98774 O
98775 O
98776 O
98777 O
98778 O
98779 O
88532 O
88533 O
88534 O
88535 Peop
88536 O
88537 O
88538 O
88539 O
88540 Org
46292 Org
46293 O
46294 Peop
46295 O
46296 O
46297 O
46298 O
46299 O
46300 O
46301 O
46302 O
46303 O
46304 O
46305 O
46306 O
46307 O
46308 O
46309 O
46310 O
46311 O
46312 O
46313 O
46314 O
46315 O
46316 Peop
46317 O
46318 O
46319 O
46320 O
46321 O
46322 O
46323 Peop
46324 O
46325 O
46326 O
46327 O
46328 O
46329 O
46330 O
46331 O
46332 O
46333 Peop
59705 O
59706 Other
59707 O
59708 O
59709 O
59710 O
59711 O
59712 O
59713 Loc
59714 O
59715 O
59716 O
59717 O
59718 O
59719 O
59720 O
59721 O
59722 O
59723 O
59724 O
59725 O
59726 O
59727 O
59728 O
59729 O
59730 O
59731 O
59732 O
59733 O
59734 O
59735 O
59736 O
59737 O
59738 O
59739 O
59740 O
59741 O
59742 Loc
59743 O
59744 O
59745 O
59746 O
59747 O
59748 O
59749 O
83314 O
83315 O
83316 O
83317 O
83318 O
83319 O
83320 O
83321 Loc
83322 Org
83323 O
83324 O
83325 Other
83326 Other
36030 O
36031 O
36032 O
36033 O
36034 O
36035 O
36036 O
36037 O
36038 O
36039 O
36040 O
36041 O
36042 O
36043 O
36044 O
36045 O
36046 O
36047 O
36048 O
36049 O
36050 O
36051 O
36052 O
36053 O
36054 O
36055 O
36056 O
36057 O
36058 O
36059 O
36060 Loc
36061 O
36062 Peop
36063 O
36064 O
36065 O
36066 O
36067 O
36068 O
36069 O
36070 O
36071 O
36072 O
36073 O
36074 O
36075 O
112619 O
112620 O
112621 O
112622 O
112623 O
112624 O
112625 O
112626 O
112627 O
112628 O
112629 O
112630 O
112631 O
112632 Loc
112633 O
112634 Peop
112635 O
112636 O
112637 O
112638 O
112639 Loc
112640 O
112641 O
112642 O
112643 O
112644 Peop
112645 O
112646 O
112647 Loc
112648 O
112649 O
112650 O
112651 O
112652 O
112653 O
112654 O
7438 Peop
7439 O
7440 O
7441 O
7442 O
7443 O
7444 O
7445 O
7446 O
7447 O
7448 O
7449 O
7450 O
7451 O
7452 O
7453 O
7454 O
7455 O
7456 O
7457 O
7458 Loc
7459 O
7460 O
7461 O
7462 O
7463 O
7464 O
7465 O
7466 O
7467 O
7468 O
7469 O
7470 O
7471 O
7472 O
7473 O
7474 O
7475 O
7476 O
7477 O
7478 O
7479 O
7480 O
7481 O
7482 O
26802 O
26803 O
26804 O
26805 O
26806 O
26807 Org
26808 O
26809 O
26810 O
26811 O
26812 O
26813 Peop
26814 O
26815 O
26816 O
26817 O
26818 O
26819 O
26820 O
26821 O
26822 O
26823 Loc
26824 O
26825 O
26826 O
26827 Peop
26828 O
26829 O
26830 O
26831 O
26832 O
26833 O
26834 O
26835 Org
26836 O
26837 Other
26838 O
26839 O
26840 O
26841 O
26842 O
26843 O
26844 O
26845 O
26846 O
26847 O
26848 O
87527 O
87528 O
87529 O
87530 O
87531 O
87532 O
87533 Peop
87534 O
87535 Loc
87536 O
87537 Org
87538 O
87539 Org
87540 O
87541 O
87542 O
87543 O
87544 O
87545 O
87546 O
87547 O
87548 O
87549 O
87550 O
87551 O
87552 O
87553 O
87554 O
87555 O
113915 O
113916 O
113917 O
113918 O
113919 O
113920 O
113921 O
113922 O
113923 Loc
113924 O
113925 Peop
113926 O
113927 O
113928 O
113929 O
113930 Loc
113931 O
92762 Loc
92763 Org
109474 O
109475 O
109476 O
109477 O
109478 O
109479 Peop
109480 O
109481 O
109482 O
109483 O
109484 O
109485 O
109486 O
109487 O
109488 O
109489 O
109490 O
109491 O
109492 O
109493 Peop
109494 O
109495 O
109496 O
109497 O
109498 O
109499 O
109500 Peop
109501 O
109502 O
109503 O
109504 Peop
109505 O
110593 Peop
110594 O
110595 Peop
110596 O
110597 O
110598 O
110599 O
110600 Peop
110601 O
110602 O
110603 O
110604 O
110605 O
110606 Peop
110607 O
110608 O
110609 Loc
110610 O
110611 O
110612 O
92132 O
92133 Loc
92134 Org
92135 O
92136 O
92137 Other
92138 Other
110986 O
110987 O
110988 Peop
110989 O
110990 O
110991 Peop
110992 O
110993 Peop
110994 O
110995 O
110996 O
110997 O
110998 O
110999 O
111000 O
111001 O
111002 O
111003 O
111004 O
111005 O
111006 O
111007 O
111025 O
111026 O
111027 O
111028 O
111029 O
111030 O
111031 O
111032 Peop
111033 O
111034 O
111035 O
111036 Org
111037 O
111038 O
111039 O
111040 O
111041 Peop
111042 O
111043 O
111044 O
111045 O
111046 O
111047 O
111048 O
111049 O
111050 O
111051 O
111052 O
111053 O
111054 Peop
111055 O
21965 O
21966 O
21967 O
21968 O
21969 O
21970 O
21971 O
21972 O
21973 O
21974 O
21975 O
21976 Peop
21977 O
21978 O
21979 O
21980 O
21981 O
21982 O
21983 Loc
21984 O
21985 O
21986 Other
21987 O
21988 O
21989 Loc
21990 O
6201 O
6202 Loc
6203 O
6204 Loc
6205 O
6206 O
6207 O
6208 O
6209 Org
6210 O
6211 O
6212 O
6213 Other
6214 O
6215 O
6216 O
6217 O
6218 O
6219 Loc
6220 O
6221 O
6222 O
6223 O
6224 O
6225 O
46828 Loc
46829 O
46830 O
46831 O
46832 O
46833 O
46834 O
46835 O
46836 O
46837 O
46838 O
46839 O
46840 O
46841 O
46842 O
46843 O
46844 O
46845 O
46846 O
46847 O
46848 Loc
46849 O
46850 O
46851 O
46852 O
46853 O
112235 O
112236 O
112237 O
112238 Peop
112239 O
112240 O
112241 O
112242 O
112243 O
112244 O
112245 Loc
112246 O
112247 O
112248 O
112249 O
112250 Loc
112251 O
38868 O
38869 O
38870 O
38871 O
38872 O
38873 Other
38874 O
38875 O
38876 O
38877 O
38878 O
38879 Loc
38880 O
38881 Loc
38882 O
38883 O
38884 O
38885 O
38886 O
38887 Loc
38888 O
38889 Loc
65038 O
65039 O
65040 O
65041 O
65042 O
65043 O
65044 O
65045 O
65046 O
65047 O
65048 O
65049 O
65050 Loc
65051 Org
65052 O
65053 O
65054 Other
65055 Other
93009 Loc
93010 Org
26346 O
26347 O
26348 O
26349 O
26350 O
26351 O
26352 O
26353 O
26354 O
26355 O
26356 O
26357 O
26358 O
26359 O
26360 O
26361 O
26362 Org
26363 O
26364 O
26365 O
26366 O
26367 Org
26368 O
26369 Peop
26370 O
26371 O
26372 O
21543 O
21544 Peop
21545 O
21546 O
21547 O
21548 O
21549 O
21550 O
21551 O
21552 O
21553 O
21554 O
21555 O
21556 O
21557 O
21558 O
21559 O
21560 O
21561 O
21562 O
21563 O
21564 O
21565 O
21566 O
21567 Other
21568 O
21569 Loc
21570 O
21571 Loc
21572 O
21573 O
21574 O
21575 O
21576 O
21577 O
44604 O
44605 O
44606 O
44607 O
44608 O
44609 O
44610 O
44611 O
44612 Loc
44613 O
44614 Loc
44615 O
44616 O
44617 O
44618 O
44619 O
44620 O
44621 O
44622 O
44623 O
44624 O
44625 O
44626 O
44627 O
44628 O
44629 Peop
44630 O
44631 O
44632 O
44633 O
44634 Org
93852 O
93853 O
93854 Peop
93855 O
93856 O
93857 O
93858 O
93859 O
93860 Org
93861 O
93862 Org
93863 O
93864 O
93865 O
93866 O
93867 O
93868 O
93869 O
93870 Other
93871 O
93872 O
93873 O
93874 O
93875 O
93876 Loc
93877 O
114927 O
114928 O
114929 O
114930 O
114931 O
114932 O
114933 O
114934 O
114935 O
114936 O
114937 O
114938 O
114939 O
114940 O
114941 O
114942 O
114943 O
114944 O
114945 O
114946 O
114947 O
114948 O
114949 O
114950 O
114951 O
114952 O
114953 O
114954 O
114955 O
114956 O
114957 O
114958 O
114959 O
114960 O
114961 O
114962 O
114963 O
114964 O
114965 O
114966 O
114967 O
114968 O
114969 O
114970 O
114971 O
114972 O
114973 Peop
114974 O
114975 O
114976 O
114977 O
114978 O
114979 O
114980 O
114981 O
114982 O
114983 O
114984 O
114985 O
114986 O
114987 O
114988 Loc
114989 O
114990 O
114991 O
114992 O
114993 O
114994 O
114995 O
114996 O
114997 O
114998 Loc
114999 O
94892 Loc
94893 Org
113535 O
113536 O
113537 O
113538 O
113539 O
113540 O
113541 O
113542 O
113543 O
113544 O
113545 O
113546 O
113547 O
113548 Loc
113549 O
113550 Peop
113551 O
113552 O
113553 O
113554 O
113555 Loc
113556 O
113557 O
113558 O
113559 O
113560 Peop
113561 O
113562 O
113563 Loc
113564 O
113565 O
113566 O
113567 O
113568 O
113569 O
113570 O
95315 O
95316 O
95317 O
95318 O
95319 O
95320 O
95321 O
95322 O
95323 O
95324 O
95325 O
95326 O
95327 O
95328 O
95329 O
95330 O
95331 O
95332 Loc
95333 O
95334 Peop
95335 O
95336 Loc
95337 O
95338 O
95339 O
95340 O
95341 O
95342 Loc
95343 O
47650 Loc
47651 O
47652 Loc
47653 O
47654 Org
47655 O
