84362 3783
84363 3783
84364 3783
84365 3783
84366 3783
84367 3783
84368 3783
84369 3783
84370 3783
84371 3783
84372 3783
84373 3783
84374 3783
84375 3783
84376 3783
84377 3783
84378 3783
84379 3783
84380 3783
84381 3783
84382 3783
84383 3783
84384 3783
84385 3783
84386 3783
84387 3783
84388 3783
84389 3783
84390 3783
84391 3783
84392 3783
84393 3783
84394 3783
84395 3783
84396 3783
104390 5001
104391 5001
104392 5001
104393 5001
104394 5001
104395 5001
104396 5001
104397 5001
104398 5001
104399 5001
104400 5001
104401 5001
104402 5001
104403 5001
104404 5001
104405 5001
104406 5001
104407 5001
104408 5001
104409 5001
104410 5001
104411 5001
104412 5001
104413 5001
104414 5001
104415 5001
104416 5001
106631 5079
106632 5079
106633 5079
106634 5079
106635 5079
106636 5079
106637 5079
106638 5079
106639 5079
106640 5079
106641 5079
106642 5079
106643 5079
106644 5079
106645 5079
106646 5079
106647 5079
106648 5079
106649 5079
106650 5079
106651 5079
106652 5079
106653 5079
106654 5079
106655 5079
106656 5079
106657 5079
106658 5079
106659 5079
113093 5328
113094 5328
113095 5328
113096 5328
113097 5328
113098 5328
113099 5328
113100 5328
113101 5328
113102 5328
113103 5328
113104 5328
113105 5328
113106 5328
113107 5328
113108 5328
113109 5328
113110 5328
113111 5328
113112 5328
113113 5328
113114 5328
113115 5328
113116 5328
113117 5328
113118 5328
113119 5328
10813 508
10814 508
10815 508
35453 1640
35454 1640
35455 1640
35456 1640
35457 1640
35458 1640
35459 1640
35460 1640
35461 1640
35462 1640
108657 5163
108658 5163
108659 5163
108660 5163
108661 5163
108662 5163
108663 5163
108664 5163
108665 5163
108666 5163
108667 5163
108668 5163
104911 5021
104912 5021
104913 5021
104914 5021
104915 5021
104916 5021
104917 5021
104918 5021
104919 5021
104920 5021
104921 5021
104922 5021
104923 5021
104924 5021
104925 5021
104926 5021
104927 5021
104928 5021
104929 5021
104930 5021
104931 5021
104932 5021
104933 5021
104934 5021
104935 5021
104936 5021
104937 5021
104938 5021
104939 5021
104940 5021
104941 5021
104942 5021
104943 5021
104944 5021
104945 5021
104946 5021
104947 5021
104948 5021
104949 5021
104950 5021
104951 5021
104952 5021
104953 5021
104954 5021
56074 2574
56075 2574
56076 2574
56077 2574
56078 2574
56079 2574
56080 2574
56081 2574
56082 2574
45743 2119
45744 2119
45745 2119
45746 2119
45747 2119
45748 2119
45749 2119
45750 2119
45751 2119
45752 2119
45753 2119
45754 2119
45755 2119
45756 2119
45757 2119
45758 2119
45759 2119
45760 2119
45761 2119
45762 2119
45763 2119
45764 2119
45765 2119
45766 2119
45767 2119
45768 2119
45769 2119
45770 2119
45771 2119
45772 2119
45773 2119
45774 2119
45775 2119
45776 2119
45777 2119
45778 2119
45779 2119
45780 2119
45781 2119
45782 2119
45783 2119
45784 2119
45785 2119
37811 1752
37812 1752
37813 1752
37814 1752
37815 1752
37816 1752
37817 1752
37818 1752
37819 1752
37820 1752
37821 1752
37822 1752
37823 1752
37824 1752
37825 1752
37826 1752
37827 1752
37828 1752
37829 1752
37830 1752
37831 1752
37832 1752
37833 1752
37834 1752
37835 1752
37836 1752
37837 1752
37838 1752
37839 1752
37840 1752
65329 2988
65330 2988
65331 2988
65332 2988
65333 2988
65334 2988
65335 2988
65336 2988
65337 2988
65338 2988
65339 2988
65340 2988
65341 2988
65342 2988
65343 2988
1043 46
1044 46
1045 46
1046 46
1047 46
1048 46
1049 46
30590 1430
30591 1430
30592 1430
30593 1430
30594 1430
30595 1430
30596 1430
30597 1430
30598 1430
30599 1430
30600 1430
30601 1430
30602 1430
30603 1430
30604 1430
30605 1430
30606 1430
30607 1430
30608 1430
30609 1430
30610 1430
30611 1430
30612 1430
30613 1430
30614 1430
30615 1430
30616 1430
82844 3712
82845 3712
84653 3798
84654 3798
94155 4189
94156 4189
15942 807
15943 807
15944 807
15945 807
15946 807
15947 807
15948 807
15949 807
15950 807
15951 807
15952 807
15953 807
15954 807
15955 807
15956 807
15957 807
15958 807
15959 807
15960 807
15961 807
15962 807
15963 807
15964 807
15965 807
111603 5266
111604 5266
111605 5266
111606 5266
111607 5266
111608 5266
111609 5266
111610 5266
111611 5266
111612 5266
111613 5266
111614 5266
111615 5266
111616 5266
111617 5266
111618 5266
111619 5266
22646 1094
22647 1094
22648 1094
22649 1094
22650 1094
22651 1094
22652 1094
22653 1094
22654 1094
22655 1094
22656 1094
22657 1094
22658 1094
22659 1094
22660 1094
22661 1094
22662 1094
22663 1094
22664 1094
22665 1094
22666 1094
22667 1094
22668 1094
22669 1094
22670 1094
22671 1094
22672 1094
22673 1094
22674 1094
22675 1094
22676 1094
22677 1094
22678 1094
32581 1523
32582 1523
32583 1523
32584 1523
32585 1523
32586 1523
32587 1523
32588 1523
32589 1523
32590 1523
32591 1523
32592 1523
32593 1523
32594 1523
32595 1523
32596 1523
32597 1523
32598 1523
32599 1523
32600 1523
32601 1523
32602 1523
32603 1523
32604 1523
32605 1523
32606 1523
32607 1523
32608 1523
32609 1523
32610 1523
32611 1523
32612 1523
32613 1523
32614 1523
32615 1523
32616 1523
32617 1523
32618 1523
32619 1523
32620 1523
32621 1523
108817 5169
108818 5169
108819 5169
108820 5169
108821 5169
108822 5169
108823 5169
108824 5169
108825 5169
108826 5169
108827 5169
108828 5169
108829 5169
108830 5169
108831 5169
108832 5169
108833 5169
108834 5169
108835 5169
108836 5169
108837 5169
108838 5169
108839 5169
108840 5169
108841 5169
108842 5169
108843 5169
108844 5169
108845 5169
108846 5169
108847 5169
108848 5169
108849 5169
108850 5169
108851 5169
108852 5169
108853 5169
108854 5169
108855 5169
108856 5169
108857 5169
108858 5169
108859 5169
108860 5169
108861 5169
108862 5169
108863 5169
108864 5169
108865 5169
108866 5169
108867 5169
35164 1628
35165 1628
35166 1628
35167 1628
51364 2348
51365 2348
51366 2348
51367 2348
51368 2348
51369 2348
51370 2348
51371 2348
51372 2348
51373 2348
51374 2348
51375 2348
51376 2348
51377 2348
51378 2348
51379 2348
51380 2348
51381 2348
51382 2348
51383 2348
51384 2348
51385 2348
51386 2348
51387 2348
51388 2348
51389 2348
51390 2348
51391 2348
51392 2348
51393 2348
51394 2348
51395 2348
51396 2348
51397 2348
51398 2348
51399 2348
51400 2348
51401 2348
51402 2348
51403 2348
51404 2348
51405 2348
51406 2348
51407 2348
51408 2348
51409 2348
51410 2348
51411 2348
51412 2348
51413 2348
51414 2348
51415 2348
51416 2348
51417 2348
51418 2348
51419 2348
51420 2348
51421 2348
51422 2348
51423 2348
51424 2348
51425 2348
51426 2348
51427 2348
51428 2348
51429 2348
51430 2348
51431 2348
1063 50
1064 50
1065 50
1066 50
1067 50
1068 50
1069 50
1070 50
1071 50
1072 50
1073 50
1074 50
1075 50
1076 50
1077 50
1078 50
1079 50
1080 50
1081 50
1082 50
1083 50
1084 50
1085 50
1086 50
1087 50
1088 50
1089 50
108088 5138
108089 5138
108090 5138
108091 5138
108092 5138
108093 5138
108094 5138
108095 5138
108096 5138
108097 5138
108098 5138
108099 5138
108100 5138
108101 5138
108102 5138
16498 831
16499 831
16500 831
16501 831
16502 831
16503 831
16504 831
16505 831
16506 831
16507 831
16508 831
16509 831
16510 831
16511 831
16512 831
16513 831
16514 831
16515 831
16516 831
16517 831
16518 831
16519 831
16520 831
16521 831
16522 831
16523 831
16524 831
16525 831
16526 831
16527 831
16528 831
16529 831
16530 831
16531 831
83327 3733
83328 3733
31814 1489
31815 1489
31816 1489
31817 1489
31818 1489
31819 1489
31820 1489
31821 1489
31822 1489
31823 1489
31824 1489
31825 1489
31826 1489
31827 1489
31828 1489
31829 1489
31830 1489
31831 1489
31832 1489
31833 1489
31834 1489
31835 1489
31836 1489
31837 1489
31838 1489
31839 1489
113474 5350
113475 5350
113476 5350
113477 5350
113478 5350
113479 5350
113480 5350
113481 5350
113482 5350
113483 5350
113484 5350
113485 5350
113486 5350
113487 5350
113488 5350
113489 5350
113490 5350
104770 5014
104771 5014
104772 5014
104773 5014
104774 5014
104775 5014
104776 5014
104777 5014
104778 5014
104779 5014
104780 5014
104781 5014
104782 5014
104783 5014
104784 5014
104785 5014
104786 5014
104787 5014
104788 5014
104789 5014
104790 5014
22574 1091
22575 1091
22576 1091
22577 1091
22578 1091
22579 1091
22580 1091
22581 1091
22582 1091
22583 1091
22584 1091
22585 1091
22586 1091
22587 1091
22588 1091
22589 1091
22590 1091
22591 1091
22592 1091
22593 1091
22594 1091
22595 1091
22596 1091
22597 1091
22598 1091
22599 1091
22600 1091
22601 1091
22602 1091
104638 5009
104639 5009
104640 5009
104641 5009
104642 5009
104643 5009
104644 5009
104645 5009
104646 5009
104647 5009
104648 5009
104649 5009
104650 5009
104651 5009
107831 5126
107832 5126
107833 5126
107834 5126
107835 5126
107836 5126
107837 5126
107838 5126
107839 5126
107840 5126
107841 5126
107842 5126
107843 5126
107844 5126
107845 5126
107846 5126
107847 5126
107848 5126
107849 5126
49553 2274
49554 2274
49555 2274
49556 2274
49557 2274
49558 2274
49559 2274
49560 2274
49561 2274
49562 2274
49563 2274
49564 2274
49565 2274
49566 2274
49567 2274
49568 2274
49569 2274
49570 2274
49571 2274
49572 2274
49573 2274
49574 2274
49575 2274
49576 2274
49577 2274
49578 2274
49579 2274
49580 2274
49581 2274
49582 2274
49583 2274
49584 2274
49585 2274
49586 2274
49587 2274
49588 2274
49589 2274
49590 2274
49591 2274
49592 2274
27876 1322
27877 1322
27878 1322
27879 1322
27880 1322
27881 1322
27882 1322
27883 1322
27884 1322
27885 1322
27886 1322
27887 1322
27888 1322
27889 1322
27890 1322
27891 1322
27892 1322
27893 1322
27894 1322
27895 1322
27896 1322
27897 1322
34056 1581
34057 1581
34058 1581
34059 1581
34060 1581
34061 1581
34062 1581
34063 1581
34064 1581
34065 1581
34066 1581
34067 1581
34068 1581
34069 1581
34070 1581
34071 1581
34072 1581
34073 1581
34074 1581
34075 1581
34076 1581
34077 1581
34078 1581
34079 1581
34080 1581
34081 1581
34082 1581
34083 1581
8286 410
8287 410
8288 410
8289 410
8290 410
8291 410
8292 410
8293 410
8294 410
8295 410
8296 410
8297 410
8298 410
8299 410
8300 410
8301 410
8302 410
8303 410
8304 410
8305 410
8306 410
8307 410
8308 410
8309 410
8310 410
8311 410
8312 410
8313 410
8314 410
102583 4560
102584 4560
102585 4560
102586 4560
102587 4560
102588 4560
102589 4560
106017 5058
106018 5058
106019 5058
106020 5058
106021 5058
106022 5058
106023 5058
106024 5058
106025 5058
106026 5058
106027 5058
106028 5058
106029 5058
106030 5058
106031 5058
106032 5058
106033 5058
106034 5058
106035 5058
106036 5058
106037 5058
106038 5058
106039 5058
106040 5058
106041 5058
106042 5058
106043 5058
106044 5058
106045 5058
106046 5058
106047 5058
106048 5058
106049 5058
106050 5058
106051 5058
106052 5058
106053 5058
106054 5058
106055 5058
106056 5058
54048 2476
54049 2476
54050 2476
54051 2476
54052 2476
54053 2476
54054 2476
54055 2476
54056 2476
54057 2476
31354 1471
31355 1471
31356 1471
31357 1471
31358 1471
31359 1471
74248 3322
74249 3322
74250 3322
74251 3322
74252 3322
74253 3322
74254 3322
74255 3322
74256 3322
74257 3322
74258 3322
74259 3322
74260 3322
74261 3322
74262 3322
74263 3322
74264 3322
74265 3322
74266 3322
74267 3322
74268 3322
74269 3322
74270 3322
74271 3322
74272 3322
74273 3322
74274 3322
74275 3322
74276 3322
74277 3322
74278 3322
74279 3322
74280 3322
74281 3322
74282 3322
107330 5107
107331 5107
107332 5107
107333 5107
107334 5107
107335 5107
107336 5107
107337 5107
107338 5107
107339 5107
107340 5107
107341 5107
107342 5107
107343 5107
107344 5107
107345 5107
107346 5107
107347 5107
107348 5107
107349 5107
107350 5107
107351 5107
107352 5107
107353 5107
107354 5107
107355 5107
107356 5107
107357 5107
107358 5107
89340 3998
89341 3998
89342 3998
89343 3998
89344 3998
89345 3998
89346 3998
89347 3998
89348 3998
89349 3998
89350 3998
113435 5347
113436 5347
113437 5347
113438 5347
113439 5347
113440 5347
113441 5347
113442 5347
113443 5347
113444 5347
113445 5347
113446 5347
95700 4265
95701 4265
95702 4265
95703 4265
95704 4265
95705 4265
95706 4265
33574 1562
33575 1562
33576 1562
33577 1562
33578 1562
33579 1562
33580 1562
33581 1562
33582 1562
33583 1562
33584 1562
33585 1562
33586 1562
33587 1562
33588 1562
33589 1562
33590 1562
33591 1562
33592 1562
33593 1562
33594 1562
33595 1562
33596 1562
33597 1562
33598 1562
33599 1562
88382 3941
88383 3941
88384 3941
88385 3941
88386 3941
88387 3941
88388 3941
88389 3941
108001 5133
108002 5133
108003 5133
108004 5133
108005 5133
108006 5133
108007 5133
108008 5133
108009 5133
108010 5133
108011 5133
108012 5133
108013 5133
108014 5133
61473 2829
61474 2829
61475 2829
61476 2829
61477 2829
61478 2829
61479 2829
61480 2829
61481 2829
61482 2829
61483 2829
61484 2829
61485 2829
61486 2829
61487 2829
61488 2829
61489 2829
61490 2829
61491 2829
12091 565
12092 565
12093 565
12094 565
12095 565
12096 565
12097 565
12098 565
12099 565
12100 565
12101 565
12102 565
12103 565
12104 565
12105 565
12106 565
12107 565
12108 565
12109 565
12110 565
12111 565
12112 565
12113 565
12114 565
12115 565
12116 565
12117 565
12118 565
12119 565
108068 5137
108069 5137
108070 5137
108071 5137
108072 5137
108073 5137
108074 5137
108075 5137
108076 5137
108077 5137
108078 5137
108079 5137
108080 5137
108081 5137
108082 5137
108083 5137
108084 5137
108085 5137
108086 5137
108087 5137
99475 4444
99476 4444
99477 4444
99478 4444
99479 4444
99480 4444
99481 4444
99482 4444
99483 4444
99484 4444
99485 4444
99486 4444
99487 4444
99488 4444
99489 4444
99490 4444
99491 4444
99492 4444
99493 4444
99494 4444
99495 4444
99496 4444
99497 4444
99498 4444
99499 4444
99500 4444
99501 4444
99502 4444
99503 4444
99504 4444
99505 4444
99506 4444
99507 4444
99508 4444
99509 4444
99510 4444
99511 4444
99512 4444
99513 4444
99514 4444
99515 4444
99516 4444
99517 4444
99518 4444
99519 4444
99520 4444
99521 4444
99522 4444
99523 4444
99524 4444
99525 4444
99526 4444
99527 4444
99528 4444
99529 4444
99530 4444
99531 4444
99532 4444
99533 4444
99534 4444
114733 5408
114734 5408
114735 5408
114736 5408
114737 5408
114738 5408
114739 5408
114740 5408
114741 5408
114742 5408
114743 5408
114744 5408
114745 5408
56674 2600
56675 2600
56676 2600
56677 2600
56678 2600
56679 2600
56680 2600
56681 2600
56682 2600
56683 2600
56684 2600
56685 2600
56686 2600
56687 2600
56688 2600
56689 2600
56690 2600
56691 2600
56692 2600
56693 2600
56694 2600
56695 2600
56696 2600
56697 2600
56698 2600
56699 2600
107730 5122
107731 5122
107732 5122
107733 5122
107734 5122
107735 5122
107736 5122
107737 5122
107738 5122
107739 5122
107740 5122
107741 5122
107742 5122
107743 5122
107744 5122
107745 5122
107746 5122
107747 5122
107748 5122
107749 5122
107750 5122
107751 5122
107752 5122
107753 5122
107754 5122
98001 4381
98002 4381
98003 4381
98004 4381
98005 4381
98006 4381
98007 4381
98008 4381
98009 4381
98010 4381
98011 4381
98012 4381
98013 4381
98014 4381
98015 4381
98016 4381
98017 4381
98018 4381
98019 4381
98020 4381
98021 4381
98022 4381
98023 4381
98024 4381
98025 4381
98026 4381
98027 4381
98028 4381
98029 4381
98030 4381
98031 4381
98032 4381
98033 4381
98034 4381
98035 4381
98036 4381
98037 4381
98038 4381
98039 4381
98040 4381
114179 5387
114180 5387
114181 5387
114182 5387
114183 5387
114184 5387
114185 5387
114186 5387
114187 5387
114395 5395
114396 5395
114397 5395
114398 5395
114399 5395
114400 5395
114401 5395
114402 5395
114403 5395
114404 5395
114405 5395
114406 5395
114407 5395
114408 5395
114409 5395
114410 5395
114411 5395
114412 5395
114413 5395
114414 5395
114415 5395
114416 5395
114417 5395
114418 5395
114419 5395
114420 5395
114421 5395
114422 5395
114423 5395
114424 5395
114425 5395
114426 5395
114427 5395
114428 5395
114429 5395
114430 5395
114431 5395
114432 5395
114433 5395
114434 5395
114435 5395
114436 5395
114437 5395
114438 5395
33492 1558
33493 1558
33494 1558
33495 1558
33496 1558
33497 1558
33498 1558
33499 1558
33500 1558
33501 1558
33502 1558
33503 1558
33504 1558
33505 1558
33506 1558
33507 1558
33508 1558
33509 1558
4333 207
4334 207
4335 207
4336 207
4337 207
4338 207
4339 207
4340 207
4341 207
4342 207
4343 207
4344 207
4345 207
4346 207
4347 207
4348 207
4349 207
4350 207
4351 207
4352 207
4353 207
4354 207
4355 207
4356 207
4357 207
4358 207
4359 207
4360 207
38557 1784
38558 1784
38559 1784
38560 1784
38561 1784
38562 1784
38563 1784
38564 1784
38565 1784
38566 1784
38567 1784
38568 1784
38569 1784
38570 1784
38571 1784
38572 1784
38573 1784
38574 1784
38575 1784
38576 1784
38577 1784
8104 389
8105 389
8106 389
8107 389
8108 389
8109 389
105119 5028
105120 5028
105121 5028
105122 5028
105123 5028
105124 5028
105125 5028
105126 5028
105127 5028
105128 5028
105129 5028
105130 5028
105131 5028
105132 5028
105133 5028
105134 5028
105135 5028
105136 5028
105137 5028
105138 5028
105139 5028
2011 83
2012 83
2013 83
2014 83
2015 83
2016 83
2017 83
2018 83
2019 83
2020 83
2021 83
2022 83
2023 83
2024 83
2025 83
2026 83
2027 83
2028 83
2029 83
2030 83
2031 83
2032 83
2033 83
2034 83
2035 83
2036 83
2037 83
2038 83
2039 83
2040 83
2041 83
2042 83
2043 83
2044 83
2045 83
2046 83
2047 83
2048 83
2049 83
2050 83
57389 2630
57390 2630
57391 2630
57392 2630
57393 2630
57394 2630
57395 2630
57396 2630
57397 2630
57398 2630
57399 2630
57400 2630
57401 2630
57402 2630
57403 2630
57404 2630
57405 2630
57406 2630
57407 2630
57408 2630
57409 2630
57410 2630
57411 2630
57412 2630
57413 2630
57414 2630
57415 2630
57416 2630
20082 985
20083 985
20084 985
20085 985
20086 985
20087 985
20088 985
20089 985
20090 985
20091 985
20092 985
20093 985
20094 985
20095 985
20096 985
20097 985
20098 985
20099 985
20100 985
20101 985
20102 985
20103 985
20104 985
20105 985
20106 985
20107 985
20108 985
20109 985
20110 985
20111 985
20112 985
20113 985
20114 985
20115 985
20116 985
20117 985
20118 985
20119 985
20120 985
20121 985
20122 985
20123 985
55808 2560
55809 2560
55810 2560
55811 2560
55812 2560
55813 2560
55814 2560
55815 2560
55816 2560
55817 2560
55818 2560
55819 2560
55820 2560
55821 2560
55822 2560
55823 2560
55824 2560
55825 2560
55826 2560
55827 2560
55828 2560
55829 2560
55830 2560
55831 2560
55832 2560
55833 2560
55834 2560
124946 5779
124947 5779
124948 5779
124949 5779
124950 5779
124951 5779
124952 5779
124953 5779
124954 5779
124955 5779
124956 5779
124957 5779
124958 5779
124959 5779
124960 5779
124961 5779
124962 5779
101213 4517
101214 4517
101215 4517
101216 4517
101217 4517
101218 4517
101219 4517
101220 4517
101221 4517
101222 4517
101223 4517
101224 4517
101225 4517
101226 4517
101227 4517
101228 4517
101229 4517
101230 4517
101231 4517
101232 4517
101233 4517
101234 4517
101235 4517
101236 4517
101237 4517
101238 4517
101239 4517
101240 4517
101241 4517
101242 4517
101243 4517
101244 4517
101245 4517
101246 4517
101247 4517
101248 4517
101249 4517
101250 4517
101251 4517
101252 4517
101253 4517
101254 4517
26502 1271
26503 1271
26504 1271
26505 1271
26506 1271
26507 1271
26508 1271
26509 1271
26510 1271
26511 1271
26512 1271
26513 1271
26514 1271
26515 1271
26516 1271
26517 1271
26518 1271
26519 1271
26520 1271
26521 1271
26522 1271
26523 1271
26524 1271
26525 1271
26526 1271
26527 1271
26528 1271
26529 1271
26530 1271
26531 1271
26532 1271
26533 1271
26534 1271
26535 1271
26536 1271
26537 1271
26538 1271
26539 1271
26540 1271
26541 1271
26542 1271
26543 1271
26544 1271
26545 1271
26546 1271
26547 1271
26548 1271
26549 1271
26550 1271
26551 1271
26552 1271
111962 5280
111963 5280
111964 5280
111965 5280
111966 5280
111967 5280
111968 5280
111969 5280
111970 5280
111971 5280
111972 5280
111973 5280
111974 5280
111975 5280
111976 5280
22881 1104
22882 1104
22883 1104
22884 1104
22885 1104
22886 1104
22887 1104
22888 1104
22889 1104
22890 1104
22891 1104
22892 1104
22893 1104
22894 1104
22895 1104
22896 1104
22897 1104
22898 1104
22899 1104
22900 1104
22901 1104
22902 1104
22903 1104
22904 1104
22905 1104
22906 1104
22907 1104
22908 1104
22909 1104
22910 1104
22911 1104
22912 1104
88390 3942
88391 3942
113677 5362
113678 5362
113679 5362
113680 5362
113681 5362
113682 5362
113683 5362
113684 5362
113685 5362
113686 5362
113687 5362
113688 5362
113689 5362
113690 5362
113691 5362
1252 56
1253 56
1254 56
1255 56
1256 56
1257 56
1258 56
1259 56
1260 56
1261 56
1262 56
1263 56
1264 56
1265 56
1266 56
1267 56
1268 56
1269 56
1270 56
1271 56
1272 56
1273 56
1274 56
1275 56
1276 56
1277 56
1278 56
1279 56
1280 56
1281 56
1282 56
113170 5332
113171 5332
113172 5332
113173 5332
113174 5332
113175 5332
113176 5332
113177 5332
113178 5332
113179 5332
113180 5332
113181 5332
113182 5332
113183 5332
113184 5332
113185 5332
113186 5332
113187 5332
113188 5332
113189 5332
113190 5332
113191 5332
113192 5332
113193 5332
113194 5332
113195 5332
113196 5332
113197 5332
78107 3514
78108 3514
78109 3514
78110 3514
78111 3514
78112 3514
78113 3514
78114 3514
78115 3514
78116 3514
78117 3514
78118 3514
78119 3514
78120 3514
78121 3514
78122 3514
78123 3514
78124 3514
78125 3514
78126 3514
78127 3514
78128 3514
78129 3514
78130 3514
78131 3514
78132 3514
78133 3514
78134 3514
78135 3514
78136 3514
78137 3514
78138 3514
78139 3514
78140 3514
78141 3514
58792 2695
58793 2695
58794 2695
58795 2695
58796 2695
58797 2695
58798 2695
58799 2695
58800 2695
58801 2695
58802 2695
58803 2695
58804 2695
58805 2695
58806 2695
58807 2695
58808 2695
58809 2695
58810 2695
58811 2695
58812 2695
58813 2695
58814 2695
58815 2695
58816 2695
58817 2695
58818 2695
58819 2695
58820 2695
58821 2695
58822 2695
58823 2695
11562 541
11563 541
11564 541
11565 541
11566 541
11567 541
11568 541
11569 541
11570 541
11571 541
11572 541
11573 541
11574 541
11575 541
11576 541
11577 541
11578 541
11579 541
11580 541
11581 541
11582 541
109953 5208
109954 5208
109955 5208
109956 5208
109957 5208
109958 5208
109959 5208
109960 5208
109961 5208
109962 5208
109963 5208
109964 5208
109965 5208
109966 5208
109967 5208
109968 5208
109969 5208
109970 5208
109971 5208
109972 5208
109973 5208
109974 5208
109975 5208
109976 5208
109977 5208
109978 5208
109979 5208
109980 5208
109981 5208
109982 5208
109983 5208
109984 5208
109985 5208
109986 5208
109987 5208
109988 5208
109989 5208
109990 5208
109991 5208
109992 5208
75571 3393
75572 3393
77007 3466
77008 3466
77009 3466
77010 3466
77011 3466
77012 3466
77013 3466
77014 3466
77015 3466
77016 3466
77017 3466
77018 3466
77019 3466
77020 3466
77021 3466
77022 3466
77023 3466
77024 3466
77025 3466
77026 3466
77027 3466
77028 3466
77029 3466
77030 3466
77031 3466
77032 3466
77033 3466
77034 3466
77035 3466
77036 3466
77037 3466
77038 3466
77039 3466
106742 5083
106743 5083
106744 5083
106745 5083
106746 5083
106747 5083
106748 5083
106749 5083
106750 5083
106751 5083
106752 5083
106753 5083
106754 5083
106755 5083
106756 5083
106757 5083
106758 5083
106759 5083
106760 5083
106761 5083
106762 5083
106763 5083
106764 5083
106765 5083
92764 4136
92765 4136
92766 4136
92767 4136
92768 4136
92769 4136
92770 4136
92771 4136
92772 4136
92773 4136
92774 4136
92775 4136
92776 4136
92777 4136
92778 4136
92779 4136
92780 4136
92781 4136
92782 4136
92783 4136
92784 4136
92785 4136
92786 4136
92787 4136
92788 4136
92789 4136
92790 4136
92791 4136
92792 4136
92793 4136
92794 4136
92795 4136
92796 4136
92797 4136
92798 4136
92799 4136
92800 4136
92801 4136
92802 4136
92803 4136
92804 4136
92805 4136
92806 4136
92807 4136
92808 4136
92809 4136
92810 4136
6173 285
6174 285
6175 285
6176 285
6177 285
6178 285
6179 285
6180 285
6181 285
6182 285
6183 285
6184 285
6185 285
6186 285
6187 285
6188 285
6189 285
89199 3992
89200 3992
89201 3992
89202 3992
89203 3992
89204 3992
89205 3992
89206 3992
89207 3992
89208 3992
89209 3992
89210 3992
89211 3992
89212 3992
89213 3992
89214 3992
89215 3992
89216 3992
89217 3992
89218 3992
89219 3992
89220 3992
89221 3992
89222 3992
89223 3992
89224 3992
89225 3992
89226 3992
89227 3992
89228 3992
89229 3992
89230 3992
89231 3992
89232 3992
89233 3992
89234 3992
89235 3992
89236 3992
89237 3992
89238 3992
89239 3992
89240 3992
89241 3992
89242 3992
89243 3992
89244 3992
89245 3992
89246 3992
89247 3992
89248 3992
89249 3992
89250 3992
89251 3992
89252 3992
89253 3992
89254 3992
89255 3992
89256 3992
89257 3992
96886 4333
96887 4333
96888 4333
96889 4333
96890 4333
96891 4333
96892 4333
96893 4333
96894 4333
96895 4333
96896 4333
96897 4333
96898 4333
96899 4333
96900 4333
96901 4333
96902 4333
96903 4333
96904 4333
96905 4333
96906 4333
96907 4333
96908 4333
96909 4333
96910 4333
96911 4333
96912 4333
96913 4333
96914 4333
96915 4333
96916 4333
96917 4333
96918 4333
96919 4333
96920 4333
96921 4333
96922 4333
96923 4333
96924 4333
96925 4333
96926 4333
96927 4333
96928 4333
96929 4333
96930 4333
96931 4333
96932 4333
96933 4333
96934 4333
96935 4333
96936 4333
46717 2156
46718 2156
46719 2156
46720 2156
46721 2156
46722 2156
46723 2156
46724 2156
46725 2156
46726 2156
46727 2156
46728 2156
46729 2156
46730 2156
46731 2156
46732 2156
46733 2156
46734 2156
46735 2156
46736 2156
46737 2156
46738 2156
31360 1472
31361 1472
31362 1472
31363 1472
31364 1472
31365 1472
31366 1472
31367 1472
31368 1472
31369 1472
31370 1472
31371 1472
31372 1472
31373 1472
31374 1472
54899 2522
54900 2522
54901 2522
54902 2522
54903 2522
54904 2522
54905 2522
54906 2522
54907 2522
54908 2522
54909 2522
54910 2522
54911 2522
54912 2522
54913 2522
54914 2522
54915 2522
54916 2522
54917 2522
54918 2522
54919 2522
54920 2522
54921 2522
54922 2522
54923 2522
54924 2522
54925 2522
54926 2522
54927 2522
54928 2522
54929 2522
42522 1989
42523 1989
42524 1989
42525 1989
42526 1989
42527 1989
42528 1989
42529 1989
42530 1989
42531 1989
42532 1989
42533 1989
42534 1989
42535 1989
42536 1989
42537 1989
42538 1989
42539 1989
42540 1989
103143 4589
103144 4589
103145 4589
103146 4589
103147 4589
103148 4589
103149 4589
103150 4589
103151 4589
103152 4589
103153 4589
44005 2050
44006 2050
44007 2050
44008 2050
44009 2050
44010 2050
44011 2050
44012 2050
44013 2050
44014 2050
44015 2050
44016 2050
44017 2050
44018 2050
44019 2050
44020 2050
44021 2050
44022 2050
44023 2050
44024 2050
44025 2050
44026 2050
44027 2050
111483 5259
111484 5259
111485 5259
111486 5259
111487 5259
111488 5259
111489 5259
111490 5259
111491 5259
111492 5259
111493 5259
111494 5259
111495 5259
111496 5259
111497 5259
111498 5259
111499 5259
111500 5259
111501 5259
111502 5259
111503 5259
111504 5259
111505 5259
111506 5259
111507 5259
111508 5259
111509 5259
111510 5259
57359 2628
57360 2628
57361 2628
57362 2628
57363 2628
57364 2628
57365 2628
57366 2628
57367 2628
57368 2628
57369 2628
57370 2628
57371 2628
57372 2628
57373 2628
57374 2628
57375 2628
57376 2628
57377 2628
57378 2628
57379 2628
57380 2628
57381 2628
57382 2628
57383 2628
57384 2628
66394 3029
66395 3029
66396 3029
66397 3029
66398 3029
66399 3029
66400 3029
66401 3029
66402 3029
66403 3029
66404 3029
66405 3029
66406 3029
66407 3029
66408 3029
66409 3029
66410 3029
66411 3029
66412 3029
66413 3029
66414 3029
66415 3029
66416 3029
66417 3029
66418 3029
66419 3029
66420 3029
66421 3029
66422 3029
66423 3029
66424 3029
66425 3029
66426 3029
66427 3029
66428 3029
66429 3029
66430 3029
66431 3029
66432 3029
66433 3029
66434 3029
66435 3029
66436 3029
66437 3029
66438 3029
66439 3029
66440 3029
66441 3029
66442 3029
66443 3029
66444 3029
66445 3029
66446 3029
66447 3029
66448 3029
66449 3029
66450 3029
66451 3029
66452 3029
66453 3029
66454 3029
66455 3029
66456 3029
66457 3029
66458 3029
66459 3029
66460 3029
66461 3029
66462 3029
66463 3029
66464 3029
66465 3029
66466 3029
66467 3029
66468 3029
66469 3029
66470 3029
66471 3029
66472 3029
66473 3029
66474 3029
66475 3029
66476 3029
66477 3029
66478 3029
66479 3029
66480 3029
66481 3029
66482 3029
66483 3029
66484 3029
66485 3029
66486 3029
66487 3029
66488 3029
66489 3029
66490 3029
66491 3029
66492 3029
66493 3029
66494 3029
66495 3029
66496 3029
66497 3029
66498 3029
66499 3029
89012 3983
89013 3983
89014 3983
89015 3983
89016 3983
89017 3983
89018 3983
89019 3983
89020 3983
89021 3983
89022 3983
89023 3983
89024 3983
89025 3983
89026 3983
89027 3983
89028 3983
89029 3983
89030 3983
89031 3983
89032 3983
89033 3983
89034 3983
89035 3983
89036 3983
89037 3983
89038 3983
89039 3983
89040 3983
89041 3983
89042 3983
89043 3983
89044 3983
89045 3983
89046 3983
89047 3983
89048 3983
89049 3983
89050 3983
26570 1273
26571 1273
26572 1273
26573 1273
26574 1273
26575 1273
26576 1273
26577 1273
26578 1273
26579 1273
26580 1273
26581 1273
26582 1273
26583 1273
26584 1273
26585 1273
26586 1273
26587 1273
26588 1273
26589 1273
26590 1273
26591 1273
107430 5112
107431 5112
107432 5112
107433 5112
107434 5112
107435 5112
107436 5112
107437 5112
107438 5112
107439 5112
107440 5112
107441 5112
107442 5112
107443 5112
107444 5112
107445 5112
107446 5112
107447 5112
107448 5112
107449 5112
107450 5112
107451 5112
107452 5112
107453 5112
107454 5112
33984 1579
33985 1579
33986 1579
33987 1579
33988 1579
33989 1579
33990 1579
33991 1579
33992 1579
33993 1579
33994 1579
33995 1579
23966 1166
23967 1166
23968 1166
23969 1166
23970 1166
23971 1166
23972 1166
23973 1166
23974 1166
23975 1166
23976 1166
23977 1166
23978 1166
23979 1166
23980 1166
23981 1166
23982 1166
23983 1166
23984 1166
23985 1166
23986 1166
23987 1166
23988 1166
23989 1166
23990 1166
23991 1166
23992 1166
23993 1166
23994 1166
23995 1166
23996 1166
23997 1166
23998 1166
23999 1166
56027 2571
56028 2571
56029 2571
56030 2571
56031 2571
56032 2571
104816 5016
104817 5016
104818 5016
104819 5016
104820 5016
104821 5016
104822 5016
104823 5016
104824 5016
104825 5016
104826 5016
104827 5016
104828 5016
104829 5016
53633 2453
53634 2453
53635 2453
53636 2453
53637 2453
53638 2453
53639 2453
53640 2453
53641 2453
53642 2453
53643 2453
108161 5142
108162 5142
108163 5142
108164 5142
108165 5142
108166 5142
108167 5142
108168 5142
108169 5142
108170 5142
108171 5142
108172 5142
108173 5142
108174 5142
108175 5142
108176 5142
108177 5142
108178 5142
108179 5142
108180 5142
108181 5142
108182 5142
108183 5142
111527 5261
111528 5261
111529 5261
111530 5261
111531 5261
111532 5261
111533 5261
111534 5261
111535 5261
111536 5261
111537 5261
111538 5261
111539 5261
111540 5261
78891 3544
78892 3544
78893 3544
78894 3544
78895 3544
78896 3544
78897 3544
78898 3544
78899 3544
78900 3544
78901 3544
78902 3544
78903 3544
78904 3544
78905 3544
78906 3544
78907 3544
78908 3544
78909 3544
78910 3544
78911 3544
78912 3544
78913 3544
78914 3544
78915 3544
78916 3544
25929 1250
25930 1250
25931 1250
25932 1250
25933 1250
25934 1250
25935 1250
25936 1250
25937 1250
25938 1250
25939 1250
25940 1250
25941 1250
25942 1250
25943 1250
25944 1250
25945 1250
25946 1250
25947 1250
25948 1250
25949 1250
25950 1250
25951 1250
25952 1250
25953 1250
25954 1250
25955 1250
25956 1250
25957 1250
25958 1250
25959 1250
25960 1250
25961 1250
25962 1250
25963 1250
25964 1250
38746 1794
38747 1794
38748 1794
38749 1794
38750 1794
38751 1794
38752 1794
38753 1794
38754 1794
38755 1794
38756 1794
38757 1794
38758 1794
38759 1794
38760 1794
38761 1794
38762 1794
38763 1794
38764 1794
38765 1794
38766 1794
38767 1794
38768 1794
38769 1794
38770 1794
38771 1794
38772 1794
38773 1794
38774 1794
38775 1794
38776 1794
60552 2790
60553 2790
60554 2790
60555 2790
60556 2790
60557 2790
108342 5151
108343 5151
108344 5151
108345 5151
108346 5151
108347 5151
108348 5151
108349 5151
108350 5151
108351 5151
108352 5151
108353 5151
108354 5151
108355 5151
108356 5151
108357 5151
108358 5151
108359 5151
108360 5151
108361 5151
108362 5151
108363 5151
108364 5151
108365 5151
80695 3626
80696 3626
80697 3626
80698 3626
80699 3626
80700 3626
80701 3626
80702 3626
80703 3626
80704 3626
80705 3626
80706 3626
80707 3626
80708 3626
80709 3626
80710 3626
80711 3626
80712 3626
80713 3626
80714 3626
80715 3626
80716 3626
111892 5278
111893 5278
111894 5278
111895 5278
111896 5278
111897 5278
111898 5278
111899 5278
111900 5278
111901 5278
111902 5278
111903 5278
111904 5278
111905 5278
111906 5278
111907 5278
111908 5278
111909 5278
111910 5278
111911 5278
111912 5278
111913 5278
11895 556
11896 556
11897 556
11898 556
11899 556
11900 556
11901 556
11902 556
11903 556
11904 556
11905 556
11906 556
11907 556
11908 556
11909 556
11910 556
11911 556
11912 556
11913 556
11914 556
11915 556
11916 556
11917 556
11918 556
11919 556
11920 556
11921 556
11922 556
11923 556
11924 556
11925 556
11926 556
11927 556
11928 556
11929 556
11930 556
11931 556
11932 556
11933 556
23854 1160
23855 1160
23856 1160
23857 1160
23858 1160
23859 1160
23860 1160
23861 1160
23862 1160
23863 1160
23864 1160
23865 1160
23866 1160
23867 1160
23868 1160
23869 1160
23870 1160
23871 1160
23872 1160
23873 1160
23874 1160
23875 1160
23876 1160
23877 1160
23878 1160
23879 1160
23880 1160
110328 5219
110329 5219
110330 5219
110331 5219
110332 5219
110333 5219
110334 5219
110335 5219
110336 5219
110337 5219
110338 5219
110339 5219
110340 5219
110341 5219
110342 5219
110343 5219
110344 5219
110345 5219
110346 5219
110347 5219
110348 5219
110349 5219
110350 5219
110351 5219
109345 5185
109346 5185
109347 5185
109348 5185
109349 5185
109350 5185
109351 5185
109352 5185
109353 5185
109354 5185
109355 5185
109356 5185
109357 5185
109358 5185
109359 5185
109360 5185
109361 5185
109362 5185
109363 5185
109364 5185
109365 5185
109366 5185
109367 5185
109368 5185
109369 5185
69368 3150
69369 3150
69370 3150
69371 3150
69372 3150
69373 3150
69374 3150
69375 3150
69376 3150
69377 3150
69378 3150
69379 3150
69380 3150
69381 3150
69382 3150
69383 3150
69384 3150
69385 3150
69386 3150
69387 3150
69388 3150
69389 3150
96021 4287
96022 4287
96023 4287
96024 4287
96025 4287
96026 4287
96027 4287
96028 4287
96029 4287
96030 4287
96031 4287
96032 4287
96033 4287
96034 4287
96035 4287
96036 4287
96037 4287
96038 4287
96039 4287
96040 4287
96041 4287
38122 1769
38123 1769
38124 1769
38125 1769
38126 1769
38127 1769
38128 1769
38129 1769
38130 1769
38131 1769
38132 1769
38133 1769
38134 1769
38135 1769
38136 1769
38137 1769
38138 1769
38139 1769
38140 1769
38141 1769
38142 1769
38143 1769
38144 1769
38145 1769
38146 1769
38147 1769
38148 1769
38149 1769
38150 1769
38151 1769
38152 1769
38153 1769
38154 1769
38155 1769
38156 1769
38157 1769
38158 1769
38159 1769
38160 1769
38161 1769
38162 1769
38163 1769
38164 1769
38165 1769
38166 1769
38167 1769
38168 1769
38169 1769
79744 3585
79745 3585
79746 3585
79747 3585
79748 3585
79749 3585
79750 3585
79751 3585
79752 3585
79753 3585
79754 3585
79755 3585
79756 3585
79757 3585
79758 3585
79759 3585
79760 3585
79761 3585
79762 3585
79763 3585
79764 3585
79765 3585
79766 3585
79767 3585
79768 3585
79769 3585
56442 2591
56443 2591
56444 2591
56445 2591
64160 2941
64161 2941
64162 2941
64163 2941
64164 2941
64165 2941
64166 2941
64167 2941
64168 2941
64169 2941
64170 2941
64171 2941
64172 2941
64173 2941
64174 2941
64175 2941
64176 2941
64177 2941
64178 2941
64179 2941
64180 2941
64181 2941
64182 2941
64183 2941
64184 2941
64185 2941
64186 2941
64187 2941
64188 2941
64189 2941
64190 2941
64191 2941
64192 2941
64193 2941
64194 2941
64195 2941
64196 2941
64197 2941
64198 2941
64199 2941
64200 2941
64201 2941
64202 2941
64203 2941
64204 2941
64205 2941
64206 2941
64207 2941
64208 2941
18053 899
18054 899
18055 899
18056 899
18057 899
18058 899
18059 899
18060 899
18061 899
18062 899
18063 899
18064 899
18065 899
18066 899
18067 899
18068 899
18069 899
18070 899
18071 899
18072 899
18073 899
18074 899
18075 899
18076 899
18077 899
18078 899
18079 899
18080 899
18081 899
82722 3708
82723 3708
82724 3708
82725 3708
82726 3708
82727 3708
82728 3708
82729 3708
82730 3708
82731 3708
82732 3708
82733 3708
82734 3708
82735 3708
82736 3708
82737 3708
82738 3708
82739 3708
82740 3708
82741 3708
82742 3708
82743 3708
82744 3708
82745 3708
82746 3708
82747 3708
82748 3708
82749 3708
82750 3708
82751 3708
82752 3708
82753 3708
82754 3708
82755 3708
82756 3708
82757 3708
82758 3708
82759 3708
82760 3708
82761 3708
16605 835
16606 835
16607 835
16608 835
16609 835
16610 835
62251 2862
62252 2862
62253 2862
62254 2862
62255 2862
62256 2862
62257 2862
62258 2862
62259 2862
62260 2862
62261 2862
62262 2862
62263 2862
62264 2862
62265 2862
62266 2862
62267 2862
62268 2862
62269 2862
62270 2862
62271 2862
62272 2862
62273 2862
62274 2862
62275 2862
62276 2862
62277 2862
62278 2862
62279 2862
62280 2862
62281 2862
62282 2862
62283 2862
62284 2862
62285 2862
110262 5217
110263 5217
110264 5217
110265 5217
110266 5217
110267 5217
110268 5217
110269 5217
110270 5217
110271 5217
110272 5217
110273 5217
110274 5217
110275 5217
110276 5217
110277 5217
110278 5217
110279 5217
110280 5217
110281 5217
110282 5217
110283 5217
110284 5217
110285 5217
110286 5217
110287 5217
110288 5217
110289 5217
110290 5217
110291 5217
110292 5217
9161 443
9162 443
9163 443
9164 443
9165 443
9166 443
9167 443
9168 443
9169 443
9170 443
9171 443
9172 443
9173 443
9174 443
9175 443
9176 443
9177 443
9178 443
9179 443
9180 443
9181 443
9182 443
9183 443
9184 443
9185 443
9186 443
9187 443
108712 5166
108713 5166
108714 5166
108715 5166
108716 5166
108717 5166
108718 5166
108719 5166
108720 5166
108721 5166
108722 5166
108723 5166
108724 5166
108725 5166
108726 5166
108727 5166
108728 5166
108729 5166
108730 5166
108731 5166
108732 5166
37571 1739
37572 1739
37573 1739
37574 1739
37575 1739
37576 1739
37577 1739
37578 1739
37579 1739
37580 1739
37581 1739
37582 1739
37583 1739
37584 1739
37585 1739
37586 1739
37587 1739
37588 1739
37589 1739
37590 1739
37591 1739
37592 1739
37593 1739
37594 1739
37595 1739
37596 1739
34855 1614
34856 1614
34857 1614
34858 1614
34859 1614
34860 1614
34861 1614
34862 1614
34863 1614
34864 1614
34865 1614
34866 1614
34867 1614
34868 1614
34869 1614
34870 1614
34871 1614
34872 1614
34873 1614
34874 1614
34875 1614
34876 1614
34877 1614
34878 1614
34879 1614
34880 1614
34881 1614
34882 1614
34883 1614
34884 1614
34885 1614
34886 1614
34887 1614
34888 1614
51032 2332
51033 2332
51034 2332
105968 5057
105969 5057
105970 5057
105971 5057
105972 5057
105973 5057
105974 5057
105975 5057
105976 5057
105977 5057
105978 5057
105979 5057
105980 5057
105981 5057
105982 5057
105983 5057
105984 5057
105985 5057
105986 5057
105987 5057
105988 5057
105989 5057
105990 5057
105991 5057
105992 5057
105993 5057
105994 5057
105995 5057
105996 5057
105997 5057
105998 5057
105999 5057
106000 5057
106001 5057
106002 5057
106003 5057
106004 5057
106005 5057
106006 5057
106007 5057
106008 5057
106009 5057
106010 5057
106011 5057
106012 5057
106013 5057
106014 5057
106015 5057
106016 5057
107260 5104
107261 5104
107262 5104
107263 5104
107264 5104
107265 5104
107266 5104
107267 5104
107268 5104
107269 5104
107270 5104
107271 5104
107272 5104
107273 5104
107274 5104
107275 5104
107276 5104
107277 5104
107278 5104
107279 5104
107280 5104
107281 5104
107282 5104
107283 5104
107284 5104
95894 4278
95895 4278
95896 4278
95897 4278
95898 4278
95899 4278
95900 4278
95901 4278
95902 4278
95903 4278
95904 4278
95905 4278
95906 4278
95907 4278
95908 4278
95909 4278
95910 4278
95911 4278
95912 4278
95913 4278
58292 2669
58293 2669
58294 2669
58295 2669
58296 2669
58297 2669
54568 2504
54569 2504
54570 2504
54571 2504
54572 2504
54573 2504
54574 2504
54575 2504
54576 2504
54577 2504
54578 2504
54579 2504
54580 2504
54581 2504
54582 2504
54583 2504
54584 2504
54585 2504
54586 2504
54587 2504
67098 3046
67099 3046
67100 3046
67101 3046
67102 3046
67103 3046
67104 3046
67105 3046
67106 3046
67107 3046
67108 3046
67109 3046
67110 3046
67111 3046
67112 3046
67113 3046
67114 3046
67115 3046
67116 3046
67117 3046
67118 3046
67119 3046
67120 3046
67121 3046
67122 3046
67123 3046
67124 3046
67125 3046
67126 3046
67127 3046
12607 589
12608 589
12609 589
12610 589
12611 589
12612 589
12613 589
12614 589
12615 589
12616 589
12617 589
12618 589
12619 589
12620 589
12621 589
12622 589
12623 589
12624 589
12625 589
12626 589
12627 589
12628 589
12629 589
93098 4152
93099 4152
93100 4152
93101 4152
93102 4152
93103 4152
93104 4152
93105 4152
93106 4152
93107 4152
93108 4152
93109 4152
93110 4152
93111 4152
93112 4152
93113 4152
93114 4152
93115 4152
93116 4152
93117 4152
93118 4152
93119 4152
93120 4152
93121 4152
93122 4152
93123 4152
93124 4152
93125 4152
93126 4152
93127 4152
93128 4152
93129 4152
93130 4152
93131 4152
93132 4152
93133 4152
105446 5038
105447 5038
105448 5038
105449 5038
105450 5038
105451 5038
105452 5038
105453 5038
105454 5038
105455 5038
105456 5038
105457 5038
105458 5038
105459 5038
105460 5038
105461 5038
105462 5038
105463 5038
105464 5038
105465 5038
105466 5038
105467 5038
105468 5038
105469 5038
105470 5038
105471 5038
105472 5038
105473 5038
105474 5038
105475 5038
105476 5038
105477 5038
105478 5038
105479 5038
105480 5038
105481 5038
105482 5038
2127 86
2128 86
2129 86
2130 86
2131 86
2132 86
2133 86
2134 86
2135 86
2136 86
2137 86
2138 86
2139 86
2140 86
2141 86
2142 86
2143 86
2144 86
2145 86
2146 86
2147 86
2148 86
2149 86
106057 5059
106058 5059
106059 5059
106060 5059
106061 5059
106062 5059
106063 5059
106064 5059
106065 5059
106066 5059
106067 5059
106068 5059
106069 5059
106070 5059
106071 5059
106072 5059
106073 5059
106074 5059
106075 5059
106076 5059
106077 5059
106078 5059
106079 5059
106080 5059
106081 5059
106082 5059
106083 5059
106084 5059
106085 5059
106086 5059
106087 5059
106088 5059
106089 5059
106090 5059
106091 5059
106092 5059
106093 5059
106094 5059
106095 5059
106096 5059
106097 5059
106098 5059
55347 2542
55348 2542
55349 2542
55350 2542
55351 2542
55352 2542
55353 2542
55354 2542
55355 2542
55356 2542
55357 2542
55358 2542
55359 2542
55360 2542
55361 2542
55362 2542
55363 2542
55364 2542
55365 2542
55366 2542
55367 2542
55368 2542
55369 2542
55370 2542
55371 2542
55372 2542
55373 2542
55374 2542
113149 5331
113150 5331
113151 5331
113152 5331
113153 5331
113154 5331
113155 5331
113156 5331
113157 5331
113158 5331
113159 5331
113160 5331
113161 5331
113162 5331
113163 5331
113164 5331
113165 5331
113166 5331
113167 5331
113168 5331
113169 5331
45803 2121
45804 2121
45805 2121
45806 2121
45807 2121
45808 2121
45809 2121
45810 2121
45811 2121
45812 2121
45813 2121
45814 2121
45815 2121
45816 2121
45817 2121
45818 2121
45819 2121
45820 2121
45821 2121
45822 2121
45823 2121
45824 2121
45825 2121
45826 2121
45827 2121
45828 2121
45829 2121
45830 2121
45831 2121
16219 820
16220 820
16221 820
16222 820
16223 820
16224 820
16225 820
16226 820
16227 820
16228 820
16229 820
16230 820
16231 820
16232 820
16233 820
16234 820
16235 820
110070 5212
110071 5212
110072 5212
110073 5212
110074 5212
110075 5212
110076 5212
110077 5212
110078 5212
110079 5212
110080 5212
110081 5212
110082 5212
110083 5212
110084 5212
110085 5212
110086 5212
110087 5212
110088 5212
110089 5212
110090 5212
110091 5212
110092 5212
110093 5212
110094 5212
110095 5212
110096 5212
110097 5212
110098 5212
110099 5212
110100 5212
110101 5212
110102 5212
110103 5212
110104 5212
110105 5212
110106 5212
110107 5212
110108 5212
110109 5212
110110 5212
110111 5212
110112 5212
110113 5212
110114 5212
110115 5212
110116 5212
110117 5212
110118 5212
110119 5212
110120 5212
31386 1474
31387 1474
31388 1474
31389 1474
31390 1474
31391 1474
31392 1474
31393 1474
31394 1474
31395 1474
31396 1474
31397 1474
31398 1474
31399 1474
31400 1474
31401 1474
31402 1474
31403 1474
31404 1474
31405 1474
31406 1474
31407 1474
31408 1474
31409 1474
31410 1474
31411 1474
31412 1474
31413 1474
31414 1474
31415 1474
31416 1474
31417 1474
31418 1474
31419 1474
31420 1474
31421 1474
31422 1474
31423 1474
31424 1474
31425 1474
31426 1474
31427 1474
31428 1474
31429 1474
31430 1474
31431 1474
31432 1474
31433 1474
31434 1474
31435 1474
31436 1474
31437 1474
31438 1474
31439 1474
31440 1474
31441 1474
31442 1474
31443 1474
31444 1474
31445 1474
31446 1474
31447 1474
31448 1474
31449 1474
31450 1474
31451 1474
31452 1474
31453 1474
31454 1474
31455 1474
31456 1474
31457 1474
31458 1474
31459 1474
31460 1474
31461 1474
31462 1474
31463 1474
31464 1474
31465 1474
31466 1474
31467 1474
31468 1474
31469 1474
31470 1474
31471 1474
31472 1474
31473 1474
31474 1474
31475 1474
31476 1474
31477 1474
31478 1474
31479 1474
31480 1474
31481 1474
31482 1474
31483 1474
31484 1474
31485 1474
31486 1474
31487 1474
31488 1474
31489 1474
31490 1474
31491 1474
31492 1474
31493 1474
31494 1474
31495 1474
31496 1474
31497 1474
106244 5065
106245 5065
106246 5065
106247 5065
106248 5065
106249 5065
106250 5065
106251 5065
106252 5065
106253 5065
106254 5065
106255 5065
106256 5065
106257 5065
106258 5065
106259 5065
106260 5065
106261 5065
106262 5065
106263 5065
106264 5065
106265 5065
106266 5065
106267 5065
106268 5065
106269 5065
106270 5065
106271 5065
106272 5065
106273 5065
20699 1012
20700 1012
20701 1012
20702 1012
20703 1012
20704 1012
20705 1012
20706 1012
20707 1012
20708 1012
20709 1012
20710 1012
20711 1012
20712 1012
20713 1012
20714 1012
20715 1012
20716 1012
20717 1012
20718 1012
107015 5093
107016 5093
107017 5093
107018 5093
107019 5093
107020 5093
107021 5093
107022 5093
107023 5093
107024 5093
96748 4326
96749 4326
96750 4326
96751 4326
96752 4326
96753 4326
96754 4326
96755 4326
96756 4326
96757 4326
96758 4326
96759 4326
96760 4326
96761 4326
96762 4326
96763 4326
96764 4326
96765 4326
96766 4326
96767 4326
96768 4326
96769 4326
96770 4326
96771 4326
96772 4326
96773 4326
96774 4326
96775 4326
96776 4326
96777 4326
96778 4326
96779 4326
96780 4326
96781 4326
96782 4326
96783 4326
96784 4326
96785 4326
96786 4326
96787 4326
96788 4326
96789 4326
96790 4326
96791 4326
96792 4326
96793 4326
96794 4326
96795 4326
96796 4326
96797 4326
96798 4326
96799 4326
96800 4326
96801 4326
96802 4326
96803 4326
96804 4326
33996 1580
33997 1580
33998 1580
33999 1580
34000 1580
34001 1580
34002 1580
34003 1580
34004 1580
34005 1580
34006 1580
34007 1580
34008 1580
34009 1580
34010 1580
34011 1580
34012 1580
34013 1580
34014 1580
34015 1580
34016 1580
34017 1580
34018 1580
34019 1580
34020 1580
34021 1580
34022 1580
34023 1580
34024 1580
34025 1580
34026 1580
34027 1580
34028 1580
34029 1580
34030 1580
34031 1580
34032 1580
34033 1580
34034 1580
34035 1580
34036 1580
34037 1580
34038 1580
34039 1580
34040 1580
34041 1580
34042 1580
34043 1580
34044 1580
34045 1580
34046 1580
34047 1580
34048 1580
34049 1580
34050 1580
34051 1580
34052 1580
34053 1580
34054 1580
34055 1580
111133 5245
111134 5245
111135 5245
111136 5245
111137 5245
111138 5245
111139 5245
111140 5245
111141 5245
111142 5245
111143 5245
111144 5245
111145 5245
111146 5245
111147 5245
111148 5245
111149 5245
111150 5245
111151 5245
111152 5245
111153 5245
111154 5245
111155 5245
111156 5245
111157 5245
111158 5245
111159 5245
111160 5245
105657 5047
105658 5047
105659 5047
105660 5047
105661 5047
105662 5047
105663 5047
105664 5047
105665 5047
105666 5047
105667 5047
105668 5047
105669 5047
105670 5047
105671 5047
105672 5047
105673 5047
105674 5047
105675 5047
105676 5047
105677 5047
105678 5047
105679 5047
105680 5047
105681 5047
105682 5047
105683 5047
105684 5047
105685 5047
105686 5047
105687 5047
105688 5047
105689 5047
105690 5047
105691 5047
105692 5047
105693 5047
75521 3387
75522 3387
76106 3423
76107 3423
76108 3423
76109 3423
76110 3423
76111 3423
76112 3423
76113 3423
76114 3423
76115 3423
76116 3423
76117 3423
76118 3423
76119 3423
76120 3423
76121 3423
76122 3423
76123 3423
76124 3423
76125 3423
76126 3423
76127 3423
76128 3423
76129 3423
76130 3423
76131 3423
76132 3423
76133 3423
76134 3423
76135 3423
76136 3423
76137 3423
76138 3423
76139 3423
76140 3423
76141 3423
76142 3423
76143 3423
76144 3423
76145 3423
76146 3423
10130 480
10131 480
10132 480
50332 2300
50333 2300
50334 2300
50335 2300
50336 2300
50337 2300
50338 2300
50339 2300
50340 2300
50341 2300
50342 2300
50343 2300
50344 2300
50345 2300
50346 2300
50347 2300
50348 2300
50349 2300
50350 2300
50351 2300
50352 2300
50353 2300
50354 2300
50355 2300
50356 2300
50357 2300
50358 2300
50359 2300
50360 2300
50361 2300
50362 2300
52881 2415
52882 2415
52883 2415
52884 2415
52885 2415
52886 2415
52887 2415
52888 2415
52889 2415
52890 2415
52891 2415
52892 2415
52893 2415
52894 2415
52895 2415
52896 2415
52897 2415
52898 2415
52899 2415
52900 2415
52901 2415
52902 2415
52903 2415
52904 2415
52905 2415
52906 2415
52907 2415
52908 2415
52909 2415
52910 2415
113749 5365
113750 5365
113751 5365
113752 5365
113753 5365
113754 5365
113755 5365
113756 5365
113757 5365
113758 5365
113759 5365
113760 5365
113761 5365
113762 5365
113763 5365
113764 5365
113765 5365
113766 5365
113767 5365
113768 5365
113769 5365
113770 5365
113771 5365
113772 5365
113773 5365
113774 5365
113775 5365
113776 5365
113777 5365
113778 5365
113779 5365
113780 5365
113781 5365
100596 4491
100597 4491
100598 4491
100599 4491
100600 4491
100601 4491
100602 4491
100603 4491
100604 4491
100605 4491
100606 4491
100607 4491
100608 4491
100609 4491
100610 4491
100611 4491
100612 4491
100613 4491
100614 4491
100615 4491
100616 4491
100617 4491
100618 4491
100619 4491
100620 4491
100621 4491
100622 4491
100623 4491
100624 4491
100625 4491
100626 4491
100627 4491
100628 4491
100629 4491
100630 4491
100631 4491
100632 4491
100633 4491
100634 4491
100635 4491
100636 4491
100637 4491
100638 4491
100639 4491
100640 4491
100641 4491
100642 4491
100643 4491
100644 4491
100645 4491
100646 4491
100647 4491
2165 88
2166 88
2167 88
2168 88
2169 88
2170 88
2171 88
2172 88
2173 88
2174 88
2175 88
2176 88
2177 88
2178 88
2179 88
2180 88
2181 88
2182 88
2183 88
2184 88
2185 88
2186 88
2187 88
2188 88
2189 88
2190 88
2191 88
2192 88
2193 88
2194 88
2195 88
2196 88
2197 88
2198 88
2199 88
2200 88
2201 88
2202 88
2203 88
2204 88
2205 88
57687 2643
57688 2643
57689 2643
57690 2643
57691 2643
57692 2643
113402 5345
113403 5345
113404 5345
113405 5345
113406 5345
113407 5345
113408 5345
113409 5345
113410 5345
113411 5345
113412 5345
113413 5345
113414 5345
113415 5345
113416 5345
113417 5345
113418 5345
113419 5345
113420 5345
113421 5345
113422 5345
3055 133
3056 133
3057 133
3058 133
111541 5262
111542 5262
111543 5262
111544 5262
111545 5262
111546 5262
111547 5262
111548 5262
111549 5262
111550 5262
111551 5262
111552 5262
111553 5262
111554 5262
111555 5262
111556 5262
111557 5262
111558 5262
111559 5262
111560 5262
111561 5262
111562 5262
111563 5262
87382 3893
87383 3893
87384 3893
87385 3893
87386 3893
87387 3893
87388 3893
111709 5270
111710 5270
111711 5270
111712 5270
111713 5270
111714 5270
111715 5270
111716 5270
111717 5270
111718 5270
111719 5270
111720 5270
111721 5270
111722 5270
111723 5270
111724 5270
111725 5270
111726 5270
111727 5270
111641 5268
111642 5268
111643 5268
111644 5268
111645 5268
111646 5268
111647 5268
111648 5268
111649 5268
111650 5268
111651 5268
111652 5268
111653 5268
111654 5268
111655 5268
111656 5268
111657 5268
111658 5268
111659 5268
111660 5268
111661 5268
111662 5268
111663 5268
111664 5268
111665 5268
111666 5268
111667 5268
111668 5268
111669 5268
111670 5268
111671 5268
111672 5268
111673 5268
111674 5268
111675 5268
111676 5268
111677 5268
111678 5268
111679 5268
111680 5268
111681 5268
111682 5268
111683 5268
111684 5268
107285 5105
107286 5105
107287 5105
107288 5105
107289 5105
107290 5105
107291 5105
107292 5105
107293 5105
107294 5105
107295 5105
107296 5105
107297 5105
107298 5105
107299 5105
107300 5105
107301 5105
107302 5105
107303 5105
107304 5105
107305 5105
107306 5105
107307 5105
107308 5105
96426 4311
96427 4311
96428 4311
96429 4311
96430 4311
96431 4311
96432 4311
96433 4311
96434 4311
96435 4311
96436 4311
96437 4311
96438 4311
96439 4311
96440 4311
96441 4311
96442 4311
100057 4466
100058 4466
100059 4466
100060 4466
100061 4466
100062 4466
100063 4466
100064 4466
100065 4466
100066 4466
100067 4466
100068 4466
100069 4466
100070 4466
100071 4466
100072 4466
100073 4466
100074 4466
100075 4466
100076 4466
100077 4466
100078 4466
100079 4466
100080 4466
100081 4466
100082 4466
100083 4466
100084 4466
100085 4466
100086 4466
100087 4466
100088 4466
100089 4466
100090 4466
100091 4466
100092 4466
100093 4466
100094 4466
100095 4466
100096 4466
100097 4466
100098 4466
100099 4466
100100 4466
100101 4466
100102 4466
100103 4466
100104 4466
100105 4466
106219 5064
106220 5064
106221 5064
106222 5064
106223 5064
106224 5064
106225 5064
106226 5064
106227 5064
106228 5064
106229 5064
106230 5064
106231 5064
106232 5064
106233 5064
106234 5064
106235 5064
106236 5064
106237 5064
106238 5064
106239 5064
106240 5064
106241 5064
106242 5064
106243 5064
98376 4398
98377 4398
92282 4112
92283 4112
92284 4112
92285 4112
92286 4112
92287 4112
92288 4112
92289 4112
92290 4112
92291 4112
92292 4112
92293 4112
92294 4112
92295 4112
92296 4112
92297 4112
92298 4112
26553 1272
26554 1272
26555 1272
26556 1272
26557 1272
26558 1272
26559 1272
26560 1272
26561 1272
26562 1272
26563 1272
26564 1272
26565 1272
26566 1272
26567 1272
26568 1272
26569 1272
19829 974
19830 974
19831 974
19832 974
19833 974
19834 974
19835 974
19836 974
19837 974
19838 974
19839 974
19840 974
19841 974
19842 974
19843 974
19844 974
19845 974
19846 974
19847 974
19848 974
19849 974
19850 974
19851 974
19852 974
108054 5136
108055 5136
108056 5136
108057 5136
108058 5136
108059 5136
108060 5136
108061 5136
108062 5136
108063 5136
108064 5136
108065 5136
108066 5136
108067 5136
51783 2365
51784 2365
51785 2365
51786 2365
51787 2365
51788 2365
51789 2365
51790 2365
51791 2365
51792 2365
51793 2365
51794 2365
51795 2365
51796 2365
51797 2365
51798 2365
51799 2365
51800 2365
51801 2365
51802 2365
51803 2365
51804 2365
51805 2365
68911 3129
68912 3129
111308 5253
111309 5253
111310 5253
111311 5253
111312 5253
111313 5253
111314 5253
111315 5253
111316 5253
111317 5253
111318 5253
111319 5253
111320 5253
111321 5253
111322 5253
111323 5253
111324 5253
111325 5253
111326 5253
111327 5253
111328 5253
111329 5253
111330 5253
111331 5253
111332 5253
111333 5253
111334 5253
111335 5253
111336 5253
111337 5253
111338 5253
111339 5253
111340 5253
111341 5253
111342 5253
111343 5253
111344 5253
113280 5337
113281 5337
113282 5337
113283 5337
113284 5337
113285 5337
113286 5337
113287 5337
113288 5337
113289 5337
113290 5337
23075 1114
23076 1114
23077 1114
23078 1114
23079 1114
23080 1114
23081 1114
23082 1114
23083 1114
23084 1114
23085 1114
23086 1114
23087 1114
23088 1114
23089 1114
23090 1114
23091 1114
23092 1114
23093 1114
23094 1114
23095 1114
23096 1114
23097 1114
23098 1114
65451 2995
65452 2995
65453 2995
65454 2995
65455 2995
65456 2995
65457 2995
65458 2995
65459 2995
65460 2995
65461 2995
65462 2995
65463 2995
65464 2995
65465 2995
65466 2995
65467 2995
65468 2995
65469 2995
65470 2995
65471 2995
65472 2995
65473 2995
65474 2995
65475 2995
65476 2995
65477 2995
65478 2995
115039 5416
115040 5416
115041 5416
115042 5416
115043 5416
115044 5416
115045 5416
115046 5416
115047 5416
115048 5416
115049 5416
115050 5416
115051 5416
115052 5416
115053 5416
115054 5416
115055 5416
115056 5416
115057 5416
115058 5416
115059 5416
115060 5416
115061 5416
115062 5416
115063 5416
115064 5416
115065 5416
115066 5416
11756 552
11757 552
11758 552
11759 552
11760 552
11761 552
11762 552
11763 552
11764 552
11765 552
11766 552
11767 552
11768 552
11769 552
11770 552
11771 552
11772 552
11773 552
11774 552
11775 552
11776 552
11777 552
11778 552
11779 552
11780 552
11781 552
11782 552
11783 552
11784 552
11785 552
11786 552
11787 552
11788 552
11789 552
11790 552
11791 552
11792 552
11793 552
11794 552
11795 552
11796 552
1936 80
1937 80
1938 80
1939 80
1940 80
1941 80
1942 80
1943 80
1944 80
1945 80
1946 80
1947 80
1948 80
1949 80
1950 80
1951 80
1952 80
1953 80
1954 80
1955 80
1956 80
1957 80
1958 80
1959 80
1960 80
1961 80
1962 80
1963 80
1964 80
31294 1468
31295 1468
31296 1468
31297 1468
31298 1468
31299 1468
31300 1468
31301 1468
31302 1468
31303 1468
31304 1468
31305 1468
31306 1468
31307 1468
31308 1468
31309 1468
31310 1468
31311 1468
31312 1468
31313 1468
31314 1468
31315 1468
31316 1468
31317 1468
31318 1468
31319 1468
31320 1468
31321 1468
31322 1468
30984 1452
30985 1452
30986 1452
30987 1452
30988 1452
30989 1452
30990 1452
105008 5024
105009 5024
105010 5024
105011 5024
105012 5024
105013 5024
105014 5024
105015 5024
105016 5024
105017 5024
105018 5024
105019 5024
105020 5024
105021 5024
105022 5024
105023 5024
105024 5024
105025 5024
105026 5024
103897 4627
103898 4627
64118 2940
64119 2940
64120 2940
64121 2940
64122 2940
64123 2940
64124 2940
64125 2940
64126 2940
64127 2940
64128 2940
64129 2940
64130 2940
64131 2940
64132 2940
64133 2940
64134 2940
64135 2940
64136 2940
64137 2940
64138 2940
64139 2940
64140 2940
64141 2940
64142 2940
64143 2940
64144 2940
64145 2940
64146 2940
64147 2940
64148 2940
64149 2940
64150 2940
64151 2940
64152 2940
64153 2940
64154 2940
64155 2940
64156 2940
64157 2940
64158 2940
64159 2940
67671 3076
67672 3076
67673 3076
67674 3076
67675 3076
67676 3076
67677 3076
67678 3076
67679 3076
67680 3076
67681 3076
67682 3076
67683 3076
67684 3076
67685 3076
67686 3076
67687 3076
67688 3076
67689 3076
67690 3076
67691 3076
67692 3076
67693 3076
67694 3076
67695 3076
67696 3076
67697 3076
67698 3076
67699 3076
67700 3076
67701 3076
67702 3076
67703 3076
67704 3076
67705 3076
67706 3076
67707 3076
67708 3076
67709 3076
67710 3076
67711 3076
67712 3076
67713 3076
67714 3076
67715 3076
67716 3076
67717 3076
67718 3076
67719 3076
67720 3076
67721 3076
67722 3076
67723 3076
67724 3076
67725 3076
67726 3076
67727 3076
67728 3076
67729 3076
67730 3076
67731 3076
67732 3076
67733 3076
67734 3076
67735 3076
67736 3076
67737 3076
67738 3076
67739 3076
67740 3076
67741 3076
67742 3076
67743 3076
67744 3076
67745 3076
67746 3076
67747 3076
67748 3076
67749 3076
67750 3076
67751 3076
67752 3076
67753 3076
67754 3076
67755 3076
67756 3076
67757 3076
67758 3076
67759 3076
67760 3076
67761 3076
67762 3076
67763 3076
67764 3076
60803 2801
60804 2801
60805 2801
60806 2801
60807 2801
60808 2801
60809 2801
60810 2801
60811 2801
60812 2801
60813 2801
60814 2801
60815 2801
60816 2801
60817 2801
60818 2801
60819 2801
60820 2801
60821 2801
60822 2801
60823 2801
60824 2801
60825 2801
60826 2801
60827 2801
60828 2801
33777 1571
33778 1571
33779 1571
33780 1571
33781 1571
33782 1571
33783 1571
33784 1571
33785 1571
33786 1571
33787 1571
33788 1571
33789 1571
363 17
364 17
365 17
366 17
367 17
368 17
369 17
370 17
371 17
372 17
373 17
374 17
375 17
376 17
377 17
378 17
379 17
380 17
381 17
382 17
383 17
384 17
113372 5343
113373 5343
113374 5343
113375 5343
113376 5343
113377 5343
113378 5343
113379 5343
113380 5343
113381 5343
113382 5343
113383 5343
113384 5343
113385 5343
113386 5343
113387 5343
113388 5343
113389 5343
113390 5343
113880 5371
113881 5371
113882 5371
113883 5371
113884 5371
113885 5371
113886 5371
113887 5371
113888 5371
113889 5371
113890 5371
113891 5371
113892 5371
113893 5371
113894 5371
113895 5371
113896 5371
113897 5371
113898 5371
113899 5371
113900 5371
113901 5371
113902 5371
113903 5371
113904 5371
113905 5371
113906 5371
113907 5371
113908 5371
113909 5371
113910 5371
113911 5371
113912 5371
113913 5371
113914 5371
12227 570
12228 570
12229 570
12230 570
12231 570
12232 570
12233 570
12234 570
12235 570
12236 570
12237 570
12238 570
12239 570
12240 570
107183 5102
107184 5102
107185 5102
107186 5102
107187 5102
107188 5102
107189 5102
107190 5102
107191 5102
107192 5102
107193 5102
107194 5102
107195 5102
107196 5102
107197 5102
107198 5102
107199 5102
107200 5102
107201 5102
107202 5102
107203 5102
107204 5102
107205 5102
107206 5102
107207 5102
107208 5102
107209 5102
107210 5102
107211 5102
107212 5102
107213 5102
107214 5102
107215 5102
107216 5102
107217 5102
107218 5102
107219 5102
107220 5102
107221 5102
107222 5102
84014 3765
84015 3765
108532 5159
108533 5159
108534 5159
108535 5159
108536 5159
108537 5159
108538 5159
108539 5159
108540 5159
108541 5159
108542 5159
108543 5159
108544 5159
108545 5159
108546 5159
108547 5159
108548 5159
75510 3386
75511 3386
75512 3386
75513 3386
75514 3386
75515 3386
75516 3386
75517 3386
75518 3386
75519 3386
75520 3386
3134 145
3135 145
3136 145
3137 145
19386 955
19387 955
19388 955
19389 955
19390 955
19391 955
19392 955
19393 955
19394 955
19395 955
19396 955
19397 955
19398 955
19399 955
19400 955
19401 955
19402 955
19403 955
111620 5267
111621 5267
111622 5267
111623 5267
111624 5267
111625 5267
111626 5267
111627 5267
111628 5267
111629 5267
111630 5267
111631 5267
111632 5267
111633 5267
111634 5267
111635 5267
111636 5267
111637 5267
111638 5267
111639 5267
111640 5267
112200 5288
112201 5288
112202 5288
112203 5288
112204 5288
112205 5288
112206 5288
112207 5288
112208 5288
112209 5288
112210 5288
112211 5288
112212 5288
112213 5288
112214 5288
112215 5288
112216 5288
112217 5288
112218 5288
112219 5288
112220 5288
112221 5288
112222 5288
112223 5288
112224 5288
112225 5288
112226 5288
112227 5288
112228 5288
112229 5288
112230 5288
112231 5288
112232 5288
112233 5288
112234 5288
96405 4310
96406 4310
96407 4310
96408 4310
96409 4310
96410 4310
96411 4310
96412 4310
96413 4310
96414 4310
96415 4310
96416 4310
96417 4310
96418 4310
96419 4310
96420 4310
96421 4310
96422 4310
96423 4310
96424 4310
96425 4310
62706 2883
62707 2883
62708 2883
62709 2883
62710 2883
62711 2883
62712 2883
62713 2883
62714 2883
62715 2883
62716 2883
62717 2883
62718 2883
62719 2883
62720 2883
62721 2883
62722 2883
62723 2883
62724 2883
62725 2883
62726 2883
62727 2883
92323 4117
92324 4117
52830 2412
52831 2412
52832 2412
52833 2412
52834 2412
52835 2412
52836 2412
52837 2412
52838 2412
52839 2412
52840 2412
52841 2412
52842 2412
52843 2412
112954 5321
112955 5321
112956 5321
112957 5321
112958 5321
112959 5321
112960 5321
112961 5321
112962 5321
112963 5321
22759 1100
22760 1100
22761 1100
22762 1100
22763 1100
22764 1100
22765 1100
22766 1100
22767 1100
22768 1100
22769 1100
22770 1100
22771 1100
22772 1100
22773 1100
22774 1100
22775 1100
22776 1100
22777 1100
22778 1100
22779 1100
22780 1100
22781 1100
22782 1100
105721 5049
105722 5049
105723 5049
105724 5049
105725 5049
105726 5049
105727 5049
105728 5049
105729 5049
105730 5049
105731 5049
105732 5049
23376 1138
23377 1138
23378 1138
23379 1138
23380 1138
23381 1138
23382 1138
23383 1138
23384 1138
23385 1138
23386 1138
23387 1138
23388 1138
23389 1138
23390 1138
23391 1138
23392 1138
23393 1138
23394 1138
23395 1138
114094 5383
114095 5383
114096 5383
114097 5383
114098 5383
114099 5383
114100 5383
114101 5383
114102 5383
114103 5383
114104 5383
114105 5383
114106 5383
114107 5383
114108 5383
114109 5383
114110 5383
1141 52
1142 52
1143 52
1144 52
1145 52
1146 52
1147 52
1148 52
1149 52
1150 52
1151 52
1152 52
1153 52
1154 52
1155 52
1156 52
1157 52
1158 52
1159 52
1160 52
1161 52
1162 52
1163 52
1164 52
1165 52
1166 52
1167 52
1168 52
1169 52
1170 52
1171 52
1172 52
48146 2219
48147 2219
48148 2219
13309 621
13310 621
13311 621
13312 621
13313 621
13314 621
13315 621
13316 621
13317 621
13318 621
13319 621
13320 621
13321 621
13322 621
13323 621
13324 621
13325 621
13326 621
13327 621
13328 621
13329 621
13330 621
13331 621
13332 621
13333 621
13334 621
13335 621
13336 621
13337 621
13338 621
13339 621
13340 621
13341 621
13342 621
13343 621
13344 621
13345 621
13346 621
13347 621
13348 621
13349 621
13350 621
13351 621
13352 621
13353 621
13354 621
13355 621
13356 621
13357 621
13358 621
13359 621
13360 621
13361 621
13362 621
13363 621
13364 621
13365 621
13366 621
13367 621
13368 621
89146 3988
89147 3988
89148 3988
89149 3988
89150 3988
89151 3988
89152 3988
113857 5370
113858 5370
113859 5370
113860 5370
113861 5370
113862 5370
113863 5370
113864 5370
113865 5370
113866 5370
113867 5370
113868 5370
113869 5370
113870 5370
113871 5370
113872 5370
113873 5370
113874 5370
113875 5370
113876 5370
113877 5370
113878 5370
113879 5370
115227 5423
115228 5423
115229 5423
115230 5423
115231 5423
115232 5423
115233 5423
115234 5423
115235 5423
115236 5423
115237 5423
115238 5423
115239 5423
115240 5423
115241 5423
115242 5423
115243 5423
115244 5423
115245 5423
115246 5423
115247 5423
115248 5423
115249 5423
115250 5423
115251 5423
115252 5423
115253 5423
115254 5423
115255 5423
115256 5423
115257 5423
115258 5423
115259 5423
115260 5423
115261 5423
115262 5423
115263 5423
115264 5423
74898 3355
74899 3355
74900 3355
74901 3355
74902 3355
74903 3355
74904 3355
74905 3355
74906 3355
74907 3355
74908 3355
74909 3355
74910 3355
74911 3355
74912 3355
74913 3355
74914 3355
74915 3355
74916 3355
74917 3355
74918 3355
74919 3355
74920 3355
74921 3355
74922 3355
74923 3355
74924 3355
74925 3355
74926 3355
74927 3355
74928 3355
74929 3355
74930 3355
74931 3355
74932 3355
74933 3355
38245 1773
38246 1773
38247 1773
38248 1773
38249 1773
38250 1773
38251 1773
38252 1773
38253 1773
38254 1773
38255 1773
38256 1773
38257 1773
38258 1773
38259 1773
38260 1773
38261 1773
38262 1773
38263 1773
38264 1773
38265 1773
38266 1773
38267 1773
38268 1773
38269 1773
38270 1773
38271 1773
38272 1773
38273 1773
38274 1773
38275 1773
38276 1773
38277 1773
38278 1773
38279 1773
38280 1773
38281 1773
38282 1773
38283 1773
38284 1773
38285 1773
38286 1773
38287 1773
38288 1773
87476 3897
87477 3897
87478 3897
87479 3897
87480 3897
87481 3897
87482 3897
87483 3897
87484 3897
87485 3897
87486 3897
87487 3897
87488 3897
87489 3897
87490 3897
87491 3897
87492 3897
87493 3897
87494 3897
87495 3897
87496 3897
87497 3897
87498 3897
87499 3897
87500 3897
87501 3897
87502 3897
87503 3897
87504 3897
87505 3897
87506 3897
87507 3897
87508 3897
87509 3897
87510 3897
87511 3897
87512 3897
87513 3897
14336 655
14337 655
14338 655
14339 655
14340 655
14341 655
14342 655
14343 655
14344 655
14345 655
14346 655
14347 655
14348 655
14349 655
14350 655
14351 655
14352 655
14353 655
14354 655
14355 655
122187 5685
122188 5685
122189 5685
122190 5685
122191 5685
122192 5685
122193 5685
122194 5685
122195 5685
122196 5685
122197 5685
122198 5685
122199 5685
122200 5685
122201 5685
122202 5685
122203 5685
122204 5685
122205 5685
122206 5685
122207 5685
122208 5685
122209 5685
122210 5685
122211 5685
122212 5685
122213 5685
35647 1650
35648 1650
35649 1650
35650 1650
35651 1650
35652 1650
35653 1650
35654 1650
35655 1650
35656 1650
35657 1650
35658 1650
35659 1650
35660 1650
35661 1650
35662 1650
35663 1650
35664 1650
35665 1650
35666 1650
35667 1650
35668 1650
35669 1650
35670 1650
35671 1650
35672 1650
35673 1650
35674 1650
35675 1650
35676 1650
35677 1650
35678 1650
35679 1650
35680 1650
35681 1650
35682 1650
35683 1650
35684 1650
35685 1650
35686 1650
35687 1650
35688 1650
49675 2280
49676 2280
49677 2280
49678 2280
49679 2280
49680 2280
49681 2280
49682 2280
49683 2280
49684 2280
49685 2280
49686 2280
49687 2280
49688 2280
49689 2280
49690 2280
49691 2280
49692 2280
49693 2280
49694 2280
49695 2280
49696 2280
49697 2280
49698 2280
49699 2280
49700 2280
49701 2280
49702 2280
49703 2280
49704 2280
49705 2280
49706 2280
64450 2951
64451 2951
64452 2951
64453 2951
64454 2951
64455 2951
64456 2951
64457 2951
64458 2951
64459 2951
64460 2951
64461 2951
64462 2951
109370 5186
109371 5186
109372 5186
109373 5186
109374 5186
109375 5186
109376 5186
109377 5186
109378 5186
109379 5186
109380 5186
109381 5186
109382 5186
109383 5186
109384 5186
109385 5186
109386 5186
109387 5186
109388 5186
109389 5186
109390 5186
109391 5186
109392 5186
109393 5186
109394 5186
3102 139
3103 139
3104 139
3105 139
3106 139
3107 139
32987 1537
32988 1537
32989 1537
32990 1537
32991 1537
32992 1537
32993 1537
32994 1537
32995 1537
32996 1537
32997 1537
32998 1537
32999 1537
33000 1537
33001 1537
33002 1537
33003 1537
33004 1537
33005 1537
33006 1537
33007 1537
33008 1537
33009 1537
33010 1537
33011 1537
33012 1537
33013 1537
33014 1537
33015 1537
33016 1537
33017 1537
33018 1537
33019 1537
33020 1537
67577 3074
67578 3074
67579 3074
67580 3074
67581 3074
67582 3074
67583 3074
67584 3074
67585 3074
67586 3074
67587 3074
67588 3074
67589 3074
67590 3074
67591 3074
67592 3074
67593 3074
67594 3074
67595 3074
67596 3074
67597 3074
67598 3074
67599 3074
67600 3074
67601 3074
67602 3074
67603 3074
67604 3074
67605 3074
67606 3074
67607 3074
67608 3074
67609 3074
67610 3074
67611 3074
67612 3074
67613 3074
67614 3074
67615 3074
67616 3074
67617 3074
67618 3074
67619 3074
67620 3074
67621 3074
67622 3074
32264 1507
32265 1507
32266 1507
32267 1507
32268 1507
32269 1507
32270 1507
32271 1507
32272 1507
32273 1507
32274 1507
32275 1507
32276 1507
32277 1507
32278 1507
32279 1507
32280 1507
32281 1507
32282 1507
32283 1507
32284 1507
32285 1507
32286 1507
32287 1507
39786 1858
39787 1858
39788 1858
39789 1858
39790 1858
39791 1858
39792 1858
39793 1858
39794 1858
39795 1858
39796 1858
39797 1858
39798 1858
39799 1858
39800 1858
39801 1858
39802 1858
39803 1858
39804 1858
39805 1858
39806 1858
39807 1858
39808 1858
39809 1858
104417 5002
104418 5002
104419 5002
104420 5002
104421 5002
104422 5002
104423 5002
104424 5002
104425 5002
104426 5002
104427 5002
104428 5002
104429 5002
104430 5002
104431 5002
104432 5002
104433 5002
104434 5002
104435 5002
104436 5002
104437 5002
104438 5002
104439 5002
104440 5002
74492 3336
74493 3336
17315 867
17316 867
17317 867
17318 867
17319 867
17320 867
17321 867
17322 867
17323 867
17324 867
17325 867
17326 867
17327 867
17328 867
17329 867
17330 867
17331 867
17332 867
17333 867
17334 867
17335 867
17336 867
17337 867
17338 867
17339 867
17340 867
17341 867
17342 867
17343 867
17344 867
17345 867
17346 867
17347 867
17348 867
17349 867
1383 60
1384 60
1385 60
1386 60
1387 60
1388 60
1389 60
1390 60
1391 60
1392 60
1393 60
1394 60
1395 60
1396 60
1397 60
1398 60
1399 60
1400 60
1401 60
1402 60
1403 60
1404 60
1405 60
1406 60
1407 60
1408 60
1409 60
1410 60
1411 60
1412 60
1413 60
1414 60
1415 60
1416 60
1417 60
1418 60
1419 60
1420 60
1421 60
1422 60
1423 60
1424 60
1425 60
1426 60
1427 60
1428 60
17007 853
17008 853
17009 853
17010 853
17011 853
17012 853
17013 853
17014 853
17015 853
17016 853
17017 853
17018 853
17019 853
17020 853
17021 853
17022 853
17023 853
17024 853
17025 853
17026 853
17027 853
17028 853
17029 853
17030 853
17031 853
17032 853
17033 853
17034 853
17035 853
17036 853
17037 853
17038 853
17039 853
17040 853
17041 853
17042 853
17043 853
87186 3884
87187 3884
87188 3884
87189 3884
87190 3884
87191 3884
87192 3884
112996 5323
112997 5323
112998 5323
112999 5323
113000 5323
113001 5323
113002 5323
113003 5323
113004 5323
113005 5323
113006 5323
113007 5323
113008 5323
113009 5323
113010 5323
113011 5323
113012 5323
113013 5323
113014 5323
113015 5323
113016 5323
113017 5323
24000 1167
24001 1167
24002 1167
24003 1167
24004 1167
24005 1167
24006 1167
24007 1167
24008 1167
24009 1167
24010 1167
24011 1167
24012 1167
24013 1167
24014 1167
24015 1167
24016 1167
24017 1167
24018 1167
110742 5234
110743 5234
110744 5234
110745 5234
110746 5234
110747 5234
110748 5234
110749 5234
110750 5234
110751 5234
110752 5234
110753 5234
110754 5234
110755 5234
110756 5234
110757 5234
110758 5234
110759 5234
110760 5234
110761 5234
110762 5234
110763 5234
110764 5234
110765 5234
110766 5234
110767 5234
110768 5234
110769 5234
110770 5234
110771 5234
110772 5234
110773 5234
110774 5234
110775 5234
110776 5234
110777 5234
110778 5234
110779 5234
110780 5234
110781 5234
110782 5234
110783 5234
110784 5234
110785 5234
110786 5234
110787 5234
110788 5234
110789 5234
110790 5234
70773 3199
70774 3199
70775 3199
70776 3199
70777 3199
70778 3199
70779 3199
70780 3199
70781 3199
70782 3199
70783 3199
70784 3199
70785 3199
70786 3199
70787 3199
70788 3199
70789 3199
70790 3199
70791 3199
70792 3199
70793 3199
70794 3199
70795 3199
70796 3199
70797 3199
70798 3199
70799 3199
70800 3199
70801 3199
70802 3199
70803 3199
70804 3199
70805 3199
70806 3199
70807 3199
70808 3199
70809 3199
70810 3199
70811 3199
70812 3199
70813 3199
70814 3199
70815 3199
70816 3199
70817 3199
70818 3199
70819 3199
70820 3199
70821 3199
70822 3199
70823 3199
70824 3199
70825 3199
70826 3199
70827 3199
40334 1884
40335 1884
40336 1884
40337 1884
40338 1884
40339 1884
40340 1884
40341 1884
40342 1884
40343 1884
40344 1884
40345 1884
40346 1884
40347 1884
40348 1884
40349 1884
40350 1884
40351 1884
40352 1884
40353 1884
40354 1884
40355 1884
40356 1884
40357 1884
40358 1884
40359 1884
40360 1884
40361 1884
40362 1884
40363 1884
40364 1884
40365 1884
40366 1884
40367 1884
40368 1884
40369 1884
40370 1884
40371 1884
40372 1884
40373 1884
40374 1884
9857 469
9858 469
9859 469
9860 469
9861 469
9862 469
110650 5232
110651 5232
110652 5232
110653 5232
110654 5232
110655 5232
110656 5232
110657 5232
110658 5232
110659 5232
110660 5232
110661 5232
110662 5232
110663 5232
110664 5232
110665 5232
110666 5232
110667 5232
110668 5232
110669 5232
110670 5232
110671 5232
110672 5232
110673 5232
110674 5232
110675 5232
110676 5232
110677 5232
110678 5232
110679 5232
110680 5232
110681 5232
110682 5232
110683 5232
110684 5232
110685 5232
110686 5232
110687 5232
110688 5232
110689 5232
110690 5232
110691 5232
110692 5232
110693 5232
110694 5232
110695 5232
110696 5232
43046 2010
43047 2010
43048 2010
43049 2010
43050 2010
43051 2010
43052 2010
43053 2010
43054 2010
43055 2010
43056 2010
43057 2010
43058 2010
43059 2010
43060 2010
43061 2010
43062 2010
43063 2010
43064 2010
43065 2010
43066 2010
43067 2010
43068 2010
43069 2010
43070 2010
43071 2010
43072 2010
43073 2010
43074 2010
43075 2010
43076 2010
43077 2010
43078 2010
43079 2010
43080 2010
43081 2010
33358 1553
33359 1553
33360 1553
33361 1553
33362 1553
33363 1553
33364 1553
33365 1553
33366 1553
33367 1553
33368 1553
33369 1553
33370 1553
33371 1553
33372 1553
33373 1553
33374 1553
33375 1553
33376 1553
33377 1553
33378 1553
33379 1553
33380 1553
33381 1553
33382 1553
33383 1553
33384 1553
33385 1553
33386 1553
33387 1553
33388 1553
33389 1553
33390 1553
33391 1553
33392 1553
33393 1553
28497 1348
28498 1348
28499 1348
28500 1348
28501 1348
28502 1348
28503 1348
28504 1348
28505 1348
28506 1348
28507 1348
28508 1348
28509 1348
28510 1348
28511 1348
28512 1348
28513 1348
28514 1348
28515 1348
28516 1348
28517 1348
28518 1348
28519 1348
28520 1348
28521 1348
28522 1348
28523 1348
28524 1348
28525 1348
28526 1348
28527 1348
28528 1348
113692 5363
113693 5363
113694 5363
113695 5363
113696 5363
113697 5363
113698 5363
113699 5363
109323 5184
109324 5184
109325 5184
109326 5184
109327 5184
109328 5184
109329 5184
109330 5184
109331 5184
109332 5184
109333 5184
109334 5184
109335 5184
109336 5184
109337 5184
109338 5184
109339 5184
109340 5184
109341 5184
109342 5184
109343 5184
109344 5184
112056 5285
112057 5285
112058 5285
112059 5285
112060 5285
112061 5285
112062 5285
112063 5285
112064 5285
112065 5285
112066 5285
112067 5285
112068 5285
112069 5285
112070 5285
112071 5285
112072 5285
112073 5285
112074 5285
112075 5285
112076 5285
112077 5285
112078 5285
112079 5285
112080 5285
112081 5285
112082 5285
112083 5285
112084 5285
112085 5285
112086 5285
112087 5285
112088 5285
112089 5285
112090 5285
112091 5285
112092 5285
112093 5285
112094 5285
112095 5285
112096 5285
112097 5285
112098 5285
112099 5285
112100 5285
112101 5285
112102 5285
112103 5285
112104 5285
112105 5285
112106 5285
45507 2113
45508 2113
45509 2113
45510 2113
45511 2113
45512 2113
45513 2113
45514 2113
45515 2113
45516 2113
45517 2113
45518 2113
45519 2113
45520 2113
45521 2113
45522 2113
45523 2113
45524 2113
45525 2113
45526 2113
45527 2113
45528 2113
45529 2113
45530 2113
45531 2113
45532 2113
45533 2113
45534 2113
45535 2113
45536 2113
45537 2113
45538 2113
45539 2113
45540 2113
45541 2113
45542 2113
45543 2113
45544 2113
45545 2113
45546 2113
45547 2113
45548 2113
45549 2113
45550 2113
45551 2113
45552 2113
45553 2113
45554 2113
45555 2113
45556 2113
45557 2113
45558 2113
45559 2113
45560 2113
45561 2113
45562 2113
45563 2113
45564 2113
45565 2113
45566 2113
45567 2113
45568 2113
45569 2113
45570 2113
45571 2113
45572 2113
45573 2113
45574 2113
45575 2113
45576 2113
112760 5313
112761 5313
112762 5313
112763 5313
112764 5313
112765 5313
112766 5313
112767 5313
112768 5313
112769 5313
112770 5313
112771 5313
112772 5313
112773 5313
112774 5313
112775 5313
112776 5313
112777 5313
112778 5313
112779 5313
112780 5313
112781 5313
112782 5313
112783 5313
112784 5313
112785 5313
112786 5313
112787 5313
112788 5313
112789 5313
112790 5313
112791 5313
112792 5313
112793 5313
112794 5313
112795 5313
112796 5313
112797 5313
112798 5313
112799 5313
105027 5025
105028 5025
105029 5025
105030 5025
105031 5025
105032 5025
105033 5025
105034 5025
105035 5025
105036 5025
105037 5025
105038 5025
105039 5025
105040 5025
105041 5025
105042 5025
105043 5025
105044 5025
105045 5025
105046 5025
105047 5025
105048 5025
105049 5025
105050 5025
105051 5025
105052 5025
105053 5025
82060 3679
82061 3679
82062 3679
82063 3679
82064 3679
82065 3679
82066 3679
82067 3679
82068 3679
82069 3679
82070 3679
82071 3679
82072 3679
82073 3679
82074 3679
82075 3679
82076 3679
82077 3679
82078 3679
82079 3679
82080 3679
82081 3679
82082 3679
82083 3679
82084 3679
82085 3679
82086 3679
82087 3679
82088 3679
82089 3679
82090 3679
82091 3679
82092 3679
82093 3679
82094 3679
82095 3679
82096 3679
82097 3679
82098 3679
82099 3679
82100 3679
82101 3679
82102 3679
82103 3679
106850 5088
106851 5088
106852 5088
106853 5088
106854 5088
106855 5088
106856 5088
106857 5088
106858 5088
106859 5088
106860 5088
106861 5088
106862 5088
106863 5088
106864 5088
106865 5088
106866 5088
106867 5088
106868 5088
106869 5088
106870 5088
106871 5088
106872 5088
106873 5088
106874 5088
106875 5088
106876 5088
106877 5088
106878 5088
106879 5088
106880 5088
106881 5088
74036 3311
74037 3311
58922 2700
58923 2700
58924 2700
58925 2700
58926 2700
58927 2700
58928 2700
58929 2700
58930 2700
58931 2700
58932 2700
58933 2700
58934 2700
58935 2700
58936 2700
58937 2700
58938 2700
58939 2700
58940 2700
58941 2700
58942 2700
58943 2700
58944 2700
58945 2700
58946 2700
58947 2700
58948 2700
58949 2700
58950 2700
58951 2700
58952 2700
58953 2700
58954 2700
58955 2700
58956 2700
58957 2700
58958 2700
55835 2561
55836 2561
55837 2561
55838 2561
55839 2561
55840 2561
55841 2561
55842 2561
55843 2561
55844 2561
55845 2561
55846 2561
55847 2561
55848 2561
55849 2561
55850 2561
55851 2561
55852 2561
55853 2561
55854 2561
55855 2561
55856 2561
55857 2561
107483 5114
107484 5114
107485 5114
107486 5114
107487 5114
107488 5114
107489 5114
107490 5114
107491 5114
107492 5114
107493 5114
107494 5114
107495 5114
107496 5114
107497 5114
107498 5114
107499 5114
107500 5114
107501 5114
107502 5114
107503 5114
107504 5114
107505 5114
107506 5114
107507 5114
107508 5114
107509 5114
107510 5114
107511 5114
107512 5114
107513 5114
107514 5114
107515 5114
107516 5114
107517 5114
107518 5114
107519 5114
107520 5114
108116 5140
108117 5140
108118 5140
108119 5140
108120 5140
108121 5140
108122 5140
108123 5140
108124 5140
108125 5140
108126 5140
108127 5140
108128 5140
108129 5140
108130 5140
108131 5140
108132 5140
108133 5140
108134 5140
108135 5140
108136 5140
108137 5140
108138 5140
108139 5140
108140 5140
108141 5140
112944 5320
112945 5320
112946 5320
112947 5320
112948 5320
112949 5320
112950 5320
112951 5320
112952 5320
112953 5320
85658 3825
85659 3825
85660 3825
85661 3825
85662 3825
85663 3825
85664 3825
73740 3294
73741 3294
73742 3294
73743 3294
73744 3294
73745 3294
73746 3294
73747 3294
73748 3294
73749 3294
73750 3294
73751 3294
73752 3294
73753 3294
73754 3294
42700 1996
42701 1996
42702 1996
42703 1996
42704 1996
42705 1996
42706 1996
42707 1996
42708 1996
42709 1996
42710 1996
42711 1996
42712 1996
42713 1996
42714 1996
42715 1996
42716 1996
42717 1996
42718 1996
42719 1996
42720 1996
42721 1996
42722 1996
77853 3503
77854 3503
77855 3503
77856 3503
77857 3503
77858 3503
77859 3503
77860 3503
77861 3503
77862 3503
77863 3503
77864 3503
77865 3503
77866 3503
77867 3503
77868 3503
77869 3503
77870 3503
77871 3503
77872 3503
77873 3503
77874 3503
77875 3503
111837 5276
111838 5276
111839 5276
111840 5276
111841 5276
111842 5276
111843 5276
111844 5276
111845 5276
111846 5276
111847 5276
111848 5276
111849 5276
111850 5276
22502 1089
22503 1089
22504 1089
22505 1089
22506 1089
22507 1089
22508 1089
22509 1089
22510 1089
22511 1089
22512 1089
22513 1089
22514 1089
22515 1089
22516 1089
22517 1089
22518 1089
22519 1089
22520 1089
22521 1089
22522 1089
22523 1089
22524 1089
22525 1089
22526 1089
22527 1089
22528 1089
22529 1089
22530 1089
22531 1089
22532 1089
22533 1089
22534 1089
22535 1089
22536 1089
22537 1089
22538 1089
22539 1089
114324 5394
114325 5394
114326 5394
114327 5394
114328 5394
114329 5394
114330 5394
114331 5394
114332 5394
114333 5394
114334 5394
114335 5394
114336 5394
114337 5394
114338 5394
114339 5394
114340 5394
114341 5394
114342 5394
114343 5394
114344 5394
114345 5394
114346 5394
114347 5394
114348 5394
114349 5394
114350 5394
114351 5394
114352 5394
114353 5394
114354 5394
114355 5394
114356 5394
114357 5394
114358 5394
114359 5394
114360 5394
114361 5394
114362 5394
114363 5394
114364 5394
114365 5394
114366 5394
114367 5394
114368 5394
114369 5394
114370 5394
114371 5394
114372 5394
114373 5394
114374 5394
114375 5394
114376 5394
114377 5394
114378 5394
114379 5394
114380 5394
114381 5394
114382 5394
114383 5394
114384 5394
114385 5394
114386 5394
114387 5394
114388 5394
114389 5394
114390 5394
114391 5394
114392 5394
114393 5394
114394 5394
33219 1546
33220 1546
33221 1546
33222 1546
33223 1546
33224 1546
33225 1546
33226 1546
33227 1546
33228 1546
33229 1546
33230 1546
33231 1546
33232 1546
33233 1546
33234 1546
33235 1546
33236 1546
33237 1546
33238 1546
33239 1546
33240 1546
33241 1546
33242 1546
33243 1546
33244 1546
33245 1546
33246 1546
33247 1546
33248 1546
68026 3087
68027 3087
68028 3087
68029 3087
68030 3087
68031 3087
68032 3087
68033 3087
68034 3087
68035 3087
68036 3087
68037 3087
68038 3087
68039 3087
14036 643
14037 643
14038 643
14039 643
14040 643
14041 643
14042 643
14043 643
14044 643
14045 643
14046 643
14047 643
14048 643
14049 643
14050 643
14051 643
14052 643
14053 643
35322 1635
35323 1635
35324 1635
35325 1635
35326 1635
35327 1635
35328 1635
35329 1635
35330 1635
35331 1635
35332 1635
35333 1635
35334 1635
35335 1635
35336 1635
35337 1635
35338 1635
35339 1635
35340 1635
35341 1635
35342 1635
35343 1635
35344 1635
35345 1635
35346 1635
35347 1635
35348 1635
35349 1635
35350 1635
35351 1635
35352 1635
35353 1635
35354 1635
92827 4140
92828 4140
92829 4140
92830 4140
92831 4140
92832 4140
92833 4140
92834 4140
92835 4140
92836 4140
92837 4140
92838 4140
92839 4140
92840 4140
92841 4140
92842 4140
92843 4140
92844 4140
92845 4140
92846 4140
92847 4140
92848 4140
92849 4140
92850 4140
92851 4140
92852 4140
92853 4140
92854 4140
92855 4140
92856 4140
92857 4140
92858 4140
92859 4140
92860 4140
92861 4140
92862 4140
92863 4140
114065 5381
114066 5381
114067 5381
114068 5381
114069 5381
114070 5381
114071 5381
114072 5381
114073 5381
63224 2904
63225 2904
63226 2904
63227 2904
63228 2904
63229 2904
63230 2904
63231 2904
63232 2904
63233 2904
63234 2904
63235 2904
63236 2904
63237 2904
63238 2904
63239 2904
63240 2904
63241 2904
63242 2904
63243 2904
63244 2904
63245 2904
63246 2904
63247 2904
63248 2904
63249 2904
63250 2904
63251 2904
63252 2904
63253 2904
63254 2904
63255 2904
63256 2904
63257 2904
63258 2904
63259 2904
63260 2904
63261 2904
63262 2904
63263 2904
63264 2904
63265 2904
63266 2904
63267 2904
1830 77
1831 77
1832 77
1833 77
1834 77
1835 77
1836 77
1837 77
1838 77
1839 77
1840 77
1841 77
1842 77
1843 77
1844 77
1845 77
1846 77
1847 77
1848 77
1849 77
1850 77
1851 77
1852 77
1853 77
1854 77
1855 77
1856 77
1857 77
1858 77
1859 77
1860 77
1861 77
1862 77
1863 77
1864 77
62969 2895
62970 2895
62971 2895
62972 2895
62973 2895
62974 2895
62975 2895
62976 2895
62977 2895
62978 2895
62979 2895
62980 2895
62981 2895
62982 2895
62983 2895
62984 2895
62985 2895
114231 5391
114232 5391
114233 5391
114234 5391
114235 5391
114236 5391
114237 5391
114238 5391
114239 5391
114240 5391
114241 5391
114242 5391
114243 5391
114244 5391
114245 5391
114246 5391
114247 5391
114248 5391
114249 5391
114250 5391
114251 5391
114252 5391
114253 5391
114254 5391
114255 5391
114256 5391
114257 5391
114258 5391
114259 5391
114260 5391
114261 5391
114262 5391
114263 5391
114264 5391
114265 5391
114266 5391
114267 5391
114268 5391
114269 5391
114270 5391
114271 5391
114272 5391
114273 5391
114274 5391
114275 5391
114276 5391
114277 5391
