1709 1702
1709 1704
40623 40627
40623 40625
96166 96163
62594 62601
90029 90038
112335 112339
96166 96181
71534 71540
18330 18335
114817 114813
113946 113958
14583 14585
3646 3640
114731 114727
67071 67074
3383 3380
113087 113092
112293 112295
37417 37439
112034 112038
112259 112271
20577 20572
20577 20574
24819 24815
57545 57548
77930 77964
114074 114076
45464 45462
111772 111778
833 838
112414 112418
112804 112808
113851 113855
64111 64116
115067 115073
112446 112418
112938 112942
80744 80740
33070 33105
33070 33108
113126 113130
96296 96305
33487 33490
114173 114178
112574 112580
112341 112344
22339 22315
3377 3375
92151 92156
18639 18641
111378 111376
113274 113278
115179 115193
112449 112428
112040 112051
113644 113656
1927 1915
68172 68161
45501 45475
2211 2218
14535 14540
24988 24983
114449 114441
112458 112475
115141 115167
111698 111703
34317 34330
111166 111173
41909 41891
22492 22500
6952 6966
6952 6964
42027 42025
70603 70641
113396 113400
24505 24501
64795 64793
31870 31862
113598 113602
113987 113991
114857 114854
62419 62424
62419 62422
112145 112151
17350 17355
36736 36734
112045 112051
2854 2859
114746 114749
41081 41093
54236 54235
64805 64793
67265 67248
96299 96305
112718 112723
113716 113719
113023 113030
112290 112295
112446 112428
111455 111463
39449 39454
114278 114282
113631 113635
45477 45475
112444 112428
16249 16257
113291 113303
29876 29883
6021 6019
114484 114494
113467 113472
72143 72117
33083 33105
52350 52352
33083 33108
40388 40386
10847 10845
2854 2861
68959 68955
45490 45492
112414 112428
111801 111806
41729 41736
112449 112418
36716 36718
99613 99611
111574 111579
82865 82885
92950 92952
92010 91986
111977 111982
111245 111251
24437 24435
95716 95723
112754 112758
112049 112051
50647 50652
56919 56922
113142 113147
72174 72176
34317 34343
93737 93674
111751 111744
18261 18259
24894 24888
113360 113371
114504 114533
60749 60746
113813 113818
92589 92617
22189 22183
111587 111591
24769 24767
56587 56582
112976 112994
10455 10483
36767 36765
40126 40131
10041 10043
82933 82929
25218 25243
36534 36532
98207 98205
89811 89799
79230 79222
111200 111191
112659 112663
82933 82955
65308 65307
41877 41885
11992 11987
11608 11610
99960 99966
111425 111436
54153 54155
54153 54158
111787 111791
42027 42060
14662 14664
20544 20546
50805 50814
58868 58873
4362 4364
114225 114229
27656 27654
99028 99030
22125 22132
98207 98211
112605 112617
72143 72149
113996 114000
111888 111881
113429 113433
11583 11588
33078 33108
33078 33105
72143 72151
50915 50914
28098 28115
111220 111211
112412 112428
112904 112902
111511 111515
114723 114727
112404 112409
36475 36473
62594 62598
114469 114473
90080 90114
37407 37404
42107 42125
31870 31860
115084 115087
45286 45307
27986 27998
54161 54158
198 191
64799 64793
45657 45655
58130 58140
64325 64323
53011 53009
8390 8395
54146 54143
65018 65023
111169 111173
113575 113579
42107 42127
50439 50445
50439 50447
34123 34121
113528 113533
29579 29582
26973 26971
112879 112883
112444 112418
8334 8336
113312 113328
1912 1915
113792 113797
64325 64332
93376 93384
113066 113075
92103 92105
40079 40077
114011 114016
42859 42861
113621 113625
45787 45789
112833 112825
92420 92423
112702 112706
17878 17885
17878 17887
6124 6119
114289 114298
113026 113030
65010 65023
28800 28792
114535 114547
1660 1665
71525 71531
77930 77939
58776 58791
112412 112418
6500 6513
33074 33108
33074 33105
113967 113979
114111 114117
68971 68964
114195 114199
4241 4237
50604 50611
18376 18374
36575 36570
24441 24439
91373 91375
30440 30447
6101 6099
112279 112283
72648 72639
114028 114032
112668 112679
113665 113676
6195 6190
59087 59091
113501 113506
28853 28856
56478 56505
114771 114781
75010 75012
114698 114717
112487 112492
14241 14238
88396 88398
113588 113592
113340 113345
23147 23144
114652 114665
111948 111959
18639 18635
18330 18325
114132 114136
