96441 96432
96040 96038
62712 62716
62712 62714
115047 115063
20715 20717
113680 113691
112204 112210
113096 113118
4348 4359
111613 111618
113440 113445
31414 31400
77008 77020
111483 111494
111541 111546
113409 113421
1936 1949
113695 113699
113163 113168
111970 111975
31461 31400
2148 2146
113761 113759
112948 112952
113477 113482
92855 92836
111634 111639
112958 112962
31442 31400
26533 26542
64169 64187
49676 49680
23092 23097
17315 17320
111527 111531
31372 31369
23075 23080
43049 43046
111714 111720
37811 37820
51376 51383
113004 113010
114348 114361
93122 93114
2035 2038
20100 20087
51799 51801
1070 1087
114183 114187
112787 112783
20100 20098
45762 45764
34043 34055
11562 11567
114260 114244
1940 1949
1832 1834
54899 54903
100072 100068
66466 66481
113285 113289
111896 111913
111650 111644
44007 44011
113898 113896
57363 57361
114104 114109
33509 33507
111308 111319
6177 6173
113372 113376
45806 45804
33576 33583
33576 33581
114414 114418
113174 113186
114733 114744
111839 111844
112061 112067
113859 113857
22778 22781
2183 2196
114736 114744
22666 22676
64198 64206
45745 45747
12621 12628
67098 67123
67098 67126
15964 15962
113443 113445
77008 77018
115245 115247
16500 16498
114348 114364
12614 12628
114348 114367
58923 58929
58923 58927
111148 111153
51376 51374
114069 114073
34060 34071
92776 92787
2130 2146
20100 20121
34060 34068
