33777 33787
12096 12092
19399 19402
17012 17018
64128 64126
89037 89043
49555 49579
23966 23977
16220 16234
65343 65341
33377 33381
38573 38576
12227 12239
1043 1048
26533 26545
78133 78140
9177 9181
17020 17022
46733 46738
82738 82761
17315 17318
39806 39809
45509 45507
33220 33227
70785 70795
93122 93117
31322 31319
1146 1149
74927 74932
28519 28521
35341 35339
25963 25961
34875 34884
55831 55834
32988 32995
76133 76143
76133 76141
32610 32617
67672 67677
77864 77860
26555 26553
89342 89350
1154 1157
63255 63261
63255 63263
54048 54057
77864 77856
44007 44024
65456 65453
65456 65451
100610 100609
100610 100606
38272 38276
40374 40372
93122 93119
11574 11581
8292 8290
27876 27880
32281 32284
1252 1255
17020 17008
62984 62982
33984 33995
56695 56693
58923 58925
62285 62283
100072 100070
99515 99522
82076 82081
101247 101253
78907 78915
23868 23875
26573 26570
61473 61479
