54426 54440
40542 40561
40542 40563
114624 114643
111395 111406
75947 75956
112520 112523
62741 62745
62741 62743
99116 99102
65441 65438
112691 112696
75947 75967
114205 114209
89937 89940
95334 95342
113827 113831
112114 112120
67170 67182
113452 113456
112854 112859
113226 113224
31172 31177
40542 40541
48957 48964
10879 10877
59047 59049
661 693
113512 113516
115209 115212
95760 95768
96055 96057
67170 67191
111597 111601
7438 7458
54426 54415
87533 87535
113198 113205
41162 41164
59968 59932
38202 38207
38202 38209
114606 114622
40517 40539
68398 68396
36062 36060
95334 95336
3978 3974
96347 96377
26827 26823
114667 114685
36947 36950
36947 36952
36947 36955
54422 54424
99118 99102
114907 114909
98752 98745
68142 68150
53783 53781
111289 111294
98147 98156
64483 64465
40517 40541
114973 114988
68142 68144
62523 62531
64480 64471
115102 115106
64483 64471
114572 114585
62523 62529
60586 60580
64480 64465
22022 22030
3976 3974
111831 111835
111178 111182
112238 112250
115006 115010
37957 37971
113936 113941
112326 112330
112532 112534
92258 92263
113550 113555
112023 112027
112387 112392
113351 113355
59968 59945
62633 62630
113252 113257
112299 112311
75358 75360
114051 114063
111345 111353
76067 76082
114624 114633
54416 54415
93854 93876
113925 113930
66143 66147
37947 37954
113038 113041
111300 111306
112634 112639
57482 57480
