96441 96432
96040 96038
62712 62716
62712 62714
1709 1702
115047 115063
1709 1704
40623 40627
40623 40625
96166 96163
62594 62601
20715 20717
112335 112339
113680 113691
96166 96181
112204 112210
18330 18335
113096 113118
4348 4359
114817 114813
111613 111618
113440 113445
14583 14585
31414 31400
3646 3640
114731 114727
3383 3380
113087 113092
112034 112038
112259 112271
20577 20572
20577 20574
24819 24815
77930 77964
45464 45462
77008 77020
111772 111778
112804 112808
111483 111494
111541 111546
113851 113855
64111 64116
115067 115073
112938 112942
113409 113421
80744 80740
113126 113130
1936 1949
114173 114178
113695 113699
112574 112580
22339 22315
3377 3375
92151 92156
18639 18641
113163 113168
111970 111975
113274 113278
115179 115193
31461 31400
1927 1915
2148 2146
14535 14540
113761 113759
112948 112952
24988 24983
113477 113482
114449 114441
92855 92836
112458 112475
115141 115167
111698 111703
111634 111639
34317 34330
111166 111173
41909 41891
6952 6966
6952 6964
42027 42025
112958 112962
70603 70641
31442 31400
24505 24501
31870 31862
26533 26542
113987 113991
62419 62424
62419 62422
112145 112151
17350 17355
36736 36734
64169 64187
2854 2859
41081 41093
54236 54235
67265 67248
112718 112723
49676 49680
113716 113719
23092 23097
17315 17320
113023 113030
111455 111463
111527 111531
113631 113635
16249 16257
29876 29883
31372 31369
23075 23080
114484 114494
43049 43046
72143 72117
52350 52352
40388 40386
10847 10845
2854 2861
68959 68955
111714 111720
37811 37820
51376 51383
41729 41736
113004 113010
99613 99611
111574 111579
114348 114361
92010 91986
93122 93114
111977 111982
111245 111251
2035 2038
24437 24435
20100 20087
112754 112758
50647 50652
56919 56922
113142 113147
72174 72176
34317 34343
51799 51801
93737 93674
111751 111744
113360 113371
1070 1087
60749 60746
113813 113818
114183 114187
22189 22183
111587 111591
24769 24767
56587 56582
10455 10483
36767 36765
40126 40131
10041 10043
25218 25243
36534 36532
112787 112783
98207 98205
20100 20098
89811 89799
79230 79222
111200 111191
112659 112663
65308 65307
45762 45764
34043 34055
11562 11567
114260 114244
11992 11987
11608 11610
99960 99966
111425 111436
1940 1949
54153 54155
54153 54158
1832 1834
42027 42060
20544 20546
54899 54903
100072 100068
66466 66481
113285 113289
114225 114229
27656 27654
111896 111913
111650 111644
99028 99030
98207 98211
72143 72149
44007 44011
113898 113896
57363 57361
114104 114109
33509 33507
72143 72151
50915 50914
111220 111211
112904 112902
111511 111515
114723 114727
111308 111319
112404 112409
62594 62598
114469 114473
6177 6173
37407 37404
113372 113376
31870 31860
115084 115087
45806 45804
45286 45307
27986 27998
54161 54158
198 191
45657 45655
58130 58140
64325 64323
33576 33583
33576 33581
114414 114418
113174 113186
53011 53009
8390 8395
54146 54143
114733 114744
111839 111844
112061 112067
65018 65023
113859 113857
111169 111173
22778 22781
113575 113579
50439 50445
50439 50447
2183 2196
34123 34121
114736 114744
113528 113533
22666 22676
64198 64206
112879 112883
45745 45747
8334 8336
113312 113328
1912 1915
113792 113797
12621 12628
64325 64332
93376 93384
113066 113075
92103 92105
114011 114016
42859 42861
45787 45789
112833 112825
67098 67123
67098 67126
92420 92423
112702 112706
17878 17885
17878 17887
15964 15962
114289 114298
113443 113445
113026 113030
65010 65023
77008 77018
114535 114547
115245 115247
77930 77939
16500 16498
114348 114364
12614 12628
114348 114367
113967 113979
114111 114117
58923 58929
58923 58927
111148 111153
51376 51374
114069 114073
68971 68964
50604 50611
34060 34071
18376 18374
36575 36570
24441 24439
91373 91375
92776 92787
30440 30447
6101 6099
2130 2146
112279 112283
72648 72639
112668 112679
113665 113676
113501 113506
28853 28856
56478 56505
75010 75012
20100 20121
114698 114717
112487 112492
88396 88398
113340 113345
114652 114665
111948 111959
18639 18635
18330 18325
34060 34068
