105497
105501
105504
105506
70391
70393
70395
70397
70404
70407
70408
104375
104379
104383
104386
104387
104388
28642
28644
28647
28650
28652
28655
28656
28666
28668
28670
28679
28680
28687
26009
26010
26011
26014
26017
26020
26023
26025
26029
26035
26041
26042
102610
102613
102615
102617
102620
102624
102630
102632
87685
87686
18152
18154
18156
18160
109441
109445
109447
109450
109453
109456
70388
70389
104855
104862
104864
104867
104870
104874
60401
60405
60410
60414
8390
8393
8395
8398
8400
8405
8410
8417
8422
8425
7524
7526
7528
54079
54083
54086
54091
54096
54099
54102
54103
54105
18322
18323
18325
18327
18329
18330
18335
18339
18341
18347
14731
14733
14737
14741
14747
113062
113066
113070
113074
113075
41790
41791
41795
41797
41801
41806
41810
100392
100393
100394
100397
100398
100399
100403
100406
100409
100410
100411
100412
100413
100420
100424
100426
100428
100429
100431
87202
87204
87205
87206
87210
87211
87215
87218
87223
87225
87228
87233
87235
87236
60844
60847
60850
53797
53799
53801
50604
50610
50611
50612
50614
50620
50622
29954
29955
29957
29960
29961
29967
29972
29973
29977
19963
19970
19972
19976
19978
19983
19986
92522
92524
92525
92526
92528
92529
92535
92537
92539
92544
92547
92551
3154
3156
108446
108451
108452
108460
108462
108466
108469
108470
37374
37379
37385
37387
37392
37396
37398
37399
37404
37405
37406
37407
37410
37411
37412
56478
56481
56484
56486
56489
56492
56495
56498
56499
56502
56505
56508
56512
56513
17130
17133
17135
17138
17139
17143
17146
17147
17148
106664
106667
106668
106669
106670
106674
106677
106680
106683
106691
113137
113140
113142
113147
82219
82221
82224
72372
72374
72376
72378
72381
72386
72388
72391
72393
72397
72399
72403
72407
72409
72411
72414
72416
72418
119242
119245
119251
119254
119256
119258
119259
79220
79222
79224
79226
79229
79230
79235
79237
79241
79244
79245
109129
109133
109137
109139
109143
109145
109147
21130
21135
21136
21140
21142
21146
21151
21155
21157
21159
21160
21164
48775
48776
48780
48783
48786
48792
48797
48799
114484
114488
114494
114500
114502
34306
34309
34310
34317
34321
34327
34330
34336
34343
3375
3377
3380
3382
3383
3386
3388
3391
3394
3395
3398
3400
22913
22916
22918
22921
22923
22927
22931
33600
33603
33604
33606
33607
33608
33620
33623
33628
108868
108871
108873
108876
108877
108879
108882
108886
108888
108890
10455
10459
10462
10468
10471
10475
10476
10480
10483
10484
10489
10493
10496
10501
32714
32715
32719
32723
32726
32729
32731
32733
32735
32739
32744
32747
32748
32751
32754
32755
10365
10372
10374
10376
10379
10380
10384
111009
111011
111012
111014
111016
111018
111019
111023
56353
56358
56362
56363
56365
56368
36734
36735
36736
36741
36744
36747
36750
36755
36757
36760
36763
94536
94537
94538
94541
94542
103976
103981
103985
103988
103992
103999
104011
91366
91369
91370
91373
91375
91380
91386
91387
105080
105084
105090
105092
105102
105104
105108
105112
105113
105116
62418
62419
62422
62424
62426
62435
62436
62440
62444
62446
62448
62450
51244
51246
51247
51248
51250
51252
13133
13135
13140
13144
13145
13147
13149
13151
89782
89784
89786
89788
89791
89793
89795
89798
89799
89802
89803
89804
89805
89807
89810
89811
89816
89819
89824
89830
89835
89840
89842
89845
88861
88867
88870
88872
88874
100475
100478
100479
100481
100482
100487
100489
100498
100501
100502
100503
3114
3116
3118
37740
37746
37747
37753
37757
37765
37767
37770
37774
37779
37784
52996
53004
53007
53010
53011
53014
53015
53019
53022
16321
16323
16325
60280
60285
60289
60291
60294
60296
86281
86282
86283
86285
86286
86287
107932
107934
107936
107939
107944
107951
107955
107960
107964
107966
107968
72852
72856
72857
72858
72859
72860
72861
72862
72864
72865
72866
30432
30438
30440
30442
30445
30447
54126
54131
54132
54135
54139
54140
54143
54144
54145
54146
108037
108043
108047
108052
99127
99133
99134
99136
99144
36958
36960
36962
36963
36969
36973
36975
36980
36984
36988
45655
45656
45657
45666
45667
45676
45678
113123
113125
113126
113130
108772
108775
108780
108782
108784
108788
108789
108791
108801
108803
108807
108812
108814
68156
68157
89003
89004
89005
89008
89009
105627
105629
105631
105639
105645
105649
105652
105654
53679
53680
53683
53686
53687
53690
53693
53697
53700
53701
53703
92086
92089
92091
92093
92096
92098
92102
92103
92105
92109
92112
92116
8574
8577
8578
8582
8585
8592
8594
8603
8605
8607
8610
108016
108019
108022
108024
108026
108034
12241
12247
12248
12249
12253
12258
12265
12267
12268
12273
12276
12285
12286
12290
12292
12293
76196
76199
76207
76209
76212
76213
76214
109092
109096
109098
109104
109107
109108
109119
109122
111166
111169
111173
77930
77933
77936
77939
77940
77944
77947
77949
77951
77957
77960
77964
77965
43213
43218
43223
43225
43228
43232
43235
43238
43239
43241
68371
68373
68374
68375
68377
68378
68379
68380
68381
68382
68383
68384
68385
68387
68388
68389
68390
106164
106165
106166
106169
106172
106175
106178
106180
106183
106188
106189
106193
111100
111103
111109
111111
111115
111118
111120
111124
111125
111127
111129
102637
102638
102639
102642
102643
32853
32856
32857
32863
32864
32867
32869
32875
32878
32881
32883
32885
3130
3132
111184
111188
111191
111194
111195
111198
111200
10504
10507
10510
10515
10521
10528
45285
45286
45288
45294
45298
45305
45307
45308
105224
105228
105235
105238
105240
50896
50901
50905
50911
50912
50914
50915
50919
50920
114441
114443
114449
114456
114458
114461
114467
52923
52930
52931
52933
52935
52941
52944
11112
11117
11124
11126
111584
111586
111587
111591
83647
83648
83651
83653
83655
83656
83657
83658
83659
83660
83663
83664
36513
36518
36530
36532
36534
36542
36544
36547
87197
87198
87199
111423
111424
111425
111427
111432
111435
111436
111439
111445
111448
111449
111452
28751
28761
28765
28767
28774
12788
12790
60476
60478
60481
60485
60492
60495
60497
60501
60502
60504
110378
110379
110380
110382
110384
110385
110388
110389
110390
110393
110395
113700
113709
113713
113716
113719
113720
113726
113730
113731
113735
113738
113744
113747
52125
52129
52132
52135
52136
52138
52144
52146
52148
80738
80740
80741
80742
80744
80748
80751
80753
80758
80760
80762
80765
80766
113523
113526
113528
113533
95792
95795
95797
95804
95806
95810
95812
112803
112804
112808
39701
39703
39704
39706
39707
39713
39716
39718
39720
39724
17873
17876
17878
17880
17882
17885
17887
17891
17894
17897
17901
17903
93960
93961
93962
93968
93972
93974
93976
93977
93980
93984
93987
93993
107142
107147
107149
107152
107155
107159
107160
107163
107166
64927
64929
64931
64934
64941
64944
64945
64947
64950
64951
64953
65112
65119
65122
65126
65129
65132
65136
65138
65144
65148
65152
65153
65155
76640
76643
76654
76657
76660
76665
76667
76671
76674
76679
76683
108184
108188
108190
108192
108197
108198
108202
98430
98432
98443
98446
98448
98450
98455
98457
98465
98466
98468
43395
43397
43399
36765
36766
36767
36774
36779
36781
36785
36787
112398
112399
112402
112404
112409
19438
19442
19445
19447
19451
19453
19455
19458
19459
19460
19461
19464
19467
19468
65239
65242
65244
65246
65248
65250
65254
65255
65261
65263
65264
74997
74998
74999
75000
75004
75005
75006
36002
36005
36010
36011
36015
36018
36024
36025
36029
106441
106447
106449
72637
72639
72641
72643
72647
72648
72649
72653
72656
72657
72661
72663
72666
72669
100120
100121
100122
78007
78009
78016
78019
78021
78023
78025
78028
12559
12563
12565
12568
12569
12574
12577
15335
15339
15342
15352
15353
15358
15365
15370
15373
15376
15378
15379
15381
15385
15388
15389
15392
92142
92146
92148
92149
92151
92156
92161
92166
92169
92171
92179
92184
92186
92187
92190
92194
98235
98236
105243
105246
105251
105257
105260
105261
105268
105279
105283
105285
108554
108558
108559
108561
108562
108563
108564
108569
108573
108575
68955
68957
68959
68964
68968
68971
68972
68977
68978
68985
68987
68993
69001
69003
114698
114701
114705
114712
114715
114717
114721
21404
21406
114211
114213
114215
114218
114223
114224
114225
114229
34735
34737
34742
34743
34745
34747
34750
34752
34753
34755
28840
28845
28851
28853
28856
28857
28860
28861
28864
28867
28870
28871
84248
84249
84250
84255
84261
84263
84264
84268
84269
84270
84273
84275
84280
84282
84283
84288
84291
84296
35131
35133
35139
35140
35141
35142
35145
35148
35149
108692
108696
108698
108700
108705
107981
107983
107987
107990
107992
107995
107998
108000
108324
108327
108334
108337
108340
90357
90362
90367
90369
90373
90377
90378
90383
90386
90393
90394
90401
86332
86333
86335
86337
86339
86344
86346
86347
86350
86352
86356
86357
86360
86362
86366
86369
86372
86377
86380
86383
86386
86389
86392
86396
86398
86402
86406
86409
30383
30385
103670
103671
36819
36821
36823
61928
61930
61945
61947
61949
61950
61952
61955
61959
61962
61964
61965
61968
61971
61974
53337
53339
53342
53344
53345
53346
53348
53454
53462
53473
53474
53475
53476
13533
13537
13539
13544
13548
13551
13552
13553
13555
13556
13558
13561
13567
13570
13580
13581
13582
13584
13587
31379
31381
31382
31384
18635
18636
18638
18639
18641
18643
18646
18649
18653
18663
18664
18669
18673
34889
34894
34896
34900
34904
34907
34910
34913
34915
34920
34924
34927
34929
34933
34934
34938
34940
34941
34944
34951
34953
34954
86291
86293
86295
86297
86299
86301
86303
86307
86311
86314
86315
86317
86320
86321
86322
86326
86329
64212
64213
64216
64218
64220
64223
64224
64227
64230
64234
64238
64241
64244
64246
64249
64253
64255
64260
64263
64265
64267
64269
64275
64278
64281
64282
64283
64286
64288
64291
64294
64295
64296
64299
64301
64304
64307
64309
64310
64314
64316
65487
65489
65493
65495
65497
65500
65510
65513
65515
107028
107031
107033
107035
107040
107043
107044
107045
98192
98194
98196
98199
98203
98205
98207
98209
98211
98215
98217
98220
113496
113499
113501
113506
99023
99028
99030
49468
49469
49470
49472
49480
49482
49484
20846
20850
20853
20856
20862
20864
20867
20869
104662
104670
104671
104673
104681
104683
104691
96154
96156
96158
96160
96163
96165
96166
96168
96169
96170
96173
96174
96176
96177
96178
96181
96183
96184
96187
96190
96192
54149
54153
54155
54158
54159
54160
54161
108577
108579
108581
108587
108590
108594
108599
108604
108607
108608
108611
108618
108620
108624
50954
50955
50956
50960
50965
50971
50978
50985
108495
108499
108502
108505
108507
40619
40621
40622
40623
40625
40627
40631
40635
40638
40639
40644
40646
40647
40649
112481
112482
112485
112487
112492
109763
109769
109771
109774
109781
109784
109786
109787
8330
8331
8334
8336
8337
8344
8346
8347
8354
8355
8356
8359
84412
84414
84417
84418
84419
84421
84424
84427
84430
84432
84435
84441
84448
84449
84456
84458
106464
106469
106479
106482
106483
106484
106490
106493
55287
55288
55300
55306
55311
55312
55313
55314
24439
24440
24441
24443
24445
24447
24450
24451
24453
24460
24464
24468
24469
106196
106199
106201
106211
106217
24767
24769
24776
24781
24783
31760
31761
31764
31766
31768
31770
107371
107372
107377
107379
107381
107382
107383
107386
107388
107393
107394
38665
38669
38671
38674
38676
38678
56215
56218
56221
56223
56225
56226
56228
56232
56236
56238
56240
39611
39617
39621
39624
39628
39632
39636
39639
39641
39643
39644
107047
107049
107051
7541
7545
7547
7551
7552
7553
7559
7560
7561
62133
62134
62136
62139
62141
62146
62150
62151
62152
62155
62157
113801
113808
113811
113813
113818
109182
109183
109187
109188
109193
109196
109198
109204
39403
39405
39407
39412
39415
39422
39423
2301
2305
2309
2314
2317
2319
2322
2327
2331
2334
87775
87782
87783
87784
87788
87791
87798
87800
87802
112139
112141
112143
112144
112145
112151
112156
112157
112164
112171
112179
112187
112189
112190
112195
112197
34121
34122
34123
34127
34130
34132
34142
34145
34148
34150
94329
94330
94331
94334
94335
73953
73954
75551
75553
75554
75555
75557
75558
75559
75560
75562
75563
75564
75568
75569
75570
111977
111980
111982
111987
111994
111997
111999
112004
112006
112014
112015
112016
112017
104697
104701
104707
104708
104710
104713
104716
104722
104724
104728
104729
104734
104737
104740
191
192
195
197
198
202
207
209
212
59824
59834
59835
59839
59847
59853
59855
7127
7130
7132
7140
7144
7145
7146
37786
37790
37793
37796
37798
37800
37802
37805
37807
37810
110703
110708
110710
110713
110716
110718
110721
110726
110730
110734
110736
110740
55927
55933
55937
55940
55941
55946
55948
55951
55954
55957
114535
114537
114538
114542
114547
114553
114554
114560
114563
114565
64340
64341
16216
16218
28990
28991
28992
28995
28996
28997
29000
29002
29005
29012
112738
112740
112742
112745
112751
112753
112754
112758
105601
105604
105608
105611
105612
105613
105616
105617
105620
105622
105624
39062
39065
39066
39072
39073
39077
39078
39086
39089
39090
39092
39094
3839
3841
11130
11132
97223
97225
97227
97229
97233
97234
97237
97240
97242
97245
97248
97250
97253
97255
97257
97260
97263
97271
97272
97275
97277
26415
26416
26417
26419
26422
26425
26426
26429
26430
26434
26440
26442
26443
26446
26447
26450
26452
26453
112254
112259
112263
112266
112271
20557
20560
20564
20566
20572
20574
20577
20580
20582
20584
20586
20587
20589
20591
76716
76718
76719
76722
76725
76726
76729
76730
76731
76734
76737
76738
76739
4396
4398
4400
4403
4405
4411
68890
68893
68894
68895
68896
68897
68898
68901
68902
68903
68904
68908
68909
68910
112900
112902
112904
112906
112912
112914
112916
112919
112921
112923
112927
112930
109826
109828
109831
109834
109838
109840
109848
109849
109853
109857
109862
109865
109869
109871
109872
109233
109236
109239
109243
109254
109260
109264
109266
109268
109271
109274
109281
109285
53479
53480
53488
53491
53496
53499
53500
53503
53505
53506
9755
9758
9759
9764
9765
9774
9777
9779
9781
110916
110919
110922
110925
110930
110932
110935
110936
110937
110942
19854
19857
19860
19864
19867
19872
19876
19883
19885
114469
114473
114476
114479
114482
114483
6949
6951
6952
6957
6960
6964
6966
6968
104957
104961
104963
104965
104969
104973
104976
104979
104981
104983
30954
30962
30963
30973
30978
30980
30982
115084
115087
115088
115094
115095
115099
19253
19257
19258
19261
19264
19266
19269
62594
62598
62599
62601
62606
62607
62610
62612
62619
62623
102590
102591
85592
85593
85594
85596
85597
85598
107850
107852
107854
107858
107860
107863
107865
107870
107872
107875
107877
105734
105736
105741
109789
109793
109795
109800
109801
88167
88168
88169
88170
88171
88173
88182
88184
88190
88193
88194
88195
88200
88201
88206
88209
88211
55783
55784
55788
55792
55797
55799
55801
55804
55807
104603
104604
104607
104608
104610
104616
104619
104622
104627
104632
104636
103351
103353
103355
103358
103359
103362
103367
103368
103375
103376
54234
54235
54236
54241
54244
54248
54265
54267
54268
54270
42857
42859
42861
42866
42870
42872
42875
42878
42879
42884
79339
79344
24332
24334
24336
24339
24341
24343
24344
24346
24347
24351
24354
24357
24360
24368
24370
67930
67931
1776
1780
1782
1784
1787
1791
110614
110615
110617
110622
110626
110629
110631
110634
110636
110638
110642
110645
110648
73456
73457
73459
73464
73466
73471
73474
73476
73477
73479
73482
73486
73491
73492
87588
87589
30620
30625
30635
30637
30638
30641
30642
23671
23675
23678
23682
23683
23690
23693
84313
84314
4104
4106
4111
4114
4119
4123
111511
111515
111519
111522
111728
111730
111732
111734
111735
111737
111740
111744
111747
111751
111754
111758
111759
56918
56919
56922
56923
56935
56937
56938
56939
56941
56943
56946
56951
3075
3077
3079
3082
3084
38933
38935
38937
38938
38940
93667
93669
93674
93676
93678
93680
93682
93684
93686
93688
93690
93692
93694
93696
93698
93700
93702
93704
93706
93708
93710
93711
93713
93719
93723
93730
93732
93733
93735
93737
93744
93752
93754
93757
110293
110300
110303
110306
110309
110313
110319
110321
110322
110324
110326
74478
74481
74482
74483
74484
74485
74486
74489
74490
16241
16242
16245
16247
16249
16252
16257
16261
16262
16266
16268
16270
16272
105536
105538
105542
105545
105547
105548
105551
105555
105558
64003
64006
64010
64014
64019
64022
64032
64035
64038
64040
64042
112668
112671
112674
112679
14563
14566
14569
14570
14574
14575
14579
14583
14585
14591
63049
63050
63059
63063
63069
63071
63076
63078
63079
63085
63086
63088
63091
63092
63095
63098
63100
63106
63110
108104
108106
108109
108111
84363
84366
84368
84373
84374
84377
84379
84380
84383
84387
84389
84393
84396
104391
104394
104398
104400
104404
104407
104412
106635
106639
106643
106649
106651
106655
106658
113096
113098
113102
113109
113111
113118
10813
10815
35453
35455
35459
35462
108657
108661
108664
108667
104911
104913
104915
104918
104922
104933
104935
104938
104940
104944
104951
104953
56074
56079
56082
45743
45744
45745
45747
45754
45757
45759
45761
45762
45764
45775
45777
45781
45785
37811
37814
37816
37818
37820
37831
37833
37836
37838
37840
65329
65330
65337
65338
65339
65341
65342
65343
1043
1046
1048
30590
30592
30594
30601
30602
30604
30606
30608
30612
30614
30616
82844
82845
84653
84654
94155
94156
15944
15949
15953
15956
15960
15962
15963
15964
111608
111611
111613
111618
22651
22658
22661
22666
22670
22676
22677
32586
32588
32594
32595
32596
32601
32603
32604
32607
32610
32614
32617
32620
32621
108817
108820
108822
108828
108830
108832
108833
108834
108837
108838
108840
108846
108850
108852
108856
108859
108863
108865
35164
35166
51365
51370
51372
51374
51375
51376
51380
51381
51384
51388
51390
51392
51395
51396
51401
51411
51413
51415
51423
51429
51431
1064
1065
1069
1070
1073
1078
1079
1085
1087
1088
108088
108091
108094
108095
108096
108101
108102
16498
16499
16500
16503
16507
16512
16516
16518
16524
16527
16529
16530
83327
83328
31818
31820
31824
31825
31830
31831
31839
113477
113480
113482
113485
113487
113489
104773
104776
104778
104784
104786
22574
22579
22582
22583
22590
22596
22597
22598
104641
104645
104648
104650
107835
107837
107839
107843
107847
107849
49554
49555
49557
49559
49564
49572
49574
49579
49586
49590
49592
27876
27880
27887
27888
27892
27893
27894
27896
34056
34058
34060
34065
34068
34069
34071
34075
34083
8287
8290
8292
8304
8307
8309
8312
102583
102584
102585
102588
102589
106019
106021
106023
106024
106026
106030
106032
106039
106043
106047
106055
54048
54055
54057
31354
31356
31358
74249
74251
74253
74255
74257
74261
74265
74269
74272
74274
74277
74279
74280
107333
107334
107338
107341
107342
107350
107351
107353
107355
107357
89342
89350
113438
113439
113440
113443
113445
95700
95701
95702
95704
95705
95706
33574
33576
33581
33583
33587
33591
33596
33599
88382
88383
88384
88386
88387
88388
108002
108003
108005
108009
61473
61476
61479
61482
61485
61489
61491
12092
12093
12094
12096
12101
12104
12106
12111
12114
12115
12117
12118
108068
108074
108076
108077
108078
108080
108083
108087
99476
99480
99487
99489
99493
99501
99509
99511
99512
99514
99515
99516
99517
99519
99522
99527
99529
99530
114733
114736
114738
114744
56676
56679
56681
56685
56689
56693
56694
56695
56699
107730
107735
107736
107740
107741
107742
107747
107750
107753
98003
98005
98010
98012
98019
98022
98026
98029
98032
98033
98036
98039
114182
114183
114187
114396
114400
114404
114406
114407
114412
114414
114417
114418
114419
114422
114424
114427
114431
114433
114436
114437
33497
33499
33502
33507
33508
33509
4334
4336
4338
4339
4346
4348
4354
4359
38559
38566
38569
38570
38573
38576
38577
8104
8106
105122
105127
105128
105129
105131
105133
105134
105138
2012
2016
2026
2029
2030
2035
2036
2038
2039
2042
2046
2049
57390
57392
57395
57404
57406
57408
57412
57416
20082
20087
20090
20095
20096
20098
20099
20100
20110
20113
20116
20119
20121
55809
55812
55814
55817
55820
55823
55827
55828
55831
55834
124948
124949
124952
124955
124956
124958
124961
101214
101216
101217
101219
101221
101222
101224
101229
101232
101234
101238
101242
101246
101247
101250
101253
26503
26504
26507
26510
26511
26520
26525
26526
26530
26533
26536
26537
26540
26542
26545
26547
26548
26549
111967
111968
111970
111975
22881
22887
22891
22893
22894
22897
22902
22904
22908
22910
22912
88390
88391
113680
113683
113686
113691
1252
1255
1256
1257
1263
1265
1272
1274
1280
1281
113172
113174
113176
113179
113181
113186
113189
113192
113194
113195
113196
78107
78108
78109
78117
78121
78125
78128
78129
78131
78133
78137
78140
58793
58798
58802
58804
58807
58814
58815
58820
58823
11562
11567
11574
11577
11580
11581
109953
109957
109962
109964
109971
109974
109978
109979
109983
109988
109991
75571
75572
77008
77011
77014
77018
77020
77026
77029
77031
77033
77036
106748
106752
106754
106757
106760
106764
92765
92769
92772
92773
92774
92776
92778
92781
92782
92784
92787
92792
92794
92797
92798
92799
92802
92805
92808
92809
6173
6175
6177
6181
6187
89201
89204
89206
89209
89212
89215
89218
89221
89224
89227
89231
89234
89237
89241
89244
89245
89249
89253
89256
96887
96889
96891
96893
96897
96899
96904
96908
96910
96913
96916
96918
96924
96925
96929
96931
96935
46717
46722
46730
46733
46735
46738
31360
31363
31367
31369
31370
31371
31372
31374
54899
54901
54903
54906
54907
54913
54914
54915
54919
54922
54923
54926
54929
42522
42525
42526
42528
42535
42539
42540
103143
103144
103145
103147
103150
103151
103152
44005
44007
44011
44015
44019
44022
44024
44027
111483
111487
111490
111493
111494
111497
111501
111503
111505
111509
57361
57362
57363
57372
57373
57382
57384
66395
66399
66402
66404
66406
66412
66420
66423
66425
66428
66431
66433
66441
66445
66453
66455
66459
66466
66471
66475
66478
66481
66486
66489
66491
66495
89013
89016
89019
89022
89024
89030
89032
89034
89037
89040
89043
26570
26571
26572
26573
26581
26584
26587
26589
26590
107430
107439
107444
107451
107453
33984
33988
33991
33992
33995
23966
23969
23972
23974
23977
23980
23982
23985
23995
23996
56027
56029
56031
104816
104822
104825
104828
53633
53635
53640
53643
108165
108169
108177
108180
108182
111527
111531
111539
111540
78894
78898
78906
78907
78910
78912
78915
25939
25945
25956
25961
25962
25963
38747
38751
38754
38758
38760
38762
38767
38769
38771
38774
38776
60552
60554
60556
108343
108346
108353
108356
108359
108363
108364
80698
80700
80706
80707
80711
80715
111896
111904
111906
111908
111913
11897
11898
11901
11904
11905
11908
11911
11913
11914
11916
11919
11921
11923
11926
11927
11928
11930
11932
23863
23868
23871
23873
23875
23879
110328
110332
110334
110344
110346
110350
109345
109347
109349
109350
109354
109356
109358
109360
109363
109364
109365
109366
69368
69370
69371
69374
69375
69376
69377
69380
69381
69382
69383
69387
69388
69389
96025
96027
96031
96036
96038
96040
38125
38127
38130
38139
38141
38143
38147
38154
38157
38161
38164
38169
79745
79751
79755
79759
79764
79768
56442
56444
64161
64163
64167
64169
64174
64175
64177
64179
64180
64185
64187
64192
64194
64198
64204
64206
64208
18056
18058
18061
18065
18067
18069
18075
18077
18079
82722
82727
82730
82736
82738
82742
82744
82746
82747
82749
82754
82757
82758
82761
16605
16607
16609
62254
62259
62263
62265
62269
62271
62276
62283
62284
62285
110264
110269
110275
110278
110280
110282
110287
110289
110291
9165
9172
9177
9181
9183
9186
108712
108718
108721
108725
108726
108727
108731
108732
37572
37574
37576
37578
37582
37584
37587
37593
37595
34860
34869
34870
34872
34875
34881
34884
34886
34888
51032
51034
105970
105973
105975
105986
105992
105995
105997
106002
106006
106007
106011
106014
107262
107269
107271
107273
107279
107282
107283
95895
95900
95903
95904
95907
95908
95910
95912
58292
58294
58296
54568
54570
54571
54576
54579
54581
54583
54586
54587
67098
67102
67112
67113
67119
67121
67123
67126
12608
12609
12612
12614
12619
12621
12626
12628
93099
93104
93106
93109
93112
93114
93117
93119
93121
93122
93125
93126
93128
93132
105447
105451
105454
105457
105460
105462
105466
105467
105472
105474
105475
105477
105478
2128
2130
2132
2136
2143
2147
2148
106057
106062
106063
106066
106069
106072
106074
106076
106078
106081
106087
106089
106091
106093
106096
55348
55351
55353
55356
55360
55361
55367
55373
55374
113151
113158
113161
113163
113168
45804
45805
45806
45809
45812
45814
45819
45821
45828
45829
45831
16219
16220
16227
16230
16232
16234
110071
110075
110081
110083
110084
110088
110092
110099
110102
110106
110112
110114
110116
31388
31390
31393
31396
31400
31404
31409
31414
31419
31420
31424
31431
31434
31437
31440
31442
31446
31451
31457
31461
31469
31471
31472
31474
31475
31478
31483
31484
31489
31495
31497
106245
106247
106249
106251
106254
106263
106266
106269
106272
20699
20704
20714
20715
20717
107015
107017
107019
96749
96750
96753
96754
96755
96759
96766
96768
96773
96775
96779
96781
96783
96785
96789
96791
96798
96800
96804
34006
34008
34011
34014
34020
34023
34024
34030
34034
34036
34039
34043
34047
34050
34052
34055
111133
111138
111141
111146
111148
111151
111153
111157
105657
105665
105667
105678
105682
105683
105687
105690
105692
75521
75522
76106
76109
76116
76120
76121
76125
76126
76131
76133
76136
76137
76141
76143
76145
10130
10132
50337
50338
50342
50343
50346
50355
50357
50360
50361
50362
52885
52887
52888
52893
52894
52895
52896
52899
52901
52904
52906
52907
52909
52910
113750
113751
113757
113759
113761
113763
113775
113780
100597
100599
100600
100601
100603
100606
100609
100610
100612
100614
100615
100618
100620
100622
100629
100633
100636
100638
100641
100643
100646
2166
2169
2177
2181
2183
2187
2189
2197
2201
57687
57689
57691
113404
113409
113413
113416
113421
3055
3057
111541
111544
111546
111552
111554
111557
111560
111561
87382
87383
87384
87386
87387
87388
111711
111712
111713
111714
111720
111723
111726
111644
111647
111650
111655
111658
111663
111668
111672
111673
111678
111683
107285
107287
107289
107292
107297
107301
107302
107306
107308
96432
96439
96441
100060
100066
100068
100070
100071
100072
100077
100081
100084
100089
100092
100097
100102
100104
106220
106224
106226
106232
106235
106237
106239
98376
98377
92286
92291
92295
92297
26553
26554
26555
26557
26559
26560
26567
26568
19829
19831
19834
19837
19842
19843
19847
19849
19851
108054
108058
108060
108065
108066
51787
51793
51799
51801
51804
51805
68911
68912
111308
111313
111315
111318
111319
111322
111325
111326
111330
111336
111343
113283
113284
113285
113289
23075
23080
23084
23087
23090
23092
23097
65451
65453
65455
65456
65463
65469
65475
115047
115052
115057
115062
115063
11760
11764
11766
11773
11775
11778
11780
11782
11785
11787
11789
11793
11795
1936
1940
1942
1946
1950
1958
31300
31305
31319
31320
31321
31322
30984
30987
30989
105009
105012
105015
105019
105025
103897
103898
64120
64122
64123
64126
64127
64128
64131
64138
64139
64144
64148
64154
64157
64159
67671
67672
67674
67677
67678
67679
67682
67687
67692
67693
67696
67697
67698
67701
67702
67703
67706
67713
67716
67717
67718
67721
67722
67723
67727
67728
67729
67733
67736
67739
67740
67741
67744
67745
67746
67750
67751
67752
67753
67754
67757
67758
67762
67763
60804
60806
60808
60814
60817
60818
60825
60828
33777
33787
33789
364
365
368
372
375
377
379
383
113372
113376
113379
113381
113388
113882
113886
113890
113896
113898
113901
113902
113904
113907
113911
113913
12227
12231
12235
12239
107183
107186
107187
107190
107192
107194
107200
107205
107206
107209
107210
107219
84014
84015
108532
108533
108535
108538
108545
108547
75510
75512
75513
75514
75515
75518
75519
3134
3136
19387
19389
19392
19395
19398
19399
19402
111622
111629
111632
111634
111639
112200
112201
112203
112204
112210
112214
112218
112222
112229
112232
112234
96410
96414
96422
96424
62708
62710
62712
62714
62716
62719
62721
62727
92323
92324
52830
52837
52839
52841
52843
112957
112958
112962
22760
22761
22762
22764
22768
22771
22773
22776
22778
22781
105724
105726
105728
23380
23382
23384
23388
23390
23392
23394
114099
114102
114104
114109
1145
1146
1149
1151
1153
1154
1157
1160
1164
1169
1171
48146
48148
13316
13321
13323
13327
13329
13332
13337
13344
13346
13355
13357
13359
13363
13365
13367
89146
89147
89148
89150
89151
89152
113857
113859
113863
113865
113867
113872
113876
113878
115227
115234
115243
115245
115247
115248
115255
115259
74899
74906
74910
74911
74915
74923
74927
74929
74932
38246
38248
38251
38252
38257
38265
38267
38272
38274
38276
38280
38282
38286
38287
38288
87476
87481
87486
87489
87491
87498
87503
87505
87507
87509
87511
14338
14340
14344
14349
14354
122190
122194
122197
122200
122201
122206
122208
122212
35648
35650
35652
35657
35659
35665
35666
35669
35674
35676
35677
35684
35685
35687
35688
49675
49676
49678
49680
49685
49687
49688
49690
49694
49697
49704
49706
64450
64451
64452
64453
64455
64456
64457
64458
64460
64461
64462
109372
109374
109376
109379
109383
109385
109387
109393
3102
3104
3106
32987
32988
32990
32992
32995
32998
33003
33004
33008
33011
33014
33017
33018
33020
67578
67581
67585
67586
67587
67590
67594
67595
67599
67601
67604
67607
67610
67611
67612
67618
67621
32268
32272
32281
32284
32285
32287
39787
39788
39793
39795
39801
39803
39806
39809
104418
104421
104424
104428
104434
104436
74492
74493
17315
17318
17320
17324
17326
17330
17336
17339
17342
17348
1383
1388
1390
1391
1398
1408
1409
1413
1416
1417
1419
1424
1425
17008
17010
17012
17018
17020
17022
17030
17031
17032
17035
17036
17037
17038
17041
87186
87187
87188
87190
87191
87192
113001
113004
113010
113012
113015
113016
24000
24005
24008
24012
24014
110742
110746
110749
110752
110754
110757
110759
110762
110763
110768
110771
110774
110775
110778
110782
110786
110789
70785
70787
70791
70792
70795
70797
70800
70804
70807
70811
70814
70819
70823
70826
40337
40339
40340
40341
40345
40346
40352
40354
40358
40359
40363
40366
40372
40373
40374
9857
9859
9861
110651
110655
110659
110660
110663
110668
110675
110677
110682
110685
110688
110691
110694
110695
43046
43047
43048
43049
43054
43057
43059
43060
43066
43071
43075
43081
33364
33365
33369
33372
33377
33379
33381
33384
33388
33392
33393
28501
28503
28504
28506
28507
28512
28519
28521
28523
28526
28527
113694
113695
113699
109324
109327
109331
109333
109340
109341
112057
112060
112061
112067
112073
112076
112082
112083
112090
112092
112094
112096
112100
112103
112105
112106
45507
45508
45509
45515
45518
45519
45531
45534
45540
45544
45546
45550
45552
45553
45556
45560
45565
45569
45570
45573
45574
45576
112767
112772
112777
112783
112784
112787
112792
112793
112796
112797
112798
105027
105030
105035
105039
105042
105043
105046
105052
82062
82064
82067
82069
82070
82073
82076
82078
82081
82088
82089
82091
82099
82101
82102
106850
106853
106855
106858
106862
106866
106867
106880
74036
74037
58922
58923
58925
58927
58929
58940
58943
58944
58945
58946
58949
58952
58954
58956
58958
55836
55838
55839
55841
55843
55846
55849
55851
55853
55857
107484
107486
107489
107492
107498
107502
107503
107504
107507
107513
107516
107519
108125
108127
108135
108138
108140
112947
112948
112952
85658
85659
85660
85662
85663
85664
73740
73742
73743
73745
73747
73748
73749
73750
73752
73753
73754
42701
42703
42706
42707
42710
42712
42717
42722
77856
77857
77860
77862
77864
77867
77874
111837
111838
111839
111844
111845
111849
22502
22507
22510
22513
22516
22518
22522
22527
22529
22535
22538
114325
114326
114329
114331
114334
114339
114341
114346
114348
114351
114361
114364
114367
114370
114378
114381
114389
114393
33219
33220
33222
33224
33227
33233
33234
33237
33243
33248
68028
68032
68034
68038
14036
14039
14042
14043
14047
14052
35323
35324
35327
35328
35333
35336
35339
35340
35341
35352
35354
92828
92830
92831
92833
92836
92840
92844
92846
92850
92852
92854
92855
92859
92860
92862
114068
114069
114073
63225
63226
63228
63229
63230
63231
63233
63235
63237
63241
63242
63244
63245
63253
63255
63258
63261
63263
63266
1832
1835
1838
1839
1842
1845
1849
1853
1857
1863
62976
62982
62983
62984
114237
114240
114244
114246
114249
114254
114258
114260
114272
114276
94276
94277
94278
94280
94281
94282
10039
10040
10041
10043
10045
10050
10051
10054
10058
10061
10066
10069
10071
27654
27655
27656
27659
27662
27663
63657
63658
63661
63662
63665
63666
63668
63671
63673
63676
63678
63682
63684
63687
63694
63696
63699
63701
63702
63703
63704
63705
63709
63710
63717
63719
63727
63731
63732
63735
63738
63741
63744
63747
63748
63751
63752
63756
113312
113319
113321
113323
113328
42918
42919
42920
42925
42930
42936
42937
42943
42944
42948
2853
2854
2857
2859
2861
72623
72626
72627
72628
72629
72632
72633
109564
109570
109573
109578
109581
109584
109586
109591
109595
109598
109599
84000
84001
84002
84003
84004
84005
84006
84008
84009
84010
105401
105405
105406
105413
105416
105417
105418
105420
105424
105426
105436
105439
105442
105444
106797
106801
106804
106806
2237
2239
2241
87518
87519
87520
87523
87524
58327
58329
58332
58336
58338
58340
58343
58345
58347
114287
114289
114292
114295
114298
114299
114302
114305
114307
114309
114311
114316
114320
114322
95506
95507
74232
74235
74237
74238
74239
74240
74241
74243
74244
74245
65010
65013
65016
65018
65021
65023
65027
65029
41886
41889
41891
41894
41899
41901
41907
41909
41912
107914
107918
107920
107923
107926
107930
88393
88395
88396
88398
19470
19473
19474
19478
19489
64924
64925
111222
111223
111226
111233
111234
111238
111240
111243
111244
111245
111249
111251
111252
111256
111258
111267
111270
111277
109873
109875
109878
109881
109885
109887
109895
109896
109900
109904
109909
109912
109916
109918
109919
115067
115073
115077
115083
49082
49085
49087
49088
49089
49096
49098
112033
112034
112038
45460
45462
45464
45467
45470
45474
112713
112716
112718
112723
112729
112730
112734
112736
111202
111209
111211
111214
111215
111218
111220
106496
106498
106502
106506
106510
106514
106522
106524
106525
3043
3045
3047
113273
113274
113278
106563
106568
106569
106572
106574
106582
106586
106593
106595
106597
104901
104903
104905
77460
77463
77465
77470
77472
77473
77481
77483
77494
77495
109746
109749
109753
109755
109757
109759
115130
115132
115134
115136
115139
115141
115142
115147
115149
115151
115153
115155
115157
115160
115163
115165
115167
112813
112814
112818
112819
112825
112826
112828
112830
112832
112833
112835
112836
112838
113082
113085
113087
113092
114795
114796
114799
114802
114805
114808
114810
114813
114816
114817
114820
114823
114825
114828
114833
114835
114837
114841
114846
114848
108669
108675
108678
108684
108685
108686
108689
108690
26592
26595
26596
26601
26603
26611
26620
26625
26626
26627
26633
26635
26636
26637
26638
26640
26647
26648
26650
26651
113962
113967
113971
113974
113979
13666
13672
13675
13676
13680
13684
13687
13691
13694
13695
65294
65296
65297
65298
65299
65300
65302
65304
65305
65307
65308
94612
94614
94617
94620
94622
94624
94626
94629
94630
94636
94637
94642
94650
94654
94656
94657
94660
94664
94665
94668
94670
94671
96140
96141
96142
96143
96144
96146
96147
96148
22231
22232
22236
22239
22240
22244
22245
22246
22249
22251
22254
111569
111572
111574
111579
104792
104795
104797
104801
104804
104807
104811
104814
112658
112659
112663
19125
19127
19129
77131
77132
77133
77140
77142
77145
77147
77150
77151
77154
77157
77160
77163
107573
107574
107580
107581
107584
107585
107587
107592
107594
113335
113338
113340
113345
106713
106715
106717
106721
106723
106726
106728
106733
106735
106738
106740
107408
107415
107416
107419
107422
107426
107427
107428
109531
109535
109537
109539
109544
109548
109551
109552
109556
109558
109562
109660
109664
109665
109666
109668
109672
109677
109680
109685
109688
109691
109693
109695
109697
27971
27972
27973
27974
27978
27981
27983
27986
27990
27992
27996
27998
28001
28004
70586
70587
70590
70593
70597
70600
70601
70603
70623
70627
70629
70633
70636
70639
70641
70644
19337
19339
19341
19344
19346
19348
19351
19354
93357
93365
93367
93374
93376
93382
93384
93386
93389
25652
25654
25656
25658
25660
25662
25667
25670
25675
25122
25125
25128
6097
6099
6100
6101
6103
6107
6109
6111
6112
6115
6117
112868
112871
112872
112873
112877
112879
112881
112883
112888
112892
10994
11004
11006
11008
11016
24815
24817
24819
24827
24830
24835
24837
24838
24843
24844
24847
24854
24856
35497
35500
35503
35512
35513
35517
35520
108204
108206
108207
108209
108210
108211
108216
108217
108222
20541
20542
20544
20546
20548
20551
11023
11028
11037
11039
11041
108626
108628
108630
108632
108633
108635
108638
108642
108644
108646
108649
108654
12442
12447
12450
12454
12455
12465
12466
12470
12472
12475
12477
5954
5958
5961
5963
5964
5967
5968
5971
5972
5973
5979
5980
67974
67978
67982
67986
67987
67997
68000
14522
14529
14534
14535
14540
14544
101258
101259
101260
101263
101264
36167
36173
36178
36180
36182
36184
3623
3629
3632
3636
3640
3641
3642
3646
3649
3651
56565
56569
56574
56579
56582
56585
56587
56596
56597
1912
1917
1918
1922
1925
1927
1929
1934
84409
84410
104476
104478
104481
104484
104485
104490
104497
104501
104504
104512
104515
104516
104518
40769
40771
40773
106418
106425
106427
106430
106432
106434
106436
112452
112455
112456
112457
112458
112462
112467
112470
112473
112475
2693
2694
2699
2701
2703
2708
2709
2717
2719
50986
50988
50990
50997
51001
51003
19646
19648
19656
19658
19661
19662
19663
19668
19669
19673
19675
19678
19680
19683
19687
19688
19693
99956
99960
99964
99966
99968
99971
99973
99978
99981
99983
99986
99988
73502
73503
73506
73507
73508
73509
73510
73513
73514
73515
64690
64691
64694
64696
64698
64700
64701
64703
64706
18721
18727
18730
18733
18734
18736
18739
112334
112335
112339
64323
64325
64326
64327
64328
64329
64332
64333
64334
64335
64337
64338
64339
50856
50862
50865
50867
50869
50872
50873
50876
50878
50880
50883
50884
50888
84856
84857
84858
84860
84861
84862
67241
67245
67248
67249
67253
67256
67261
67264
67265
64627
64628
64630
64631
64638
64643
64645
64649
64656
64658
64662
64665
10845
10846
10847
10850
10851
10852
10854
10857
10862
106361
106363
106365
106368
106375
106379
106380
106382
106383
106384
106385
106390
106394
106396
106401
106405
106408
106410
106412
106415
106416
33665
33667
110422
110426
110433
110435
110437
110442
110444
42025
42026
42027
42031
42033
42038
42043
42044
42048
42051
42055
42058
42060
72099
72101
72103
72105
72110
72115
72117
72118
72123
72126
72129
72130
72133
72139
72141
72143
72145
72149
72151
24501
24502
24503
24504
24505
24515
24522
24523
18374
18376
18380
18382
18386
18390
18391
18394
18397
18399
11605
11607
11608
11610
11613
11615
11618
11623
11625
111686
111691
111695
111696
111698
111699
111701
111703
111707
111708
37884
37885
37889
37892
37895
37897
37899
37902
37905
40206
40209
40215
40216
103711
103713
103717
103723
103727
64079
64081
64083
64089
64091
64094
64097
64102
64107
64110
64111
64114
64116
13394
13396
13400
13402
13405
13407
13411
13415
13418
13420
13422
13425
13431
13434
13438
13441
13445
13449
13450
13451
13453
13457
1702
1704
1706
1708
1709
1711
1714
1723
53508
53512
53514
53519
53520
53524
53526
28225
28227
105312
105314
105316
105321
105325
105326
105330
105332
9863
9867
9868
9871
9875
9880
9884
9886
9887
9889
9891
111917
111922
111931
111935
111938
111942
111943
111948
111951
111953
111954
111956
111959
111960
3142
3144
103662
103663
103664
103667
103668
112701
112702
112706
8477
8479
8482
8486
8488
8493
8494
8495
8498
8503
8506
8507
8509
8511
8514
113787
113790
113792
113797
95419
95425
95429
95434
95438
95440
108312
108315
108317
108319
41757
41760
41764
41765
41768
41771
41772
41773
22171
22172
22177
22178
22181
22183
22186
22187
22188
22189
50647
50652
50653
50656
50658
50662
50668
50673
50676
50679
22723
22725
77829
77833
77835
77837
77844
3065
3067
3069
109649
109653
109657
109658
84017
84019
84020
84021
84024
84027
84029
84032
84035
84038
84039
84040
84043
84049
84053
84058
84059
84063
84065
84067
84069
84071
84074
84076
89893
89895
89896
89897
89902
89907
89909
89911
89914
89916
89922
89932
89935
109289
109293
109295
109299
109303
109304
109306
109308
109315
109320
109321
41622
41625
41630
41633
41635
41639
41641
3059
3061
3063
114006
114009
114011
114016
60746
60747
60748
60749
60751
60754
60755
60757
60759
60762
60766
60770
97799
97807
97809
97811
97814
97818
97819
97820
97826
97828
97834
32221
32226
32227
32228
56760
56762
56766
56769
56772
56773
56775
56777
51747
51753
51755
51757
51762
92419
92420
92423
92425
92429
92430
92435
92437
92444
92447
92450
99606
99607
99611
99612
99613
99615
99619
99627
99631
99633
3120
3122
3124
94901
94902
94905
94906
94908
94909
94910
94911
94913
94914
94915
94917
94921
94925
94927
94930
94932
94934
94936
94938
94940
94943
94945
94948
94950
94953
94957
94961
94965
94968
94970
46807
46813
46816
46822
46827
7651
7653
7655
7657
7659
7661
7664
7666
7669
7670
84732
84736
84743
84744
84755
84760
84763
84765
84766
84771
84775
84777
84782
84785
84787
84795
84797
84802
84812
84813
84815
84830
84834
74754
74755
74760
74763
74765
74768
74770
65517
65520
65523
65525
65528
65533
65536
65547
45786
45787
45789
45792
45795
45798
45801
45802
54893
54895
54897
31860
31862
31864
31868
31869
31870
31878
31883
31888
31894
31896
105511
105513
105515
105521
105524
105527
105533
91984
91986
91988
91989
91992
91996
91999
92003
92007
92009
92010
92012
94148
94149
94150
94152
94153
94154
69401
69403
69407
69409
69410
69413
69417
69419
69421
69428
69430
69431
69434
69438
69442
69443
69447
69450
69454
69458
69460
69462
69464
69467
69473
69477
69480
69483
69485
69488
69492
69495
36088
36089
36090
36095
36097
36099
36101
36102
36108
36111
36114
36117
36118
40378
40379
40381
40382
40383
40386
40387
40388
108940
108942
108945
108950
108954
108955
108958
108961
115834
115840
115841
115844
115845
115847
115851
115854
115856
115866
115868
115872
115875
24979
24981
24983
24986
24988
24991
24992
24993
24995
25002
25003
84684
84685
84686
84690
84693
84696
84697
84700
84710
84713
84717
84719
84726
114111
114117
114122
114127
59671
59673
59675
7866
7867
7871
7873
7876
7878
7880
7882
7884
40126
40128
40129
40131
40135
40136
40137
40140
40143
40144
40149
40152
40157
40161
94399
94402
94406
94409
94412
94417
94421
94423
94425
94430
94433
94435
94437
94440
94442
94443
94447
94450
94451
94454
94462
53879
53880
53881
53884
53885
53892
53893
31234
31236
67393
67396
67399
67404
67407
67410
67416
67419
67421
67422
67426
67428
93135
93136
93140
93143
93145
93148
93150
93154
22315
22317
22320
22323
22326
22328
22330
22335
22338
22339
52175
52178
52181
52182
52186
52188
52190
52194
52196
52198
41080
41081
41085
41087
41091
41093
3049
3051
3053
108738
108741
108749
108753
108757
108758
108760
108761
108762
108769
108771
30767
30771
30772
30781
30784
30785
30788
30791
30793
30795
54665
54667
111761
111765
111769
111771
111772
111773
111778
111779
111780
111782
105781
105786
105791
105792
105799
105802
105806
105808
105812
105815
105817
53743
53750
53755
53760
53763
53764
53765
65765
65767
65769
65771
65775
65777
65779
65781
65786
65789
65791
65793
65795
65798
11830
11835
11838
11840
11848
11850
106274
106276
106278
106282
106285
106287
84500
84501
84502
84506
84510
84513
84514
84522
84524
84527
115169
115172
115174
115176
115177
115179
115180
115183
115186
115187
115188
115189
115193
115195
65056
65057
113360
113362
113365
113366
113371
114652
114655
114659
114665
68391
68392
72634
72635
36562
36565
36570
36572
36574
36575
21107
21112
21115
21117
21120
21124
21126
29478
29480
29482
29483
29485
29488
29490
29491
29493
29494
29497
29501
29502
112574
112580
112581
112587
112589
112594
112596
21332
21333
21334
21340
21343
21344
21347
21351
21354
21357
113849
113850
113851
113855
75008
75010
75012
75013
96457
96459
96461
96463
96467
96473
96474
96476
96478
96480
96485
96487
96488
96490
96492
96494
96498
96502
96506
105483
105488
105491
105493
105496
26148
26151
26152
26155
26158
26160
26162
26164
26166
26168
26170
26172
26174
26176
26178
112276
112277
112278
112279
112283
56183
56185
87142
87145
87146
87149
87152
87155
87159
87160
41538
41540
41542
88522
88523
88524
88527
88528
7216
7218
64344
64345
64346
105335
105338
105340
105344
105347
105349
105353
95489
95490
95491
95494
95497
95500
95502
95504
50071
50072
50075
50078
50081
50084
50091
50098
105821
105824
105826
105837
105843
105846
105848
105853
105857
105858
105862
105865
106547
106552
106556
106561
111453
111454
111455
111457
111462
111463
111468
111472
111473
111476
111479
111482
114723
114727
114731
10362
10364
100542
100543
100544
100548
100551
100552
100556
100560
5758
5760
5762
5767
5768
5776
5777
5783
5784
5787
5789
41721
41723
41724
41729
41732
41734
41736
20721
20723
20727
20729
20733
20738
20739
74246
74247
29846
29850
29851
29852
29858
29860
29863
29866
29873
29876
29878
29879
29881
29883
20014
20016
20018
20019
20023
20026
20029
20032
20039
108226
108230
108234
108236
108240
108242
113574
113575
113579
21843
21847
21850
21855
21858
21862
21863
21866
21868
21870
21872
21874
21876
3726
3728
113023
113026
113030
72157
72160
72162
72166
72170
72174
72176
72179
72182
72184
72185
72187
72188
72190
72192
72197
72198
84529
84530
84531
84532
84533
84536
84539
84540
84544
84547
84551
84554
84558
84562
84566
24419
24421
24423
24427
24431
24435
24436
24437
77384
77390
77392
77394
77397
107399
107401
107403
28777
28780
28782
28784
110047
110051
110053
110058
110063
110064
110066
110068
30727
30729
107683
107689
107692
107694
107696
107701
107703
107704
107711
107720
107725
107727
108249
108250
108254
108255
108257
108262
108263
108264
108265
102645
102646
73516
73517
30824
30831
30840
30842
30844
105057
105061
105064
105065
105066
105072
105075
105076
105077
117628
117631
117633
117635
117636
117638
117645
117648
117651
110884
110887
110892
110903
110906
110910
110913
56724
56727
56729
56734
56736
56741
13069
13071
13073
23822
23826
23827
23830
23831
23837
23841
23842
23845
23848
23849
23851
23852
106599
106601
106604
106605
106608
106612
106616
106619
106626
106629
110352
110358
110363
110364
110366
110371
110372
110375
112936
112937
112938
112942
550
551
552
555
557
559
561
562
565
567
568
571
576
577
105584
105589
105590
105592
105598
113984
113986
113987
113991
113665
113668
113671
113676
46638
46639
46640
46643
46644
46650
46654
46660
46661
46663
46667
46671
46674
46675
46678
46680
46684
46687
46690
46691
3014
3016
3018
3025
3030
3035
3037
46780
46783
46786
46789
46792
46795
46798
46801
46802
46806
25205
25211
25214
25218
25220
25222
25223
25230
25233
25240
25243
104743
104745
104748
104751
104753
104759
104766
20188
20189
20191
20196
20197
20200
20206
20207
20209
20210
20212
70828
70830
70833
70837
70840
70847
70850
70855
70858
70861
70864
70868
70871
56811
56813
56816
56821
56829
56832
56834
56841
56843
56848
56859
56862
56864
56870
56872
56875
56877
56879
114163
114168
114171
114173
114178
11970
11972
11973
11977
11978
11982
11985
11987
11988
11992
11993
113630
113631
113635
50439
50442
50443
50445
50447
50450
50454
50462
50465
50466
50467
50469
50470
50473
80971
80973
80974
80976
80978
80986
80988
80991
80994
80999
81001
81002
81003
81005
81006
81011
81012
81017
81019
23149
23150
23151
23152
23155
23158
23160
23162
23164
23169
23171
23173
23174
83675
83678
83680
83681
83682
83685
83688
83691
83693
83695
83697
83699
83701
83703
83706
83711
83715
83722
83726
83727
83733
83736
60416
60420
60423
60430
60432
60435
17350
17352
17355
17358
17362
17365
17369
22053
22055
22060
22064
22070
22073
22076
22080
22085
22087
22089
22090
22092
22096
84316
84318
84320
84322
84326
84327
84329
84335
84339
84342
84344
84345
84348
84349
84350
84354
84356
84358
84361
26456
26457
26459
26460
26465
26467
26469
26470
26476
26480
52349
52350
52352
52354
52358
52362
52363
52365
52366
52368
52370
52371
52373
52376
52382
39919
39922
39925
39930
39932
39934
39937
39941
109160
109164
109168
109169
109174
1350
1356
1357
1358
1362
1367
1371
1373
1374
1381
58124
58128
58130
58137
58138
58140
58142
