81325405
2734698319
2991476692
3009772619
394344436
300870992
37884446
189565191
183950893
17051256
376749138
859315052
107244494
365105604
497310731
2841266909
3041193775
22359616
201303134
44335896
406835617
1150045478
383566678
13162152
297054637
2954634293
154249396
155967995
298498586
198621371
36891763
84018322
2891078918
999453985
26927867
275622946
439988843
2807060009
2322227400
1290289010
24338184
239043139
31069840
18744815
16286782
2799895176
502757492
319618901
2675563262
2437652922
98691581
2909534399
68890811
2904115812
38120739
260677385
58749535
92238532
44496152
43517398
752078492
2725381381
15467680
2238839726
16130339
26957668
2852877864
27460744
515874999
459768241
82513761
15603697
773658752
176763671
110114783
382508008
216531945
2806775116
1878252606
144051948
390694450
482562312
855289980
739126741
53533812
25681148
10108952
273261271
1220164975
21430230
554796154
491897217
569586545
2307293782
8532872
412896547
158886455
110916831
575139959
48643826
443280040
433015295
884678738
152604471
1630370660
358681085
1355862392
24861703
743159232
380758879
2559907513
1019255234
1199102480
408202188
19178668
394281177
193700451
356157181
20176082
38650214
360445389
1532819112
1639716373
414244661
3000635461
177280097
33485745
130179779
2960021016
2240459594
2587278392
200501445
48951240
2210127277
35084627
1245735506
415385919
950550984
2317221572
890392501
2371659469
2191326486
93191531
51421047
23260256
2863915252
2738371508
73375342
1708735813
1277075318
3011733398
408085889
1656546517
20231326
1695322412
2902504253
3041131267
1328903425
431469458
246317985
2450070049
1556444570
303055206
619903250
1733689704
225255093
175344432
1405309777
1645154508
2942269873
1289990616
1512607639
245348903
138257332
378639234
562107153
73796523
1365804972
1557009919
242266282
264175249
1217026452
544234417
16994398
528889535
459256894
14389384
2913633110
1733873569
1322564550
497581397
2359256119
72825930
17021576
1398391063
2415915638
716027743
289532294
28267249
1022938752
2855497284
292145829
1620719593
24006136
312772488
481530445
99720169
149421543
27816578
432419771
2894478043
371534208
324940349
236763329
41111519
587291195
327703374
1668431486
1605433962
1576218816
3180113558
260468829
27373318
26966864
18378627
129635846
994969160
33134609
2893958011
2370950628
25816086
497128463
2435230754
758049516
2373205640
3060932910
178668778
1624756268
235079557
283474145
79459832
26459797
23411203
26452697
1437856304
17580892
101736439
19524046
2951881910
337002546
1355700883
2895219931
2403305197
2650305320
131292783
44793218
112881147
16799314
1344002130
247679071
72971775
184667858
24669894
3038914968
2829793357
18455229
26382252
2910757561
2640990344
54522269
406075350
145596343
1304153700
27632737
23747654
2313317216
2597349793
1426673636
889563854
712533912
25049904
163367000
626350040
29424561
2546912333
334628923
3033116567
51693380
185122051
1312276951
326753679
257709797
3068552947
122167377
138373439
311762125
624907500
36822138
26373938
597275724
168890312
13207852
230662900
1261374181
29425573
75486880
334921581
360315400
2934748420
3016260620
505651301
531298472
579762973
3204141
604354270
883543434
317642462
2519552569
3061078507
13377442
1613752482
949380854
2945833461
575043247
1955720384
38398282
2643566464
1918220839
131681175
27609803
82184658
730918777
32238490
65774694
1244786641
40159974
1436093042
2494665719
82382073
26182948
111821551
1732121486
27608469
2576186341
287705144
524087425
27554934
2263737588
449534540
47297309
1016879372
15249499
25991480
438589393
511419805
2884176517
311304522
240489651
2916450974
16390652
298155037
133926093
27850819
374382454
42774171
1290024882
724696848
387334888
258674355
482348302
2656351274
45354602
33054023
116358110
1704384571
279972323
174573325
2519041406
555703941
19683633
1523446454
3004682262
3019484551
20658917
19707925
3294744934
404699126
359320830
166427497
746476321
259032808
873461084
448505741
286130992
1849850612
591530418
3016518217
39977280
1693969812
273041865
257255405
54724270
36575908
883093754
16329558
562751024
22606635
109770170
760078476
18810374
58446264
2973542930
3067525104
2205709675
2616414786
750096908
346492602
24113341
365047482
21765879
2473092354
2961908465
21167865
21708468
1258371367
387817736
428902430
24452267
634875484
324309993
3153692506
118623630
402509656
877115862
237484775
448275204
1864761746
407783696
286940841
1234223270
518118781
204189784
344268057
68925769
51271144
463523296
22310197
1632123685
424617920
2742814075
1094007912
168916876
26142201
58408717
484921417
1396380787
73453284
1108533062
26731498
2904949001
40400059
3128466445
3003406377
17335247
67879486
217957795
37200824
1703455945
2887326008
1116110186
1018483980
526922796
2892691605
307766879
2420284284
2830781680
28199764
1030060327
804454855
2714456838
2913505338
25805982
28994080
278822964
1727892570
905423346
42603724
190840213
3104396976
294606353
2829371808
25000400
9444712
2591139138
1799000648
2856816230
270742181
236644415
2805183704
244821757
2959186844
2154193748
494505475
262536165
1012607617
2166588858
139684231
552264392
570400685
294940721
1633280983
47104802
82998362
212636771
216316484
2159727793
365317457
727894124
65045771
600152232
53566475
21416153
282556245
82522377
2959270807
410748351
322484832
73850532
17569860
21552376
52377711
2808981327
1786717172
14711982
25227822
3001052048
569870574
2928886937
2521350702
17984709
138052263
16947907
45549451
2154218233
764539766
187138183
2682632000
2762126204
2686563469
44119449
2363253889
2861421532
352473779
35172803
610232610
263440464
34228847
2195253764
35615013
950423342
274341323
130123715
2826054068
3048678571
43306480
2321961973
550006991
3024409997
1371715152
715515121
49193480
83192893
46818975
1645544503
26719649
40190656
1537918573
23288511
908943943
2317407241
14412937
49393478
404444443
183779499
184323142
249985329
66717020
369438749
573660240
2434111364
15641984
36608957
27176695
545697966
535741152
23935607
497437094
3002289465
560140492
327034642
628638850
2789027508
182248706
3014192107
28976669
261479421
441748905
17654485
2395135370
622582233
264598651
35007214
921756235
84537718
2294201833
380103390
254941287
16060768
2281953018
177086028
1465707894
232741193
490913073
213236014
19040876
2379350780
15781594
622230070
301467359
129575208
49164981
2218491217
100149268
250425764
468896857
240010214
16005114
3038926481
259628271
2313204931
538482349
2551193485
99233470
490937555
320076160
32203489
455490320
2870061315
23568714
2989104576
21543226
1928866418
3192446665
605013258
1359410281
606015986
111215595
521094248
1434417487
561596765
599536606
702679699
2582978460
1115573696
380671671
154979469
21798586
539511913
1408681645
1965561835
24596495
969073002
31598233
2571856887
2391617600
2270616696
20731075
2333031210
3043106869
26700569
370329077
2729577040
226759947
373336615
2200418306
2926234633
27632906
2903285930
1364376428
25453567
191741196
348602680
87529963
42839794
64177263
610471716
64409420
27400097
83315955
1408764577
3014154552
77050158
258750822
404060390
394496111
1042649786
384811971
2582525420
1386366252
156933739
189679742
2916124122
230569036
754565838
22470188
833303994
241277470
139721455
80471345
289846547
2215072818
617782593
18358521
709105290
3051839983
3026919807
26633521
226342782
189159732
1851438134
412967063
917560825
34579311
39949031
2905901939
20661876
1970347927
67779490
68945794
278830401
412726142
3041100698
234160545
2279758842
405453388
145110680
66815960
20954511
157996080
1105753261
254174483
58737901
13005572
218578008
292419947
54517562
2490160430
431504592
392475934
1978322882
36007870
99482974
244081566
1550952373
2566120668
2281363548
30644882
166873656
253813472
2683073250
187903389
1017123967
1010956802
2341307978
32337025
87370067
498562532
3052259569
550532755
97727147
43656765
90160392
3014112282
2878701780
55566167
2605234560
2988643270
2782859960
2877151045
236729223
3043152194
60037655
2986237430
1940729010
70365444
3016696205
170276973
93111709
1281732810
97844235
252871945
62208019
45036000
132445467
2595778357
898707906
279914449
265826888
1592795264
292838364
2839515306
245158192
42433492
96261366
259406566
453509593
2796706711
144840737
19132177
869553656
15902589
1309068553
261533288
324963642
321457744
2707815410
2535520593
1132200937
73590927
1116121759
41298522
1597398924
18889369
26976949
464637822
2831363550
608155862
564624416
1580228064
612767191
21014572
3090173917
2684043373
536646582
943210460
614046982
197390159
44511405
383446627
153757595
2330373110
376551482
23057499
312739009
422348926
1132427582
340376505
905966455
268931953
436974411
39237911
458151092
34760378
25794806
1292474654
1808267214
2148939786
2426118242
471721045
238882525
1240932972
28230374
308990730
75609484
327660858
438395887
48849222
14707553
232728981
552477965
2782610996
382063351
412180717
1398605364
2579695818
408800902
73672720
1552538606
42091611
102325185
500263708
30627161
592607893
2933995596
261162002
2933231912
479067754
266723506
622779759
19659231
2869834818
2483605494
954504506
719629292
573614242
31232970
3047607607
2194202705
53525377
1058390929
157290108
1298793842
2788008630
1907609012
351399926
2268052310
1037062796
608010016
1652222918
2467067887
35235179
287077316
508078083
47630267
404838497
574437265
470640351
47254579
95665917
391610385
1216742528
3047674050
2911520575
2455918632
2470821504
1153909879
1253045544
146668548
2750824903
1971503058
271786376
3060390415
294340629
34094550
753089954
20569411
404429806
144403523
37641531
82832420
35908340
3056089651
1592044152
460279991
2824084715
120608597
2996880769
198789305
2669241598
2522242938
2299733083
22314584
14223097
15037961
321478435
1938699121
211281589
1496429695
2739168582
75425858
603366355
34268251
2590355652
21184634
2370248125
324680209
100050021
1228124581
550923814
14522298
17712142
956594432
154493855
2355989107
366531168
280312903
1535422453
59868822
1248431851
253540696
16696109
556661091
352723432
2698198794
193109850
268958952
2578180728
167221856
514135669
74245749
305648631
545159350
18096229
798066384
2866490418
2685941012
1892446333
22166232
151232782
52658551
248880052
43827193
20822575
471868902
436502521
463377023
614859751
3036127957
47862321
289282396
555572565
266010557
39242479
462301994
22817142
162266849
487381979
2241786542
2909905314
2204185542
2313872880
74418780
1460549084
1557298022
1059787201
267601954
21177426
538056844
300250907
117696158
278804410
17604253
1290226483
854482632
2999165598
706529653
783850129
3020637715
395084251
1120448072
68689221
1916525256
1899850260
108012664
3034816903
2811212223
155808302
47074796
790613989
614204775
1371249781
1044005874
1291831
2705686573
327926324
1698585216
12201452
2907726151
1279581114
557772965
2975432070
86218737
434500296
402942300
112959280
385300019
177437874
826371696
75142659
143316647
26475621
256609521
8010122
1913370296
2585008453
74935998
3063966541
230010114
2934037050
287591876
2803790312
217761175
34472348
1628345172
2758691533
31076291
404123976
196766866
2785123074
2710900951
124037863
23053753
288071949
2910082398
337995180
174064787
517075893
130733206
16237972
2831254570
234162853
1469312256
3280167711
27931945
30544168
308795517
17227586
2834281734
440773782
779043331
753991650
2373542480
2264363900
3045384109
38486565
92552231
26211473
21828417
2502556236
2202355524
84518920
2847233979
24188289
752458694
564663483
414621260
25994541
629053646
17646796
1704373316
2818810598
23560554
326542714
141500914
27590628
124948370
499215425
64982149
162244544
593577212
24947333
105447442
37873199
49621677
289088988
2476395422
2344450981
1108882777
2539013737
885751759
93402197
400419867
178183112
47368893
228410961
36933144
27912005
346491432
16356699
1015170002
2968718369
1486469036
41838636
1164093313
414320313
448590097
2684662728
98006937
31721027
41973345
328517201
2309562402
2400553010
361159723
22192635
218763873
108413207
469982446
96671587
14770241
2611692264
190907881
207594698
465311165
549246199
1481266105
34153781
2464579093
1859348431
22006180
1690890258
159648510
38645535
2805943306
785638224
24455289
556506194
1321343058
2365152944
26456948
1677569143
2746979823
2952765355
2756873076
17942611
19109056
320984413
3236121
25062257
3196742670
2881426850
21969435
2975658060
26403375
3007423080
15461836
1252882802
786806348
3043709587
73494048
108169840
614851608
142516295
2297582839
95097330
1865778720
2606478373
423022414
68476815
417406743
26989237
1333095924
18133726
254309142
360627213
139676335
22683451
33438934
361200512
2341493756
880817736
207602032
502801101
19487152
392420400
1333946204
1000459982
416182191
98605029
458805681
88872569
431658017
1100068939
867282019
3024866527
9792842
482583016
480300122
2886833989
31103336
280974913
333792312
213891609
3019474338
23901130
14144438
1953063710
2450721206
3074477858
53348173
220616405
2276337589
153410226
66033904
36238715
381954676
2379558337
84822058
2851217976
3044883976
3079113053
1103294161
22837341
892955768
458380987
308870516
297148960
110232376
516402265
33905696
144475750
1616603472
1874504276
27502152
214413108
3040022441
91774758
157948722
62510206
821108359
15054967
1245880722
29178646
401144533
108948616
375617596
907734912
327106300
41348705
22859657
24078977
26472217
2259588900
39879246
1388621934
9444022
536444713
1457928896
623494796
14922813
1128599966
583528857
3200204937
1008161004
285294461
2953606427
141132001
789821113
91351746
488584645
3011276515
23261237
2287758954
2718362810
26354418
1168664600
16210842
981884862
251423183
49501578
389706217
2590673588
175261461
309525229
463297578
71137085
2552236988
267133998
176675722
436294516
903318872
2449857572
229376260
1130887939
2907718940
43139320
1523549617
417662723
276549748
131179888
3023378215
480938747
1184986788
2451101191
47940669
111332093
983376769
38388324
2158021501
338821106
930620467
29927621
237300461
17133912
472892458
384820444
25257175
1110332940
22436706
65300245
24988494
29613877
25191829
26167053
362900896
19898890
2959321592
36941473
2315231857
489857503
37659338
1861023685
719655337
185414224
107676915
203407353
635348964
250597981
457945619
949291260
25246758
1913262020
3017224700
18794041
3059571962
34141391
36951856
22126398
3008754218
169796245
2715213326
64067052
71493213
107138512
483528697
26952244
3044411103
388097832
178957471
39432815
492595547
104977879
360360817
30198833
159271308
90119861
343188412
460606082
165576230
565307071
248097825
2902218524
33803412
2700379730
509018908
520391887
64980891
246080964
905068272
388607452
2198745044
2324314232
57687267
24637782
400010259
24581343
384731898
37179327
2872405031
63003476
322365033
2336670397
74336613
433234855
3019317787
138739697
2839462486
1593438482
14237548
2425648112
514182160
1013404638
423553930
23898864
828729236
628153082
169326150
826701510
3060256950
177301553
1134600122
1946156508
852217994
617271555
200105962
1680308324
2376486925
29783374
1431525565
94730091
2895680568
6295382
204670923
128603479
36338681
1851298633
631581025
249953574
145962822
80821819
55928690
33836295
33350532
34414224
22348141
2988375560
359338828
337307625
548877872
1970607830
427506664
296147560
3007274520
353533765
3063615107
24085297
153753775
3036692789
23579504
1064452536
266056967
1550522623
91217878
3009166365
36327171
27199782
2402894750
2705337668
1078684573
270774535
31445568
3011490060
104731954
38397609
2963084145
1659194244
2231286288
287061857
2916179023
77182888
548465772
860441299
14861476
73366525
1000801513
2939918519
1451411520
1372786812
2892548532
626755293
2211429150
86521466
239964366
161005160
816454921
105459936
25271470
91399352
132699182
2949673914
96606370
139614871
302649681
359236505
52910094
2233926805
2601524623
1509622267
2159555124
21039324
22684309
27024717
133556038
238768817
554027952
1517018450
496854680
513087375
772477398
877018897
532938116
2916571275
2224896846
1180589370
126292381
42542097
50202537
24652193
147040855
27406310
187780472
26248642
1587277770
277736492
2560762160
22863660
341249543
228581811
329889215
206942006
237245712
35603413
54062781
3049478762
2521781652
218354045
345805293
364662042
270294818
3023528413
162900239
9585092
302693086
2790288915
270897974
98896743
107231362
705702861
494900468
110275371
17263897
2793618908
535180227
300215343
77149862
1142850859
20644420
26326439
19017283
119875693
29694441
3040289152
71100907
16349407
473501245
2477824524
38771493
435480404
22116112
410543377
3024056707
106338292
2374619060
2532362760
2953604840
71416635
3000093281
544723014
22353675
2154942645
22729966
532049060
342571937
2656490472
2944706828
519760325
482023151
38139925
2273632160
2823058728
892232700
401875684
407912092
705455251
77568538
376390162
176139761
373317699
428645761
27197327
105334811
116093402
2273823290
59915448
22079417
2570427830
189467550
2298155953
2887500651
2570484571
228270587
1287220346
320171714
1368231091
286070167
19419025
33026792
180755998
126591466
780231324
2829213614
3072120041
26896936
23904631
152992187
471874176
1715460890
2410882465
188759850
2544931616
57455365
405100143
383603196
2408638574
381913031
357411547
25877711
20203344
3013201706
3035977591
18291690
548460055
247197922
417778462
7455282
42067255
16498214
1893758478
65128747
147929983
2996567670
733392253
203257788
2204440794
53829774
51010405
125275062
2921159352
16676295
2797371979
510017162
2607280772
426848452
2695546483
3029840821
501521155
580684643
2349789008
203728398
1078100774
166252073
176294000
1099683991
2395889868
2814697776
19332043
633538764
2269865773
331379045
600140001
29200749
37413076
307777099
351143365
2354255320
913493396
179897048
329688737
11581422
64817011
381908656
192826726
704903653
416081088
914245838
319679665
1351360772
586166580
388206160
1448372190
16271103
2269307810
103838251
636777046
454683323
21855539
472498824
67499940
2910121539
184645177
105236719
26943851
246557633
60487952
3037268654
33840546
2977878392
524872414
39031633
54805470
474703667
26119836
2344987903
2439721638
50555474
1456555232
2969344940
2988522408
1355864328
104086318
150058538
2953014310
887905129
376679416
3071098916
2385999008
346855613
1269648894
84112524
815223194
2820779388
1207038415
217856977
338382027
3015789016
1557810643
52374272
113526488
19777438
321275798
57202693
3065808306
195135904
1961483533
2880019388
40241957
24459252
55545121
238128770
297592019
229235675
104768669
186748133
2167847923
23924384
2691817417
347048522
23522755
368273781
290281469
82785951
2883531194
22361065
37600849
2494697116
180999150
405372860
281259322
125589846
1532330156
240049848
23143326
375013976
2268087331
35598437
450414092
499547162
37532853
397232216
205880720
270315817
1226454150
2931789037
2243287574
911391914
61348039
446526761
3059555898
2583723380
713586781
2881710692
156928816
63649417
14473703
42382178
1448395783
22120918
537876245
120742924
2270416014
17353325
236242644
19909706
43830965
430570815
3061698116
2625429206
1941860150
255616505
43675137
2911686645
15929162
152017950
2673577188
544243120
1179710990
52467377
579187802
24869526
1890976934
21636104
870485593
63070517
2707356445
282794790
2959061533
270769523
233294351
73154757
2902289058
1324227378
2606648042
821176802
425480166
2456529757
1279641403
1104008388
706566464
47494634
2959035272
55508885
2797106366
1549635102
572043149
1727375874
510002987
2171092255
331484214
587087958
351120282
59436993
22346748
714051386
262389370
167283308
2718056196
53869816
278733220
270495493
272701790
86277690
1131146245
28439893
2852561908
22574058
1120831028
29406736
3063697555
1100458928
2300238571
2923213177
2266348933
13501122
1935680246
37389361
368937846
34161812
713326014
22223971
2588321996
299682788
537027271
22349745
247696871
23280225
552450418
32857818
22455937
48472438
2784049716
264025613
18430758
114690575
25820348
300641932
2385479203
256929618
2417898081
2959158210
828296450
22623059
23910994
2691604651
8018342
467589404
2891662632
2312803273
494981165
23535665
1637572855
59086958
66063257
88001836
578803218
3014618810
25975572
2887048652
2966391220
1321885298
233787034
217798910
35466620
723931914
429438198
1006692738
3018349502
1422546212
230077978
802012910
333311787
1484651119
236234481
344383046
22605785
22840845
41126714
40198526
554800351
71952630
771244442
24101702
169833243
2797758762
56207152
181150518
252930973
59699957
1108564579
861012667
269594988
120421348
2987013481
26198761
198472013
1315849718
19913546
3059894014
1904499300
33144784
1600557554
2976337949
15374531
2892352919
624916919
63625209
151192048
375594832
9609622
76632914
717276739
459976309
129520343
476350851
68938444
20113153
2892637335
35644750
1922253924
327312396
916678369
1945683854
2705868583
3064235537
366385496
571965561
173878555
44120355
2152130431
298946789
147232794
2475518550
14407759
16386289
119199702
1680362100
2177598890
80138854
287547701
2887579265
2531315922
546641586
383943798
2269947293
2930199847
481516981
2923535251
929365638
1090319636
505082595
702605036
35061561
523526066
492048632
2174642363
750477870
2710541450
592546343
21738556
1616269609
3022316162
471589631
1664719170
3076195984
537920464
522628807
516257215
935820188
1072285884
2164920073
22999093
2954375587
223851518
49477936
3024451166
189383631
1595254298
204584844
24728702
17881969
754801375
33527714
461309128
3029292959
2928145964
343168265
630236717
3066306967
33861501
2438299764
106622094
578416130
485976221
2861721071
238352817
2744642277
2428631659
590023803
2938836979
2882388896
22607317
576895930
93115496
64855519
2872899853
1093638847
19311108
929423958
1683053797
43069125
333308380
30795707
1409775242
43508994
457411146
160132829
627243009
23757424
181012509
2754910734
37329464
1357761199
1107839724
22871737
329672329
272943586
275445020
753622014
435515048
260090748
238103606
104954985
51008247
1444065050
797077016
26986827
2184036414
177134723
1338478867
2995238508
260581939
2831757013
2428130744
2367638953
78796311
34042932
2521788078
2988747827
1243084428
3006153780
307301272
26155683
58169931
476467094
2930389837
479984505
1261319822
329772412
42386242
291612312
39206476
1920668550
166230228
103845812
27813235
19660722
2886182893
17793746
1873218510
935386124
428909910
2609075040
2227596128
541443005
51698152
181892978
24988926
417901178
16713534
187482736
384646462
30648851
211439100
2189820660
419092341
304739042
76603658
336148424
700745372
2541223472
300776319
141146064
36543033
182336607
170815903
103673685
1376795790
2578106130
522289313
25794184
152595679
2497992199
1330268850
16742287
210293629
107371055
77740926
1276580035
1014922465
367511757
397050209
1523942082
25794695
111388892
2573018796
151412447
2665444388
97637281
32345052
401230937
25795054
60572195
44025107
2381293477
49725328
32588272
2762757473
3017288564
446232661
1695442555
633434640
76687298
342069311
1067692500
45246370
176385502
2941316894
19743434
262999255
170258888
502866773
45685122
272704749
19745773
772251572
525075235
307242379
2886886602
309579914
750772255
2942513267
456517227
23427623
542294290
750525991
335749946
17959710
3042684114
2865149110
74610898
18933150
42357934
23425134
3018304886
169050594
489247802
2546859048
25807167
717530131
353150513
2231006173
2423480636
711313014
564762220
990582259
861839144
2874556382
21543880
53128314
970042028
143770402
1661663203
631361437
319568215
30828508
1244352374
17147972
769335475
266503061
2376905809
2650545602
115858337
3015585874
2940465194
2932279724
2569880294
15686545
832271982
1293774062
2852358006
816225757
3010769575
26112460
177182882
406072074
2705447054
3103605770
529090657
3066876901
38106977
21828233
376092831
243502830
1461529940
88665647
23567167
211035012
262550814
1263295052
22579682
957178860
1857973608
100920668
257632613
43674203
1445480509
397153813
417301762
608729554
22906120
22939714
2354013972
1965776832
2941145694
24297408
2322065402
217418435
24791335
990206568
466486899
1570350235
37104990
2387683832
141680286
297877558
2919058680
14567099
1424278260
607070488
82241907
127025784
417571583
1414469732
487789752
258023826
2472399354
2164272462
116545134
869873964
228473705
239551665
181965556
25055720
1451108300
343280656
45354649
137611265
68830923
2726130763
10015412
146326266
2952388024
2200317882
340080135
2321394518
2785808702
1902051997
14451059
50727917
100658892
2703225518
21451979
113312341
600703193
2492689267
16110850
220838876
118215230
497757752
2549618714
53645593
13857342
56961221
2554970816
1938960631
52563709
87354541
973811635
599185040
856134422
1244517972
33184787
162327572
825744584
216599063
241199813
2872417253
281868409
551801313
558279290
2876607031
1020954974
730167667
129788257
2760364394
113574722
773330227
18200391
316636799
139994036
372588162
2975073528
95180748
118016505
2796853410
431164382
885594949
1556522810
2498963143
1133477605
219552179
958017535
240719364
54466090
221253313
2172280173
857761
2339607547
1613898781
198773386
108241254
20313938
18110747
11447982
505513402
578914973
478304315
403502398
591097853
148673335
12385682
782172692
719961624
2899361151
2570655459
21641042
39479903
500478646
467193917
269746147
281516949
72810542
105727782
2375154235
3014051095
342065781
145004689
818035982
413779729
195745917
2938968216
402612676
3042933306
541322446
1040568314
517166803
338681206
66562646
2233914776
391840060
116074537
543218867
1356522031
191310976
824719051
29155260
4227801
757129014
188559813
30183481
752800226
2349963877
1042096441
77254498
315548215
10235202
615118318
160528143
1272250819
34517703
80816781
2519041780
208955370
352420464
21848593
2328753168
17986854
45339656
150977348
1269271862
754107733
379286698
20778778
37769574
7177992
528489716
32873578
810439189
204730956
1434732486
20850076
773300995
219582605
526411749
781783712
2166522655
84464250
519115078
27366301
2941433214
590939369
18767951
1389258938
135132634
413522813
444593393
24414732
192194274
2920593829
29160143
282646318
61422376
224833414
250132805
22414624
3056926546
2992750166
2984670883
34172656
11778352
1005637784
46904095
197844804
2949949244
2883133296
2989710804
1468990015
23395026
461414246
64811041
493726972
2650794800
28057718
183908015
67553438
1076296536
2888284186
69537445
1075166784
1059207842
102193300
2606845027
2987669000
388702412
719938506
340201168
548508976
2650938650
814476685
618881569
254317000
629884158
193586319
24825958
22874109
1641956701
1415578772
23568938
2936223325
20908942
2472817628
39935935
385359223
359579803
89894607
345938614
59023240
20051851
26186555
581668532
14871847
33824118
3017002076
1852835264
1622445516
255696250
2606833058
133238401
3013198644
236880390
197869453
30260047
569017743
37608541
101325044
594244205
2360323201
103446314
49258624
156464691
362762325
515078963
30536727
19331073
46310277
1937077465
23699500
37048488
17386863
1853840683
26979626
180528062
1637089945
121728542
407988254
33894316
98228469
377142318
93816184
26682989
1586555899
2105021
1950737006
3010585712
2752536112
2403260629
113568127
95448466
1147816752
577036222
2300851680
237559190
245299702
253830888
145331030
451001872
16497375
624257534
72549881
135044655
2681992230
307698372
550797995
1923691058
543143031
1295137284
19440175
914385122
603309157
722944597
522092019
20514070
50300185
2908349380
1669530474
373581297
1675467559
8813602
486241691
186835823
447581095
2386218230
23756831
1931173363
118613214
124599753
69492564
80686136
52320378
19580931
2815168877
711802766
3191266685
2541902209
505782890
782056154
769193119
2881996527
28064525
555709757
2907613274
21474741
2270820314
34514974
88090468
130417544
1409505343
363538069
789721045
199065159
1441100606
213414128
2272092822
2883259273
316163833
222987791
226904642
62391759
382758717
2995021182
373331421
279767235
40497080
37292428
38290921
2336221165
576228558
835272157
2601647804
632966140
727039754
1425120926
2998991400
112773959
93887651
152037848
350209691
2978028493
473165554
324746450
605572062
438753088
46076472
14709567
35588686
446631012
308759465
22349780
2973457660
231380572
17914287
1885595221
471782633
297245835
369344714
21460983
64960410
2743382851
25869897
855812407
3019454327
43683732
1631029520
22135526
84225825
1276134396
1898561444
27225245
90594003
17751519
2907788046
822481213
138559532
599745022
768978024
24144135
965157834
105257823
138294089
1456883023
16896391
792660210
166947848
1915888603
22447627
2187834654
19359977
24152253
591728335
1132531981
295421141
2283431077
52920773
2584746324
