38202 38207
45657 45655
38202 38209
33576 33583
33576 33581
40542 40561
40542 40563
40517 40539
24769 24767
36767 36765
40126 40131
34317 34330
25218 25243
41909 41891
36534 36532
40623 40627
40623 40625
42107 42125
42027 42025
50439 50445
34123 34121
31442 31400
24505 24501
45762 45764
34043 34055
26533 26542
41877 41885
29579 29582
26973 26971
39449 39454
42027 42060
36062 36060
31414 31400
50805 50814
36575 36570
36736 36734
37417 37439
42859 42861
27656 27654
26827 26823
24819 24815
41081 41093
45464 45462
49676 49680
45787 45789
36947 36950
44007 44011
36947 36952
36947 36955
48957 48964
30440 30447
50439 50447
27986 27998
28800 28792
45477 45475
45745 45747
40079 40077
29876 29883
31172 31177
31372 31369
43049 43046
40542 40541
33074 33108
33083 33105
33074 33105
33509 33507
40388 40386
33083 33108
33078 33108
33078 33105
51376 51374
33070 33105
33070 33108
50604 50611
37811 37820
37957 37971
34060 34071
51376 51383
50915 50914
41729 41736
28098 28115
24441 24439
33487 33490
36716 36718
36475 36473
28853 28856
24437 24435
37407 37404
42107 42127
31870 31862
50647 50652
31870 31860
41162 41164
40517 40541
31461 31400
37947 37954
45806 45804
45286 45307
45490 45492
45501 45475
34317 34343
51799 51801
24894 24888
34060 34068
24988 24983
