dat1_d8035_p47_s1	England	GPE
dat1_d673_p1_s3	NATO	ORG
dat1_d10199_p79_s4	MILITIAS	ORG
dat1_d1461_p45_s12	U.S._Supreme_Court	ORG
dat2_d2280_p5_s5	Americans	NORP
dat1_d476_p11_s12	Arms	PERSON
dat1_d9224_p36_s4	Second_Amendment	LAW
dat1_d8701_p45_s1	U.S.	GPE
dat1_d969_p11_s17	Militia	PERSON
dat1_d179_p4_s0	Lott	PERSON
dat1_d2927_p72_s3	Assault_Weapons	PERSON
dat1_d10154_p43_s38	Assault_Weapons	PERSON
dat1_d9320_p96_s6	Norway	GPE
dat1_d975_p21_s3	people	ORG
dat1_d6651_p7_s68	EVER	ORG
dat1_d969_p12_s6	Arms	PERSON
dat1_d2927_p82_s2	the_Second_Amendment	LAW
dat1_d9038_p3_s13	The_Second_Amendment	LAW
dat1_d764_p99_s2	MILITIAS	ORG
dat1_d9037_p100_s18	US	GPE
dat1_d6777_p31_s15	Brady	PERSON
dat3_d28080_p472_s2	AR-15s	ORG
dat1_d10133_p16_s7	Congress	ORG
dat1_d11028_p311_s4	Heller	GPE
dat3_d25130_p82_s13	D.C.	GPE
dat1_d1103_p30_s4	India	GPE
dat1_d2927_p82_s2	the_National_Guard	ORG
dat3_d28080_p516_s0	Japan	GPE
dat1_d7780_p112_s1	Guns	ORG
dat1_d669_p46_s10	the_Second_Amendment	LAW
dat3_d30649_p7_s0	EVER	ORG
dat1_d10330_p26_s25	DC	GPE
dat1_d9321_p1_s12	the_Supreme_Court	ORG
dat3_d20890_p24_s0	D.C.	GPE
dat1_d2725_p8_s12	State	ORG
dat1_d975_p30_s58	Militia	PERSON
dat1_d7651_p63_s3	the_Second_Amendment	LAW
dat1_d6777_p25_s21	the_Supreme_Court	ORG
dat1_d8858_p86_s8	the_Militia_Act	LAW
dat1_d7651_p60_s7	the_Supreme_Court	ORG
dat1_d975_p17_s4	Militia	PERSON
dat1_d1103_p23_s34	Miller	PERSON
dat3_d28080_p57_s2	England	GPE
dat1_d7780_p112_s1	GUN_CREATED_CRIME	ORG
dat1_d7840_p3_s9	Notice	ORG
dat3_d28080_p297_s0	D.C.	GPE
dat1_d10817_p38_s13	the_Federal_Government	ORG
dat1_d8541_p10_s114	GUN_CREATED_CRIME	ORG
dat1_d9827_p28_s3	U.S.	GPE
dat1_d8541_p10_s114	Guns	ORG
dat1_d1103_p25_s0	Notice	ORG
dat1_d185_p26_s9	Second_Amendment	LAW
dat3_d25130_p82_s2	the_Second_Amendment	LAW
dat1_d9232_p14_s3	D.C.	GPE
dat1_d8541_p10_s128	ATF	ORG
dat1_d48_p50_s6	the_Federal_Second_Amendment	LAW
dat1_d8478_p31_s3	The_Second_Amendment	WORK_OF_ART
dat3_d7543_p30_s0	FFL	ORG
dat1_d953_p6_s9	the_Supreme_Court	ORG
dat1_d7780_p147_s1	Switzerland	GPE
dat1_d764_p36_s6	RKBA	ORG
dat1_d7938_p1_s86	District	GPE
dat2_d991_p15_s0	The_Second_Amendment	LAW
dat3_d17959_p1_s15	Guns	ORG
dat1_d339_p75_s2	California	GPE
dat1_d1131_p135_s9	DC	GPE
dat2_d2280_p22_s0	Militia	PERSON
dat1_d1543_p92_s4	5th_Amendment	LAW
dat1_d173_p89_s22	Bear_Arms	ORG
dat1_d10003_p29_s19	America	GPE
dat1_d10359_p2_s2	the_United_States	GPE
dat1_d4786_p1_s9	US	GPE
dat1_d48_p50_s6	the_United_States	GPE
dat1_d8977_p15_s22		ORG
dat3_d28080_p503_s5	D.C.	GPE
dat1_d1108_p3_s0	America	GPE
dat1_d4813_p8_s5	the_Second_Amendment	LAW
dat1_d10622_p121_s2	the_Second_Amendment	LAW
dat1_d8858_p86_s8	Congress	ORG
dat1_d546_p153_s17	Constitution	LAW
dat1_d7780_p147_s1	Canada	GPE
dat1_d10570_p3_s1	the_Second_Amendment	LAW
dat1_d8858_p86_s8	the_2nd_Amendment	LAW
dat1_d9841_p34_s13	the_Second_Amendment	LAW
dat1_d296_p40_s9	England	GPE
dat1_d339_p75_s2	the_9th_Circuit_Court	ORG
dat1_d9095_p1_s11	US	GPE
dat1_d975_p30_s40	Illinois	GPE
dat1_d1103_p15_s1	SCOTUS	ORG
dat2_d2280_p22_s0	State	ORG
dat1_d9919_p3_s1	NRA	ORG
dat1_d1660_p29_s16	Militia	PERSON
dat1_d764_p99_s2	the_Second_Amendment	LAW
dat1_d10783_p47_s1	Florida	GPE
dat1_d8711_p163_s3	the_Firearm_Owners_Protection_Act	ORG
dat1_d10121_p8_s0	the_Second_Amendment	LAW
dat3_d28080_p215_s0	Founders	ORG
dat1_d764_p122_s20	MILITIAS	ORG
dat1_d8003_p42_s0	Second_Amendment	LAW
dat1_d2928_p16_s7	the_Second_Amendment	LAW
dat1_d9580_p75_s13	Americans	NORP
dat1_d9820_p69_s2	Brady	PERSON
dat1_d4400_p227_s2	Zimbabwe	GPE
dat3_d28080_p215_s0	NATO	ORG
dat1_d7615_p3_s1	the_Firearms_Owners_Protection_Act	LAW
dat1_d185_p26_s9	the_Second_Amendment	LAW
dat1_d1076_p25_s6	Norway	GPE
dat1_d7615_p3_s1	the_Brady_Handgun_Violence_Prevention_Act	ORG
dat1_d10145_p72_s17	the_Supreme_Court	ORG
dat1_d1521_p1_s16	Tim	PERSON
dat1_d2927_p12_s28	NAME	ORG
dat3_d28080_p177_s4	SCOTUS	ORG
dat1_d9100_p1_s4	Guns	ORG
dat1_d10662_p334_s15	the_Fourteenth_Amendments	ORG
dat1_d8682_p11_s3	XXXX_Doc	PERSON
dat1_d6651_p7_s46	the_Federal_Second_Amendment	LAW
dat1_d5817_p7_s16	WMD	ORG
dat1_d10735_p61_s9	Lott	PERSON
dat1_d4400_p206_s3	over_50%	PERCENT
dat1_d1543_p108_s2	Constitution	LAW
dat1_d4400_p390_s3	the_National_Guard	ORG
dat1_d764_p46_s2	Lott	PERSON
dat1_d10395_p11_s5	Guns	ORG
dat3_d28080_p581_s6	Japan	GPE
dat1_d8541_p6_s2	NATO	ORG
dat1_d9009_p48_s6	Constitution	LAW
dat1_d10294_p26_s9	Gun_Control	ORG
dat1_d6116_p12_s1	Rape	PRODUCT
dat1_d969_p12_s6	the_United_States_America	GPE
dat3_d28080_p40_s4	England	GPE
dat3_d28080_p179_s1	Canada	GPE
dat1_d9009_p110_s2	the_Second_Amendment	LAW
dat1_d11028_p212_s4	the_Second_Amendment	LAW
dat1_d1461_p8_s9	Second_Amendment	LAW
dat1_d669_p24_s11	The_Second_Amendment_to_the_Constitution_of	LAW
dat3_d25130_p38_s9	the_United_States_America	GPE
dat1_d173_p89_s22	Keep	PERSON
dat1_d185_p26_s17	WMD	ORG
dat1_d185_p26_s9	Chicago	GPE
dat1_d546_p191_s9	Lautenberg	GPE
dat1_d2606_p2_s2	the_Second_Amendment	LAW
dat1_d2158_p13_s7	US	GPE
dat1_d8978_p14_s16	Court	ORG
dat1_d953_p6_s9	WMD	ORG
dat1_d1194_p3_s14	Galileo	PRODUCT
dat1_d10783_p47_s1		ORG
dat1_d10395_p11_s5	Canada	GPE
dat1_d1660_p64_s10	the_Second_Amendment	LAW
dat1_d8682_p11_s3	the_Firearm_Owners_Protection_Act	ORG
dat1_d185_p25_s1	BJS	ORG
dat1_d2448_p6_s12	D.C.	GPE
dat1_d6116_p12_s1	Canada	GPE
dat1_d10395_p11_s5	GUN_CREATED_CRIME	ORG
dat1_d8332_p14_s0	D.C.	GPE
dat1_d2606_p2_s2	The_Second_Amendment	WORK_OF_ART
dat1_d1300_p6_s2	America	GPE
dat1_d8231_p33_s14	the_Brady_Law	LAW
dat1_d10154_p1_s266	the_Virginia_Constitution	LAW
dat3_d25130_p34_s32	MAIN	ORG
dat1_d764_p36_s6	the_National_Guard	ORG
dat1_d8025_p34_s37	Court	ORG
dat1_d8366_p11_s9	the_Second_Amendment	LAW
dat1_d4400_p154_s2	Australia	GPE
dat1_d7967_p2_s1	Second_Amendment	LAW
dat3_d28080_p179_s1	US	GPE
dat1_d1103_p23_s34	the_Second_Amendment	LAW
dat3_d25130_p38_s9	Militia	GPE
dat1_d8478_p31_s3	Militia	PERSON
dat1_d10662_p22_s16	District	GPE
dat1_d7967_p39_s0	The_Supreme_Court	ORG
dat1_d8329_p84_s1	America	GPE
dat1_d7815_p14_s3	over_50%	PERCENT
dat1_d9636_p31_s2	Galileo	PRODUCT
dat1_d534_p95_s4	Swiss	NORP
dat1_d10264_p66_s2	Founders	ORG
dat1_d173_p89_s22	Constitution	LAW
dat1_d9979_p25_s1	the_Second_Amendment	LAW
dat1_d8478_p31_s3	the_Second_Amendment	LAW
dat1_d48_p27_s20	Guns	ORG
dat1_d8654_p38_s3	Amendment	PRODUCT
dat1_d7615_p3_s1	the_District_of_Columbia	GPE
dat1_d10783_p47_s1	Georgia	GPE
dat1_d1789_p7_s33	ATF	ORG
dat1_d48_p27_s20	GUN_CREATED_CRIME	ORG
dat1_d969_p12_s6	State	ORG
dat3_d25130_p34_s32	Bloomberg	PERSON
dat1_d7364_p42_s4	XXXX	ORG
dat1_d764_p77_s6	Heller	PERSON
dat1_d2606_p2_s2	Militia	PERSON
dat3_d28080_p536_s0	NATO	ORG
dat1_d8035_p69_s0	Laws	PERSON
dat1_d8977_p15_s22	Wisconsin	GPE
dat1_d4400_p390_s3	Arms	PERSON
dat1_d185_p26_s9	America	GPE
dat1_d975_p30_s58	the_Second_Amendment	LAW
dat1_d5349_p29_s14	the_Second_Amendment	LAW
dat1_d185_p26_s8	over_50%	PERCENT
dat1_d820_p22_s11	D.C.	GPE
dat1_d185_p26_s8	DC	GPE
dat1_d9054_p19_s12	unregistered	ORG
dat1_d2927_p30_s12	the_Supreme_Court	ORG
dat1_d969_p12_s22	the_Militia_Act	LAW
dat1_d8858_p34_s22	the_Second_Amendment	LAW
dat1_d9009_p99_s7	English	NORP
dat3_d28080_p581_s6	Norway	GPE
dat1_d623_p59_s9	NRA	ORG
dat1_d173_p89_s22	Second_Amendment	LAW
dat1_d8342_p19_s16	England	GPE
dat1_d969_p11_s17	State	ORG
dat1_d9009_p95_s9	Gun_Control	ORG
dat1_d674_p5_s21	America	GPE
dat1_d339_p75_s2	Assault_Weapons_Control_Act	LAW
dat1_d8858_p51_s13	Mexico	GPE
dat1_d10098_p170_s2	Court	ORG
dat1_d185_p26_s8	Chicago	GPE
dat1_d9805_p1_s0	Arizona	GPE
dat1_d9559_p18_s2	FFL	ORG
dat1_d9270_p74_s10	England	GPE
dat1_d969_p12_s22	2nd_Amendment	LAW
dat1_d764_p122_s20	MAIN	ORG
dat1_d10199_p260_s6	Amendment	PRODUCT
dat1_d160_p8_s7	XXXX_Doc	PERSON
dat3_d25130_p38_s9	The_Second_Amendment_to_the_Constitution_of	LAW
dat1_d4813_p8_s5	Handguns	ORG
dat1_d7997_p21_s4	Second_Amendment	LAW
dat1_d1103_p15_s1	Militia	PERSON
dat1_d7507_p32_s1	over_50%	PERCENT
dat3_d25130_p82_s2	Bear_Arms	ORG
dat1_d10330_p26_s25	the_United_States	GPE
dat1_d7780_p112_s1	England	GPE
dat1_d9037_p66_s4	Notice	ORG
dat3_d28080_p31_s3	the_2nd_Amendment	LAW
dat1_d7780_p115_s5	Federalist	NORP
dat1_d9009_p36_s2	Second_Amendment	LAW
dat1_d1461_p29_s23	Second_Amendment	LAW
dat3_d25130_p82_s2	the_National_Guard	ORG
dat1_d9009_p95_s9	Constitution	LAW
dat1_d1461_p8_s9	Arms	PERSON
dat1_d9009_p48_s6	Keep	PERSON
dat3_d9175_p15_s24	Canada	GPE
dat1_d667_p3_s15	D.C.	GPE
dat1_d565_p24_s17	Sarah_Brady	PERSON
dat1_d9820_p69_s2	Liberal	ORG
dat1_d1168_p22_s28	Guns	ORG
dat1_d50_p3_s3	the_Militia_Act	LAW
dat1_d1103_p15_s1	State	ORG
dat1_d9803_p9_s5	US	GPE
dat1_d10318_p16_s7	US	GPE
dat1_d9009_p110_s2	Chicago	GPE
dat1_d1103_p46_s5	Japan	GPE
dat1_d9330_p9_s17	Second_Amendment	LAW
dat1_d7482_p7_s21	the_Second_Amendment	LAW
dat1_d8858_p188_s8	US	GPE
dat1_d669_p24_s11	State	ORG
dat1_d9827_p28_s3	XXXX_Doc	PERSON
dat1_d546_p187_s14	USA	GPE
dat1_d8089_p15_s9	England	GPE
dat1_d9496_p61_s1	the_Second_Amendment	LAW
dat1_d8231_p33_s14	UK	GPE
dat1_d546_p187_s14	Brit	PERSON
dat1_d10352_p38_s12	a_%	PERCENT
dat1_d9321_p1_s12	the_Federal_Second_Amendment	LAW
dat1_d10060_p98_s8	the_Second_Amendment	LAW
dat1_d122_p3_s0	FACT	ORG
dat1_d9009_p99_s7	the_United_States	GPE
dat1_d9099_p14_s2	Congress	ORG
dat1_d48_p50_s6	U.S._Supreme_Court	ORG
dat1_d975_p30_s58	The_Second_Amendment_to_the_Constitution_of	LAW
dat1_d10098_p145_s1	Heller	PERSON
dat3_d25130_p34_s15	US	GPE
dat1_d8875_p8_s3	the_Supreme_Court	ORG
dat1_d1103_p25_s0	NATO	ORG
dat1_d7938_p1_s86	the_Second_Amendment	LAW
dat1_d10622_p121_s2	Heller	PERSON
dat1_d4400_p26_s8	XXXX_Doc	PERSON
dat1_d8858_p86_s8	2nd_Amendment	LAW
dat1_d296_p40_s9	50%	PERCENT
dat1_d9601_p14_s6	Swiss	NORP
dat1_d669_p24_s11	the_United_States	GPE
dat1_d4400_p227_s2	D.C.	GPE
dat1_d10154_p35_s10	Galileo	PRODUCT
dat1_d975_p21_s3	Arms	PERSON
dat1_d8682_p11_s3	Constitution	LAW
dat1_d9580_p75_s13	Galileo	PRODUCT
dat1_d8977_p15_s22	Illinois	GPE
dat1_d9320_p96_s6	US	GPE
dat1_d8977_p15_s22	NRA	ORG
dat1_d10264_p66_s2	the_Second_Amendment	LAW
dat1_d173_p106_s54	America	GPE
dat1_d8003_p4_s1	America	GPE
dat1_d10351_p11_s1	Constitution	LAW
dat1_d9330_p9_s17	Chicago	GPE
dat1_d534_p95_s4	Gun_Control	ORG
dat1_d296_p4_s2	US	GPE
dat1_d6125_p1_s76	Police	ORG
dat1_d669_p46_s10	Australia	GPE
dat1_d2417_p65_s1	D.C.	GPE
dat3_d37757_p29_s3	Galileo	PRODUCT
dat3_d20890_p24_s0	FACT	ORG
dat1_d975_p17_s4	the_United_States_America	GPE
dat1_d9636_p128_s59	the_Second_Amendment	LAW
dat1_d8682_p11_s3	Reid	PERSON
dat3_d9175_p15_s24	Australia	GPE
dat1_d7602_p15_s11	Japan	GPE
dat3_d25130_p38_s9	the_Second_Amendment	LAW
dat1_d640_p9_s1	NRA	ORG
dat1_d10154_p50_s1	the_Second_Amendment	LAW
dat1_d8405_p24_s2	the_Second_Amendment	LAW
dat1_d9580_p75_s13	the_Supreme_Court	ORG
dat1_d9345_p1_s37	Second_Amendment	LAW
dat1_d10011_p156_s1	Guns	ORG
dat3_d25130_p38_s9	Arms	PERSON
dat1_d9345_p1_s37	the_Second_Amendment	LAW
dat1_d48_p50_s6	the_Second_Amendment	LAW
dat2_d2280_p22_s0	Arms	PERSON
dat1_d7651_p60_s7	the_Second_Amendment	LAW
dat1_d565_p24_s17	America	GPE
dat1_d10847_p5_s279	WEAPONS	PERSON
dat1_d185_p26_s9	New_York	GPE
dat1_d48_p50_s6	Second_Amendment	LAW
dat1_d9681_p45_s27	Gun_Control	ORG
dat3_d28080_p457_s1	5th_Amendment	LAW
dat3_d9175_p15_s24	USA	GPE
dat1_d8858_p211_s6	Liberal	ORG
dat1_d7651_p110_s2	Guns	ORG
dat1_d9580_p75_s13	the_Second_Amendment	LAW
dat1_d9009_p110_s2	the_Federal_Second_Amendment	LAW
dat1_d764_p77_s6	the_Second_Amendment	LAW
dat1_d2725_p10_s135	Arms	PERSON
dat1_d673_p1_s3	al	PERSON
dat1_d623_p7_s2	England	GPE
dat1_d9037_p100_s18	California	GPE
dat1_d2927_p12_s28	Amendment	PRODUCT
dat1_d10199_p260_s6	the_Constitution	LAW
dat3_d11417_p1_s1	Canada	GPE
dat1_d8858_p138_s3	FFL	ORG
dat1_d173_p106_s48	America	GPE
dat1_d5817_p7_s7	BEAR	ORG
dat1_d9270_p73_s3	Handgun_Control,_Inc.	ORG
dat1_d8478_p16_s4	The_Second_Amendment_to_the_Constitution_of	LAW
dat2_d2280_p22_s0	The_Second_Amendment_to_the_Constitution_of	LAW
dat1_d296_p62_s5	Arms	PERSON
dat1_d8025_p29_s1	White_House	ORG
dat1_d9820_p69_s2	Constitution	LAW
dat3_d28080_p179_s1	the_Second_Amendment	LAW
dat3_d25130_p82_s2	Militia	GPE
dat1_d9009_p110_s2	the_Supreme_Court	ORG
dat1_d8004_p76_s10	Gun_Control	ORG
dat1_d2927_p12_s28	The_Second_Amendment	LAW
dat3_d12361_p48_s8	Guns	ORG
dat1_d10474_p1_s8	Guns	ORG
dat3_d25130_p82_s2	Keep	PERSON
dat1_d9636_p31_s2	Constitution	LAW
dat1_d8089_p15_s9	US	GPE
dat1_d407_p5_s5	NATO	ORG
dat1_d8636_p101_s18		ORG
dat1_d4400_p26_s8	over_50%	PERCENT
dat1_d4400_p390_s3	the_Second_Amendment	LAW
dat1_d8757_p8_s0	UK	GPE
dat1_d185_p26_s9	DC	GPE
dat1_d476_p15_s2	UK	GPE
dat1_d975_p30_s58	Arms	PERSON
dat1_d9105_p1_s185	Guns	ORG
dat1_d9330_p9_s17	the_Federal_Second_Amendment	LAW
dat1_d623_p30_s15	Notice	ORG
dat3_d28080_p179_s1	UK	GPE
dat1_d8004_p76_s10	Galileo	PRODUCT
dat1_d4813_p8_s5	Congress	ORG
dat1_d10403_p408_s3	Bear_Arms	ORG
dat1_d9496_p61_s1	US	GPE
dat1_d10368_p27_s3	ENTIRELY	ORG
dat1_d10351_p11_s1	XXXX_Doc	PERSON
dat3_d28080_p150_s1	Michael_Bloomberg	PERSON
dat1_d173_p88_s3	the_Supreme_Court	ORG
dat1_d1660_p64_s10	American	NORP
dat1_d9919_p5_s16	the_Brady_Law	LAW
dat1_d8543_p117_s10	England	GPE
dat1_d1660_p77_s4	Militia	GPE
dat1_d9100_p1_s22	Straw_Purchase	PERSON
dat3_d28080_p536_s0	Galileo	PRODUCT
dat1_d2606_p2_s2	Miller	PERSON
dat1_d546_p119_s9	Gun_Control	ORG
dat1_d50_p3_s3	2nd_Amendment	LAW
dat1_d8182_p287_s18	Extremist	ORG
dat3_d28080_p177_s4	the_2nd_Amendment	LAW
dat1_d8342_p19_s16	Constitution	LAW
dat1_d8231_p33_s14	Australia	GPE
dat1_d7651_p140_s2	WEAPONS	PERSON
dat1_d9738_p35_s12	the_United_States	GPE
dat1_d1660_p77_s4	MILITIAS	ORG
dat1_d173_p106_s55	California	GPE
dat1_d8541_p6_s2	Galileo	PRODUCT
dat1_d9979_p14_s2	Second_Amendment	LAW
dat1_d8035_p75_s0	US	GPE
dat1_d589_p67_s2	Bush	PERSON
dat1_d6509_p2_s3	Timothy_McVeigh	PERSON
dat1_d669_p46_s10	Japan	GPE
dat1_d10662_p92_s1	REAL	PERSON
dat1_d764_p99_s2	The_Second_Amendment	LAW
dat1_d10098_p145_s1	XIVth	ORG
dat1_d9152_p29_s2	the_Second_Amendment	LAW
dat3_d28080_p179_s1	the_United_States	GPE
dat1_d173_p88_s3	Amendment	PRODUCT
dat1_d7929_p4_s0		ORG
dat1_d9580_p75_s13	the_Constitution	LAW
dat1_d8543_p197_s9	Michael_Bloomberg	PERSON
dat1_d10098_p170_s2	Constitutional	ORG
dat1_d9009_p110_s2	NAME	ORG
dat1_d975_p11_s3	Canada	GPE
dat1_d296_p65_s6	the_Second_Amendment	LAW
dat1_d565_p24_s17	Arms	PERSON
dat1_d10445_p2_s19	the_Supreme_Court	ORG
dat1_d2927_p72_s3	Militia	GPE
dat3_d8092_p6_s2	Law	PERSON
dat1_d669_p46_s10	UK	GPE
dat1_d7840_p37_s4	Australia	GPE
dat1_d8891_p14_s2	US	GPE
dat1_d9009_p36_s2	the_Second_Amendment	LAW
dat1_d8035_p59_s4	America	GPE
dat1_d1461_p29_s23	the_Second_Amendment	LAW
dat1_d10719_p24_s0	the_Second_Amendment	LAW
dat1_d969_p11_s17	SCOTUS	ORG
dat1_d10011_p190_s1	Swiss	NORP
dat1_d10662_p179_s22	Galileo	PRODUCT
dat1_d8858_p86_s8	the_Second_Amendment	LAW
dat1_d8858_p201_s2	U.S.	GPE
dat1_d10237_p37_s3	Address_of_PA_Minority	ORG
dat1_d6455_p22_s6	the_Second_Amendment	LAW
dat3_d28080_p179_s1	USA	GPE
dat3_d28080_p248_s24	the_US_Bill_of_Rights	LAW
dat1_d4400_p390_s3	Militia	PERSON
dat3_d25130_p82_s2	the_Virginia_Constitution	LAW
dat1_d669_p24_s11	the_United_States_America	GPE
dat1_d10395_p11_s5	Switzerland	GPE
dat1_d8858_p201_s2	Extremist	ORG
dat1_d9288_p22_s9	Define	PERSON
dat1_d8654_p44_s51	MILITIAS	ORG
dat1_d764_p122_s12	2nd_Amendment	LAW
dat3_d11417_p1_s1	a_%	PERCENT
dat1_d10570_p3_s1	Founders	ORG
dat3_d11417_p1_s1	USA	GPE
dat1_d9321_p1_s12	the_Second_Amendment	LAW
dat1_d9841_p104_s8	Congress	ORG
dat1_d9129_p13_s7	The_Second_Amendment	LAW
dat1_d8089_p15_s9	UK	GPE
dat1_d764_p122_s20	2nd_Amendment	LAW
dat1_d10403_p408_s3	Constitution	LAW
dat1_d9270_p73_s3	The_Center_to_Prevent_Handgun_Violence	ORG
dat1_d9803_p13_s7	Canada	GPE
dat1_d10817_p64_s9	Militia	GPE
dat1_d185_p26_s9	over_50%	PERCENT
dat1_d10403_p408_s3	Keep	PERSON
dat1_d2928_p3_s3	Constitution	LAW
dat1_d4400_p390_s3	the_Virginia_Constitution	LAW
dat1_d10154_p35_s10	States	GPE
dat1_d2927_p82_s2	the_Supreme_Court	ORG
dat1_d969_p12_s6	The_Second_Amendment_to_the_Constitution_of	LAW
dat1_d4012_p6_s14	Amendment	PRODUCT
dat1_d9211_p29_s1	America	GPE
dat1_d10057_p146_s9	The_Second_Amendment	LAW
dat1_d10910_p35_s1	the_Brady_Law	LAW
dat1_d8003_p42_s0	American	NORP
dat1_d667_p3_s15	Notice	ORG
dat1_d1660_p62_s0	the_Firearm_Owners_Protection_Act	ORG
dat1_d907_p4_s0	Brit	PERSON
dat2_d991_p15_s0	the_Second_Amendment	LAW
dat1_d1461_p8_s9	the_XIVth_Amendment	LAW
dat1_d10817_p43_s118	State	ORG
dat1_d975_p17_s4	Arms	PERSON
dat1_d10713_p6_s9	America	GPE
dat1_d8701_p45_s1	Swiss	NORP
dat1_d9841_p158_s1	the_Supreme_Court	ORG
dat1_d10041_p22_s11	the_Second_Amendment	LAW
dat3_d28080_p234_s1	the_Second_Amendment	LAW
dat1_d2927_p82_s2	MILITIAS	ORG
dat1_d1789_p7_s33	Waffenerwerbsschein	GPE
dat1_d8053_p1_s4	England	GPE
dat2_d970_p13_s2	U.S.	GPE
dat1_d7651_p155_s1	US	GPE
dat1_d2417_p72_s2	Japan	GPE
dat1_d8636_p101_s18	Lott	PERSON
dat1_d2158_p13_s7	America	GPE
dat2_d2280_p1_s0	the_Second_Amendment	LAW
dat1_d185_p26_s8	New_York	GPE
dat1_d9841_p271_s10	The_Second_Amendment	LAW
dat1_d4400_p154_s2	Rape	PRODUCT
dat1_d764_p1_s6	the_Supreme_Court	ORG
dat1_d8543_p13_s10	Heller	PERSON
dat1_d9038_p3_s13	the_Second_Amendment	LAW
dat3_d28080_p215_s0	the_Second_Amendment	LAW
dat3_d37823_p93_s112	US	GPE
dat1_d1461_p8_s9	Bill_of_Rights	LAW
dat1_d7651_p63_s3	The_Second_Amendment	WORK_OF_ART
dat1_d296_p40_s9	about_0.2%	PERCENT
dat1_d9841_p34_s13	Heller	PERSON
dat1_d10441_p12_s12	Aymette	PERSON
dat1_d546_p187_s14	British	NORP
dat3_d11417_p1_s1	US	GPE
dat1_d8757_p8_s0	Australia	GPE
dat1_d476_p15_s2	Australia	GPE
dat1_d8701_p45_s1	The_Center_to_Prevent_Handgun_Violence	ORG
dat1_d185_p19_s0	America	GPE
dat1_d969_p12_s6	the_Second_Amendment	LAW
dat1_d5767_p8_s2	America	GPE
dat1_d11028_p311_s4	the_Due_Process_Clause	ORG
dat1_d173_p88_s3	The_US_Curcuit_Court	ORG
dat1_d9321_p1_s12	Second_Amendment	LAW
dat1_d7651_p63_s3	Miller	PERSON
dat3_d28080_p588_s5	Brady	PERSON
dat1_d185_p19_s0	Arms	PERSON
dat3_d28080_p177_s4	the_Militia_Act	LAW
dat1_d8543_p42_s12	CDC	ORG
dat3_d28080_p40_s4	FACT	ORG
dat2_d2280_p1_s0	America	GPE
dat1_d2967_p22_s3	Second_Amendment	LAW
dat1_d8858_p51_s13	America	GPE
dat1_d8478_p31_s3	Miller	PERSON
dat1_d4813_p8_s5	Second_Amendment	LAW
dat1_d185_p19_s0	Sarah_Brady	PERSON
dat3_d25798_p63_s29	Constitution	LAW
dat1_d907_p4_s0	British	NORP
dat3_d28080_p234_s1	Amendment	PRODUCT
dat1_d10351_p11_s1	Gun_Control	ORG
dat1_d9738_p35_s12	over_50%	PERCENT
dat1_d339_p75_s2	Silveira	GPE
dat1_d7967_p39_s0	the_Second_Amendment	LAW
dat1_d1145_p66_s2	US	GPE
dat3_d25130_p34_s32	California	GPE
dat2_d2280_p22_s0	the_Second_Amendment	LAW
dat3_d28080_p425_s1	Brady	PERSON
dat1_d10003_p29_s19	Laws_and_Although	WORK_OF_ART
dat1_d9805_p1_s0	Lott	PERSON
dat1_d9099_p14_s2	Constitution	LAW
dat1_d10199_p260_s13	the_Second_Amendment	LAW
dat1_d1461_p8_s9	Constitutional	ORG
dat1_d10474_p1_s5	America	GPE
dat1_d7780_p147_s1	Finland	GPE
dat1_d7482_p18_s9	ENTIRELY	ORG
dat1_d9009_p95_s9	U.S.	GPE
dat1_d173_p88_s3	the_Second_Amendment	LAW
dat1_d10265_p79_s9	America	GPE
dat1_d8115_p24_s7	Galileo	PRODUCT
dat1_d10154_p1_s266	the_Second_Amendment	LAW
dat1_d10199_p260_s13	The_Second_Amendment	LAW
dat1_d10662_p87_s4	Assault_Weapons_Ban	PERSON
dat2_d991_p6_s3	Brady	PERSON
dat1_d10057_p115_s7		ORG
dat1_d48_p4_s2	the_United_States	GPE
dat3_d8092_p6_s2	Megan	PERSON
dat1_d8711_p163_s3	the_Supreme_Court	ORG
dat1_d10199_p79_s4	the_Second_Amendment	LAW
dat1_d660_p10_s1	the_Federal_Second_Amendment	LAW
dat1_d8105_p18_s63	Firearm_Owners_Protection_Act	LAW
dat1_d9009_p110_s2	the_Constitution	LAW
dat1_d9919_p1_s26	Militia	GPE
dat1_d10441_p12_s12	Galileo	PRODUCT
dat3_d25130_p38_s9	State	ORG
dat1_d1103_p46_s6	Japan	GPE
dat1_d9979_p25_s1	Scalia	PERSON
dat1_d8858_p138_s3	ATF	ORG
dat1_d10817_p43_s118	The_Second_Amendment_to_the_Constitution_of	LAW
dat1_d560_p6_s7	England	GPE
dat1_d10359_p2_s2	US	GPE
dat1_d9037_p36_s7	the_Second_Amendment	LAW
dat1_d8858_p86_s8	Handguns	ORG
dat1_d10145_p58_s22	Notice	ORG
dat1_d975_p30_s58	the_United_States_America	GPE
dat1_d546_p191_s9	the_Brady_Law	LAW
dat1_d10662_p351_s38	Keep	PERSON
dat1_d1194_p3_s14	Constitution	LAW
dat1_d185_p26_s8	US	GPE
dat1_d9009_p48_s6	Second_Amendment	LAW
dat1_d764_p122_s20	the_Militia_Act	LAW
dat1_d185_p25_s1	England	GPE
dat1_d673_p1_s3	Galileo	PRODUCT
dat3_d28080_p177_s4	Amendment	PRODUCT
dat1_d9979_p25_s1	The_Supreme_Court	ORG
dat1_d9345_p18_s0	the_Militia_Act	LAW
dat1_d10662_p87_s4	Second_Amendment	LAW
dat1_d5977_p11_s11		ORG
dat1_d8008_p28_s2	Swiss	NORP
dat1_d669_p46_s10	over_50%	PERCENT
dat1_d1660_p58_s0	Amendment	PRODUCT
dat1_d2927_p12_s28	the_Second_Amendment	LAW
dat1_d7815_p14_s3	US	GPE
dat3_d37757_p34_s1	the_Firearm_Owners_Protection_Act	ORG
dat1_d122_p3_s0	the_Second_Amendment	LAW
dat1_d10149_p6_s3	Less_than_1%	PERCENT
dat1_d1103_p25_s0	Galileo	PRODUCT
dat1_d1148_p5_s26	Constitution	LAW
dat1_d9820_p69_s2	the_Second_Amendment	LAW
dat1_d10121_p1_s44	Second_Amendment	LAW
dat3_d25130_p82_s2	State	ORG
dat3_d28080_p248_s24	Background	ORG
dat1_d546_p191_s9	Waffenerwerbsschein	GPE
dat1_d9330_p9_s17	Americans	NORP
dat1_d10662_p351_s38	Constitution	LAW
dat1_d1461_p8_s9	the_U.S._Constitution	LAW
dat1_d6455_p22_s6	Militia	PERSON
dat1_d9054_p19_s12	the_Supreme_Court	ORG
dat1_d10199_p260_s6	The_Second_Amendment	LAW
dat1_d1461_p8_s9	KEEP	ORG
dat1_d4469_p9_s6	England	GPE
dat1_d9919_p5_s16	US	GPE
dat1_d8858_p34_s22	Constitution	LAW
dat1_d8701_p45_s1	Lott	PERSON
dat1_d122_p3_s0	the_Fifth_Amendment	LAW
dat1_d6455_p22_s6	the_National_Guard	ORG
dat1_d7651_p63_s3	Militia	PERSON
dat1_d953_p6_s9	Heller	PERSON
dat1_d10352_p38_s12	the_United_States	GPE
dat1_d1660_p29_s16	The_Miller_Court	ORG
dat1_d6116_p12_s1	USA	GPE
dat1_d953_p6_s9	the_Second_Amendment	LAW
dat1_d48_p50_s6	the_Constitutions_of_Virginia	ORG
dat1_d10441_p12_s12	Lott	PERSON
dat1_d9009_p36_s2	Bear_Arms	ORG
dat3_d12892_p1_s0	the_National_Guard	ORG
dat3_d37823_p93_s112	D.C.	GPE
dat1_d1461_p8_s9	BEAR	ORG
dat1_d969_p11_s17	the_National_Guard	ORG
dat1_d9009_p36_s2	the_U.S._Constitution	LAW
dat1_d9009_p36_s2	Keep	PERSON
dat1_d8105_p18_s63	Gun_Control_Act	LAW
dat1_d9037_p36_s7	DC	GPE
dat1_d8858_p34_s22	Liberal	ORG
dat1_d10371_p8_s0	Australia	GPE
dat1_d10662_p87_s4	the_Second_Amendment	LAW
dat1_d407_p5_s5	Galileo	PRODUCT
dat1_d8035_p116_s1	US	GPE
dat1_d10662_p22_s16	the_Second_Amendment	LAW
dat1_d8858_p3_s29	Militia	GPE
dat1_d185_p19_s0	al	PERSON
dat1_d2725_p8_s12	the_United_States_America	GPE
dat3_d28080_p574_s0	Japan	GPE
dat3_d28080_p234_s14	XXXX	ORG
dat1_d8003_p42_s0	the_Second_Amendment	LAW
dat1_d5818_p1_s5	Jay_Wachtel	PERSON
dat1_d8478_p16_s4	the_United_States_America	GPE
dat1_d9463_p7_s0	UK	GPE
dat1_d6753_p78_s3	America	GPE
dat1_d4400_p206_s3	US	GPE
dat3_d25130_p38_s9	the_National_Guard	ORG
dat1_d10041_p22_s11	NRA	ORG
dat1_d1103_p15_s1	the_National_Guard	ORG
dat1_d8405_p24_s2	District	GPE
dat3_d28080_p179_s1	over_50%	PERCENT
dat1_d10776_p33_s22	Lott	PERSON
dat1_d9496_p61_s1	the_Supreme_Court	ORG
dat1_d9681_p45_s27	Galileo	PRODUCT
dat1_d2927_p30_s12	the_Federal_Second_Amendment	LAW
dat1_d6455_p22_s6	Arms	PERSON
dat1_d10662_p334_s15	the_Second_Amendment	LAW
dat1_d5376_p2_s8	Americans	NORP
dat1_d10662_p334_s15	The_Seventh_Circuit	ORG
dat1_d969_p12_s6	Militia	PERSON
dat1_d5817_p7_s7	Constitutional	ORG
dat1_d10282_p7_s0	D.C.	GPE
dat1_d10199_p260_s13	the_Supreme_Court	ORG
dat1_d10041_p28_s26	the_Second_Amendment	LAW
dat1_d10121_p8_s0	DC	GPE
dat1_d9009_p110_s2	Second_Amendment	LAW
dat1_d296_p4_s2	the_United_States	GPE
dat3_d28080_p241_s0	D.C.	GPE
dat1_d173_p72_s12	California	GPE
dat1_d8089_p15_s9	America	GPE
dat1_d10351_p11_s1	Liberal	ORG
dat1_d10395_p11_s5	Finland	GPE
dat3_d25130_p38_s2	Japan	GPE
dat1_d2725_p8_s12	the_Second_Amendment	LAW
dat2_d2280_p22_s0	the_Virginia_Constitution	LAW
dat1_d9330_p9_s17	the_Second_Amendment	LAW
dat2_d2280_p22_s0	the_United_States_America	GPE
dat1_d6116_p16_s6	XXXX_Doc	PERSON
dat1_d5376_p1_s4	Heller	PERSON
dat1_d9345_p18_s0	2nd_Amendment	LAW
dat1_d640_p9_s1	D.C.	GPE
dat1_d623_p47_s9	D.C.	GPE
dat3_d12361_p48_s8	GUN_CREATED_CRIME	ORG
dat1_d10474_p1_s8	GUN_CREATED_CRIME	ORG
dat1_d10149_p113_s17	DOJ	ORG
dat1_d9636_p128_s59	The_Second_Amendment	LAW
dat1_d8858_p34_s22	the_Constitution	LAW
dat1_d7602_p66_s4	Constitution	LAW
dat1_d2927_p12_s28	WMD	ORG
dat1_d5818_p1_s5	ATF	ORG
dat1_d1103_p42_s2	Gun_Control	ORG
dat1_d9054_p19_s12	Supreme_Court	ORG
dat1_d623_p29_s7	Arms	PERSON
dat1_d9100_p1_s22	England	GPE
dat1_d975_p30_s58	State	ORG
dat1_d9913_p84_s12	the_2A,_Constitution_and_self-defense	LAW
dat1_d10154_p11_s42	Heller	PERSON
dat1_d8875_p8_s3	Galileo	PRODUCT
dat1_d10403_p138_s4	ATF	ORG
dat3_d7543_p6_s0	DC	GPE
dat1_d5817_p7_s7	KEEP	ORG
dat1_d6753_p139_s5	REAL	PERSON
dat1_d1660_p58_s0	Second_Amendment	LAW
dat1_d7780_p147_s1	US	GPE
dat1_d7507_p8_s1	D.C.	GPE
dat1_d9009_p48_s6	Bear_Arms	ORG
dat1_d10662_p22_s16	America	GPE
dat1_d185_p26_s8	Second_Amendment	LAW
dat1_d7780_p112_s1	UK	GPE
dat1_d1148_p5_s26		ORG
dat1_d8342_p19_s16	Liberal	ORG
dat1_d296_p17_s11	XXXX	ORG
dat1_d1148_p5_s26	Wisconsin	GPE
dat3_d28080_p40_s4	the_Fifth_Amendment	LAW
dat1_d5376_p2_s8	the_United_States	GPE
dat1_d8466_p15_s1	FFL	ORG
dat1_d10011_p156_s1	GUN_CREATED_CRIME	ORG
dat1_d1660_p25_s1	the_Second_Amendment	LAW
dat1_d9738_p35_s12	US	GPE
dat1_d4786_p1_s9	America	GPE
dat1_d10783_p47_s1	Lott	PERSON
dat1_d1078_p1_s53	Second_Amendment	LAW
dat1_d10003_p29_s19	the_Second_Amendment	LAW
dat1_d10149_p113_s17	63%	PERCENT
dat3_d28080_p503_s5	AP	ORG
dat1_d9330_p9_s17	The_US_Curcuit_Court	ORG
dat1_d10474_p1_s5	Mexico	GPE
dat1_d9270_p73_s3	Lott	PERSON
dat1_d623_p29_s7	Notice	ORG
dat1_d2725_p10_s135	the_Second_Amendment	LAW
dat1_d8008_p28_s2	NATO	ORG
dat1_d9820_p23_s1	the_Second_Amendment	LAW
dat1_d10735_p35_s15	Amendment	PRODUCT
dat1_d7840_p37_s4	Tim	PERSON
dat1_d9827_p28_s3	Galileo	PRODUCT
dat1_d1078_p1_s53	U.S._Supreme_Court	ORG
dat1_d9099_p14_s2	England	GPE
dat1_d6651_p8_s44	NEVER	ORG
dat1_d10060_p82_s21	Constitution	LAW
dat1_d623_p75_s15	D.C.	GPE
dat1_d9805_p1_s0	Texas	GPE
dat1_d8858_p211_s6	Galileo	PRODUCT
dat1_d9955_p108_s11	Canada	GPE
dat1_d2725_p8_s12	the_National_Guard	ORG
dat1_d10060_p82_s21	Liberal	ORG
dat1_d1660_p25_s1	The_Second_Amendment	LAW
dat1_d10057_p57_s1	the_Second_Amendment	LAW
dat1_d6116_p12_s1	America	GPE
dat1_d9463_p12_s4	D.C.	GPE
dat1_d296_p4_s2	over_50%	PERCENT
dat1_d10445_p2_s19	the_Second_Amendment	LAW
dat1_d5349_p29_s14	the_Constitution	LAW
dat1_d9100_p1_s25	XXXX	ORG
dat1_d9820_p23_s1	The_Second_Amendment	LAW
dat1_d9330_p9_s17	the_Supreme_Court	ORG
dat1_d9394_p179_s4	New_Orleans	GPE
dat1_d6455_p22_s6	State	ORG
dat2_d3936_p11_s2	zones	PERSON
dat1_d669_p46_s10	Second_Amendment	LAW
dat1_d1148_p5_s26	Illinois	GPE
dat3_d25130_p82_s2	The_Second_Amendment_to_the_Constitution_of	LAW
dat1_d8329_p84_s1	US	GPE
dat1_d10351_p11_s1	Galileo	PRODUCT
dat1_d9259_p15_s0	US	GPE
dat1_d296_p62_s5	Notice	ORG
dat1_d8391_p43_s0		ORG
dat1_d5818_p1_s5		ORG
dat1_d10003_p29_s19	Laws	PERSON
dat1_d8478_p16_s4	State	ORG
dat1_d9054_p1_s5	America	GPE
dat1_d7482_p18_s9	Galileo	PRODUCT
dat1_d8977_p15_s22	Georgia	GPE
dat1_d10662_p87_s4	John_Ashcroft	PERSON
dat3_d25130_p82_s2	Militia	PERSON
dat1_d10154_p50_s1	Founders	ORG
dat3_d28080_p215_s0	Galileo	PRODUCT
dat1_d9014_p52_s1	the_Second_Amendment	LAW
dat1_d8035_p75_s0	Washington	GPE
dat1_d10154_p11_s42	the_Second_Amendment	LAW
dat1_d4400_p390_s3	State	ORG
dat1_d10662_p87_s4	Chicago	GPE
dat1_d10847_p5_s359	the_Firearm_Owners_Protection_Act	ORG
dat1_d1131_p135_s9	Galileo	PRODUCT
dat1_d8168_p161_s20	ATF	ORG
dat1_d2725_p10_s135	Second_Amendment	LAW
dat1_d185_p26_s8	America	GPE
dat1_d9403_p24_s20	UK	GPE
dat1_d8089_p15_s9	Australia	GPE
dat1_d10445_p2_s19	Emerson	ORG
dat1_d10011_p173_s4	Gun_Control	ORG
dat1_d10237_p10_s55	Militia	GPE
dat1_d1461_p8_s9	the_Second_Amendment	LAW
dat1_d764_p122_s12	the_Militia_Act	LAW
dat1_d9320_p98_s6	US	GPE
dat1_d10011_p173_s4	U.S.	GPE
dat2_d2280_p22_s0	the_National_Guard	ORG
dat1_d8008_p28_s2	Galileo	PRODUCT
dat1_d9394_p179_s4	Police	PERSON
dat1_d10759_p58_s4	Founders	ORG
dat1_d10817_p64_s9	2nd_Amendment	LAW
dat1_d8858_p188_s8	the_United_States	GPE
dat1_d8541_p6_s2	England	GPE
dat1_d2927_p12_s28	the_Constitution	LAW
dat3_d25130_p82_s2	the_United_States_America	GPE
dat1_d589_p67_s2	Constitution	LAW
dat1_d764_p36_s6	the_Second_Amendment	LAW
dat3_d28080_p179_s1	Second_Amendment	LAW
dat1_d4813_p3_s2	UK	GPE
dat1_d10154_p1_s124	the_Second_Amendment	LAW
dat1_d9037_p36_s7	the_Supreme_Court	ORG
dat1_d9979_p25_s1	D.C.	GPE
dat3_d25130_p16_s5	US	GPE
dat1_d10817_p64_s9	the_Militia_Act	LAW
dat1_d9955_p108_s11	USA	GPE
dat1_d8858_p86_s8	Assault_Weapons	PERSON
dat1_d1168_p22_s28	GUN_CREATED_CRIME	ORG
dat1_d7997_p21_s4	The_Second_Amendment	LAW
dat1_d10145_p1_s1	the_Second_Amendment	LAW
dat1_d7780_p112_s1	Australia	GPE
dat1_d9820_p69_s2	the_Constitution	LAW
dat1_d10662_p351_s38	Bear_Arms	ORG
dat1_d9496_p61_s1	the_Federal_Second_Amendment	LAW
dat1_d907_p4_s0	USA	GPE
dat1_d6509_p2_s3	The_Second_Amendment	LAW
dat1_d4400_p204_s4	Gun	ORG
dat3_d28080_p177_s4	2nd_Amendment	LAW
dat1_d10199_p260_s13	American	NORP
dat3_d28080_p234_s1	MILITIAS	ORG
dat1_d48_p50_s6	the_Supreme_Court	ORG
dat1_d9841_p34_s13	Militia	GPE
dat1_d10662_p87_s4	U.S._Supreme_Court	ORG
dat1_d1461_p8_s9	Court	ORG
dat3_d25130_p38_s9	Militia	PERSON
dat1_d1660_p29_s16	Miller	PERSON
dat1_d1300_p6_s5	U.S.	GPE
dat1_d669_p46_s10	US	GPE
dat1_d173_p98_s4	Notice	ORG
dat1_d764_p1_s6	the_Federal_Second_Amendment	LAW
dat3_d12361_p76_s3	England	GPE
dat1_d9059_p27_s13	5th_Amendment	LAW
dat1_d1660_p29_s16	The_Second_Amendment	WORK_OF_ART
dat1_d10441_p8_s29	British	NORP
dat3_d28080_p190_s3	US	GPE
dat1_d9037_p261_s67	Capital	LOC
dat3_d25130_p34_s15	DC	GPE
dat1_d9803_p13_s7	USA	GPE
dat1_d1660_p29_s16	the_Second_Amendment	LAW
dat1_d9009_p99_s7	Southwest	LOC
dat1_d1461_p45_s12	Miller	PERSON
dat3_d20890_p24_s0	the_Fifth_Amendment	LAW
dat3_d28080_p234_s1	the_Supreme_Court	ORG
dat1_d11028_p212_s4	the_Firearm_Owners_Protection_Act	ORG
dat1_d10003_p29_s19	Galileo	PRODUCT
dat1_d565_p24_s17	al	PERSON
dat1_d1660_p77_s4	the_2nd_Amendment	LAW
dat1_d1660_p77_s4	PURPOSE	ORG
dat1_d4400_p26_s8	US	GPE
dat1_d10199_p122_s1	the_Safe_City_Project	ORG
dat1_d969_p11_s17	the_Second_Amendment	LAW
dat1_d2606_p2_s2	The_US_Curcuit_Court	ORG
dat1_d5818_p1_s5	NEVER	ORG
dat3_d7543_p30_s0	the_Brady_Law	LAW
dat3_d25130_p82_s2	Arms	PERSON
dat1_d10199_p79_s8	Amendment	PRODUCT
dat3_d37823_p93_s112	England	GPE
dat1_d8701_p45_s1	Handgun_Control,_Inc.	ORG
dat3_d28080_p234_s1	the_National_Guard	ORG
dat1_d2927_p12_s28	Second_Amendment	LAW
dat1_d296_p77_s11	NRA	ORG
dat1_d9224_p36_s4	anti_Second_Amendment	LAW
dat1_d1148_p5_s26	NRA	ORG
dat1_d660_p10_s1	the_Supreme_Court	ORG
dat1_d7929_p1_s15	Georgia	GPE
dat1_d2046_p4_s2	DC	GPE
dat1_d10098_p145_s1	the_Second_Amendment	LAW
dat1_d6651_p7_s46	the_Supreme_Court	ORG
dat1_d10199_p260_s6	the_Second_Amendment	LAW
dat1_d7651_p110_s2	the_Brady_Law	LAW
dat1_d8858_p86_s8	Article_II	LAW
dat1_d2725_p8_s12	The_Second_Amendment_to_the_Constitution_of	LAW
dat1_d10199_p79_s8	the_Second_Amendment	LAW
dat1_d8858_p170_s6	California	GPE
dat1_d1660_p25_s1	the_National_Guard	ORG
dat2_d2280_p1_s0	Second_Amendment	LAW
dat1_d8654_p44_s28	50%	PERCENT
dat1_d6753_p71_s2	Constitution	LAW
dat1_d8004_p76_s10	the_Supreme_Court	ORG
dat1_d673_p1_s3	Sarah_Brady	PERSON
dat1_d10629_p3_s2	America	GPE
dat1_d7929_p95_s0	England	GPE
dat1_d8035_p69_s0	Laws_and_Although	WORK_OF_ART
dat1_d10445_p2_s19	Galileo	PRODUCT
dat1_d1103_p23_s34	The_Miller_Court	ORG
dat1_d6125_p1_s76	Armaguard	PERSON
dat1_d9513_p23_s22	the_Militia_Act	LAW
dat1_d10474_p1_s5	Brady	PERSON
dat3_d28080_p190_s3	the_Firearm_Owners_Protection_Act	ORG
dat1_d9054_p22_s8	the_Second_Amendment	LAW
dat1_d185_p26_s8	D.C.	GPE
dat1_d1103_p15_s1	the_Second_Amendment	LAW
dat1_d8004_p20_s0	the_Second_Amendment	LAW
dat1_d4400_p262_s10	Crash	PERSON
dat1_d10445_p2_s19	Constitution	LAW
dat1_d8105_p68_s8	the_Second_Amendment	LAW
dat1_d9099_p14_s87	Arms	PERSON
dat1_d9513_p23_s22	2nd_Amendment	LAW
dat1_d8636_p72_s18	U.S.	GPE
dat3_d25130_p34_s32	Cleveland	GPE
dat1_d407_p5_s5	England	GPE
dat1_d9100_p1_s4	GUN_CREATED_CRIME	ORG
dat1_d10759_p58_s4	the_Second_Amendment	LAW
dat1_d10662_p334_s15	defunct	ORG
dat3_d7543_p30_s0	Background	ORG
dat1_d9559_p18_s2	ATF	ORG
dat1_d4851_p7_s5	Background	ORG
dat1_d10133_p45_s7	Constitution	LAW
dat1_d10403_p408_s3	Arms	PERSON
dat1_d10376_p18_s1	the_Second_Amendment	LAW
dat1_d7840_p3_s9	US	GPE
dat1_d185_p26_s9	US	GPE
dat2_d991_p15_s0	Second_Amendment	LAW
dat1_d9009_p110_s2	Americans	NORP
dat1_d7507_p84_s5	US	GPE
dat1_d2357_p43_s30	Gun_Control	ORG
dat1_d9919_p3_s1	the_Brady_Law	LAW
dat1_d9345_p18_s0	MAIN	ORG
dat1_d8329_p118_s9	ATF	ORG
dat1_d7780_p115_s5	British	NORP
dat1_d9820_p23_s1	the_Supreme_Court	ORG
dat1_d10133_p10_s6	the_Second_Amendment	LAW
dat1_d10133_p10_s6	the_Supreme_Court	ORG
dat1_d8182_p118_s1	Constitution	LAW
dat1_d1103_p15_s1	Arms	PERSON
dat1_d9211_p29_s1	Federalist	NORP
dat1_d9009_p36_s2	Constitution	LAW
dat1_d8858_p211_s6	Constitution	LAW
dat1_d10662_p81_s0	Love	PERSON
dat1_d8168_p161_s20	Notice	ORG
dat1_d1103_p30_s4	Mexico	GPE
dat1_d8004_p76_s10	the_Second_Amendment	LAW
dat1_d7997_p21_s4	the_Second_Amendment	LAW
dat1_d7651_p110_s2	GUN_CREATED_CRIME	ORG
dat1_d296_p17_s11	D.C.	GPE
dat1_d10817_p43_s118	the_United_States_America	GPE
dat1_d5817_p7_s7	the_XIVth_Amendment	LAW
dat1_d669_p24_s11	the_Constitutions_of_Virginia	ORG
dat1_d8182_p287_s18	UK	GPE
dat1_d185_p26_s8	the_Second_Amendment	LAW
dat1_d7507_p32_s1	US	GPE
dat1_d9496_p61_s1	NAME	ORG
dat1_d10662_p87_s4	Americans	NORP
dat1_d9321_p1_s12	U.S._Supreme_Court	ORG
dat1_d9009_p99_s7	Mexico	GPE
dat3_d11417_p1_s1	U.S.	GPE
dat1_d1789_p5_s4	England	GPE
dat1_d4400_p44_s15	Galileo	PRODUCT
dat3_d20890_p24_s0	Japan	GPE
dat1_d1461_p45_s12	Second_Amendment	LAW
dat1_d975_p17_s4	The_Second_Amendment_to_the_Constitution_of	LAW
dat1_d975_p17_s4	State	ORG
dat1_d9513_p23_s22	Militia	GPE
dat1_d173_p106_s54	California	GPE
dat1_d10098_p170_s2	the_NICS_Improvement_Act	LAW
dat1_d969_p11_s17	Arms	PERSON
dat3_d28080_p179_s1	Australia	GPE
