dat1_d5572_p255_s6
dat1_d3065_p23_s1
dat3_d22346_p25_s34
dat1_d4690_p99_s0
dat1_d4690_p119_s11
dat1_d3186_p17_s1
dat1_d3271_p88_s1
dat3_d28050_p114_s1
dat3_d22346_p10_s3
dat3_d8200_p20_s2
dat1_d5065_p1_s4
dat3_d13175_p11_s0
dat1_d7933_p187_s0
dat3_d28237_p2_s0
dat1_d1676_p44_s2
dat3_d32744_p9_s8
dat3_d14510_p64_s1
dat3_d32744_p28_s1
dat3_d14510_p8_s2
dat1_d5572_p269_s21
dat3_d30697_p10_s16
dat3_d25683_p84_s11
dat3_d25683_p53_s23
dat3_d28050_p7_s1
dat1_d5572_p181_s3
dat3_d30812_p74_s7
dat1_d5572_p188_s3
dat3_d25683_p86_s7
dat3_d28050_p188_s8
dat1_d2104_p48_s5
dat3_d15556_p14_s3
dat3_d13175_p14_s4
dat1_d5065_p1_s31
dat3_d14127_p79_s4
dat1_d6937_p85_s2
dat3_d14510_p20_s5
dat3_d31664_p38_s4
dat3_d28050_p195_s5
dat3_d28237_p29_s1
dat1_d17_p7_s8
dat1_d7933_p31_s7
dat3_d28050_p208_s9
dat3_d28050_p141_s2
dat1_d5572_p302_s0
dat3_d8212_p12_s0
dat3_d28050_p123_s0
dat1_d2652_p31_s7
dat3_d33045_p38_s21
dat3_d31664_p54_s1
dat3_d30812_p18_s2
dat3_d28050_p66_s0
dat3_d25683_p84_s4
dat3_d25683_p7_s27
dat3_d25683_p86_s31
dat1_d5572_p304_s5
dat1_d17_p14_s4
dat1_d823_p9_s8
dat1_d2358_p40_s1
dat3_d33045_p23_s1
dat1_d2659_p39_s0
dat3_d31664_p18_s3
dat3_d25683_p67_s12
dat3_d30812_p79_s0
dat1_d2104_p55_s8
dat3_d25683_p53_s22
dat3_d33045_p37_s14
dat1_d4774_p77_s4
dat3_d28050_p210_s0
dat1_d823_p9_s1
dat1_d1676_p16_s0
dat1_d4756_p9_s25
dat1_d373_p30_s0
dat1_d3271_p69_s7
dat3_d25683_p36_s5
dat1_d2652_p30_s9
dat1_d4690_p119_s34
dat1_d823_p36_s34
dat1_d3271_p118_s4
dat1_d17_p4_s9
dat1_d5572_p225_s1
dat1_d17_p130_s1
dat1_d373_p19_s1
dat1_d3271_p52_s8
dat3_d14127_p89_s13
dat3_d13526_p22_s0
dat3_d18153_p52_s2
dat1_d4690_p47_s3
dat1_d5572_p222_s10
dat1_d1128_p60_s11
dat3_d28050_p102_s0
dat1_d2652_p12_s5
dat1_d2104_p13_s2
dat1_d3065_p88_s5
dat3_d18153_p54_s2
dat3_d32744_p41_s6
dat1_d5572_p183_s1
dat3_d33045_p30_s12
dat1_d5572_p145_s7
dat1_d823_p12_s1
dat1_d5572_p265_s1
dat3_d28050_p86_s1
dat3_d22346_p25_s32
dat3_d13293_p12_s2
dat3_d25683_p42_s15
dat3_d31664_p48_s0
dat3_d22346_p17_s0
dat1_d373_p44_s18
dat1_d5572_p251_s0
dat3_d22346_p20_s0
dat3_d31664_p27_s3
dat3_d33045_p88_s5
dat3_d31664_p65_s0
dat1_d7933_p11_s0
dat1_d17_p131_s0
dat3_d28050_p151_s11
dat1_d373_p15_s0
dat3_d30812_p111_s0
dat1_d4756_p8_s11
dat3_d32744_p26_s4
dat3_d31664_p47_s4
dat1_d4690_p115_s0
dat1_d4690_p62_s9
dat3_d31664_p25_s3
dat3_d13175_p9_s0
dat1_d17_p25_s5
dat3_d12024_p1_s1
dat1_d1128_p31_s1
dat1_d4756_p60_s6
dat3_d22346_p13_s0
dat3_d28050_p37_s9
dat1_d4690_p185_s27
dat1_d7933_p74_s1
dat1_d4756_p18_s1
dat1_d2652_p16_s0
dat3_d33045_p75_s2
dat1_d17_p33_s16
dat3_d28050_p170_s1
dat3_d36893_p31_s5
dat3_d33642_p1_s0
dat1_d6937_p76_s0
dat3_d31664_p48_s1
dat3_d25683_p67_s1
dat1_d4774_p8_s11
dat3_d28050_p23_s0
dat3_d31664_p24_s1
dat1_d5572_p36_s19
dat3_d14127_p30_s0
dat1_d17_p35_s28
dat1_d7933_p117_s0
dat1_d4690_p111_s0
dat3_d28050_p213_s0
dat3_d33045_p60_s0
dat3_d14127_p88_s10
dat1_d7933_p11_s21
dat1_d5572_p255_s1
dat3_d25683_p7_s28
dat1_d5572_p114_s3
dat3_d31664_p56_s13
dat3_d18153_p39_s0
dat1_d5572_p263_s5
dat1_d1676_p80_s33
dat1_d4756_p62_s15
dat3_d14127_p60_s30
dat3_d28050_p34_s1
dat3_d8212_p20_s0
dat3_d25683_p87_s31
dat1_d107_p6_s18
dat3_d15556_p3_s2
dat1_d2652_p10_s1
dat3_d28050_p45_s0
dat1_d5572_p95_s2
dat3_d14127_p88_s14
dat3_d28050_p23_s2
dat1_d3065_p94_s0
dat3_d14127_p60_s27
dat3_d30812_p101_s3
dat1_d5304_p7_s1
dat1_d4690_p44_s0
dat1_d3271_p27_s5
dat3_d32744_p1_s0
dat1_d17_p72_s2
dat1_d5572_p86_s0
dat3_d28050_p203_s19
dat3_d14510_p20_s13
dat1_d4774_p13_s1
dat1_d4690_p111_s2
dat3_d31664_p16_s4
dat3_d25683_p104_s2
dat1_d6937_p75_s0
dat1_d5572_p226_s0
dat3_d28050_p203_s0
dat1_d17_p122_s1
dat1_d5572_p219_s8
dat1_d1676_p90_s8
dat1_d4690_p54_s5
dat3_d8200_p20_s1
dat1_d373_p3_s0
dat3_d25683_p88_s27
dat1_d5572_p39_s16
dat1_d9872_p23_s15
dat1_d3065_p68_s7
dat1_d1128_p40_s0
dat1_d7933_p207_s17
dat3_d28050_p216_s1
dat1_d3065_p93_s2
dat1_d4690_p32_s17
dat1_d5572_p251_s8
dat1_d1676_p45_s0
dat3_d15556_p15_s9
dat1_d5572_p70_s0
dat1_d1128_p16_s3
dat1_d7933_p90_s2
dat3_d31664_p25_s2
dat1_d373_p28_s3
dat1_d4690_p88_s3
dat3_d32744_p35_s0
dat1_d823_p16_s5
dat3_d33045_p30_s8
dat3_d12024_p4_s3
dat1_d17_p32_s36
dat1_d5572_p287_s7
dat1_d1676_p49_s2
dat3_d28050_p9_s1
dat3_d15556_p6_s3
dat1_d17_p22_s11
dat3_d30812_p93_s0
dat1_d7933_p244_s6
dat1_d4774_p1_s1
dat3_d14127_p74_s3
dat1_d1128_p23_s2
dat1_d2659_p20_s6
dat1_d3065_p52_s0
dat1_d7933_p92_s6
dat1_d6937_p5_s6
dat3_d18153_p9_s1
dat3_d25683_p77_s0
dat3_d8212_p17_s1
dat3_d30697_p32_s0
dat3_d28050_p169_s0
dat1_d1128_p34_s1
dat1_d5572_p181_s1
dat1_d5304_p14_s3
dat3_d28050_p215_s2
dat3_d31664_p23_s10
dat3_d33642_p37_s4
dat1_d5572_p192_s1
dat1_d5572_p244_s2
dat3_d31664_p56_s14
dat3_d28050_p140_s2
dat1_d5572_p85_s28
dat1_d5572_p266_s7
dat1_d4774_p44_s14
dat3_d14127_p39_s4
dat1_d5572_p36_s27
dat3_d25683_p86_s3
dat1_d4756_p4_s10
dat1_d7933_p43_s0
dat1_d5572_p234_s2
dat1_d4774_p98_s11
dat3_d25683_p90_s33
dat1_d373_p28_s2
dat1_d17_p136_s1
dat3_d25683_p7_s22
dat1_d7933_p2_s5
dat1_d17_p127_s1
dat1_d17_p83_s3
dat3_d14127_p43_s1
dat1_d4690_p62_s13
dat1_d4690_p76_s3
dat3_d30697_p19_s2
dat3_d25683_p110_s0
dat1_d7933_p126_s5
dat3_d18153_p41_s0
dat1_d5572_p271_s16
dat1_d4690_p18_s2
dat3_d28050_p46_s5
dat3_d13175_p1_s4
dat1_d5572_p97_s2
dat1_d4690_p152_s2
dat3_d28050_p68_s7
dat1_d2104_p33_s1
dat3_d18153_p39_s4
dat3_d18153_p35_s6
dat3_d25683_p81_s0
dat3_d14510_p11_s1
dat3_d30812_p69_s0
dat3_d28050_p30_s1
dat1_d2652_p26_s4
dat1_d17_p131_s3
dat1_d2104_p34_s0
dat3_d33642_p21_s0
dat1_d5572_p266_s22
dat1_d5572_p248_s3
dat3_d20886_p23_s3
dat3_d33642_p1_s1
dat1_d3065_p76_s2
dat1_d17_p64_s5
dat3_d33045_p13_s3
dat3_d30697_p29_s3
dat1_d4774_p58_s5
dat1_d4690_p42_s3
dat1_d373_p5_s12
dat1_d823_p37_s17
dat3_d25683_p112_s6
dat1_d17_p137_s23
dat3_d31664_p30_s1
dat1_d5572_p216_s2
dat1_d1676_p35_s4
dat1_d5572_p201_s3
dat1_d7933_p188_s3
dat1_d5065_p1_s16
dat1_d4756_p62_s49
dat3_d32744_p10_s3
dat3_d25683_p41_s7
dat3_d25683_p91_s23
dat1_d7933_p294_s3
dat1_d2104_p7_s4
dat3_d25683_p20_s0
dat3_d12024_p20_s11
dat3_d30812_p108_s0
dat1_d5572_p219_s9
dat3_d25683_p103_s0
dat1_d5572_p175_s3
dat1_d5572_p248_s9
dat3_d8212_p17_s2
dat1_d4690_p204_s10
dat1_d5572_p184_s24
dat1_d4690_p59_s12
dat3_d8212_p3_s1
dat1_d107_p2_s8
dat3_d14127_p80_s0
dat3_d22346_p19_s0
dat3_d31664_p46_s0
dat3_d13526_p15_s0
dat3_d14127_p79_s6
dat3_d30812_p114_s0
dat1_d3186_p95_s26
dat1_d2659_p31_s4
dat1_d4690_p202_s0
dat1_d2358_p1_s1
dat3_d22346_p25_s38
dat3_d30697_p19_s4
dat1_d5572_p140_s0
dat1_d5572_p188_s2
dat1_d4756_p96_s1
dat3_d18153_p41_s3
dat1_d2104_p66_s1
dat1_d6904_p7_s10
dat3_d28050_p200_s0
dat1_d373_p11_s1
dat1_d7933_p56_s1
dat1_d4690_p47_s0
dat1_d4690_p147_s1
dat1_d7933_p263_s6
dat1_d5572_p268_s35
dat1_d7933_p320_s0
dat1_d373_p5_s28
dat3_d15556_p13_s1
dat1_d4756_p7_s9
dat3_d28050_p8_s1
dat3_d36893_p1_s0
dat1_d17_p63_s13
dat1_d3065_p74_s16
dat3_d25683_p58_s0
dat3_d14510_p8_s11
dat1_d4690_p107_s8
dat3_d7836_p1_s0
dat3_d28050_p99_s2
dat1_d4756_p62_s59
dat1_d6937_p32_s2
dat1_d4756_p59_s0
dat3_d14127_p75_s4
dat3_d22346_p7_s0
dat1_d4690_p18_s3
dat1_d5572_p200_s11
dat1_d4690_p82_s14
dat1_d5572_p268_s30
dat3_d22346_p25_s22
dat1_d3271_p42_s7
dat1_d3065_p9_s2
dat3_d14510_p52_s6
dat3_d14127_p53_s3
dat1_d7933_p314_s2
dat1_d5572_p38_s4
dat1_d4756_p39_s1
dat3_d25683_p50_s1
dat1_d5572_p145_s9
dat1_d7933_p185_s5
dat1_d5572_p196_s6
dat1_d17_p26_s9
dat3_d30697_p8_s23
dat1_d3186_p94_s2
dat1_d7933_p300_s8
dat1_d4690_p18_s5
dat1_d6937_p33_s2
dat1_d823_p16_s10
dat3_d22346_p9_s8
dat1_d6937_p24_s1
dat1_d5572_p142_s5
dat3_d28050_p196_s0
dat3_d28050_p64_s2
dat1_d4690_p32_s12
dat1_d7933_p224_s2
dat3_d28050_p113_s1
dat1_d107_p13_s7
dat1_d7933_p12_s11
dat3_d18153_p16_s1
dat1_d17_p33_s17
dat3_d32744_p6_s0
dat1_d4690_p87_s9
dat1_d4756_p5_s3
dat3_d13293_p13_s6
dat3_d18153_p20_s9
dat1_d5572_p266_s9
dat3_d31664_p27_s6
dat1_d4690_p185_s9
dat3_d28050_p39_s6
dat1_d5572_p255_s7
dat1_d373_p44_s16
dat3_d28237_p10_s9
dat1_d823_p34_s8
dat1_d823_p34_s6
dat3_d30697_p27_s1
dat1_d7739_p15_s7
dat1_d7933_p2_s6
dat3_d12024_p14_s0
dat3_d25683_p40_s7
dat3_d30697_p23_s5
dat3_d28050_p70_s1
dat1_d5572_p248_s7
dat1_d6937_p36_s1
dat1_d3271_p20_s3
dat1_d373_p37_s2
dat3_d28050_p209_s16
dat1_d7933_p263_s2
dat1_d5572_p261_s4
dat1_d4690_p78_s3
dat3_d32744_p21_s1
dat1_d3065_p5_s5
dat3_d31664_p39_s1
dat1_d5572_p256_s13
dat1_d7933_p12_s9
dat1_d17_p124_s0
dat3_d14510_p52_s8
dat1_d7933_p31_s3
dat3_d30812_p112_s0
dat3_d25683_p85_s13
dat3_d30812_p87_s5
dat3_d14127_p72_s0
dat3_d28237_p10_s10
dat1_d4690_p20_s13
dat3_d31664_p47_s18
dat3_d14510_p54_s49
dat1_d1676_p78_s12
dat3_d30812_p20_s7
dat3_d31664_p25_s0
dat1_d4690_p35_s6
dat3_d13293_p16_s0
dat3_d28050_p146_s4
dat3_d28050_p115_s0
dat1_d2104_p64_s1
dat3_d25683_p15_s5
dat3_d30812_p74_s8
dat3_d28050_p99_s0
dat3_d28050_p77_s4
dat3_d18153_p55_s1
dat1_d5572_p221_s3
dat1_d17_p44_s5
dat1_d4690_p50_s0
dat3_d20886_p4_s1
dat3_d30812_p83_s2
dat1_d4690_p119_s3
dat3_d25683_p99_s0
dat1_d4690_p54_s1
dat1_d17_p128_s3
dat3_d28050_p93_s0
dat3_d28050_p105_s1
dat1_d5572_p301_s18
dat3_d14127_p85_s4
dat1_d6937_p31_s0
dat3_d14127_p30_s6
dat1_d17_p121_s3
dat1_d5572_p51_s22
dat3_d33045_p90_s0
dat3_d14127_p91_s6
dat1_d7933_p240_s6
dat1_d7933_p154_s0
dat1_d5572_p184_s23
dat3_d14127_p60_s33
dat3_d30697_p17_s0
dat3_d28050_p64_s3
dat3_d28237_p8_s7
dat3_d18153_p51_s2
dat1_d17_p64_s2
dat1_d3186_p21_s3
dat3_d25683_p102_s7
dat1_d3065_p67_s0
dat3_d33045_p71_s0
dat1_d4690_p185_s39
dat3_d18153_p16_s2
dat1_d5572_p160_s5
dat3_d30812_p16_s14
dat1_d17_p23_s1
dat3_d33045_p63_s3
dat1_d3065_p107_s1
dat1_d1676_p22_s7
dat3_d14127_p49_s10
dat3_d22346_p2_s3
dat1_d7933_p31_s9
dat1_d5304_p6_s1
dat1_d7933_p40_s1
dat1_d4690_p149_s2
dat1_d5572_p275_s28
dat3_d14127_p88_s5
dat3_d30812_p48_s1
dat1_d6937_p28_s1
dat3_d8200_p20_s0
dat1_d7933_p250_s0
dat3_d33045_p35_s4
dat3_d28050_p204_s35
dat3_d18153_p55_s9
dat1_d5572_p154_s5
dat3_d30812_p9_s0
dat1_d5572_p130_s24
dat3_d18153_p22_s10
dat3_d30812_p113_s0
dat1_d7933_p297_s20
dat3_d28050_p37_s26
dat1_d2652_p25_s2
dat3_d28050_p207_s18
dat1_d823_p3_s4
dat3_d14127_p49_s4
dat3_d25683_p58_s4
dat1_d17_p63_s8
dat1_d5572_p45_s3
dat3_d8212_p13_s0
dat3_d31664_p19_s4
dat1_d2104_p16_s3
dat3_d14127_p36_s15
dat3_d32744_p24_s8
dat1_d2104_p78_s13
dat3_d28050_p30_s28
dat1_d4756_p11_s4
dat1_d4756_p13_s1
dat1_d4690_p54_s7
dat1_d4690_p55_s10
dat1_d107_p13_s60
dat1_d5572_p33_s2
dat1_d5572_p39_s19
dat3_d28050_p37_s22
dat3_d25683_p90_s2
dat3_d30812_p36_s0
dat3_d28050_p116_s0
dat1_d1676_p59_s6
dat1_d5065_p1_s5
dat1_d5572_p4_s0
dat3_d20886_p3_s4
dat3_d28050_p176_s0
dat1_d5572_p216_s9
dat1_d17_p26_s0
dat3_d14127_p74_s16
dat1_d2104_p51_s9
dat3_d20886_p23_s0
dat3_d7836_p19_s0
dat3_d33045_p77_s0
dat3_d31664_p40_s0
dat1_d4690_p12_s0
dat1_d17_p3_s0
dat1_d3186_p42_s6
dat3_d22346_p7_s1
dat3_d25683_p85_s14
dat3_d33045_p86_s2
dat1_d4690_p9_s4
dat1_d2104_p51_s5
dat1_d4690_p149_s7
dat3_d25683_p90_s1
dat3_d12024_p9_s0
dat3_d25683_p26_s0
dat1_d1676_p59_s23
dat1_d5065_p1_s22
dat3_d14127_p35_s7
dat3_d8212_p13_s8
dat3_d28050_p42_s0
dat1_d4690_p32_s1
dat3_d30812_p35_s0
dat1_d17_p126_s2
dat1_d7933_p62_s7
dat1_d373_p5_s26
dat3_d28050_p147_s18
dat1_d5572_p184_s3
dat3_d15556_p12_s2
dat1_d823_p13_s2
dat1_d4690_p4_s0
dat3_d15556_p15_s3
dat1_d1128_p3_s1
dat1_d7933_p252_s8
dat1_d4756_p34_s6
dat1_d5572_p230_s1
dat1_d1676_p22_s5
dat3_d25683_p67_s10
dat3_d28050_p204_s32
dat3_d18153_p42_s0
dat1_d4690_p32_s0
dat1_d3065_p108_s116
dat1_d5572_p48_s4
dat1_d4756_p7_s262
dat3_d14510_p59_s0
dat3_d18153_p17_s0
dat3_d14127_p33_s16
dat3_d28050_p121_s0
dat1_d5572_p188_s13
dat3_d30812_p92_s1
dat1_d5572_p164_s0
dat3_d30812_p33_s1
dat3_d28050_p113_s2
dat3_d32744_p11_s8
dat3_d8212_p16_s11
dat1_d3065_p23_s2
dat3_d31664_p17_s0
dat3_d30812_p46_s6
dat1_d4774_p4_s0
dat1_d5572_p270_s9
dat3_d32744_p5_s1
dat3_d25683_p62_s2
dat3_d8200_p11_s0
dat1_d7933_p25_s6
dat3_d14127_p31_s2
dat3_d25683_p83_s3
dat1_d5572_p186_s14
dat3_d28050_p26_s1
dat3_d8212_p4_s0
dat3_d33642_p37_s2
dat3_d18153_p11_s0
dat1_d2104_p30_s5
dat3_d36893_p35_s2
dat1_d6904_p13_s9
dat1_d373_p5_s2
dat1_d7933_p126_s3
dat3_d28050_p130_s0
dat3_d13175_p18_s3
dat1_d3065_p74_s12
dat1_d5572_p263_s7
dat3_d25683_p14_s2
dat1_d3065_p8_s2
dat1_d7933_p256_s2
dat1_d6937_p26_s1
dat1_d5572_p186_s15
dat1_d4774_p15_s0
dat1_d9676_p24_s2
dat1_d5572_p263_s6
dat1_d3065_p108_s60
dat3_d30697_p19_s0
dat1_d5572_p249_s9
dat3_d14510_p29_s2
dat3_d28050_p3_s4
dat3_d28050_p3_s5
dat1_d7933_p11_s19
dat3_d18153_p52_s1
dat3_d13526_p5_s0
dat1_d5572_p39_s14
dat1_d1676_p47_s1
dat3_d33045_p28_s2
dat3_d28050_p64_s9
dat1_d7933_p244_s5
dat3_d14127_p50_s2
dat3_d14127_p92_s17
dat3_d31664_p52_s6
dat1_d5572_p24_s1
dat3_d8212_p17_s0
dat1_d7933_p65_s8
dat1_d5572_p287_s2
dat1_d3065_p30_s2
dat3_d13526_p25_s1
dat1_d4774_p55_s24
dat1_d1128_p42_s1
dat1_d17_p108_s0
dat3_d28050_p203_s18
dat1_d1676_p21_s21
dat1_d3065_p107_s0
dat1_d3186_p61_s65
dat1_d5572_p177_s5
dat3_d8212_p5_s0
dat3_d31664_p9_s0
dat1_d2358_p5_s1
dat1_d7933_p310_s0
dat1_d823_p49_s0
dat1_d5572_p151_s5
dat1_d17_p132_s2
dat3_d14127_p60_s22
dat3_d28050_p36_s1
dat3_d14127_p107_s0
dat1_d1676_p10_s5
dat3_d31664_p61_s26
dat3_d28050_p1_s6
dat1_d7933_p292_s9
dat1_d4690_p199_s7
dat1_d17_p43_s0
dat1_d5572_p150_s1
dat1_d4690_p9_s3
dat1_d2659_p24_s3
dat1_d1128_p50_s0
dat3_d28050_p174_s0
dat1_d17_p92_s5
dat1_d5572_p259_s2
dat3_d30812_p97_s16
dat3_d14510_p55_s1
dat3_d31664_p49_s3
dat1_d4690_p88_s5
dat1_d5572_p260_s1
dat3_d31664_p51_s5
dat1_d5572_p265_s0
dat3_d28050_p20_s0
dat1_d3065_p23_s5
dat1_d1676_p26_s2
dat1_d5572_p175_s2
dat1_d5572_p39_s0
dat1_d4690_p127_s5
dat3_d28050_p64_s0
dat3_d25683_p35_s0
dat1_d6937_p63_s0
dat3_d31664_p61_s6
dat3_d30812_p22_s3
dat3_d31664_p53_s12
dat3_d31664_p18_s2
dat3_d22346_p30_s10
dat1_d373_p2_s5
dat1_d9676_p21_s1
dat3_d14510_p63_s0
dat3_d28050_p77_s2
dat1_d4690_p87_s16
dat1_d4690_p43_s11
dat1_d4756_p35_s7
dat3_d15556_p15_s8
dat3_d14510_p49_s0
dat1_d2104_p9_s9
dat1_d2652_p30_s7
dat3_d28050_p178_s0
dat3_d28050_p1_s1
dat1_d17_p92_s9
dat1_d5572_p196_s7
dat1_d6937_p80_s10
dat3_d22346_p25_s0
dat3_d7836_p11_s4
dat3_d25683_p11_s1
dat3_d28050_p68_s8
dat1_d5572_p292_s9
dat3_d14127_p76_s2
dat3_d32744_p25_s1
dat1_d4756_p68_s18
dat1_d7933_p263_s9
dat1_d17_p134_s4
dat1_d4774_p58_s3
dat1_d7933_p252_s2
dat1_d5572_p133_s40
dat3_d28237_p8_s5
dat3_d22346_p25_s10
dat1_d7933_p228_s5
dat3_d14127_p94_s5
dat1_d5572_p262_s6
dat1_d4690_p42_s8
dat3_d14127_p60_s24
dat1_d5572_p168_s7
dat3_d14127_p46_s2
dat1_d3065_p74_s0
dat1_d3271_p39_s3
dat3_d13293_p8_s3
dat1_d2358_p5_s0
dat1_d7933_p228_s9
dat1_d4690_p40_s3
dat1_d7933_p4_s1
dat1_d1128_p5_s0
dat3_d28050_p46_s3
dat1_d5572_p50_s26
dat1_d7933_p334_s0
dat1_d3186_p5_s0
dat1_d4756_p9_s1
dat1_d4756_p59_s5
dat3_d25683_p101_s14
dat1_d4756_p7_s22
dat3_d22346_p25_s3
dat3_d30697_p7_s2
dat3_d25683_p87_s24
dat3_d25683_p97_s2
dat3_d33045_p37_s42
dat1_d7933_p57_s2
dat1_d4774_p53_s9
dat3_d18153_p52_s0
dat1_d9676_p6_s1
dat1_d3186_p80_s7
dat3_d25683_p7_s5
dat3_d25683_p67_s0
dat3_d30697_p31_s0
dat3_d14127_p88_s13
dat3_d28050_p202_s25
dat1_d1676_p16_s6
dat1_d5304_p5_s9
dat3_d22346_p21_s0
dat1_d4756_p7_s63
dat1_d17_p128_s4
dat3_d25683_p36_s17
dat3_d28050_p109_s3
dat3_d33642_p20_s1
dat3_d33045_p68_s3
dat3_d20886_p1_s1
dat1_d4690_p139_s8
dat1_d5572_p255_s4
dat1_d4690_p147_s2
dat3_d14510_p24_s2
dat1_d1676_p72_s4
dat3_d28050_p84_s4
dat1_d373_p44_s14
dat1_d4756_p33_s0
dat3_d32744_p3_s0
dat3_d28050_p16_s7
dat3_d30812_p1_s2
dat3_d14510_p37_s13
dat3_d13293_p7_s1
dat1_d3065_p95_s0
dat3_d8212_p10_s0
dat1_d5572_p262_s18
dat3_d30812_p19_s3
dat3_d25683_p89_s25
dat3_d18153_p3_s5
dat1_d6937_p65_s0
dat1_d5572_p255_s5
dat1_d7933_p265_s3
dat1_d373_p1_s9
dat3_d14127_p92_s8
dat1_d1676_p89_s3
dat1_d17_p115_s0
dat1_d7933_p31_s5
dat1_d17_p128_s1
dat1_d6937_p29_s2
dat1_d17_p134_s2
dat1_d3065_p13_s0
dat3_d15556_p18_s3
dat3_d31664_p11_s2
dat1_d373_p5_s10
dat3_d25683_p85_s9
dat1_d7933_p252_s1
dat1_d4690_p138_s5
dat3_d32744_p7_s4
dat1_d7933_p2_s12
dat3_d14127_p74_s8
dat1_d3186_p8_s0
dat1_d4774_p32_s1
dat1_d4774_p100_s0
dat3_d28050_p207_s8
dat1_d1128_p23_s1
dat1_d4690_p90_s0
dat3_d32206_p20_s3
dat3_d28050_p184_s0
dat3_d13175_p2_s0
dat1_d4756_p7_s2
dat1_d17_p84_s0
dat3_d8212_p16_s4
dat1_d4756_p59_s7
dat3_d33045_p29_s7
dat3_d28050_p39_s7
dat3_d25683_p35_s14
dat3_d25683_p39_s10
dat3_d13175_p22_s0
dat3_d25683_p73_s3
dat3_d14127_p88_s4
dat3_d31664_p61_s20
dat3_d25683_p28_s1
dat3_d28050_p182_s1
dat1_d4690_p32_s18
dat3_d18153_p7_s0
dat3_d28050_p35_s0
dat1_d17_p116_s0
dat1_d2358_p17_s4
dat1_d373_p36_s8
dat1_d5065_p1_s6
dat1_d17_p135_s1
dat1_d373_p31_s3
dat1_d5572_p188_s0
dat3_d31664_p49_s21
dat3_d14127_p50_s1
dat3_d28050_p139_s0
dat1_d4690_p191_s5
dat1_d5572_p188_s11
dat3_d25683_p53_s11
dat1_d823_p13_s0
dat3_d28050_p84_s12
dat1_d4774_p42_s1
dat1_d6937_p62_s0
dat1_d7933_p259_s5
dat1_d373_p22_s2
dat3_d33045_p72_s1
dat1_d17_p32_s24
dat3_d13526_p8_s7
dat1_d5572_p136_s2
dat1_d5572_p33_s10
dat1_d1676_p5_s0
dat1_d823_p1_s6
dat3_d32744_p42_s2
dat3_d31664_p54_s26
dat1_d7933_p255_s2
dat1_d5572_p50_s1
dat1_d823_p8_s4
dat3_d8212_p21_s0
